<?xml version="1.0" encoding="utf-8"?>
<!-- Generator: Adobe Illustrator 19.0.0, SVG Export Plug-In . SVG Version: 6.00 Build 0)  -->
<svg xmlns="http://www.w3.org/2000/svg" xmlns:xlink="http://www.w3.org/1999/xlink" version="1.1" x="0px" y="0px" viewBox="0 0 730 380" enable-background="new 0 0 730 380" xml:space="preserve">
<g id="acces">
	<polygon id="Entree" fill="#FFFFFF" points="103.7,51.7 112.9,26.4 121.4,29.5 103.6,78.5 77.2,69 78.2,66.5 69.4,63.3 71,58.8    72.6,54.4 81.4,57.6 85.9,45.3 103.7,51.7  "/>
	<polygon id="Entree" fill="#FFFFFF" points="68.1,168.1 49.8,163.5 52.9,150.8 43.8,148.5 45,143.9 46.1,139.3 55.2,141.6    55.8,139 83,145.8 70.4,196.4 70.4,196.4 61.6,194.2 61.6,194.2  "/>
	<polygon id="Entree" fill="#FFFFFF" points="51.4,351.9 48.7,325.9 55.8,325.1 51.5,285.6 62.9,284.3 63,285.4 64.2,297.3    68,296.9 69.7,312.2 64,312.8 65.2,324 72.3,323.2 75.1,349.4  "/>
	<polygon id="Entree" fill="#FFFFFF" points="161.4,281 161.5,279.9 172.9,280.1 172.2,319.9 179.3,320 178.9,346.2 155.1,345.8    155.6,319.5 162.6,319.6 162.8,308.4 157.2,308.3 157.5,292.8 161.3,292.9  "/>
	<polygon id="Entree" fill="#FFFFFF" points="331.1,237.4 309.4,237.4 309.4,236.4 300.5,236.4 300.5,239.1 298.4,239.1    298.4,224.3 350.5,224.3 350.5,230.1 368.5,230.1 368.6,230.1 368.6,244.7 340.5,244.7 340.5,242.1 331.1,242.1  "/>
	<polygon id="Entree" fill="#FFFFFF" points="335.7,326.1 335.2,321.5 344.6,320.5 344.3,317.9 372.2,315 373.8,329.5    373.7,329.5 355.8,331.4 356.4,337.1 304.5,342.6 303,327.9 305.1,327.7 305.4,330.3 314.3,329.4 314.2,328.4  "/>
	<polygon fill="#FFFFFF" points="332.4,95.6 329.2,69.5 341.1,68.1 352.8,66.6 354.6,80.6 395.8,75.5 397.3,87.6  "/>
	<polygon fill="#FFFFFF" points="244.3,101 244.3,74.7 232.3,74.7 220.5,74.7 220.5,88.8 178.9,88.8 178.9,101  "/>
	<polygon id="entrée" fill="#FFFFFF" points="654.4,268.5 665.9,269.1 665.9,308 688.8,308 688.8,332.7 657.9,332.7    654.4,332.7  "/>
	<polygon id="entrée" fill="#FFFFFF" points="554.4,229.6 542.9,230.8 536.8,192.4 514.3,195.9 510.4,171.6 541,166.7 544.4,166.2     "/>
</g>
<g id="HOVER">
	<polygon id="C1-B4-0-73" fill="#DBDBDB" points="2.3,179.5 14.1,182.4 61.6,194.2 61.6,194.2 68.1,168.1 49.8,163.5 52.9,150.8    43.8,148.5 45,143.9 13.2,136 13.1,136 7.7,157.9 7.7,157.9  "/>
	<polygon id="C1-B4-0-72" fill="#A0A0A0" points="13.1,136 13.2,136 45,143.9 46.1,139.3 55.2,141.6 55.8,139 83,145.8    91.5,111.6 91.5,111.6 24.4,91.1 24.3,91.1 24.3,91.1 24.3,91.1 24.3,91.1 24.3,91.1 18.8,113.3 18.8,113.3  "/>
	<polygon id="C1-B4-0-71" fill="#DBDBDB" points="24.3,91.1 24.3,91.1 24.3,91.1 24.3,91.1 24.3,91.1 24.4,91.1 91.5,111.6    103.6,78.5 77.2,69 78.2,66.5 69.4,63.3 71,58.8 40.2,47.6 40.2,47.6 47.9,26.4 47.9,26.4 24.3,91.1 18.8,113.3 18.8,113.3  "/>
	<polygon id="C1-B4-0-70" fill="#A0A0A0" points="72.6,54.4 81.4,57.6 85.9,45.3 103.7,51.7 103.7,51.7 112.9,26.4 112.9,26.4    55.5,5.5 47.9,26.4 47.9,26.4 40.2,47.6 40.2,47.6 71,58.8  "/>
	<polygon id="C1-B3-0-59" points="4.4,302.9 10.1,356.4 51.4,351.9 48.7,325.9 55.8,325.1 51.5,285.6 27.5,288.2    3.1,290.8  " fill="#005785"/>
	<polygon id="C1-B3-0-58" points="63,285.4 64.2,297.3 68,296.9 69.7,312.2 64,312.8 65.2,324 72.3,323.2    75.1,349.4 114.9,345.1 112,279.1 91,281.3 63.6,284.3 63.7,285.3  " fill="#A0A0A0"/>
	<polygon id="C1-B3-0-57" points="114.9,345.1 115,345.1 155.1,345.8 155.6,319.5 162.6,319.6 162.8,308.4    157.2,308.3 157.5,292.8 161.3,292.9 161.4,281 160.7,280.9 160.7,279.9 133.1,279.4 112,279.1  " fill="#DBDBDB"/>
	<polygon id="C1-B3-0-56" points="179.3,320 178.9,346.2 220.5,346.9 221.4,293.2 221.6,281 197,280.5    172.9,280.1 172.2,319.9  " fill="#A0A0A0"/>
	<polygon id="C1-B2-0-44" points="319.9,372.9 377.7,366.8 373.8,329.5 373.7,329.5 355.8,331.4 356.4,337.1    304.5,342.6 305.5,352.1 307.9,374.2  " fill="#DBDBDB"/>
	<polygon id="C1-B2-0-43" points="305.4,330.3 314.3,329.4 314.2,328.4 335.7,326.1 335.2,321.5 344.6,320.5    344.3,317.9 372.2,315 368.6,279.9 298.4,283.6 300.8,306.5 303,327.9 305.1,327.7  " fill="#A0A0A0"/>
	<polygon id="C1-B2-0-42" points="368.6,279.9 368.6,244.7 340.5,244.7 340.5,242.1 331.1,242.1 331.1,237.4    309.4,237.4 309.4,236.4 300.5,236.4 300.5,239.1 298.4,239.1 298.4,260.6 298.4,283.6  " fill="#DBDBDB"/>
	<polygon id="C1-B2-0-41" points="368.6,192.5 310.5,192.5 298.4,192.5 298.4,214.7 298.4,224.3 350.5,224.3    350.5,230.1 368.5,230.1 368.6,230.1  " fill="#A0A0A0"/>
	<polygon id="C1-B1-0-30" points="220.5,74.7 220.5,88.8 178.9,88.8 178.9,47.1 178.9,35 202.5,35 220.5,35    220.5,66.5 232.3,66.5 232.3,74.7  " fill="#DBDBDB"/>
	<polygon id="C1-B1-0-29" points="244.3,101 244.3,74.7 232.3,74.7 232.3,66.5 220.5,66.5 220.5,35 244.3,35    266.3,35 274.7,35 284.5,35 288.5,101  " fill="#A0A0A0"/>
	<polygon id="C1-B1-0-28" points="332.4,95.6 329.2,69.5 341.1,68.1 340.1,59.9 351.8,58.5 348,27.2 324.3,30.1    302.5,32.8 294.2,33.8 284.5,35 288.5,101  " fill="#DBDBDB"/>
	<polygon id="C1-B1-0-27" points="352.8,66.6 354.6,80.6 395.8,75.5 390.7,34.2 389.3,22.1 365.8,25 348,27.2    351.8,58.5 340.1,59.9 341.1,68.1  " fill="#A0A0A0"/>
	<polygon id="C1-A2-0-16" points="618.4,293.4 618.4,296.3 618.4,307.6 618.4,313.3 618.2,317.7 617.7,327.7    616,358.6 615.3,372.7 640.5,371.3 643.4,371.2 654.7,370.6 656.2,370.5 657.9,370.6 657.9,332.7 654.4,332.7 654.4,268.5    631.7,267.3 618.4,266.6  " fill="#DBDBDB"/>
	<polygon id="C1-A2-0-15" points="657.9,370.6 662.5,370.8 673.8,371.4 681.2,371.8 691.2,372.3 712.3,373.4    724.7,374.1 724.7,347.3 724.7,347.3 724.7,346.6 688.8,346.6 688.8,332.7 657.9,332.7  " fill="#A0A0A0"/>
	<polygon id="C1-A2-0-14" points="702.6,269.4 699.7,269.5 688.4,270.1 686.9,270.2 680.6,269.9 669.3,269.3    665.9,269.1 665.9,308 688.8,308 688.8,332.7 688.8,346.6 724.7,346.6 724.7,333.1 724.7,327.5 724.9,323 725.4,313 727.1,282    727.8,268.1  " fill="#DBDBDB"/>
	<polygon id="C1-A1-0-03" points="535,129.3 530.4,129.8 519.1,131 511.8,131.7 501.8,132.8 480.8,135    468.5,136.3 472.7,162.7 472.7,162.7 472.8,163.5 508.3,157.9 510.4,171.6 541,166.7  " fill="#A0A0A0"/>
	<polygon id="C1-A1-0-02" points="506.7,236.3 509.5,235.7 520.6,233.3 522,233 528.3,232.4 539.6,231.2    542.9,230.8 536.8,192.4 514.3,195.9 510.4,171.6 508.3,157.9 472.8,163.5 474.9,176.8 475.8,182.4 476.2,186.8 477.3,196.8    480.5,227.6 482,241.5  " fill="#DBDBDB"/>
	<polygon id="C1-A1-0-01" points="586.1,199.4 585.6,196.5 583.8,185.4 582.9,179.8 582.5,175.3 581.4,165.4    578.2,134.6 576.7,120.6 552.1,125.9 549.2,126.5 538.1,128.8 536.7,129.1 535,129.3 541,166.7 544.4,166.2 554.4,229.6    577.1,227.2 590.2,225.8  " fill="#DBDBDB"/>
</g>
<g id="contours">
	<g id="Terrasse">
		<g>
			<path fill="#707E85" d="M56.4,7.4l63.2,23l-29.4,80.7l0,0.1l0,0.1l-20.8,83.3L4.1,178.4l21.6-86.8L56.4,7.4 M55.5,5.5L24.3,91.1     l-22,88.4l68.1,17l21.1-84.8l29.9-82.1L55.5,5.5L55.5,5.5z"/>
		</g>
	</g>
	<g id="Big_Contour">
		<g>
			<path fill="#707E85" d="M69,14.1l48,17.5l-28.7,78.8l-0.1,0.2l0,0.2l-20.3,81.4l-49.5-12.3l4.5-18.1l0.8-3.4l-3.4-0.8l-8.4-2.1     l4-15.9l8.4,2.1l3.4,0.8l0.8-3.4l5.5-22l0.8-3.4l-3.4-0.8l-8.4-2.1l4.6-18.6l6.6-18l8.1,2.9l3.3,1.2l1.2-3.3l7.8-21.3l1.2-3.3     l-3.3-1.2l-8.1-2.9L50,30.8l8.1,3l3.3,1.2l1.2-3.3L69,14.1 M66.9,9.7l-7.6,20.9l-11.4-4.1l-8,21.9l11.4,4.1l-7.8,21.3l-11.4-4.1     l-7.8,21.5l0,0l0,0l0,0l0,0l-5.5,22.2l11.8,2.9l-5.5,22l-11.8-2.9l-5.6,22.7l11.8,2.9l-5.4,21.5l56.3,14l21.1-84.8l29.9-82.1     L66.9,9.7L66.9,9.7z"/>
		</g>
	</g>
	<polyline fill="none" stroke="#707E85" stroke-width="3.5" stroke-miterlimit="10" points="103.7,51.7 85.9,45.3 81.4,57.6    72.6,54.4 69.4,63.3 78.2,66.5 77.2,69 103.6,78.6  "/>
	<line fill="none" stroke="#707E85" stroke-width="3.5" stroke-miterlimit="10" x1="103.4" y1="52.5" x2="112.9" y2="26.4"/>
	<line fill="none" stroke="#707E85" stroke-width="3.5" stroke-miterlimit="10" x1="71" y1="58.8" x2="40.2" y2="47.6"/>
	<polyline fill="none" stroke="#707E85" stroke-width="3.5" stroke-miterlimit="10" points="68.1,168.1 49.8,163.5 52.9,150.8    43.8,148.5 46.1,139.3 55.2,141.6 55.8,139 83.1,145.8  "/>
	<line fill="none" stroke="#707E85" stroke-width="3.5" stroke-miterlimit="10" x1="68.3" y1="167.3" x2="61.6" y2="194.2"/>
	<line fill="none" stroke="#707E85" stroke-width="3.5" stroke-miterlimit="10" x1="45" y1="143.9" x2="13.2" y2="136"/>
	<line fill="none" stroke="#707E85" stroke-width="3.5" stroke-miterlimit="10" x1="91.6" y1="111.6" x2="24.4" y2="91.1"/>
	<g id="Terrasse">
		<g>
			<path fill="#707E85" d="M112.1,280.6l108,1.9l-1.1,63l-104-1.8l-0.1,0l-0.1,0L11.4,354.7l-6.7-62.6L112.1,280.6 M112,279.1     l-109,11.7l7.1,65.6L115,345.1l105.5,1.8l1.2-66L112,279.1L112,279.1z"/>
		</g>
	</g>
	<g>
		<g>
			<path fill="#707E85" d="M112.2,282.6l17.4,0.3l-0.2,8.7l-0.1,3.5l3.5,0.1l27.6,0.5l3.5,0.1l0.1-3.5l0.2-8.7l29.3,0.5l-0.2,8.7     l-0.1,3.5l3.5,0.1l21.1,0.4l-0.8,46.8l-102-1.8l-0.2,0l-0.2,0L13.2,352.5l-5-46.5l21-2.3l3.5-0.4l-0.4-3.5l-0.9-8.7l29.1-3.1     l0.9,8.6l0.4,3.5l3.5-0.4l27.4-3l3.5-0.4l-0.4-3.5l-0.9-8.6L112.2,282.6 M112,279.1l-21,2.3l1.3,12.1l-27.4,3l-1.3-12.1     l-36.1,3.9l1.3,12.1l-24.4,2.6l5.8,53.5l104.8-11.3l105.5,1.8l0.9-53.8l-24.6-0.4l0.2-12.2l-36.3-0.6l-0.2,12.2l-27.6-0.5     l0.2-12.2L112,279.1L112,279.1z"/>
		</g>
	</g>
	<polyline fill="none" stroke="#707E85" stroke-width="3.5" stroke-miterlimit="10" points="178.9,346.2 179.3,320 172.2,319.9    172.9,280.1  "/>
	<polyline fill="none" stroke="#707E85" stroke-width="3.5" stroke-miterlimit="10" points="155.1,345.8 155.6,319.5 162.6,319.6    162.8,308.4 157.2,308.3 157.5,292.8 161.3,292.9 161.5,279.9  "/>
	<line fill="none" stroke="#707E85" stroke-width="3.5" stroke-miterlimit="10" x1="156.1" y1="280.9" x2="161.4" y2="281"/>
	<polyline fill="none" stroke="#707E85" stroke-width="3.5" stroke-miterlimit="10" points="51.4,351.9 48.7,325.9 55.8,325.1    51.5,285.6  "/>
	<polyline fill="none" stroke="#707E85" stroke-width="3.5" stroke-miterlimit="10" points="75.1,349.4 72.3,323.2 65.2,324    64,312.8 69.7,312.2 68,296.9 64.2,297.3 62.9,284.3  "/>
	<line fill="none" stroke="#707E85" stroke-width="3.5" stroke-miterlimit="10" x1="68.3" y1="284.8" x2="63" y2="285.4"/>
	<line fill="none" stroke="#707E85" stroke-width="3.5" stroke-miterlimit="10" x1="114.9" y1="345.1" x2="112" y2="279.1"/>
	<g id="terrasse">
		<g>
			<path fill="#707E85" d="M367.1,194v85.9v0.1l0,0.1l9,85.4l-66.8,7l-9.3-89V194H367.1 M368.6,192.5h-70.2v91.1l9.5,90.6l69.8-7.3     l-9.1-86.9V192.5L368.6,192.5z"/>
		</g>
	</g>
	<g id="big_contour">
		<g>
			<path fill="#707E85" d="M365.1,196v83.9v0.2l0,0.2l8.8,83.4l-50.8,5.3l-2.9-27.4l-0.4-3.5l-3.5,0.4l-8.6,0.9l-0.6-5.8l7.5-0.8     l3.5-0.4l-0.2-1.7l1.1-0.1l-0.4-3.5l-2.3-22.3l-0.4-3.5l-3.5,0.4l-8.6,0.9l-2-19.3v-19.4h8.7h3.5v-3.5v-22.4v-3.5h-1.1v-1.7h-3.5     h-7.6v-5.9h8.6h3.5v-3.5V196H365.1 M368.6,192.5h-58.1v31h-10v-8.8h-2.1v24.3h2.1v-2.6h8.9v1.7h1.1v22.4h-12.2v23.1l2.4,22.9     l12.1-1.3l2.3,22.3l-1.1,0.1l0.2,1.7l-8.9,0.9l-0.3-2.6l-2.1,0.2l2.5,24.2l2.1-0.2l-0.9-8.8l9.9-1l3.2,30.9l57.8-6.1l-9.1-86.9     V192.5L368.6,192.5z"/>
		</g>
	</g>
	<polyline fill="none" stroke="#707E85" stroke-width="3.5" stroke-miterlimit="10" points="368.6,244.7 340.5,244.7 340.5,242.1    331.1,242.1 331.1,236.6  "/>
	<line fill="none" stroke="#707E85" stroke-width="3.5" stroke-miterlimit="10" x1="331.1" y1="237.4" x2="309.4" y2="237.4"/>
	<polyline fill="none" stroke="#707E85" stroke-width="3.5" stroke-miterlimit="10" points="368.5,230.1 350.5,230.1 350.5,224.3    298.4,224.3  "/>
	<g>
		<polyline fill="none" stroke="#707E85" stroke-width="3.5" stroke-miterlimit="10" points="372.2,315 344.3,317.9 344.6,320.5     335.2,321.5 335.8,326.9   "/>
	</g>
	<line fill="none" stroke="#707E85" stroke-width="3.5" stroke-miterlimit="10" x1="335.7" y1="326.1" x2="314.2" y2="328.4"/>
	<polyline fill="none" stroke="#707E85" stroke-width="3.5" stroke-miterlimit="10" points="373.7,329.5 355.8,331.4 356.4,337.1    304.5,342.6  "/>
	<line fill="none" stroke="#707E85" stroke-width="3.5" stroke-miterlimit="10" x1="298.4" y1="283.6" x2="368.6" y2="279.9"/>
	<g id="big_contour">
		<g>
			<path fill="#707E85" d="M362.8,28.9l1.1,8.6l0.4,3.5l3.5-0.4l20-2.5l5.7,46.5L288.3,97.5l-105.9,0V50.6h20.1h3.5v-3.5v-8.6h34.8     v8.6v3.5h3.5h22h3.5v-3.5v-8.6h4.9h9.8h0.2l0.2,0l9.7-1.2l4.8-0.6l1.1,8.6l0.4,3.5l3.5-0.4l21.8-2.7l3.5-0.4l-0.4-3.5l-1.1-8.6     L362.8,28.9 M365.8,25l-41.5,5.1l1.5,12.1L304,44.8l-1.5-12.1l-8.3,1l-9.7,1.2h-9.8h-8.4v12.1h-22V35h-41.8v12.1h-23.6V101     l109.6,0l0,0l108.8-13.4l-6.6-53.4l-23.4,2.9L365.8,25L365.8,25z"/>
		</g>
	</g>
	<polygon id="terrasse" fill="none" stroke="#707E85" stroke-width="1.5" stroke-miterlimit="10" points="284.5,35 274.7,35    178.9,35 178.9,101 288.5,101 288.5,101 397.3,87.6 389.3,22.1 294.2,33.8  "/>
	<polyline fill="none" stroke="#707E85" stroke-width="3.5" stroke-miterlimit="10" points="395.8,75.5 354.6,80.6 352.8,66.6    329.2,69.5 332.4,95.6  "/>
	<polyline fill="none" stroke="#707E85" stroke-width="3.5" stroke-miterlimit="10" points="348,27.2 351.8,58.5 340.1,59.9    341.1,68.1  "/>
	<polyline fill="none" stroke="#707E85" stroke-width="3.5" stroke-miterlimit="10" points="178.9,88.8 220.5,88.8 220.5,74.7    244.3,74.7 244.3,101  "/>
	<polyline fill="none" stroke="#707E85" stroke-width="3.5" stroke-miterlimit="10" points="220.5,35 220.5,66.5 232.3,66.5    232.3,74.7  "/>
	<line fill="none" stroke="#707E85" stroke-width="3.5" stroke-miterlimit="10" x1="288.5" y1="101" x2="284.5" y2="35"/>
	<g id="big_contour_9_">
		<path fill="#707E85" d="M635.2,271l34,1.8l11.3,0.6l6.4,0.3l0.2,0l0.2,0l1.5-0.1l10.5-0.6v8.9v3.5l3.5,0l20.8,0.1l-1.4,27.3    l-0.5,10l-0.2,4.4l0,0.1v0.1v5.6v11h-8.9h-3.5v3.5v22.1l-17.4-0.9l-10-0.5l-7.4-0.4l-11.3-0.6l-6.4-0.3l-0.2,0l-0.2,0l-1.5,0.1    l-10.5,0.5v-9v-3.5h-3.5h-20.8l1.4-27.2l0.5-10l0.2-4.4l0-0.1v-0.1v-5.7v-10.7h9.7h3.5v-3.5V271 M631.7,267.3v26h-13.2v3v11.3v5.7    l-0.2,4.4l-0.5,10l-1.6,30.9h24.5v12.7l2.9-0.2l11.3-0.6l1.5-0.1l6.4,0.3l11.3,0.6l7.4,0.4l10,0.5l21,1.1v-25.8h12.4v-14.5v-5.6    l0.2-4.4l0.5-10l1.6-31l-24.5-0.1v-12.6l-2.9,0.2l-11.3,0.6l-1.5,0.1l-6.4-0.3l-11.3-0.6L631.7,267.3L631.7,267.3z"/>
	</g>
	<g id="terrasse_10_">
		<path fill="#707E85" d="M619.9,268.2l11.7,0.6l37.6,2l11.3,0.6l6.4,0.3l0.1,0l0.1,0l1.5-0.1l11.3-0.6l2.9-0.2l23.5-1.2l-0.7,12.3    l-1.6,31l-0.5,10l-0.2,4.4l0,0v0v5.6v14.2v25.2l-10.9-0.6l-21-1.1l-10-0.5l-7.4-0.4l-11.3-0.6l-6.4-0.3l-0.1,0l-0.1,0l-1.5,0.1    l-11.3,0.6l-2.9,0.2l-23.5,1.2l0.6-12.3l1.6-30.9l0.5-10l0.2-4.4l0,0v0v-5.7v-11.3v-3V268.2 M618.4,266.6v26.8v3v11.3v5.7    l-0.2,4.4l-0.5,10l-1.6,30.9l-0.7,14l25.2-1.3l2.9-0.2l11.3-0.6l1.5-0.1l6.4,0.3l11.3,0.6l7.4,0.4l10,0.5l21,1.1l12.4,0.7v-26.8    v-14.2v-5.6l0.2-4.4l0.5-10l1.6-31l0.7-14l-25.2,1.3l-2.9,0.2l-11.3,0.6l-1.5,0.1l-6.4-0.3l-11.3-0.6l-37.6-2L618.4,266.6    L618.4,266.6z"/>
	</g>
	<polyline fill="none" stroke="#707E85" stroke-width="3.5" stroke-miterlimit="10" points="654.4,268.5 654.4,332.7 657.9,332.7    657.9,370.6  "/>
	<polyline fill="none" stroke="#707E85" stroke-width="3.5" stroke-miterlimit="10" points="665.9,269.1 665.9,308 688.8,308    688.8,346.6 724.7,346.6  "/>
	<line fill="none" stroke="#707E85" stroke-width="3.5" stroke-miterlimit="10" x1="657.9" y1="332.7" x2="688.8" y2="332.7"/>
	<g id="big_contour">
		<path fill="#707E85" d="M549.2,130.1l1.4,8.9l0.5,3.5l3.5-0.5l20.5-3.2l2.9,27.1l1.1,10l0.5,4.4l0,0.1l0,0.1l0.9,5.6l1.7,10.6    l-9.6,1.5l-3.5,0.5l0.5,3.5l3.5,22.1l-33.8,3.6l-11.2,1.2l-6.3,0.7l-0.2,0l-0.2,0l-1.5,0.3l-10.3,2.2l-1.4-8.8l-0.5-3.4l-3.4,0.5    l-20.5,3.2l-2.9-27.2l-1.1-10l-0.5-4.4l0-0.1l0-0.1l-0.9-5.6l-1.7-10.9l8.8-1.4l3.5-0.5l-0.5-3.5l-3.5-21.8l17.3-1.8l10-1.1    l7.4-0.8l11.2-1.2l6.3-0.7l0.2,0l0.2,0l1.4-0.3L549.2,130.1 M552.1,125.9l-2.9,0.6l-11,2.3l-1.4,0.3l-6.3,0.7l-11.2,1.2l-7.4,0.8    l-10,1.1l-21,2.2l4,25.5l-12.3,1.9l2.3,14.4l0.9,5.6l0.5,4.4l1.1,10l3.3,30.8l24.2-3.7l2,12.4l2.9-0.6l11-2.3l1.4-0.3l6.3-0.7    l11.2-1.2l37.5-4l-4.1-25.7l13.1-2.1l-0.5-2.9l-1.8-11.1l-0.9-5.6l-0.5-4.4l-1.1-10l-3.2-30.8l-24.2,3.8L552.1,125.9L552.1,125.9z    "/>
	</g>
	<g id="terrasse">
		<path fill="#707E85" d="M575.4,122.4l1.3,12.3l3.2,30.8l1.1,10l0.5,4.4l0,0l0,0l0.9,5.6l1.8,11.1l0.5,2.9l3.9,24.9l-11.6,1.2    l-37.5,4l-11.2,1.2l-6.3,0.7l-0.1,0l-0.1,0l-1.5,0.3l-11,2.3l-2.9,0.6l-23,4.9l-1.3-12.3l-3.3-30.8l-1.1-10l-0.5-4.4l0,0l0,0    l-0.9-5.6l-2.2-14.1l-3.9-24.9l10.8-1.1l21-2.2l10-1.1l7.4-0.8l11.2-1.2l6.3-0.7l0.1,0l0.1,0l1.4-0.3l11-2.3l2.9-0.6L575.4,122.4     M576.7,120.6l-24.7,5.3l-2.9,0.6l-11,2.3l-1.4,0.3l-6.3,0.7l-11.2,1.2l-7.4,0.8l-10,1.1l-21,2.2l-12.4,1.3l4.2,26.4l2.2,14.1    l0.9,5.6l0.5,4.4l1.1,10l3.3,30.8l1.5,13.9l24.7-5.2l2.9-0.6l11-2.3l1.4-0.3l6.3-0.7l11.2-1.2l37.5-4l13.2-1.4l-4.2-26.4l-0.5-2.9    l-1.8-11.1l-0.9-5.6l-0.5-4.4l-1.1-10l-3.2-30.8L576.7,120.6L576.7,120.6z"/>
	</g>
	<polyline fill="none" stroke="#707E85" stroke-width="3.5" stroke-miterlimit="10" points="554.4,229.6 544.4,166.2 541,166.7    535,129.3  "/>
	<polyline fill="none" stroke="#707E85" stroke-width="3.5" stroke-miterlimit="10" points="542.9,230.8 536.8,192.4 514.3,195.9    508.3,157.9 472.8,163.5  "/>
	<line fill="none" stroke="#707E85" stroke-width="3.5" stroke-miterlimit="10" x1="541" y1="166.7" x2="510.4" y2="171.6"/>
	<circle fill="none" stroke="#717E85" stroke-width="4" stroke-miterlimit="10" cx="693" cy="33.3" r="24.9"/>
	<line fill="none" stroke="#717E85" stroke-width="4" stroke-miterlimit="10" x1="707.2" y1="24.7" x2="722.8" y2="15.1"/>
	<g enable-background="new    ">
		<path fill="#717E85" d="M685.8,20.4c0.2,0,0.3,0.1,0.5,0.1s0.3,0.2,0.4,0.3c0.1,0.1,0.3,0.3,0.4,0.5l11.9,15    c0-0.5-0.1-0.9-0.1-1.4c0-0.5,0-0.9,0-1.3V20.3h5.1v25h-3c-0.4,0-0.8-0.1-1.1-0.2s-0.6-0.4-0.9-0.7l-11.8-14.9    c0,0.4,0.1,0.9,0.1,1.3s0,0.8,0,1.2v13.4h-5.1v-25h3C685.4,20.3,685.6,20.3,685.8,20.4z"/>
	</g>
</g>
</svg>
