<?xml version="1.0" encoding="utf-8"?>
<!-- Generator: Adobe Illustrator 19.0.0, SVG Export Plug-In . SVG Version: 6.00 Build 0)  -->
<svg xmlns="http://www.w3.org/2000/svg" xmlns:xlink="http://www.w3.org/1999/xlink" version="1.1" x="0px" y="0px" viewBox="0 0 730 380" enable-background="new 0 0 730 380" xml:space="preserve">
<g id="acces">
	<polygon fill="#FFFFFF" points="103.6,78.5 77.3,68.9 78.1,66.5 69.3,63.3 70.9,58.8 72.5,54.5 81.3,57.7 82.3,55.2 108.6,64.8     "/>
	<polygon fill="#FFFFFF" points="79.5,160 52.3,153.2 52.9,150.7 43.8,148.4 44.9,143.9 46.1,139.3 55.2,141.6 55.8,139 83.1,145.8     "/>
	<polygon id="Ascenseur" fill="#FFFFFF" points="167.7,319.4 179.6,319.6 179.1,346.5 179.1,346.5 155.3,346.1 155.8,319.2  "/>
	<polygon id="Ascenseur" fill="#FFFFFF" points="60.5,324 72.3,322.8 75.1,349.6 51.5,352 51.5,352 48.7,325.3  "/>
	<polygon id="Entree_9_" fill="#FFFFFF" points="340.4,232.7 340.4,230.1 350.5,230.1 368.5,230.1 368.6,230.1 368.6,244.7    340.5,244.7 340.5,242.1 331.1,242.1 331.1,237.4 331.1,232.7  "/>
	<polygon id="Entree_8_" fill="#FFFFFF" points="345.4,329.8 336.2,330.8 335.7,326.1 335.2,321.5 344.6,320.5 344.3,317.9    372.2,315 373.8,329.5 373.7,329.5 355.8,331.4 345.7,332.5  "/>
	<polygon id="Ascenseur" fill="#FFFFFF" points="220.5,101 220.5,101 220.5,74.7 232.3,74.7 244.3,74.7 244.3,101  "/>
	<polygon id="Ascenseur" fill="#FFFFFF" points="332.4,95.6 329.2,69.5 341.1,68.1 352.8,66.6 356,92.7  "/>
	<polygon id="Ascenseur" fill="#FFFFFF" points="686.1,305.5 689.6,305.5 689.6,330.2 658.7,330.2 655.2,330.2 655.2,305.5    655.4,305.5  "/>
	<polygon id="Ascenseur" fill="#FFFFFF" points="517.8,195.4 514.3,195.9 510.4,171.6 541,166.7 544.4,166.2 548.2,190.6    548.1,190.6  "/>
</g>
<g id="HOVER">
	<polygon id="C1-B4-1-77" fill="#DBDBDB" points="14.1,182.4 70.4,196.4 79.5,160 52.3,153.2 52.9,150.7 43.8,148.4 44.9,143.9    44.9,143.9 13.1,136 7.7,157.9 2.3,179.5  "/>
	<polygon id="C1-B4-1-76" fill="#A0A0A0" points="44.9,143.9 44.9,143.9 46.1,139.3 55.2,141.6 55.8,139 83.1,145.8 91.6,111.6    24.3,91.1 24.3,91.1 24.3,91.1 18.8,113.3 18.8,113.3 13.3,135.3 13.1,136  "/>
	<polygon id="C1-B4-1-75" fill="#DBDBDB" points="24.3,91.1 24.3,91.1 24.3,91.1 91.6,111.6 103.6,78.5 77.3,68.9 78.1,66.5    69.3,63.3 70.9,58.8 40.2,47.6 39.9,48.3 24.3,91.1  "/>
	<polygon id="C1-B4-1-74" fill="#A0A0A0" points="72.5,54.5 81.3,57.7 82.3,55.2 108.6,64.8 121.5,29.5 55.5,5.5 47.9,26.4    40.2,47.6 70.9,58.8  "/>
	<polygon id="C1-B3-1-63" fill="#DBDBDB" points="4.5,303.4 10.1,356.4 51.5,352 51.5,352 48.7,325.3 60.5,324 59.7,316.5    69.9,315.5 66.6,284 66.6,284 27.7,288.1 3.2,290.7  "/>
	<polygon id="C1-B3-1-62" fill="#A0A0A0" points="69.9,315.5 59.7,316.5 60.5,324 72.3,322.8 75.1,349.6 115.1,345.4    112.2,279.2 91.3,281.4 67.4,283.9 66.6,284 66.6,284  "/>
	<polygon id="C1-B3-1-61" fill="#DBDBDB" points="115.1,345.4 155.3,346.1 155.8,319.2 167.7,319.4 167.9,311.8 157.6,311.7    158.1,280 158.1,280 157.3,280 133.4,279.6 112.2,279.2  "/>
	<polygon id="C1-B3-1-60" fill="#A0A0A0" points="167.9,311.8 167.7,319.4 179.6,319.6 179.1,346.5 179.1,346.5 220.7,347.2    221.6,293.9 221.9,281.1 197.3,280.7 158.1,280 158.1,280 157.6,311.7  "/>
	<polygon id="C1-B2-1-48" fill="#DBDBDB" points="319.9,372.9 377.7,366.8 373.8,329.5 373.7,329.5 355.8,331.4 345.7,332.5    345.4,329.8 336.2,330.8 335.7,326.1 303.2,329.6 305.5,352.1 307.9,374.2  "/>
	<polygon id="C1-B2-1-47" fill="#A0A0A0" points="335.7,326.1 335.2,321.5 344.6,320.5 344.3,317.9 372.2,315 368.6,279.9    298.4,283.6 298.4,283.6 300.8,306.5 303.1,328.8 303.2,329.6  "/>
	<polygon id="C1-B2-1-46" fill="#DBDBDB" points="298.4,283.6 368.6,279.9 368.6,244.7 340.5,244.7 340.5,242.1 331.1,242.1    331.1,237.4 298.4,237.4 298.4,238.2 298.4,260.6 298.4,283.6 298.4,283.6  "/>
	<polygon id="C1-B2-1-45" fill="#A0A0A0" points="331.1,232.7 340.4,232.7 340.4,230.1 350.5,230.1 368.5,230.1 368.6,230.1    368.6,192.5 310.5,192.5 298.4,192.5 298.4,214.7 298.4,237.4 331.1,237.4  "/>
	<polygon id="C1-B1-1-34" fill="#DBDBDB" points="220.5,101 220.5,101 220.5,74.7 232.3,74.7 232.3,66.5 243.6,66.5 243.6,35    224.7,35 202.5,35 178.9,35 178.9,47.1 178.9,101  "/>
	<polygon id="C1-B1-1-33" fill="#A0A0A0" points="244.3,74.7 244.3,101 288.5,101 288.5,101 284.5,35 274.7,35 266.4,35    244.4,35 243.6,35 243.6,66.5 232.3,66.5 232.3,74.7  "/>
	<polygon id="C1-B1-1-32" fill="#DBDBDB" points="288.5,101 332.4,95.6 329.2,69.5 341.1,68.1 340.1,60 328.9,61.3 325.1,30    324.3,30.1 302.5,32.8 294.2,33.8 284.5,35 288.5,101  "/>
	<polygon id="C1-B1-1-31" fill="#A0A0A0" points="340.1,60 341.1,68.1 352.8,66.6 356,92.7 397.3,87.6 390.7,34.2 389.3,22.1    365.8,25 325.1,30 328.9,61.3  "/>
	<polygon id="C1-A2-1-18" fill="#DBDBDB" points="658.7,368.1 663.4,368.3 674.6,368.9 682,369.3 692.1,369.8 713.1,370.9    725.5,371.6 725.5,344.8 725.5,344.8 725.5,344.1 689.6,344.1 689.6,330.2 658.7,330.2  "/>
	<polygon id="C1-A2-1-17" fill="#A0A0A0" points="703.4,266.9 700.5,267 689.2,267.6 687.8,267.7 686.1,267.6 686.1,305.5    689.6,305.5 689.6,330.2 689.6,344.1 725.5,344.1 725.5,330.6 725.5,325 725.8,320.5 726.3,310.5 727.9,279.5 728.6,265.6  "/>
	<polygon id="C1-A2-1-20" fill="#DBDBDB" points="619.3,290.9 619.3,291.7 655.2,291.7 655.2,305.5 655.4,305.5 686.1,305.5    686.1,267.6 681.4,267.4 670.1,266.8 632.5,264.8 619.3,264.1  "/>
	<polygon id="C1-A2-1-19" fill="#A0A0A0" points="619.3,293.8 619.3,305.1 619.3,310.8 619,315.2 618.5,325.2 616.9,356.1    616.1,370.2 641.3,368.8 644.3,368.7 655.5,368.1 657,368 658.7,368.1 658.7,330.2 655.2,330.2 655.2,305.5 655.2,291.7    619.3,291.7  "/>
	<polygon id="C1-A1-1-07" fill="#A0A0A0" points="535,129.3 530.4,129.8 519.1,131 511.8,131.7 501.8,132.8 480.8,135 468.5,136.3    472.7,162.7 472.7,162.7 472.8,163.5 508.3,157.9 510.4,171.6 541,166.7  "/>
	<polygon id="C1-A1-1-06" fill="#DBDBDB" points="506.7,236.3 509.5,235.7 520.6,233.3 522,233 523.7,232.8 517.8,195.4    514.3,195.9 510.4,171.6 508.3,157.9 472.8,163.5 474.9,176.8 475.8,182.4 476.2,186.8 477.3,196.8 480.5,227.6 482,241.5  "/>
	<polygon id="C1-A1-1-05" fill="#A0A0A0" points="586.1,199.4 585.9,198.6 550.4,204.2 548.2,190.6 548.1,190.6 517.8,195.4    523.7,232.8 528.3,232.4 539.6,231.2 577.1,227.2 590.2,225.8  "/>
	<polygon id="C1-A1-1-04" points="585.6,196.5 583.8,185.4 582.9,179.8 582.5,175.3 581.4,165.4 578.2,134.6    576.7,120.6 552.1,125.9 549.2,126.5 538.1,128.8 536.7,129.1 535,129.3 541,166.7 544.4,166.2 548.2,190.6 550.4,204.2    585.9,198.6  " fill="#005785"/>
</g>
<g id="contours">
	<g id="Terrasse">
		<g>
			<path fill="#707E85" d="M56.4,7.4l63.2,23l-29.4,80.7l0,0.1l0,0.1l-20.8,83.3L4.1,178.4l21.6-86.8L56.4,7.4 M55.5,5.5L24.3,91.1     l-22,88.4l68.1,17l21.1-84.8l29.9-82.1L55.5,5.5L55.5,5.5z"/>
		</g>
	</g>
	<g id="Big_Contour">
		<g>
			<path fill="#707E85" d="M69,14.1l48,17.5l-28.7,78.8l-0.1,0.2l0,0.2l-20.3,81.4l-49.6-12.3l4.5-18.1l0.8-3.4l-3.4-0.8l-8.4-2.1     l4-15.9l8.4,2.1l3.4,0.8l0.8-3.4l5.5-22l0.8-3.4l-3.4-0.8l-8.4-2.1l4.6-18.6l6.6-18l8.1,2.9l3.3,1.2l1.2-3.3l7.8-21.3l1.2-3.3     l-3.3-1.2l-8.1-2.9L50,30.8l8.1,3l3.3,1.2l1.2-3.3L69,14.1 M66.9,9.7l-7.6,20.9l-11.4-4.1l-8,21.9l11.4,4.1l-7.8,21.3l-11.4-4.1     l-7.8,21.5l0,0l0,0l0,0l0,0l-5.5,22.2l11.8,2.9l-5.5,22l-11.8-2.9l-5.6,22.7l11.8,2.9l-5.4,21.5l56.4,14l21.1-84.8l29.9-82.1     L66.9,9.7L66.9,9.7z"/>
		</g>
	</g>
	<polyline fill="none" stroke="#707E85" stroke-width="3.5" stroke-miterlimit="10" points="108.6,64.8 82.3,55.2 81.3,57.7    72.5,54.5 69.3,63.3 78.1,66.5 77.3,68.9 103.6,78.5  "/>
	<line fill="none" stroke="#707E85" stroke-width="3.5" stroke-miterlimit="10" x1="70.9" y1="58.8" x2="40.2" y2="47.6"/>
	<polyline fill="none" stroke="#707E85" stroke-width="3.5" stroke-miterlimit="10" points="79.5,160 52.3,153.2 52.9,150.7    43.8,148.4 46.1,139.3 55.2,141.6 55.8,139 83.1,145.8  "/>
	<line fill="none" stroke="#707E85" stroke-width="3.5" stroke-miterlimit="10" x1="44.9" y1="143.9" x2="13.1" y2="136"/>
	<line fill="none" stroke="#707E85" stroke-width="3.5" stroke-miterlimit="10" x1="91.6" y1="111.6" x2="24.3" y2="91.1"/>
	<g id="Terrasse">
		<g>
			<path fill="#707E85" d="M112.3,280.7l108,1.9l-1.1,63.1l-104.1-1.8l-0.1,0l-0.1,0L11.4,354.7L4.9,292L112.3,280.7 M112.2,279.2     l-109,11.4l6.9,65.7l105-11l105.6,1.8l1.2-66.1L112.2,279.2L112.2,279.2z"/>
		</g>
	</g>
	<g id="Big_contour">
		<g>
			<path fill="#707E85" d="M112.4,282.7l17.4,0.3l-0.1,8.5l-0.1,3.5l3.5,0.1l24,0.4l3.5,0.1l0.1-3.5l0.1-8.5l33,0.6l-0.2,9.3     l-0.1,3.5l3.5,0.1l21.1,0.4l-0.8,46.3l-102.1-1.8l-0.2,0l-0.2,0L13.2,352.5l-4.8-46.1l21-2.2l3.5-0.4l-0.4-3.5l-1-9.2l32.8-3.4     l0.9,8.5l0.4,3.5l3.5-0.4l23.9-2.5l3.5-0.4l-0.4-3.5l-0.9-8.5L112.4,282.7 M112.2,279.2l-21,2.2l1.3,12l-23.9,2.5l-1.3-12     l-39.7,4.2l1.3,12.7l-24.4,2.6l5.6,53l105-11l105.6,1.8l0.9-53.3l-24.6-0.4l0.2-12.8l-40-0.7l-0.2,12l-24-0.4l0.2-12L112.2,279.2     L112.2,279.2z"/>
		</g>
	</g>
	<polyline fill="none" stroke="#707E85" stroke-width="3.5" stroke-miterlimit="10" points="179.1,346.5 179.6,319.6 155.8,319.2    155.3,346.1  "/>
	<polyline fill="none" stroke="#707E85" stroke-width="3.5" stroke-miterlimit="10" points="167.7,319.4 167.9,311.8 157.6,311.7    158.1,280  "/>
	<polyline fill="none" stroke="#707E85" stroke-width="3.5" stroke-miterlimit="10" points="51.5,352 48.7,325.3 72.3,322.8    75.1,349.6  "/>
	<polyline fill="none" stroke="#707E85" stroke-width="3.5" stroke-miterlimit="10" points="60.5,324.1 59.7,316.5 69.9,315.5    66.6,284  "/>
	<line fill="none" stroke="#707E85" stroke-width="3.5" stroke-miterlimit="10" x1="115.1" y1="345.4" x2="112.2" y2="279.2"/>
	<g id="terrasse_27_">
		<g>
			<path fill="#707E85" d="M367.1,194v85.9v0.1l0,0.1l9,85.4l-66.8,7l-9.3-89V194H367.1 M368.6,192.5h-70.2v91.1l9.5,90.6l69.8-7.3     l-9.1-86.9V192.5L368.6,192.5z"/>
		</g>
	</g>
	<g id="big_contour_24_">
		<g>
			<path fill="#707E85" d="M365.1,196v83.9v0.2l0,0.2l8.8,83.4l-50.8,5.3l-2-18.6l-0.4-3.5l-3.5,0.4l-8.6,0.9l-1.7-16.3l8.6-0.9     l3.5-0.4l-0.4-3.5l-2.3-22.3l-0.4-3.5l-3.5,0.4l-8.6,0.9l-2-19.3v-19.4h8.7h3.5v-3.5v-22.4v-3.5h-3.5h-8.7v-16.4h8.6h3.5v-3.5     V196H365.1 M368.6,192.5h-58.1v22.2h-10h-2.1v23.4h12.2v22.4h-12.2v23.1l2.4,22.9l12.1-1.3l2.3,22.3l-12.1,1.3l2.4,23.3l2.1-0.2     l9.9-1l2.3,22.1l57.8-6.1l-9.1-86.9V192.5L368.6,192.5z"/>
		</g>
	</g>
	<polyline fill="none" stroke="#707E85" stroke-width="3.5" stroke-miterlimit="10" points="368.6,244.7 340.5,244.7 340.5,242.1    331.1,242.1 331.1,232.7 341.1,232.7  "/>
	<line fill="none" stroke="#707E85" stroke-width="3.5" stroke-miterlimit="10" x1="331.1" y1="237.4" x2="298.4" y2="237.4"/>
	<polyline fill="none" stroke="#707E85" stroke-width="3.5" stroke-miterlimit="10" points="368.5,230.1 350.5,230.1 340.4,230.1    340.4,232.7  "/>
	<polyline fill="none" stroke="#707E85" stroke-width="3.5" stroke-miterlimit="10" points="372.2,315 344.3,317.9 344.6,320.5    335.2,321.5 336.2,330.8 346.2,329.7  "/>
	<line fill="none" stroke="#707E85" stroke-width="3.5" stroke-miterlimit="10" x1="335.7" y1="326.1" x2="303.2" y2="329.6"/>
	<polyline fill="none" stroke="#707E85" stroke-width="3.5" stroke-miterlimit="10" points="373.7,329.5 355.8,331.4 345.7,332.5    345.4,329.8  "/>
	<line fill="none" stroke="#707E85" stroke-width="3.5" stroke-miterlimit="10" x1="298.4" y1="283.6" x2="368.6" y2="279.9"/>
	<g id="terrasse">
		<g>
			<path fill="#707E85" d="M388,23.8l7.7,62.5L288.4,99.5l-108,0l0-63l94.3,0l9.8,0l0.1,0l0.1,0l9.7-1.2L388,23.8 M389.3,22.1     l-95.1,11.7l-9.7,1.2l-9.8,0l-95.8,0l0,66l109.6,0l0,0l0,0l108.8-13.4L389.3,22.1L389.3,22.1z"/>
		</g>
	</g>
	<g id="big_contour">
		<g>
			<path fill="#707E85" d="M362.8,28.9l1.1,8.6l0.4,3.5l3.5-0.4l20-2.5l5.7,46.5L288.3,97.5l-105.9,0l0-46.8l20.1,0l3.5,0l0-3.5     l0-8.6l34.8,0l0,8.6l0,3.5l3.5,0l22,0l3.5,0l0-3.5l0-8.6l4.9,0l9.8,0l0.2,0l0.2,0l9.7-1.2l4.8-0.6l1.1,8.6l0.4,3.5l3.5-0.4     l21.8-2.7l3.5-0.4l-0.4-3.5l-1.1-8.6L362.8,28.9 M365.8,25l-41.5,5.1l1.5,12.1L304,44.9l-1.5-12.1l-8.3,1l-9.7,1.2l-9.8,0l-8.4,0     l0,12.1l-22,0l0-12.1l-41.8,0l0,12.1l-23.6,0l0,53.8l109.6,0l0,0l0,0l108.8-13.4l-6.6-53.4l-23.4,2.9L365.8,25L365.8,25z"/>
		</g>
	</g>
	<polyline fill="none" stroke="#707E85" stroke-width="3.5" stroke-miterlimit="10" points="341.1,68.1 340.1,60 328.9,61.3    325.1,30  "/>
	<polyline fill="none" stroke="#707E85" stroke-width="3.5" stroke-miterlimit="10" points="356,92.7 352.8,66.6 329.2,69.5    332.4,95.6  "/>
	<polyline fill="none" stroke="#707E85" stroke-width="3.5" stroke-miterlimit="10" points="232.3,74.7 232.3,66.5 243.6,66.5    243.6,35  "/>
	<polyline fill="none" stroke="#707E85" stroke-width="3.5" stroke-miterlimit="10" points="220.5,101 220.5,74.7 244.3,74.7    244.3,101  "/>
	<line fill="none" stroke="#707E85" stroke-width="3.5" stroke-miterlimit="10" x1="284.5" y1="35" x2="288.5" y2="101"/>
	<g id="big_contour_22_">
		<path fill="#707E85" d="M636,268.5l34,1.8l11.3,0.6l6.4,0.3l0.2,0l0.2,0l1.5-0.1l10.5-0.6v8.9v3.5l3.5,0l20.8,0.1l-1.4,27.3    l-0.5,10l-0.2,4.4l0,0.1v0.1v5.6v11h-8.9h-3.5v3.5v22.1l-17.4-0.9l-10-0.5l-7.4-0.4l-11.3-0.6l-6.4-0.3l-0.2,0l-0.2,0l-1.5,0.1    l-10.5,0.5v-9v-3.5h-3.5h-20.8l1.4-27.2l0.5-10l0.2-4.4l0-0.1v-0.1v-5.7v-11h9.7h3.5v-3.5V268.5 M632.5,264.8v25.8h-13.2v3.2v11.3    v5.7l-0.2,4.4l-0.5,10l-1.6,30.9h24.5v12.7l2.9-0.2l11.3-0.6l1.5-0.1l6.4,0.3l11.3,0.6l7.4,0.4l10,0.5l21,1.1v-25.8h12.4v-14.5    V325l0.2-4.4l0.5-10l1.6-31l-24.5-0.1v-12.6l-2.9,0.2l-11.3,0.6l-1.5,0.1l-6.4-0.3l-11.3-0.6L632.5,264.8L632.5,264.8z"/>
	</g>
	<g id="terrasse_25_">
		<path fill="#707E85" d="M620.8,265.7l11.7,0.6l37.6,2l11.3,0.6l6.4,0.3l0.1,0l0.1,0l1.5-0.1l11.3-0.6l2.9-0.2l23.5-1.2l-0.7,12.3    l-1.6,31l-0.5,10l-0.2,4.4l0,0v0v5.6v14.2V370l-10.9-0.6l-21-1.1l-10-0.5l-7.4-0.4l-11.3-0.6l-6.4-0.3l-0.1,0l-0.1,0l-1.5,0.1    l-11.3,0.6l-2.9,0.2l-23.5,1.2l0.6-12.3l1.6-30.9l0.5-10l0.2-4.4l0,0v0v-5.7v-11.3v-3V265.7 M619.3,264.1v26.8v3v11.3v5.7    l-0.2,4.4l-0.5,10l-1.6,30.9l-0.7,14l25.2-1.3l2.9-0.2l11.3-0.6l1.5-0.1l6.4,0.3l11.3,0.6l7.4,0.4l10,0.5l21,1.1l12.4,0.7v-26.8    v-14.2V325l0.2-4.4l0.5-10l1.6-31l0.7-14l-25.2,1.3l-2.9,0.2l-11.3,0.6l-1.5,0.1l-6.4-0.3l-11.3-0.6l-37.6-2L619.3,264.1    L619.3,264.1z"/>
	</g>
	<polyline fill="none" stroke="#707E85" stroke-width="3.5" stroke-miterlimit="10" points="655.4,305.5 689.6,305.5 689.6,344.1    725.5,344.1  "/>
	<line fill="none" stroke="#707E85" stroke-width="3.5" stroke-miterlimit="10" x1="658.7" y1="330.2" x2="689.6" y2="330.2"/>
	<line fill="none" stroke="#707E85" stroke-width="3.5" stroke-miterlimit="10" x1="686.1" y1="305.5" x2="686.1" y2="267.6"/>
	<polyline fill="none" stroke="#707E85" stroke-width="3.5" stroke-miterlimit="10" points="658.7,368.1 658.7,330.2 655.2,330.2    655.2,291.7 619.3,291.7  "/>
	<g id="big_contour">
		<path fill="#707E85" d="M549.2,130.1l1.4,8.9l0.5,3.5l3.5-0.5l20.5-3.2l2.9,27.1l1.1,10l0.5,4.4l0,0.1l0,0.1l0.9,5.6l1.7,10.9    l-9.6,1.5l-3.5,0.5l0.5,3.5l3.5,21.8l-33.8,3.6l-11.2,1.2l-6.3,0.7l-0.2,0l-0.2,0l-1.5,0.3l-10.3,2.2l-1.4-8.8l-0.5-3.4l-3.4,0.5    l-20.5,3.2l-2.9-27.2l-1.1-10l-0.5-4.4l0-0.1l0-0.1l-0.9-5.6l-1.7-10.9l8.8-1.4l3.5-0.5l-0.5-3.5l-3.5-21.8l17.3-1.8l10-1.1    l7.4-0.8l11.2-1.2l6.3-0.7l0.2,0l0.2,0l1.4-0.3L549.2,130.1 M552.1,125.9l-2.9,0.6l-11,2.3l-1.4,0.3l-6.3,0.7l-11.2,1.2l-7.4,0.8    l-10,1.1l-21,2.2l4,25.5l-12.3,1.9l2.3,14.4l0.9,5.6l0.5,4.4l1.1,10l3.3,30.8l24.2-3.7l2,12.4l2.9-0.6l11-2.3l1.4-0.3l6.3-0.7    l11.2-1.2l37.5-4l-4-25.5l13.1-2.1l-0.5-3.2l-1.8-11.1l-0.9-5.6l-0.5-4.4l-1.1-10l-3.2-30.8l-24.2,3.8L552.1,125.9L552.1,125.9z"/>
	</g>
	<g id="terrasse">
		<path fill="#707E85" d="M575.4,122.4l1.3,12.3l3.2,30.8l1.1,10l0.5,4.4l0,0l0,0l0.9,5.6l1.8,11.1l0.5,2.9l3.9,24.9l-11.6,1.2    l-37.5,4l-11.2,1.2l-6.3,0.7l-0.1,0l-0.1,0l-1.5,0.3l-11,2.3l-2.9,0.6l-23,4.9l-1.3-12.3l-3.3-30.8l-1.1-10l-0.5-4.4l0,0l0,0    l-0.9-5.6l-2.2-14.1l-3.9-24.9l10.8-1.1l21-2.2l10-1.1l7.4-0.8l11.2-1.2l6.3-0.7l0.1,0l0.1,0l1.4-0.3l11-2.3l2.9-0.6L575.4,122.4     M576.7,120.6l-24.7,5.3l-2.9,0.6l-11,2.3l-1.4,0.3l-6.3,0.7l-11.2,1.2l-7.4,0.8l-10,1.1l-21,2.2l-12.4,1.3l4.2,26.4l2.2,14.1    l0.9,5.6l0.5,4.4l1.1,10l3.3,30.8l1.5,13.9l24.7-5.2l2.9-0.6l11-2.3l1.4-0.3l6.3-0.7l11.2-1.2l37.5-4l13.2-1.4l-4.2-26.4l-0.5-2.9    l-1.8-11.1l-0.9-5.6l-0.5-4.4l-1.1-10l-3.2-30.8L576.7,120.6L576.7,120.6z"/>
	</g>
	<polyline fill="none" stroke="#707E85" stroke-width="3.5" stroke-miterlimit="10" points="548.1,190.6 514.3,195.9 508.3,157.9    472.8,163.5  "/>
	<line fill="none" stroke="#707E85" stroke-width="3.5" stroke-miterlimit="10" x1="541" y1="166.7" x2="510.4" y2="171.6"/>
	<line fill="none" stroke="#707E85" stroke-width="3.5" stroke-miterlimit="10" x1="517.8" y1="195.4" x2="523.7" y2="232.8"/>
	<polyline fill="none" stroke="#707E85" stroke-width="3.5" stroke-miterlimit="10" points="535,129.3 541,166.7 544.4,166.2    550.4,204.2 585.9,198.6  "/>
	<circle fill="none" stroke="#717E85" stroke-width="4" stroke-miterlimit="10" cx="693" cy="33.3" r="24.9"/>
	<line fill="none" stroke="#717E85" stroke-width="4" stroke-miterlimit="10" x1="707.2" y1="24.7" x2="722.8" y2="15.1"/>
	<g enable-background="new    ">
		<path fill="#717E85" d="M685.8,20.4c0.2,0,0.3,0.1,0.5,0.1s0.3,0.2,0.4,0.3c0.1,0.1,0.3,0.3,0.4,0.5l11.9,15    c0-0.5-0.1-0.9-0.1-1.4c0-0.5,0-0.9,0-1.3V20.3h5.1v25h-3c-0.4,0-0.8-0.1-1.1-0.2s-0.6-0.4-0.9-0.7l-11.8-14.9    c0,0.4,0.1,0.9,0.1,1.3s0,0.8,0,1.2v13.4h-5.1v-25h3C685.4,20.3,685.6,20.3,685.8,20.4z"/>
	</g>
</g>
</svg>
