<?xml version="1.0" encoding="utf-8"?>
<!-- Generator: Adobe Illustrator 19.0.1, SVG Export Plug-In . SVG Version: 6.00 Build 0)  -->
<svg xmlns="http://www.w3.org/2000/svg" xmlns:xlink="http://www.w3.org/1999/xlink" version="1.1" id="Layer_1" x="0px" y="0px" viewBox="0 0 730 380" enable-background="new 0 0 730 380" xml:space="preserve">
<polygon fill="#FFFFFF" points="103.6,78.5 77.2,68.9 78.2,66.4 69.3,63.2 72.5,54.4 81.4,57.6 82.3,55.2 108.6,64.8 "/>
<polygon fill="#FFFFFF" points="79.5,160 52.3,153.2 52.9,150.7 43.8,148.4 46.1,139.4 55.2,141.6 55.9,139 83.1,145.8 "/>
<polygon fill="#FFFFFF" points="51.7,352 48.9,325.7 72.5,323.3 75.3,349.5 75.3,349.5 51.7,352 "/>
<rect x="154.3" y="321.1" transform="matrix(-1.745241e-002 0.9998 -0.9998 -1.745241e-002 503.4379 171.3439)" fill="#FFFFFF" width="26.4" height="23.8"/>
<polygon fill="#FFFFFF" points="340.4,232.7 331.1,232.7 331.1,237.4 331.1,242.1 340.5,242.1 340.5,244.7 368.5,244.7 368.5,230.1   368.5,230.1 350.5,230.1 340.4,230.1 "/>
<polygon fill="#FFFFFF" points="345.4,329.8 345.7,332.5 355.8,331.4 373.7,329.5 373.8,329.5 372.2,315 344.3,317.9 344.6,320.5   335.2,321.5 335.7,326.1 336.2,330.8 "/>
<polygon id="Ascenseur_9_" fill="#FFFFFF" points="332.4,95.6 329.2,69.5 352.8,66.6 352.9,66.6 356.1,92.7 "/>
<polygon id="Ascenseur_8_" fill="#FFFFFF" points="220.5,101 220.5,74.7 220.5,74.7 244.3,74.7 244.3,101 "/>
<polygon id="Ascenseur_3_" fill="#FFFFFF" points="658.7,330.2 655.2,330.2 655.2,305.5 686.1,305.5 689.5,305.5 689.5,330.2   689.4,330.2 "/>
<polygon id="Ascenseur_1_" fill="#FFFFFF" points="517.8,195.4 514.3,195.9 510.4,171.6 541,166.7 544.4,166.2 548.2,190.6   548.1,190.6 "/>
<polygon id="C1-B4-3-83" fill="#DBDBDB" points="23,184.6 49.9,191.3 51.8,191.8 70.4,196.4 73.5,184 79.5,160 52.3,153.2   52.9,150.7 43.8,148.4 46.1,139.4 55.2,141.6 55.9,139 83.1,145.8 83.2,145 91.6,111.6 85.7,109.9 29.2,92.6 29.2,92.6 24.3,91.1   24.3,91.1 2.3,179.5 "/>
<polygon id="C1-B4-3-82" fill="#A1A0A0" points="29.2,92.6 29.2,92.6 85.7,109.9 91.6,111.6 103.3,79.3 103.6,78.5 77.2,68.9   78.2,66.4 69.3,63.2 72.5,54.4 81.4,57.6 82.3,55.2 108.6,64.8 117.1,41.5 121.5,29.5 103.4,23 76.5,13.2 55.5,5.5 24.3,91.1 "/>
<polygon id="C1-B3-3-69" fill="#DBDBDB" points="10.1,356.4 50.9,352.1 51.7,352 51.7,352 48.9,325.7 72.5,323.3 75.3,349.5   75.3,349.5 76.1,349.5 115.3,345.3 115,339 112.6,284.4 112.6,284.4 112.4,279 3.2,290.5 "/>
<polygon id="C1-B3-3-68" fill="#A1A0A0" points="112.4,279 112.6,284.4 112.6,284.4 115,339 115.3,345.3 131.4,345.6 155.4,346   155.9,319.6 179.7,320 179.7,320 180.2,291.5 180.2,291.5 180.4,280.2 "/>
<polygon id="C1-B3-3-67" fill="#DBDBDB" points="179.7,320 179.2,346.5 192.7,346.7 221,347.2 222.1,280.9 180.4,280.2   180.2,291.5 180.2,291.5 179.7,320 "/>
<polygon id="C1-B2-3-55" fill="#DBDBDB" points="319.6,192.5 350.3,192.5 368.6,192.5 368.6,205.4 368.5,230.1 368.5,230.1   350.5,230.1 340.4,230.1 340.4,232.7 331.1,232.7 331.1,237.4 331.1,242.1 340.5,242.1 340.5,244.7 368.5,244.7 368.5,245.5   368.5,279.9 368.5,279.9 362.4,280.2 311.3,282.9 303.6,283.3 298.3,283.6 298.4,192.5 "/>
<polygon id="C1-B2-3-54" fill="#A1A0A0" points="303.6,283.3 311.3,282.9 362.4,280.2 368.5,279.9 368.5,279.9 372.1,314.2   372.2,315 344.3,317.9 344.6,320.5 335.2,321.5 335.7,326.1 308.2,329 303.2,329.6 298.3,283.6 "/>
<polygon id="C1-B2-3-53" fill="#DBDBDB" points="336.2,330.8 345.4,329.8 345.7,332.5 355.8,331.4 373.7,329.5 373.8,329.5   376.3,354 377.7,366.8 359.6,368.7 329,372 307.9,374.2 303.2,329.6 308.2,329 335.7,326.1 "/>
<polygon id="C1-B1-3-40" points="206.4,101 220.5,101 220.5,74.7 220.5,46.1 220.5,46.1 220.5,46.1 220.5,35   220.5,35 178.9,35 178.9,101 " fill="#005785"/>
<polygon id="C1-B1-3-39" points="220.5,74.7 244.3,74.7 244.3,101 268.4,101 288.5,101 288.2,95.4 285.2,46.1   284.5,35 284.5,35 220.5,35 220.5,35 220.5,46.1 220.5,46.1 220.5,46.1 220.5,74.7 " fill="#A1A0A0"/>
<polygon id="C1-B1-3-38" points="308.5,98.5 332.4,95.6 329.2,69.5 352.8,66.6 352.9,66.6 349.4,38.2 349.3,38.2   349.3,38.2 348,27.2 348,27.2 284.5,35 284.5,35 284.5,35 285.2,46.1 288.2,95.4 288.5,101 " fill="#DBDBDB"/>
<polygon id="C1-B1-3-37" points="349.4,38.2 352.9,66.6 356.1,92.7 370,91 397.3,87.6 389.3,22.1 348,27.2   348,27.2 349.3,38.2 349.3,38.2 " fill="#A1A0A0"/>
<polygon id="C1-A2-3-26" points="641.3,368.8 644.3,368.7 655.5,368.1 657,368 658.7,368.1 658.7,330.2 655.2,330.2   655.2,305.5 686.1,305.5 686.1,267.6 681.4,267.4 670.1,266.8 662.8,266.4 652.7,265.9 641.5,265.3 631.7,264.8 619.3,264.1   619.3,290.9 619.3,291.6 619.3,305.1 619.3,310.8 619,315.2 618.5,325.2 616.9,356.2 616.1,370.2 " fill="#DBDBDB"/>
<polygon id="C1-A2-3-25" points="725.5,344.8 725.5,344 725.5,341.9 725.5,330.6 725.5,325 725.8,320.5 726.3,310.5   727.9,279.6 728.6,265.6 703.4,266.9 700.5,267 689.2,267.6 687.8,267.7 686.8,267.7 686.1,267.6 686.1,305.5 689.5,305.5   689.5,330.2 689.4,330.2 658.7,330.2 658.7,368.1 663.4,368.3 674.6,368.9 712.3,370.9 725.5,371.6 " fill="#A1A0A0"/>
<polygon id="C1-A1-3-13" points="506.7,236.3 509.5,235.7 520.6,233.3 522,233 523.7,232.8 517.8,195.4   514.3,195.9 510.4,171.6 541,166.7 535,129.3 530.4,129.8 519.1,131 511.8,131.7 501.8,132.8 490.6,134 480.8,135 468.5,136.3   472.7,162.7 472.8,163.5 474.9,176.8 475.8,182.4 476.2,186.8 477.3,196.8 480.5,227.6 482,241.5 " fill="#DBDBDB"/>
<polygon id="C1-A1-3-12" points="586.1,199.4 585.9,198.6 585.6,196.5 583.8,185.4 582.9,179.8 582.5,175.3   581.4,165.4 578.2,134.6 576.7,120.6 552.1,125.9 549.2,126.5 538.1,128.8 536.7,129.1 535.8,129.2 535,129.3 541,166.7   544.4,166.2 548.2,190.6 548.1,190.6 517.8,195.4 523.7,232.8 528.3,232.4 539.6,231.2 577.1,227.2 590.2,225.8 " fill="#A1A0A0"/>
<g id="Terrasse_13_">
	<g>
		<path fill="#717F85" d="M56.4,7.4l63.2,23l-29.4,80.7l0,0.1l0,0.1l-20.8,83.3L4.1,178.4l21.6-86.8L56.4,7.4 M55.5,5.5L24.3,91.1    l-22,88.4l68.1,17l21.1-84.8l29.9-82.1L55.5,5.5L55.5,5.5z"/>
	</g>
</g>
<g id="Big_contour_3_">
	<g>
		<path fill="#717F85" d="M78.6,17.6L99,25.1l-3.2,8.7L94.6,37l3.3,1.2l14.7,5.4l-11.4,31.2l-2.5-0.9l-3.3-1.2L94.3,76l-11.9,32.6    l-0.1,0.2l0,0.2L74,142.7l-0.8,3.4l3.4,0.8l2.5,0.6l-8,32.2L55.7,176l-3.4-0.8l-0.8,3.4l-2.2,9l-22-5.5l4.6-18.6l0.8-3.4l-3.4-0.8    l-12.3-3l15.6-62.6l22-60.6l12.9,4.7l3.3,1.2l1.2-3.3L78.6,17.6 M76.5,13.2l-7.7,21.3l-16.2-5.9l-23.3,64l-16.5,66.2l15.7,3.8    l-5.5,22l28.8,7.2l3.1-12.4l18.7,4.7l9.7-39l-5.9-1.5l8.3-33.7l11.9-32.6l5.7,2.1l13.8-37.8l-18-6.6l4.4-12L76.5,13.2L76.5,13.2z"/>
	</g>
</g>
<line fill="none" stroke="#717F85" stroke-width="3.5" stroke-miterlimit="10" x1="85.7" y1="109.9" x2="29.2" y2="92.6"/>
<polyline fill="none" stroke="#717F85" stroke-width="3.5" stroke-miterlimit="10" points="108.6,64.8 82.3,55.2 81.4,57.6   72.5,54.4 69.3,63.2 78.2,66.4 77.2,68.9 103.6,78.5 "/>
<polyline fill="none" stroke="#717F85" stroke-width="3.5" stroke-miterlimit="10" points="79.5,160 52.3,153.2 52.9,150.7   43.8,148.4 46.1,139.4 55.2,141.6 55.9,139 83.1,145.8 "/>
<line fill="none" stroke="#717F85" stroke-width="1.5" stroke-miterlimit="10" x1="91.6" y1="111.6" x2="85.7" y2="109.9"/>
<line fill="none" stroke="#717F85" stroke-width="1.5" stroke-miterlimit="10" x1="29.2" y1="92.6" x2="24.3" y2="91.1"/>
<g id="Terrasse_9_">
	<g>
		<path fill="#717F85" d="M112.4,280.5l108.2,1.9l-1.1,63.3l-104.2-1.8l-0.1,0l-0.1,0L11.4,354.7l-6.6-62.9L112.4,280.5 M112.4,279    L3.2,290.5l6.9,65.9l105.1-11.1l105.7,1.8l1.2-66.3L112.4,279L112.4,279z"/>
	</g>
</g>
<g id="Big_contour_1_">
	<g>
		<path fill="#717F85" d="M110.1,288.1l0.1,2.4l0.1,3.3l3.3,0.1l99.5,1.7l-0.7,41.6l-19.5-0.3l-3.5-0.1l-0.1,3.5l0,2.8l-54.3-0.9    l0-2.8l0.1-3.5l-3.5-0.1l-16.5-0.3l-0.2,0l-0.2,0L75,339.7l-3.5,0.4l0.4,3.5l0.3,2.8L54,348.3l-0.3-2.8l-0.4-3.5l-3.5,0.4    l-23.5,2.4l-2.3-22l6.9-0.7l3.5-0.4l-0.4-3.5l-2.3-22L110.1,288.1 M113.4,284.3l-85.5,8.9l2.7,25.5l-10.3,1.1l3,28.9l27-2.8    l0.7,6.3l25.2-2.6l-0.7-6.2L115,339l16.5,0.3l-0.1,6.3l61.3,1.1l0.1-6.3l23,0.4l0.8-48.6l-103-1.8L113.4,284.3L113.4,284.3z"/>
	</g>
</g>
<line fill="none" stroke="#717F85" stroke-width="3.5" stroke-miterlimit="10" x1="180.2" y1="291.5" x2="179.2" y2="346.4"/>
<polyline fill="none" stroke="#717F85" stroke-width="3.5" stroke-miterlimit="10" points="155.4,346 155.9,319.6 179.7,320 "/>
<line fill="none" stroke="#717F85" stroke-width="1.5" stroke-miterlimit="10" x1="180.4" y1="280.2" x2="180.2" y2="291.8"/>
<line fill="none" stroke="#717F85" stroke-width="3.5" stroke-miterlimit="10" x1="115" y1="339" x2="112.6" y2="284.4"/>
<line fill="none" stroke="#717F85" stroke-width="1.5" stroke-miterlimit="10" x1="115.3" y1="345.3" x2="115" y2="339"/>
<line fill="none" stroke="#717F85" stroke-width="3.5" stroke-miterlimit="10" x1="179.2" y1="346.5" x2="180.2" y2="291.6"/>
<polyline fill="none" stroke="#717F85" stroke-width="3.5" stroke-miterlimit="10" points="75.3,349.5 72.5,323.3 48.9,325.7   51.7,352 "/>
<line fill="none" stroke="#717F85" stroke-width="1.5" stroke-miterlimit="10" x1="112.4" y1="279" x2="112.6" y2="284.4"/>
<g id="big_contour_17_">
	<g>
		<path fill="#717F85" d="M323.1,196l23.7,0l0,9.4l0,3.5l3.5,0l14.7,0l0,21.1l0,11.9l-2.6,0l-3.5,0l0,3.5l0,34.8v0.2l0,0.2l3.6,34.6    l0.4,3.5l3.5-0.4l2.6-0.3l1.2,11.8l2.2,21l-14.6,1.5l-3.5,0.4l0.4,3.5l1,9.3l-23.6,2.5l-2-18.6l-0.4-3.5l-3.5,0.4l-12.7,1.3    l-1.7-16.3l3.6-0.4l3.5-0.4l-0.4-3.5l-4.6-43.8l-0.3-3.3l-3.3,0.2l-3.3,0.2l-0.2-42.3l0-19.9l12.8,0l3.5,0l0-3.5L323.1,196     M319.6,192.5l0,22.2l-14.1,0l-2.1,0l0,23.4l0.2,45.9l7-0.4l4.6,43.8l-7.1,0.7l2.4,23.3l2.1-0.2l14.1-1.5L329,372l30.5-3.2    l-1.3-12.8l18.1-1.9l-2.6-24.5l-1.6-15.3l-6.1,0.6l-3.6-34.6l0-34.8l6.1,0l0-15.4l0-24.6l-18.2,0l0-12.9L319.6,192.5L319.6,192.5z     M303.4,238.2L303.4,238.2L303.4,238.2L303.4,238.2z"/>
	</g>
</g>
<g id="terrasse_20_">
	<g>
		<path fill="#717F85" d="M299.9,194l19.8,0l30.7,0l16.7,0l0,11.4l0,24.6l0,15.4l0,34.5l1.5,0l0,0l-1.5,0.2l3.6,34.3l1.6,15.3    l2.6,24.5l1.2,11.3l-16.6,1.7l-30.5,3.2l-19.7,2.1l-9.4-89L299.9,194 M298.4,192.5l0,91.1l9.5,90.6L329,372l30.5-3.2l18.1-1.9    l-1.3-12.8l-2.6-24.5l-1.6-15.3l-3.6-34.3l0,0l0,0l0-34.5l0-15.4l0-24.6l0-12.9l-18.2,0l-30.7,0L298.4,192.5L298.4,192.5z"/>
	</g>
</g>
<polyline fill="none" stroke="#717F85" stroke-width="3.5" stroke-miterlimit="10" points="372.2,315 344.3,317.9 344.6,320.5   335.2,321.5 335.7,326.1 336.2,330.8 345.4,329.8 346.2,329.7 "/>
<line fill="none" stroke="#717F85" stroke-width="3.5" stroke-miterlimit="10" x1="335.7" y1="326.1" x2="308.2" y2="329"/>
<line fill="none" stroke="#717F85" stroke-width="1.5" stroke-miterlimit="10" x1="308.2" y1="329" x2="303.2" y2="329.6"/>
<polyline fill="none" stroke="#717F85" stroke-width="3.5" stroke-miterlimit="10" points="373.7,329.5 355.8,331.4 345.7,332.5   345.4,329.8 "/>
<polyline fill="none" stroke="#717F85" stroke-width="3.5" stroke-miterlimit="10" points="368.5,244.7 340.5,244.7 340.5,242.1   331.1,242.1 331.1,237.4 331.1,232.7 340.4,232.7 341.1,232.7 "/>
<polyline fill="none" stroke="#717F85" stroke-width="3.5" stroke-miterlimit="10" points="368.5,230.1 350.5,230.1 340.4,230.1   340.4,232.7 "/>
<line fill="none" stroke="#717F85" stroke-width="1.5" stroke-miterlimit="10" x1="368.5" y1="279.9" x2="298.3" y2="283.6"/>
<line fill="none" stroke="#717F85" stroke-width="3.5" stroke-miterlimit="10" x1="362.4" y1="280.2" x2="311.3" y2="282.9"/>
<g id="Terrasse_3_">
	<g>
		<path fill="#717F85" d="M387.9,23.8l7.7,62.5L288.4,99.5l-108,0l0-63l104.1,0h0.1l0.1,0L387.9,23.8 M389.3,22.1L284.5,35l-105.6,0    l0,66l109.6,0l108.8-13.4L389.3,22.1L389.3,22.1z"/>
	</g>
</g>
<g id="Big_Contour_1_">
	<g>
		<path fill="#717F85" d="M382.5,37.7l5.2,42.4l-18.8,2.3l-3.5,0.4l0.4,3.5l0.2,1.6l-54.5,6.7l-0.2-2l-0.4-3.5l-3.5,0.4L288,91.9    l-19.6,0l-3.5,0l0,3.5l0,2l-54.9,0l0-1.6l0-3.5l-3.5,0l-19,0l0-42.8l97.7,0l0.2,0l0.2,0L382.5,37.7 M385.6,33.8L285.2,46.1    l-101.2,0l0,49.8l22.5,0l0,5.1l61.9,0l0-5.5l19.8,0l0,0l19.6-2.4l0.7,5.5L370,91l-0.6-5.1l22.3-2.7L385.6,33.8L385.6,33.8z"/>
	</g>
</g>
<line fill="none" stroke="#717F85" stroke-width="3.5" stroke-miterlimit="10" x1="356.1" y1="92.7" x2="349.4" y2="38.2"/>
<polyline fill="none" stroke="#717F85" stroke-width="3.5" stroke-miterlimit="10" points="332.4,95.6 329.2,69.5 352.8,66.6 "/>
<line fill="none" stroke="#717F85" stroke-width="1.5" stroke-miterlimit="10" x1="349.3" y1="38.2" x2="348" y2="27.2"/>
<line fill="none" stroke="#717F85" stroke-width="3.5" stroke-miterlimit="10" x1="220.5" y1="101" x2="220.5" y2="46.1"/>
<polyline fill="none" stroke="#717F85" stroke-width="3.5" stroke-miterlimit="10" points="244.3,101 244.3,74.7 220.5,74.7 "/>
<line fill="none" stroke="#717F85" stroke-width="1.5" stroke-miterlimit="10" x1="220.5" y1="46.1" x2="220.5" y2="35"/>
<line fill="none" stroke="#717F85" stroke-width="3.5" stroke-miterlimit="10" x1="288.2" y1="95.4" x2="285.2" y2="46.1"/>
<line fill="none" stroke="#717F85" stroke-width="1.5" stroke-miterlimit="10" x1="288.5" y1="101" x2="288.2" y2="95.4"/>
<line fill="none" stroke="#717F85" stroke-width="1.5" stroke-miterlimit="10" x1="285.2" y1="46.1" x2="284.5" y2="35"/>
<g id="terrasse_14_">
	<path fill="#717F85" d="M620.8,265.7l10.9,0.6l21,1.1l10,0.5l7.4,0.4l11.3,0.6l6.4,0.3l0.1,0l0.1,0l1.5-0.1l11.3-0.6l2.9-0.2   l23.5-1.2l-0.6,12.3l-1.6,30.9l-0.5,10l-0.2,4.4l0,0v0v5.7v11.3v3V370l-11.7-0.6l-37.6-2l-11.3-0.6l-6.4-0.3l-0.1,0l-0.1,0   l-1.5,0.1l-11.3,0.6l-2.9,0.2l-23.5,1.2l0.7-12.3l1.6-31l0.5-10l0.2-4.4l0,0v0v-5.6v-14.2V265.7 M619.3,264.1v26.8v14.2v5.6   l-0.2,4.4l-0.5,10l-1.6,31l-0.7,14l25.2-1.3l2.9-0.2l11.3-0.6l1.5-0.1l6.4,0.3l11.3,0.6l37.6,2l13.2,0.7v-26.8v-3v-11.3V325   l0.2-4.4l0.5-10l1.6-30.9l0.7-14l-25.2,1.3l-2.9,0.2l-11.3,0.6l-1.5,0.1l-6.4-0.3l-11.3-0.6l-7.4-0.4l-10-0.5l-21-1.1L619.3,264.1   L619.3,264.1z"/>
</g>
<line fill="none" stroke="#717F85" stroke-width="3.5" stroke-miterlimit="10" x1="658.7" y1="330.2" x2="658.7" y2="368.1"/>
<line fill="none" stroke="#717F85" stroke-width="3.5" stroke-miterlimit="10" x1="712.3" y1="344" x2="725.5" y2="344"/>
<line fill="none" stroke="#717F85" stroke-width="3.5" stroke-miterlimit="10" x1="631.7" y1="292" x2="619.3" y2="292"/>
<polyline fill="none" stroke="#717F85" stroke-width="3.5" stroke-miterlimit="10" points="686.1,267.6 686.1,305.5 689.5,305.5   689.5,330.2 689.4,330.2 655.2,330.2 655.2,305.5 686.1,305.5 "/>
<g>
	<path fill="#717F85" d="M645,269l7.6,0.4l10,0.5l7.4,0.4l11.3,0.6l2.5,0.1v8.6v3.5h3.5h16.3h0.4h20.4l-1.4,27.2l-0.5,10l-0.2,4.4   l0,0.1v0.1v5.7v10.7h-9.7h-3.5v3.5v22.4l-34-1.8l-11.3-0.6l-6.4-0.3l-0.2,0l-0.2,0l-1.5,0.1l-10.5,0.6v-8.9v-3.5l-3.5,0l-20.8-0.1   l1.4-27.3l0.5-10l0.2-4.4l0-0.1v-0.1v-5.6v-10.7h8.9l3.5,0h6.3h3.5v-3.5V269 M641.5,265.3v25.6h-9.8v0h-12.4v14.2v5.6l-0.2,4.4   l-0.5,10l-1.6,31l24.5,0.1v12.6l2.9-0.2l11.3-0.6l1.5-0.1l6.4,0.3l11.3,0.6l37.6,2v-26h13.2v-3v-11.3V325l0.2-4.4l0.5-10l1.6-30.9   h-24.1h-0.4h-16.3v-11.9l-5.8-0.3l-11.3-0.6l-7.4-0.4l-10-0.5L641.5,265.3L641.5,265.3z"/>
</g>
<g id="terrasse_8_">
	<path fill="#717F85" d="M575.4,122.4l1.3,12.3l3.2,30.8l1.1,10l0.5,4.4l0,0l0,0l0.9,5.6l1.8,11.1l0.5,2.9l3.9,24.9l-11.6,1.2   l-37.5,4l-11.2,1.2l-6.3,0.7l-0.1,0l-0.1,0l-1.5,0.3l-11,2.3l-2.9,0.6l-23,4.9l-1.3-12.3l-3.3-30.8l-1.1-10l-0.5-4.4l0,0l0,0   l-0.9-5.6l-2.2-14.1l-3.9-24.9l10.8-1.1l21-2.2l10-1.1l7.4-0.8l11.2-1.2l6.3-0.7l0.1,0l0.1,0l1.4-0.3l11-2.3l2.9-0.6L575.4,122.4    M576.7,120.6l-24.7,5.3l-2.9,0.6l-11,2.3l-1.4,0.3l-6.3,0.7l-11.2,1.2l-7.4,0.8l-10,1.1l-21,2.2l-12.4,1.3l4.2,26.4l2.2,14.1   l0.9,5.6l0.5,4.4l1.1,10l3.3,30.8l1.5,13.9l24.7-5.2l2.9-0.6l11-2.3l1.4-0.3l6.3-0.7l11.2-1.2l37.5-4l13.2-1.4l-4.2-26.4l-0.5-2.9   l-1.8-11.1l-0.9-5.6l-0.5-4.4l-1.1-10l-3.2-30.8L576.7,120.6L576.7,120.6z"/>
</g>
<line fill="none" stroke="#717F85" stroke-width="3.5" stroke-miterlimit="10" x1="517.8" y1="195.4" x2="523.7" y2="232.8"/>
<line fill="none" stroke="#717F85" stroke-width="3.5" stroke-miterlimit="10" x1="572.8" y1="200.7" x2="585.9" y2="198.6"/>
<line fill="none" stroke="#717F85" stroke-width="3.5" stroke-miterlimit="10" x1="485.1" y1="161.9" x2="472.8" y2="163.8"/>
<polyline fill="none" stroke="#717F85" stroke-width="3.5" stroke-miterlimit="10" points="535,129.3 541,166.7 544.4,166.2   548.2,190.6 548.1,190.6 514.3,195.9 510.4,171.6 541,166.7 "/>
<g>
	<path fill="#717F85" d="M533.2,133l1.3,8.5l0.5,3.5l3.5-0.5l16.1-2.5l0.4-0.1l20.2-3.2l2.9,27.1l1.1,10l0.5,4.4l0,0.1l0,0.1   l0.9,5.6l1.7,10.6l-9.6,1.5l-3.5,0.5l0.5,3.5l3.5,22.1l-33.8,3.6l-11.2,1.2l-6.3,0.7l-0.2,0l-0.2,0l-1.5,0.3l-10.3,2.2l-1.4-8.8   l-0.5-3.4l-3.4,0.5l-20.5,3.2l-2.9-27.2l-1.1-10l-0.5-4.4l0-0.1l0-0.1l-0.9-5.6l-1.7-10.6l8.8-1.4l3.4-0.5l6.2-1l3.5-0.5l-0.5-3.5   l-3.4-21.6l7.6-0.8l10-1.1l7.4-0.8l11.2-1.2L533.2,133 M536.1,129.2l-5.8,0.6l-11.2,1.2l-7.4,0.8l-10,1.1l-11.2,1.2l4,25.3   l-9.7,1.5l0,0l-12.3,1.9l2.2,14.1l0.9,5.6l0.5,4.4l1.1,10l3.3,30.8l24.2-3.7l2,12.4l2.9-0.6l11-2.3l1.4-0.3l6.3-0.7l11.2-1.2   l37.5-4l-4.1-25.7l13.1-2.1l-0.5-2.9l-1.8-11.1l-0.9-5.6l-0.5-4.4l-1.1-10l-3.2-30.8l-23.8,3.8l-0.4,0.1l-16.1,2.5L536.1,129.2   L536.1,129.2z"/>
</g>
</svg>
