<?xml version="1.0" encoding="utf-8"?>
<!-- Generator: Adobe Illustrator 19.0.0, SVG Export Plug-In . SVG Version: 6.00 Build 0)  -->
<svg xmlns="http://www.w3.org/2000/svg" xmlns:xlink="http://www.w3.org/1999/xlink" version="1.1" x="0px" y="0px" viewBox="0 0 730 206.2" style="enable-background:new 0 0 730 206.2;" xml:space="preserve">
<style type="text/css">
	.st0{fill:#DBDBDB;stroke:#707E85;stroke-width:1.5;stroke-miterlimit:10;}
	.st1{fill:none;stroke:#707E85;stroke-width:3.5;stroke-miterlimit:10;}
</style>
<g id="interieur">
	<rect id="C1-B2-0-41" x="500" y="157.1" class="st0" width="141.3" height="44.2" fill="#E5E5E5" style="fill:#E5E5E5;"/>
	<rect id="C1-B2-0-42" x="364.8" y="157.1" class="st0" width="135.1" height="44.2" fill="#E5E5E5" style="fill:#E5E5E5;"/>
	<rect id="C1-B2-0-43" x="229.7" y="157.1" class="st0" width="135.1" height="44.2" fill="#E5E5E5" style="fill:#E5E5E5;"/>
	<rect id="C1-B2-0-44" x="88.4" y="157.1" class="st0" width="141.3" height="44.2" fill="#E5E5E5" style="fill:#E5E5E5;"/>
	<rect id="C1-B2-1-45" x="500" y="112.8" class="st0" width="141.3" height="44.2" fill="#E5E5E5" style="fill:#E5E5E5;"/>
	<rect id="C1-B2-1-46" x="364.8" y="112.8" class="st0" width="135.1" height="44.2" fill="#E5E5E5" style="fill:#E5E5E5;"/>
	<rect id="C1-B2-1-47" x="229.7" y="112.8" class="st0" width="135.1" height="44.2" fill="#E5E5E5" style="fill:#E5E5E5;"/>
	<rect id="C1-B2-1-48" x="88.4" y="112.8" class="st0" width="141.3" height="44.2" fill="#E5E5E5" style="fill:#E5E5E5;"/>
	<rect id="C1-B2-2-49" x="500" y="67.4" class="st0" width="141.3" height="45.4" fill="#E5E5E5" style="fill:#E5E5E5;"/>
	<rect id="C1-B2-2-50" x="364.8" y="67.4" class="st0" width="135.1" height="45.4" fill="#E5E5E5" style="fill:#E5E5E5;"/>
	<rect id="C1-B2-2-51" x="229.7" y="67.4" class="st0" width="135.1" height="45.4" fill="#005785" style="fill:#005785;"/>
	<rect id="C1-B2-2-52" x="88.4" y="67.4" class="st0" width="141.3" height="45.4" fill="#E5E5E5" style="fill:#E5E5E5;"/>
	<polygon id="C1-B2-3-53" class="st0" points="208.6,4.8 208.6,15.5 88.4,15.5 88.4,67.4 229.7,67.4 229.7,15.5 229.7,4.8  " fill="#E5E5E5" style="fill:#E5E5E5;"/>
	<polygon id="C1-B2-3-54" class="st0" points="243.8,15.5 243.8,4.8 229.7,4.8 229.7,15.5 229.7,67.4 364.8,67.4 364.8,15.5  " fill="#E5E5E5" style="fill:#E5E5E5;"/>
	<polygon id="C1-B2-3-55" class="st0" points="521,15.5 521,4.8 485.7,4.8 485.7,15.5 364.8,15.5 364.8,67.4 641.2,67.4    641.2,15.5  " fill="#E5E5E5" style="fill:#E5E5E5;"/>
</g>
<g id="big_contour">
	<polygon class="st1" points="521.1,4.8 485.8,4.8 485.8,15.5 244,15.5 244,4.8 208.7,4.8 208.7,15.5 88.4,15.5 88.4,201.3    641.2,201.3 641.2,15.5 521.1,15.5  "/>
</g>
</svg>
