<?xml version="1.0" encoding="utf-8"?>
<!-- Generator: Adobe Illustrator 19.0.0, SVG Export Plug-In . SVG Version: 6.00 Build 0)  -->
<svg xmlns="http://www.w3.org/2000/svg" xmlns:xlink="http://www.w3.org/1999/xlink" version="1.1" x="0px" y="0px" viewBox="0 0 730 206.2" style="enable-background:new 0 0 730 206.2;" xml:space="preserve">
<style type="text/css">
	.st0{fill:#DBDBDB;stroke:#707E85;stroke-width:1.5;stroke-miterlimit:10;}
	.st1{fill:none;stroke:#707E85;stroke-width:3.5;stroke-miterlimit:10;}
</style>
<g id="Calque_4">
</g>
<g id="interieur">
	<polygon id="C1-A2-0-16" class="st0" points="200.3,156.1 196.1,156.1 196.1,165.6 200.3,165.6 200.3,200.3 326.2,200.3    326.2,156.1  " fill="#E5E5E5" style="fill:#E5E5E5;"/>
	<rect id="C1-A2-0-15" x="326.2" y="156.1" class="st0" width="93.1" height="44.2" fill="#E5E5E5" style="fill:#E5E5E5;"/>
	<polygon id="C1-A2-0-14" class="st0" points="528.9,156.1 419.2,156.1 419.2,200.3 528.9,200.3 528.9,165.6 533.1,165.6    533.1,156.1  " fill="#005785" style="fill:#005785;"/>
	<rect id="C1-A2-1-19" x="197.6" y="111.4" class="st0" width="128.6" height="44.2" fill="#E5E5E5" style="fill:#E5E5E5;"/>
	<rect id="C1-A2-1-20" x="326.2" y="111.9" class="st0" width="46.5" height="44.2" fill="#E5E5E5" style="fill:#E5E5E5;"/>
	<rect id="C1-A2-1-18" x="372.7" y="111.9" class="st0" width="46.5" height="44.2" fill="#E5E5E5" style="fill:#E5E5E5;"/>
	<rect id="C1-A2-1-17" x="419.2" y="111.9" class="st0" width="113.9" height="44.2" fill="#E5E5E5" style="fill:#E5E5E5;"/>
	<rect id="C1-A2-2-23" x="196.1" y="66.6" class="st0" width="130.1" height="45.3" fill="#E5E5E5" style="fill:#E5E5E5;"/>
	<rect id="C1-A2-2-24" x="326.2" y="66.6" class="st0" width="46.5" height="45.3" fill="#E5E5E5" style="fill:#E5E5E5;"/>
	<rect id="C1-A2-2-22" x="372.7" y="66.6" class="st0" width="46.5" height="45.3" fill="#E5E5E5" style="fill:#E5E5E5;"/>
	<rect id="C1-A2-2-21" x="419.2" y="66.6" class="st0" width="113.9" height="45.3" fill="#E5E5E5" style="fill:#E5E5E5;"/>
	<rect id="C1-A2-3-26" x="200.3" y="14.8" class="st0" width="125.9" height="51.8" fill="#E5E5E5" style="fill:#E5E5E5;"/>
	<polygon id="C1-A2-3-25" class="st0" points="384.2,14.8 384.2,4.1 345.1,4.1 345.1,14.8 326.2,14.8 326.2,66.6 527.7,66.6    527.7,31.9 531,31.9 531,14.8  " fill="#E5E5E5" style="fill:#E5E5E5;"/>
</g>
<g id="big_contour">
	<polygon class="st1" points="531,14.8 531,31.9 527.7,31.9 527.7,66.6 533.1,66.6 533.1,165.6 528.9,165.6 528.9,200.3    200.3,200.3 200.3,165.6 196.1,165.6 196.1,66.6 200.3,66.6 200.3,14.8 345.1,14.8 345.1,4.1 384.2,4.1 384.2,14.8  "/>
</g>
</svg>
