<?xml version="1.0" encoding="utf-8"?>
<!-- Generator: Adobe Illustrator 19.0.0, SVG Export Plug-In . SVG Version: 6.00 Build 0)  -->
<svg xmlns="http://www.w3.org/2000/svg" xmlns:xlink="http://www.w3.org/1999/xlink" version="1.1" x="0px" y="0px" viewBox="0 0 730 206.2" style="enable-background:new 0 0 730 206.2;" xml:space="preserve">
<style type="text/css">
	.st0{fill:#F8F8F8;}
	.st1{fill:#DBDBDB;stroke:#707E85;stroke-width:1.5;stroke-miterlimit:10;}
	.st2{fill:none;stroke:#707E85;stroke-width:3.5;stroke-miterlimit:10;}
</style>
<g id="entree">
	<rect x="394.6" y="156.9" class="st0" width="24.9" height="44.3"/>
</g>
<g id="interieur">
	<polygon id="C1-A1-0-02" class="st1" points="200.2,156.9 196,156.9 196,166.4 200.2,166.4 200.2,201.1 326.3,201.1    326.3,156.9  " fill="#E5E5E5" style="fill:#E5E5E5;"/>
	<rect id="C1-A1-0-03" x="326.3" y="156.9" class="st1" width="68.4" height="44.3" fill="#E5E5E5" style="fill:#E5E5E5;"/>
	<polygon id="C1-A1-0-01" class="st1" points="529.3,156.9 419.5,156.9 419.5,201.1 529.3,201.1 529.3,166.4 533.5,166.4    533.5,156.9  " fill="#E5E5E5" style="fill:#E5E5E5;"/>
	<rect id="C1-A1-1-06" x="196" y="112.6" class="st1" width="130.3" height="44.3" fill="#E5E5E5" style="fill:#E5E5E5;"/>
	<rect id="C1-A1-1-07" x="326.3" y="112.6" class="st1" width="46.6" height="44.3" fill="#E5E5E5" style="fill:#E5E5E5;"/>
	<rect id="C1-A1-1-05" x="372.9" y="112.6" class="st1" width="46.6" height="44.3" fill="#E5E5E5" style="fill:#E5E5E5;"/>
	<rect id="C1-A1-1-04" x="419.5" y="112.6" class="st1" width="114" height="44.3" fill="#E5E5E5" style="fill:#E5E5E5;"/>
	<rect id="C1-A1-2-10" x="196" y="67.2" class="st1" width="130.3" height="45.4" fill="#E5E5E5" style="fill:#E5E5E5;"/>
	<rect id="C1-A1-2-11" x="326.3" y="67.2" class="st1" width="46.6" height="45.4" fill="#005785" style="fill:#005785;"/>
	<rect id="C1-A1-2-09" x="372.9" y="67.2" class="st1" width="46.6" height="45.4" fill="#E5E5E5" style="fill:#E5E5E5;"/>
	<rect id="C1-A1-2-08" x="419.5" y="67.2" class="st1" width="114" height="45.4" fill="#E5E5E5" style="fill:#E5E5E5;"/>
	<rect id="C1-A1-3-13" x="200.2" y="15.3" class="st1" width="126" height="51.9" fill="#E5E5E5" style="fill:#E5E5E5;"/>
	<polygon id="C1-A1-3-12" class="st1" points="384.3,15.3 384.3,4.5 345,4.5 345,15.3 326.3,15.3 326.3,67.2 529.3,67.2    529.3,15.3  " fill="#E5E5E5" style="fill:#E5E5E5;"/>
</g>
<g id="big_contour">
	<polygon class="st2" points="345,4.5 384.3,4.5 384.3,15.3 529.3,15.3 529.3,67.2 533.5,67.2 533.5,166.4 529.3,166.4 529.3,201.1    200.2,201.1 200.2,166.4 196,166.4 196,67.2 200.2,67.2 200.2,15.3 345,15.3  "/>
</g>
</svg>
