<?xml version="1.0" encoding="utf-8"?>
<!-- Generator: Adobe Illustrator 19.0.0, SVG Export Plug-In . SVG Version: 6.00 Build 0)  -->
<svg xmlns="http://www.w3.org/2000/svg" xmlns:xlink="http://www.w3.org/1999/xlink" version="1.1" x="0px" y="0px" viewBox="0 0 730 206.2" style="enable-background:new 0 0 730 206.2;" xml:space="preserve">
<style type="text/css">
	.st0{fill:#DBDBDB;stroke:#707E85;stroke-width:1.5;stroke-miterlimit:10;}
	.st1{fill:none;stroke:#707E85;stroke-width:3.5;stroke-miterlimit:10;}
</style>
<g id="interieur">
	<rect id="C1-B1-0-27" x="563.5" y="156.4" class="st0" width="122" height="44.3" fill="#E5E5E5" style="fill:#E5E5E5;"/>
	<rect id="C1-B1-0-28" x="365" y="156.4" class="st0" width="198.5" height="44.3" fill="#E5E5E5" style="fill:#E5E5E5;"/>
	<rect id="C1-B1-0-29" x="166.5" y="156.4" class="st0" width="198.5" height="44.3" fill="#E5E5E5" style="fill:#E5E5E5;"/>
	<rect id="C1-B1-0-30" x="44.5" y="156.4" class="st0" width="122" height="44.3" fill="#E5E5E5" style="fill:#E5E5E5;"/>
	<rect id="C1-B1-1-31" x="486.3" y="112.2" class="st0" width="199.1" height="44.3" fill="#E5E5E5" style="fill:#E5E5E5;"/>
	<rect id="C1-B1-1-32" x="365" y="112.2" class="st0" width="121.3" height="44.3" fill="#E5E5E5" style="fill:#E5E5E5;"/>
	<rect id="C1-B1-1-33" x="243.6" y="112.2" class="st0" width="121.3" height="44.3" fill="#E5E5E5" style="fill:#E5E5E5;"/>
	<rect id="C1-B1-1-34" x="44.5" y="112.2" class="st0" width="199.1" height="44.3" fill="#005785" style="fill:#005785;"/>
	<rect id="C1-B1-2-35" x="365" y="66.7" class="st0" width="195.4" height="45.4" fill="#E5E5E5" style="fill:#E5E5E5;"/>
	<rect id="C1-B1-2-36" x="169.6" y="66.7" class="st0" width="195.4" height="45.4" fill="#E5E5E5" style="fill:#E5E5E5;"/>
	<polygon id="C1-B1-2-37" class="st0" points="560.3,66.7 560.3,14.9 670,14.9 670,66.7 685.4,66.7 685.4,112.2 560.3,112.2    560.3,66.7  " fill="#E5E5E5" style="fill:#E5E5E5;"/>
	<polygon id="C1-B1-3-38" class="st0" points="504.4,14.9 504.4,4.1 541.7,4.1 541.7,14.9 560.3,14.9 560.3,66.7 365,66.7 365,14.9     " fill="#E5E5E5" style="fill:#E5E5E5;"/>
	<polygon id="C1-B1-3-39" class="st0" points="188.2,14.9 188.2,4.1 225.5,4.1 225.5,14.9 365,14.9 365,66.7 169.6,66.7 169.6,14.9     " fill="#E5E5E5" style="fill:#E5E5E5;"/>
	<polygon id="C1-B1-2-40" class="st0" points="59.9,66.7 59.9,14.9 169.6,14.9 169.6,66.7 169.6,75.9 169.6,112.2 44.5,112.2    44.5,66.7  " fill="#E5E5E5" style="fill:#E5E5E5;"/>
</g>
<g id="big_contour">
	<polygon class="st1" points="225.5,4.1 188.2,4.1 188.2,14.9 59.9,14.9 59.9,66.7 44.5,66.7 44.5,200.7 685.4,200.7 685.4,66.7    670.1,66.7 670.1,14.9 541.7,14.9 541.7,4.1 504.4,4.1 504.4,14.9 225.5,14.9  "/>
</g>
</svg>
