<?xml version="1.0" encoding="utf-8"?>
<!-- Generator: Adobe Illustrator 19.0.0, SVG Export Plug-In . SVG Version: 6.00 Build 0)  -->
<svg xmlns="http://www.w3.org/2000/svg" xmlns:xlink="http://www.w3.org/1999/xlink" version="1.1" x="0px" y="0px" viewBox="0 0 730 206.2" style="enable-background:new 0 0 730 206.2;" xml:space="preserve">
<style type="text/css">
	.st0{fill:#FFFFFF;stroke:#707E85;stroke-width:1.5;stroke-miterlimit:10;}
	.st1{fill:#DBDBDB;stroke:#707E85;stroke-width:1.5;stroke-miterlimit:10;}
	.st2{fill:none;stroke:#707E85;stroke-width:3.5;stroke-miterlimit:10;}
</style>
<g id="Entrees">
	<rect x="197.7" y="157.1" class="st0" width="32" height="44.3"/>
	<rect x="500" y="157.1" class="st0" width="32" height="44.3"/>
</g>
<g id="interieur">
	<rect id="C1-B4-0-70" x="532" y="157.1" class="st1" width="109.3" height="44.3" fill="#E5E5E5" style="fill:#E5E5E5;"/>
	<rect id="C1-B4-0-71" x="365" y="157.1" class="st1" width="135" height="44.3" fill="#E5E5E5" style="fill:#E5E5E5;"/>
	<rect id="C1-B4-0-72" x="229.7" y="157.1" class="st1" width="135.4" height="44.3" fill="#E5E5E5" style="fill:#E5E5E5;"/>
	<rect id="C1-B4-0-73" x="88.4" y="157.1" class="st1" width="109.3" height="44.3" fill="#E5E5E5" style="fill:#E5E5E5;"/>
	<rect id="C1-B4-1-74" x="500" y="113" class="st1" width="141.3" height="44.1" fill="#E5E5E5" style="fill:#E5E5E5;"/>
	<rect id="C1-B4-1-75" x="365" y="113" class="st1" width="135" height="44.1" fill="#E5E5E5" style="fill:#E5E5E5;"/>
	<rect id="C1-B4-1-76" x="229.7" y="113" class="st1" width="135.4" height="44.1" fill="#E5E5E5" style="fill:#E5E5E5;"/>
	<rect id="C1-B4-1-77" x="88.4" y="113" class="st1" width="141.3" height="44.1" fill="#E5E5E5" style="fill:#E5E5E5;"/>
	<rect id="C1-B4-2-78" x="500" y="67.4" class="st1" width="141.3" height="45.6" fill="#005785" style="fill:#005785;"/>
	<rect id="C1-B4-2-79" x="365" y="67.4" class="st1" width="135" height="45.6" fill="#E5E5E5" style="fill:#E5E5E5;"/>
	<rect id="C1-B4-2-80" x="229.7" y="67.4" class="st1" width="135.4" height="45.6" fill="#E5E5E5" style="fill:#E5E5E5;"/>
	<rect id="C1-B4-2-81" x="88.4" y="67.4" class="st1" width="141.3" height="45.6" fill="#E5E5E5" style="fill:#E5E5E5;"/>
	<polygon id="C1-B4-3-82" class="st1" points="485.9,15.5 485.9,4.8 524.4,4.8 524.4,15.5 641.3,15.5 641.3,67.4 365,67.4    365,15.5  " fill="#E5E5E5" style="fill:#E5E5E5;"/>
	<polygon id="C1-B4-3-83" class="st1" points="205.3,15.5 205.3,4.8 243.8,4.8 243.8,15.5 365,15.5 365,67.4 88.4,67.4    88.4,15.5  " fill="#E5E5E5" style="fill:#E5E5E5;"/>
</g>
<g id="big_contour">
	<polygon class="st2" points="88.4,15.5 88.4,201.4 641.3,201.4 641.3,15.5 524.4,15.5 524.4,4.8 485.9,4.8 485.9,15.5 243.8,15.5    243.8,4.8 205.3,4.8 205.3,15.5  "/>
</g>
</svg>
