<?xml version="1.0" encoding="utf-8"?>
<!-- Generator: Adobe Illustrator 19.0.0, SVG Export Plug-In . SVG Version: 6.00 Build 0)  -->
<svg version="1.1" xmlns="http://www.w3.org/2000/svg" xmlns:xlink="http://www.w3.org/1999/xlink" x="0px" y="0px"
	 viewBox="0 0 595.3 595.3" enable-background="new 0 0 595.3 595.3" xml:space="preserve">
<pattern  width="3.8" height="3.4" patternUnits="userSpaceOnUse" id="Nouvelle_nuance_de_motif_7" viewBox="0 -3.4 3.8 3.4" overflow="visible">
	<g>
		<polygon fill="none" points="0,0 3.8,0 3.8,-3.4 0,-3.4 		"/>
		<polygon fill="#FFFFFF" points="3.7,0 0.1,0 0.1,-3.4 3.7,-3.4 		"/>
		<polygon fill="#E3E3E3" points="3.8,0 3.7,0 3.7,-3.4 3.8,-3.4 		"/>
		<polygon fill="#E3E3E3" points="0.1,0 0,0 0,-3.4 0.1,-3.4 		"/>
	</g>
</pattern>
<g id="Jardin">
	<polygon fill="#DBEBD0" points="444.7,132.1 444.7,509.6 513.4,509.6 513.4,132.1 513.4,83.3 513.4,63.6 166,63.6 166,132.1 	"/>
	<path fill="#ABBBA1" d="M478.3,85.4c0,0.1,0.1,0.1,0.1,0.2c0.2,0.3,0.2,0.6-0.2,0.7c0,0.2,0,0.5,0.1,0.7c0.1,0.2,0.3,0.3,0.4,0.6
		c0.1,0.3,0.1,0.6,0.2,0.8c0,0.3-0.1,0.5-0.1,0.7c0.1,0.3,0.4,0.4,0.4,0.8c0,0.3-0.3,0.7-0.2,1c0.1,0.3,0.7,0.4,0.9,0.7
		c0.3,0.3,0.1,0.9,0.5,1.2c0.4,0.3,1,0,1.1,0.7c0.2,0.7,0.6,1.2,1.2,1.7c0.2,0.2,0.4,0.1,0.6,0.2c0.3,0.1,0.2,0.2,0.3,0.4
		c0.1,0.2,0,0.2,0.3,0.3c0.2,0,0.4,0,0.6,0c0,0.2-0.1,0.5,0.2,0.6c0.2,0.1,0.5-0.3,0.7-0.3c0.4-0.1,0.4,0.3,0.7,0.5
		c0.3,0.2,0.7,0.3,1.1,0.6c0.3,0.2,0.3,0.1,0.8,0.1c0.2-0.1,0.5-0.1,0.7,0.1c0.2,0.2,0,0.5,0.4,0.4c0.2,0,0.4-0.4,0.7-0.5
		c0.3-0.1,0.4,0,0.5,0.1c0.2,0.1,0.3,0.3,0.6,0.3c0.6,0.1,1-0.4,1.6-0.4c0.2,0,0.4,0.1,0.5,0c0.3,0,0.4-0.2,0.6-0.3
		c0.4-0.2,0.8,0.2,1.1-0.2c0.3-0.2,0.2-0.4,0.6-0.4c0.1,0,0.3,0,0.5,0c0.1-0.3,0.2-0.7,0.5-0.7c0.5-0.1,1.2,0.4,1.6-0.3
		c0.3-0.6,0.2-0.1,0.8-0.2c0-0.2,0.1-0.4,0.1-0.6c0.1,0,0.5,0.1,0.6,0c0.3-0.2,0.2-0.7,0.2-1c0-0.7,0.2-0.2,0.7-0.4
		c0.3-0.1,0.6-1,0.6-1.3c0-0.1-0.1-0.3-0.1-0.4c0.1-0.1,0.2-0.1,0.3-0.2c0.3-0.3,0.2-0.4,0.3-0.7c0.1-0.4,0.4-0.3,0.6-0.5
		c0.2-0.2,0-0.4,0.1-0.6c0.1-0.3,0.2-0.3,0.2-0.6c0-0.2-0.5-0.6-0.3-0.8c0.1-0.2,0.5-0.1,0.7-0.3c0.1-0.1,0.3-0.4,0.3-0.6
		c0-0.2-0.1-0.3-0.1-0.5c0-0.3,0.1-0.4,0.1-0.6c0-0.3-0.3-0.5-0.2-0.7c0-0.2,0.3-0.3,0.4-0.5c0.1-0.3-0.1-0.6-0.1-0.9
		c0-0.3,0-0.7-0.2-0.9c-0.2-0.2-0.5-0.2-0.7-0.4c-0.3-0.4,0.3-0.8,0.3-1c0-0.3-0.7-0.5-1-0.5c-0.1-0.5,0.5-1,0.3-1.5
		c-0.4,0-0.9,0.1-1-0.2c-0.1-0.3,0.2-0.8-0.1-1c-0.3-0.2-0.7,0.1-1-0.2c-0.1-0.1,0-0.7,0-0.9c-0.3,0-0.5,0-0.7-0.1
		c0,0-0.3-0.5-0.3-0.5c-0.5-0.1-1.3-0.2-1.4-0.8c0-0.2,0.2-0.5,0-0.7c-0.2-0.3-0.5,0-0.8-0.1c-0.2-0.1-0.1-0.1-0.2-0.3
		c-0.2-0.2-0.1-0.2-0.3-0.2c-0.1,0-0.4,0.2-0.5,0.1c-0.2-0.1-0.3-0.5-0.6-0.7c-0.3-0.2-0.8-0.4-1.1-0.3c-0.3,0.1-0.3,0.5-0.6,0.4
		c-0.1,0-0.1-0.2-0.2-0.3c-0.1-0.1-0.3-0.2-0.5-0.3c-0.4-0.2-0.6-0.3-0.9,0c-0.2,0.2-0.2,0.5-0.6,0.4c-0.4-0.1-0.7-0.2-1.1-0.4
		c-0.3-0.1-0.6-0.3-0.9-0.2c-0.3,0.1-0.3,0.5-0.5,0.6c-0.6,0.3-1.2-0.1-1.8,0.1c-0.3,0.1-0.4,0.3-0.7,0.4c-0.3,0-0.6-0.2-0.9-0.2
		c-0.5,0-0.9,0.6-1,1.1c-0.1,0.3,0.1,0.3-0.2,0.4c-0.3,0.1-0.5-0.3-0.7-0.2c-0.5,0-0.1,0.8-0.4,1c-0.3,0.2-0.6,0-0.8,0.3
		c-0.2,0.2-0.1,0.7-0.1,0.9c-0.6-0.1-0.4,0.6-0.5,0.9c-0.1,0.5-0.5,0.5-0.9,0.6c-0.2,0-0.6,0-0.7,0.2c-0.3,0.3,0.1,0.6,0,1
		c-0.1,0.1-0.2,0.1-0.3,0.2c-0.1,0.2-0.1,0.3-0.1,0.5c0,0.3,0,0.6-0.1,0.8c-0.2,0.6-0.8,0.9-1,1.4c-0.1,0.3,0.2,0.5,0.2,0.8
		c0,0.3-0.1,0.2-0.3,0.4C477.7,84.9,478,85.1,478.3,85.4z"/>
	<path fill="#ABBBA1" d="M444.8,90c0,0.1,0.1,0.1,0.1,0.2c0.2,0.3,0.2,0.6-0.2,0.7c0,0.2,0,0.5,0.1,0.7c0.1,0.2,0.3,0.3,0.4,0.6
		c0.1,0.3,0.1,0.6,0.2,0.8c0,0.3-0.1,0.5-0.1,0.7c0.1,0.3,0.4,0.4,0.4,0.8c0,0.3-0.3,0.7-0.2,1c0.1,0.3,0.7,0.4,0.9,0.7
		c0.3,0.3,0.1,0.9,0.5,1.2c0.4,0.3,1,0,1.1,0.7c0.2,0.7,0.6,1.2,1.2,1.7c0.2,0.2,0.4,0.1,0.6,0.2c0.3,0.1,0.2,0.2,0.3,0.4
		c0.1,0.2,0,0.2,0.3,0.3c0.2,0,0.4,0,0.6,0c0,0.2-0.1,0.5,0.2,0.6c0.2,0.1,0.5-0.3,0.7-0.3c0.4-0.1,0.4,0.3,0.7,0.5
		c0.3,0.2,0.7,0.3,1.1,0.6c0.3,0.2,0.3,0.1,0.8,0.1c0.2-0.1,0.5-0.1,0.7,0.1c0.2,0.2,0,0.5,0.4,0.4c0.2,0,0.4-0.4,0.7-0.5
		c0.3-0.1,0.4,0,0.5,0.1c0.2,0.1,0.3,0.3,0.6,0.3c0.6,0.1,1-0.4,1.6-0.4c0.2,0,0.4,0.1,0.5,0c0.3,0,0.4-0.2,0.6-0.3
		c0.4-0.2,0.8,0.2,1.1-0.2c0.3-0.2,0.2-0.4,0.6-0.4c0.1,0,0.3,0,0.5,0c0.1-0.3,0.2-0.7,0.5-0.7c0.5-0.1,1.2,0.4,1.6-0.3
		c0.3-0.6,0.2-0.1,0.8-0.2c0-0.2,0.1-0.4,0.1-0.6c0.1,0,0.5,0.1,0.6,0c0.3-0.2,0.2-0.7,0.2-1c0-0.7,0.2-0.2,0.7-0.4
		c0.3-0.1,0.6-1,0.6-1.3c0-0.1-0.1-0.3-0.1-0.4c0.1-0.1,0.2-0.1,0.3-0.2c0.3-0.3,0.2-0.4,0.3-0.7c0.1-0.4,0.4-0.3,0.6-0.5
		c0.2-0.2,0-0.4,0.1-0.6c0.1-0.3,0.2-0.3,0.2-0.6c0-0.2-0.5-0.6-0.3-0.8c0.1-0.2,0.5-0.1,0.7-0.3c0.1-0.1,0.3-0.4,0.3-0.6
		c0-0.2-0.1-0.3-0.1-0.5c0-0.3,0.1-0.4,0.1-0.6c0-0.3-0.3-0.5-0.2-0.7c0-0.2,0.3-0.3,0.4-0.5c0.1-0.3-0.1-0.6-0.1-0.9
		c0-0.3,0-0.7-0.2-0.9c-0.2-0.2-0.5-0.2-0.7-0.4c-0.3-0.4,0.3-0.8,0.3-1c0-0.3-0.7-0.5-1-0.5c-0.1-0.5,0.5-1,0.3-1.5
		c-0.4,0-0.9,0.1-1-0.2c-0.1-0.3,0.2-0.8-0.1-1c-0.3-0.2-0.7,0.1-1-0.2c-0.1-0.1,0-0.7,0-0.9c-0.3,0-0.5,0-0.7-0.1
		c0,0-0.3-0.5-0.3-0.5c-0.5-0.1-1.3-0.2-1.4-0.8c0-0.2,0.2-0.5,0-0.7c-0.2-0.3-0.5,0-0.8-0.1c-0.2-0.1-0.1-0.1-0.2-0.3
		c-0.2-0.2-0.1-0.2-0.3-0.2c-0.1,0-0.4,0.2-0.5,0.1c-0.2-0.1-0.3-0.5-0.6-0.7c-0.3-0.2-0.8-0.4-1.1-0.3c-0.3,0.1-0.3,0.5-0.6,0.4
		c-0.1,0-0.1-0.2-0.2-0.3c-0.1-0.1-0.3-0.2-0.5-0.3c-0.4-0.2-0.6-0.3-0.9,0c-0.2,0.2-0.2,0.5-0.6,0.4c-0.4-0.1-0.7-0.2-1.1-0.4
		c-0.3-0.1-0.6-0.3-0.9-0.2c-0.3,0.1-0.3,0.5-0.5,0.6c-0.6,0.3-1.2-0.1-1.8,0.1c-0.3,0.1-0.4,0.3-0.7,0.4c-0.3,0-0.6-0.2-0.9-0.2
		c-0.5,0-0.9,0.6-1,1.1c-0.1,0.3,0.1,0.3-0.2,0.4c-0.3,0.1-0.5-0.3-0.7-0.2c-0.5,0-0.1,0.8-0.4,1c-0.3,0.2-0.6,0-0.8,0.3
		c-0.2,0.2-0.1,0.7-0.1,0.9c-0.6-0.1-0.4,0.6-0.5,0.9c-0.1,0.5-0.5,0.5-0.9,0.6c-0.2,0-0.6,0-0.7,0.2c-0.3,0.3,0.1,0.6,0,1
		c-0.1,0.1-0.2,0.1-0.3,0.2c-0.1,0.2-0.1,0.3-0.1,0.5c0,0.3,0,0.6-0.1,0.8c-0.2,0.6-0.8,0.9-1,1.4c-0.1,0.3,0.2,0.5,0.2,0.8
		c0,0.3-0.1,0.2-0.3,0.4C444.2,89.5,444.5,89.7,444.8,90z"/>
</g>
<g id="Fond">
	<polyline fill="#FFFFFF" points="196.7,132.1 264.1,132.1 444.7,344.8 444.7,472.8 225.1,355.6 182.5,142.1 196.7,132.1 	"/>
	<polyline fill="#FFFFFF" stroke="#707E85" stroke-width="0.3" stroke-miterlimit="10" points="161,502.5 444.7,502.5 444.7,132.1 
		158.4,132.1 158.4,341.9 77.9,341.9 77.9,396.6 77.9,396.6 	"/>
	<polygon fill="#EAF6FE" points="85.5,396.6 167.4,396.6 158,415.6 158,493.6 433.5,493.6 433.5,221.8 276,221.8 276,144.1 
		167.4,144.1 167.4,221.8 167.4,346.8 85.5,346.8 	"/>
</g>
<g id="Sol">
	<g>
		<pattern  id="SVGID_1_" xlink:href="#Nouvelle_nuance_de_motif_7" patternTransform="matrix(1 0 0 1 -7.626 10.3125)">
		</pattern>
		<rect x="285.8" y="132.3" fill="url(#SVGID_1_)" width="158.7" height="89.4"/>
		<path fill="#707E85" d="M444.4,132.4v89.1H286v-89.1H444.4 M444.7,132.1h-159v89.7h159V132.1L444.7,132.1z"/>
	</g>
	<rect x="212.4" y="313.8" opacity="0.8" fill="#FFFFFF" width="58.8" height="114"/>
</g>
<g id="Installations">
	<g>
		<rect x="280.6" y="472.8" fill="#FFFFFF" width="146.8" height="20.7"/>
		<path fill="#707E85" d="M427.2,473v20.4H280.7V473H427.2 M427.5,472.7H280.4v21h147.1V472.7L427.5,472.7z"/>
	</g>
	<line fill="none" stroke="#707E85" stroke-width="0.3" stroke-miterlimit="10" x1="407.9" y1="472.7" x2="407.9" y2="493.6"/>
	<line fill="none" stroke="#707E85" stroke-width="0.3" stroke-miterlimit="10" x1="301.4" y1="472.7" x2="301.4" y2="493.6"/>
	<g>
		
			<polyline fill="none" stroke="#000000" stroke-width="0.12" stroke-linecap="square" stroke-linejoin="bevel" stroke-miterlimit="10" points="
			414.8,484.6 415.8,484.6 415.8,485.5 		"/>
		
			<polyline fill="none" stroke="#000000" stroke-width="0.12" stroke-linecap="square" stroke-linejoin="bevel" stroke-miterlimit="10" points="
			419.7,479.7 419.7,480.6 420.6,480.6 		"/>
		
			<line fill="none" stroke="#000000" stroke-width="0.12" stroke-linecap="square" stroke-linejoin="bevel" stroke-miterlimit="10" x1="420.3" y1="480" x2="415.2" y2="485.2"/>
		
			<polyline fill="none" stroke="#000000" stroke-width="0.12" stroke-linecap="square" stroke-linejoin="bevel" stroke-miterlimit="10" points="
			419.7,485.5 419.7,484.6 420.6,484.6 		"/>
		
			<polyline fill="none" stroke="#000000" stroke-width="0.12" stroke-linecap="square" stroke-linejoin="bevel" stroke-miterlimit="10" points="
			414.8,480.6 415.8,480.6 415.8,479.7 		"/>
		
			<line fill="none" stroke="#000000" stroke-width="0.12" stroke-linecap="square" stroke-linejoin="bevel" stroke-miterlimit="10" x1="415.2" y1="480" x2="420.3" y2="485.2"/>
		
			<polyline fill="none" stroke="#000000" stroke-width="0.12" stroke-linecap="square" stroke-linejoin="bevel" stroke-miterlimit="10" points="
			417.1,486.1 417.7,485.5 418.3,486.1 		"/>
		
			<polyline fill="none" stroke="#000000" stroke-width="0.12" stroke-linecap="square" stroke-linejoin="bevel" stroke-miterlimit="10" points="
			417.1,479.1 417.7,479.7 418.3,479.1 		"/>
		
			<polyline fill="none" stroke="#000000" stroke-width="0.12" stroke-linecap="square" stroke-linejoin="bevel" stroke-miterlimit="10" points="
			421.2,483.2 420.6,482.6 421.2,482 		"/>
		
			<polyline fill="none" stroke="#000000" stroke-width="0.12" stroke-linecap="square" stroke-linejoin="bevel" stroke-miterlimit="10" points="
			414.3,483.2 414.9,482.6 414.3,482 		"/>
		
			<line fill="none" stroke="#000000" stroke-width="0.12" stroke-linecap="square" stroke-linejoin="bevel" stroke-miterlimit="10" x1="417.7" y1="478.9" x2="417.7" y2="486.3"/>
		
			<line fill="none" stroke="#000000" stroke-width="0.12" stroke-linecap="square" stroke-linejoin="bevel" stroke-miterlimit="10" x1="414.1" y1="482.6" x2="421.4" y2="482.6"/>
		<polyline fill="none" stroke="#707E85" stroke-width="0.3" stroke-miterlimit="10" points="414.8,484.6 415.8,484.6 415.8,485.5 
					"/>
		<polyline fill="none" stroke="#707E85" stroke-width="0.3" stroke-miterlimit="10" points="419.7,479.7 419.7,480.6 420.6,480.6 
					"/>
		<line fill="none" stroke="#707E85" stroke-width="0.3" stroke-miterlimit="10" x1="420.3" y1="480" x2="415.2" y2="485.2"/>
		<polyline fill="none" stroke="#707E85" stroke-width="0.3" stroke-miterlimit="10" points="419.7,485.5 419.7,484.6 420.6,484.6 
					"/>
		<polyline fill="none" stroke="#707E85" stroke-width="0.3" stroke-miterlimit="10" points="414.8,480.6 415.8,480.6 415.8,479.7 
					"/>
		<line fill="none" stroke="#707E85" stroke-width="0.3" stroke-miterlimit="10" x1="415.2" y1="480" x2="420.3" y2="485.2"/>
		<polyline fill="none" stroke="#707E85" stroke-width="0.3" stroke-miterlimit="10" points="417.1,486.1 417.7,485.5 418.3,486.1 
					"/>
		<polyline fill="none" stroke="#707E85" stroke-width="0.3" stroke-miterlimit="10" points="417.1,479.1 417.7,479.7 418.3,479.1 
					"/>
		<polyline fill="none" stroke="#707E85" stroke-width="0.3" stroke-miterlimit="10" points="421.2,483.2 420.6,482.6 421.2,482 		
			"/>
		<polyline fill="none" stroke="#707E85" stroke-width="0.3" stroke-miterlimit="10" points="414.3,483.2 414.9,482.6 414.3,482 		
			"/>
		<line fill="none" stroke="#707E85" stroke-width="0.3" stroke-miterlimit="10" x1="417.7" y1="478.9" x2="417.7" y2="486.3"/>
		<line fill="none" stroke="#707E85" stroke-width="0.3" stroke-miterlimit="10" x1="414.1" y1="482.6" x2="421.4" y2="482.6"/>
	</g>
	<g>
		<rect x="368.3" y="474.5" fill="none" stroke="#707E85" stroke-width="0.3" stroke-miterlimit="10" width="35.2" height="17.5"/>
		<g>
			<path fill="#FFFFFF" stroke="#707E85" stroke-width="0.3" stroke-miterlimit="10" d="M386.2,488.2v-9.8c0-1.3-1.1-2.4-2.4-2.4
				h-11.5c-1.3,0-2.4,1.1-2.4,2.4v9.8c0,1.3,1.1,2.4,2.4,2.4h11.5C385.2,490.6,386.2,489.5,386.2,488.2z"/>
			<circle fill="#FFFFFF" stroke="#707E85" stroke-width="0.3" stroke-miterlimit="10" cx="377.8" cy="487.7" r="1.1"/>
		</g>
		<g>
			<rect x="389" y="478.1" fill="#707E85" width="11.5" height="0.6"/>
			<rect x="389" y="480.5" fill="#707E85" width="11.5" height="0.6"/>
			<rect x="389" y="483" fill="#707E85" width="11.5" height="0.6"/>
			<rect x="389" y="485.4" fill="#707E85" width="11.5" height="0.6"/>
			<rect x="389" y="487.8" fill="#707E85" width="11.5" height="0.6"/>
		</g>
	</g>
	<g>
		<rect x="322.2" y="474.5" fill="none" stroke="#707E85" stroke-width="0.3" stroke-miterlimit="10" width="17.5" height="17.5"/>
		<path fill="#FFFFFF" stroke="#707E85" stroke-width="0.3" stroke-miterlimit="10" d="M331.4,486.9c0,1.8,1.4,3.2,3.2,3.2
			c1.8,0,3.2-1.4,3.2-3.2c0-1.8-1.4-3.2-3.2-3.2C332.8,483.7,331.4,485.2,331.4,486.9"/>
		<path fill="#FFFFFF" stroke="#707E85" stroke-width="0.3" stroke-miterlimit="10" d="M324.3,479.5c0,1.8,1.4,3.2,3.2,3.2
			c1.8,0,3.2-1.4,3.2-3.2c0-1.8-1.4-3.2-3.2-3.2C325.7,476.3,324.3,477.8,324.3,479.5"/>
		<path fill="#FFFFFF" stroke="#707E85" stroke-width="0.3" stroke-miterlimit="10" d="M332.3,478.9c0,1.4,1.2,2.6,2.6,2.6
			c1.4,0,2.6-1.2,2.6-2.6s-1.2-2.6-2.6-2.6C333.4,476.3,332.3,477.5,332.3,478.9"/>
		<path fill="#FFFFFF" stroke="#707E85" stroke-width="0.3" stroke-miterlimit="10" d="M324.3,487.4c0,1.4,1.2,2.6,2.6,2.6
			c1.4,0,2.6-1.2,2.6-2.6s-1.2-2.6-2.6-2.6C325.5,484.8,324.3,485.9,324.3,487.4"/>
	</g>
	<g>
		<g>
			<g>
				<path fill="#EAF6FE" stroke="#CBD3D7" stroke-width="0.3" stroke-miterlimit="10" d="M341,371.8v1.6h14.6v-1.6
					c0-0.7-0.5-1.2-1.2-1.2h-12.2C341.6,370.7,341,371.2,341,371.8z"/>
				
					<rect x="341" y="373.5" fill="#EAF6FE" stroke="#CBD3D7" stroke-width="0.3" stroke-miterlimit="10" width="14.6" height="4.6"/>
				<line fill="#EAF6FE" stroke="#CBD3D7" stroke-width="0.3" stroke-miterlimit="10" x1="343" y1="373.5" x2="343" y2="378.1"/>
				
					<line fill="#EAF6FE" stroke="#CBD3D7" stroke-width="0.3" stroke-miterlimit="10" x1="353.6" y1="378.1" x2="353.6" y2="373.5"/>
			</g>
			<g>
				<path fill="#EAF6FE" stroke="#CBD3D7" stroke-width="0.3" stroke-miterlimit="10" d="M358.3,371.8v1.6h14.6v-1.6
					c0-0.7-0.5-1.2-1.2-1.2h-12.2C358.8,370.7,358.3,371.2,358.3,371.8z"/>
				
					<rect x="358.3" y="373.5" fill="#EAF6FE" stroke="#CBD3D7" stroke-width="0.3" stroke-miterlimit="10" width="14.6" height="4.6"/>
				
					<line fill="#EAF6FE" stroke="#CBD3D7" stroke-width="0.3" stroke-miterlimit="10" x1="360.3" y1="373.5" x2="360.3" y2="378.1"/>
				
					<line fill="#EAF6FE" stroke="#CBD3D7" stroke-width="0.3" stroke-miterlimit="10" x1="370.8" y1="378.1" x2="370.8" y2="373.5"/>
			</g>
		</g>
		<g>
			<g>
				<path fill="#EAF6FE" stroke="#CBD3D7" stroke-width="0.3" stroke-miterlimit="10" d="M372.8,412.8v-1.6h-14.6v1.6
					c0,0.7,0.5,1.2,1.2,1.2h12.2C372.3,414,372.8,413.4,372.8,412.8z"/>
				
					<rect x="358.3" y="406.6" fill="#EAF6FE" stroke="#CBD3D7" stroke-width="0.3" stroke-miterlimit="10" width="14.6" height="4.6"/>
				
					<line fill="#EAF6FE" stroke="#CBD3D7" stroke-width="0.3" stroke-miterlimit="10" x1="370.8" y1="411.1" x2="370.8" y2="406.6"/>
				
					<line fill="#EAF6FE" stroke="#CBD3D7" stroke-width="0.3" stroke-miterlimit="10" x1="360.3" y1="406.6" x2="360.3" y2="411.1"/>
			</g>
			<g>
				<path fill="#EAF6FE" stroke="#CBD3D7" stroke-width="0.3" stroke-miterlimit="10" d="M351.3,416.9l0.6-1.5l-13.4-5.6l-0.6,1.5
					c-0.3,0.6,0,1.3,0.6,1.5l11.3,4.7C350.3,417.8,351,417.5,351.3,416.9z"/>
				
					<rect x="341.3" y="399.4" transform="matrix(0.3873 -0.922 0.922 0.3873 -161.9302 569.7309)" fill="#EAF6FE" stroke="#CBD3D7" stroke-width="0.3" stroke-miterlimit="10" width="12.8" height="14.6"/>
				<line fill="#EAF6FE" stroke="#CBD3D7" stroke-width="0.3" stroke-miterlimit="10" x1="350.1" y1="414.6" x2="355" y2="402.8"/>
				
					<line fill="#EAF6FE" stroke="#CBD3D7" stroke-width="0.3" stroke-miterlimit="10" x1="345.3" y1="398.7" x2="340.3" y2="410.5"/>
			</g>
			<g>
				<g opacity="5.000000e-002">
					<path fill="#707E85" d="M381,382.2v26.1c0,0.7-0.5,1.2-1.2,1.2h-40.3c-0.7,0-1.2-0.5-1.2-1.2v-26.1c0-0.7,0.5-1.2,1.2-1.2h40.3
						C380.5,381.1,381,381.6,381,382.2z"/>
					<path fill="none" stroke="#707E85" stroke-width="0.3" stroke-miterlimit="10" d="M381,382.2v26.1c0,0.7-0.5,1.2-1.2,1.2h-40.3
						c-0.7,0-1.2-0.5-1.2-1.2v-26.1c0-0.7,0.5-1.2,1.2-1.2h40.3C380.5,381.1,381,381.6,381,382.2z"/>
				</g>
				<g>
					<path fill="#EAF6FE" d="M378,379.2v26.1c0,0.7-0.5,1.2-1.2,1.2h-40.3c-0.7,0-1.2-0.5-1.2-1.2v-26.1c0-0.7,0.5-1.2,1.2-1.2h40.3
						C377.5,378.1,378,378.6,378,379.2z"/>
					<path fill="none" stroke="#CBD3D7" stroke-width="0.3" stroke-miterlimit="10" d="M378,379.2v26.1c0,0.7-0.5,1.2-1.2,1.2h-40.3
						c-0.7,0-1.2-0.5-1.2-1.2v-26.1c0-0.7,0.5-1.2,1.2-1.2h40.3C377.5,378.1,378,378.6,378,379.2z"/>
				</g>
			</g>
			<path fill="#EAF6FE" stroke="#CBD3D7" stroke-width="0.3" stroke-miterlimit="10" d="M368.2,390.8l-1.9,2.6
				c-0.3,0.4-1,0.5-1.4,0.2l-4.6-3.4c-0.4-0.3-0.5-1-0.2-1.4l1.9-2.6c0.3-0.4,1-0.5,1.4-0.2l4.6,3.4
				C368.4,389.7,368.5,390.4,368.2,390.8z"/>
		</g>
	</g>
	<g>
		<g>
			<g>
				<g opacity="5.000000e-002">
					<path fill="#707E85" d="M337.3,279c5.4-1,13.4-1,18.8,0c0.6,0.1,1,0.6,1,1.2v17c0,0.6-0.4,1.1-1,1.2c-5.4,1-13.4,1-18.8,0
						c-0.6-0.1-1-0.6-1-1.2v-17C336.3,279.6,336.7,279.1,337.3,279z"/>
					<path fill="none" stroke="#707E85" stroke-width="0.3" stroke-miterlimit="10" d="M337.3,279c5.4-1,13.4-1,18.8,0
						c0.6,0.1,1,0.6,1,1.2v17c0,0.6-0.4,1.1-1,1.2c-5.4,1-13.4,1-18.8,0c-0.6-0.1-1-0.6-1-1.2v-17
						C336.3,279.6,336.7,279.1,337.3,279z"/>
				</g>
				<g>
					<path fill="#EAF6FE" d="M334.3,276c5.4-1,13.4-1,18.8,0c0.6,0.1,1,0.6,1,1.2v17c0,0.6-0.4,1.1-1,1.2c-5.4,1-13.4,1-18.8,0
						c-0.6-0.1-1-0.6-1-1.2v-17C333.3,276.6,333.7,276.1,334.3,276z"/>
					<path fill="none" stroke="#CBD3D7" stroke-width="0.3" stroke-miterlimit="10" d="M334.3,276c5.4-1,13.4-1,18.8,0
						c0.6,0.1,1,0.6,1,1.2v17c0,0.6-0.4,1.1-1,1.2c-5.4,1-13.4,1-18.8,0c-0.6-0.1-1-0.6-1-1.2v-17
						C333.3,276.6,333.7,276.1,334.3,276z"/>
				</g>
			</g>
		</g>
		<g>
			<g>
				
					<path fill="#EAF6FE" stroke="#CBD3D7" stroke-width="0.3" stroke-linecap="round" stroke-linejoin="round" stroke-miterlimit="10" d="
					M343.5,286.4c0,0,1.4,3.4,0.2,5.4C343.7,291.8,342.1,290.5,343.5,286.4z"/>
				
					<path fill="#EAF6FE" stroke="#CBD3D7" stroke-width="0.3" stroke-linecap="round" stroke-linejoin="round" stroke-miterlimit="10" d="
					M343.5,286.4c0,0-0.1,3.5-2.1,5C341.4,291.3,340.4,289.5,343.5,286.4z"/>
				
					<path fill="#EAF6FE" stroke="#CBD3D7" stroke-width="0.3" stroke-linecap="round" stroke-linejoin="round" stroke-miterlimit="10" d="
					M347.2,290.7c0,0,0-3.5-3.6-4.3C343.5,286.4,344.5,290.5,347.2,290.7z"/>
				
					<path fill="#EAF6FE" stroke="#CBD3D7" stroke-width="0.3" stroke-linecap="round" stroke-linejoin="round" stroke-miterlimit="10" d="
					M347.6,280.9c0,0-0.8,4.4-4,5.5C343.5,286.4,343.1,282.8,347.6,280.9z"/>
				
					<path fill="#EAF6FE" stroke="#CBD3D7" stroke-width="0.3" stroke-linecap="round" stroke-linejoin="round" stroke-miterlimit="10" d="
					M349.5,287.2c0,0-2.4,0.8-5.9-0.9C343.5,286.4,346.8,285.1,349.5,287.2z"/>
				
					<path fill="#EAF6FE" stroke="#CBD3D7" stroke-width="0.3" stroke-linecap="round" stroke-linejoin="round" stroke-miterlimit="10" d="
					M343.7,279.6c0,0,1.8,4.4-0.1,6.9C343.6,286.5,342.3,286,343.7,279.6z"/>
				
					<path fill="#EAF6FE" stroke="#CBD3D7" stroke-width="0.3" stroke-linecap="round" stroke-linejoin="round" stroke-miterlimit="10" d="
					M339.1,290.1c0,0,3.8-1.5,4.5-3.7C343.5,286.4,341,287.4,339.1,290.1z"/>
				
					<path fill="#EAF6FE" stroke="#CBD3D7" stroke-width="0.3" stroke-linecap="round" stroke-linejoin="round" stroke-miterlimit="10" d="
					M340.1,280.7c0,0,3.1,2.2,3.4,5.7C343.5,286.4,340.6,284.6,340.1,280.7z"/>
				
					<path fill="#EAF6FE" stroke="#CBD3D7" stroke-width="0.3" stroke-linecap="round" stroke-linejoin="round" stroke-miterlimit="10" d="
					M337.6,287.6c0,0,3.7,0.6,6.1-1.2C343.6,286.5,341.2,285.2,337.6,287.6z"/>
				
					<path fill="#EAF6FE" stroke="#CBD3D7" stroke-width="0.3" stroke-linecap="round" stroke-linejoin="round" stroke-miterlimit="10" d="
					M349.5,284.2c0,0-1.8,2.5-5.8,2.3C343.6,286.5,346,283.7,349.5,284.2z"/>
				
					<path fill="#EAF6FE" stroke="#CBD3D7" stroke-width="0.3" stroke-linecap="round" stroke-linejoin="round" stroke-miterlimit="10" d="
					M338.4,282.5c0,0,4.5,1.4,5.3,4.1C343.7,286.6,340.4,286.2,338.4,282.5z"/>
				
					<path fill="#EAF6FE" stroke="#CBD3D7" stroke-width="0.3" stroke-linecap="round" stroke-linejoin="round" stroke-miterlimit="10" d="
					M337.4,284.8c0,0,3.8-0.6,6.2,1.6C343.6,286.5,341,287.6,337.4,284.8z"/>
				
					<path fill="#EAF6FE" stroke="#CBD3D7" stroke-width="0.3" stroke-linecap="round" stroke-linejoin="round" stroke-miterlimit="10" d="
					M343.9,286.5c0,0,2.2-0.1,4.9,2.5C348.7,289,346.4,288.9,343.9,286.5z"/>
				
					<path fill="#EAF6FE" stroke="#CBD3D7" stroke-width="0.3" stroke-linecap="round" stroke-linejoin="round" stroke-miterlimit="10" d="
					M348.6,282.8c0,0-2,2.9-4.7,3.6C343.8,286.4,344.2,284,348.6,282.8z"/>
			</g>
			<g>
				
					<path fill="#EAF6FE" stroke="#CBD3D7" stroke-width="0.3" stroke-linecap="round" stroke-linejoin="round" stroke-miterlimit="10" d="
					M343.5,286.1c0,0-0.1,2.1-1.2,2.9C342.2,289,341.7,287.9,343.5,286.1z"/>
				
					<path fill="#EAF6FE" stroke="#CBD3D7" stroke-width="0.3" stroke-linecap="round" stroke-linejoin="round" stroke-miterlimit="10" d="
					M345.6,288.7c0,0,0-2.1-2.2-2.6C343.5,286.1,344.1,288.6,345.6,288.7z"/>
				
					<path fill="#EAF6FE" stroke="#CBD3D7" stroke-width="0.3" stroke-linecap="round" stroke-linejoin="round" stroke-miterlimit="10" d="
					M345.9,282.8c0,0-0.5,2.6-2.4,3.3C343.5,286.1,343.2,284,345.9,282.8z"/>
				
					<path fill="#EAF6FE" stroke="#CBD3D7" stroke-width="0.3" stroke-linecap="round" stroke-linejoin="round" stroke-miterlimit="10" d="
					M347,286.6c0,0-1.4,0.4-3.5-0.5C343.5,286.1,345.4,285.3,347,286.6z"/>
				
					<path fill="#EAF6FE" stroke="#CBD3D7" stroke-width="0.3" stroke-linecap="round" stroke-linejoin="round" stroke-miterlimit="10" d="
					M341.5,282.7c0,0,1.8,1.3,2,3.4C343.5,286.1,341.7,285,341.5,282.7z"/>
				
					<path fill="#EAF6FE" stroke="#CBD3D7" stroke-width="0.3" stroke-linecap="round" stroke-linejoin="round" stroke-miterlimit="10" d="
					M340,286.8c0,0,2.2,0.4,3.6-0.7C343.5,286.1,342.1,285.4,340,286.8z"/>
				
					<path fill="#EAF6FE" stroke="#CBD3D7" stroke-width="0.3" stroke-linecap="round" stroke-linejoin="round" stroke-miterlimit="10" d="
					M347,284.8c0,0-1,1.5-3.5,1.4C343.5,286.1,345,284.5,347,284.8z"/>
				
					<path fill="#EAF6FE" stroke="#CBD3D7" stroke-width="0.3" stroke-linecap="round" stroke-linejoin="round" stroke-miterlimit="10" d="
					M339.8,285.2c0,0,2.3-0.4,3.7,1C343.5,286.1,342,286.8,339.8,285.2z"/>
			</g>
		</g>
	</g>
	<g>
		<g>
			<g opacity="5.000000e-002">
				<path fill="#707E85" d="M384.4,262.1c0,0.7,0.5,1.2,1.2,1.2h0.2c0.7,0,1.2-0.5,1.2-1.2V241c0-2.9-2.3-5.2-5.2-5.2h-15.2
					c-2.9,0-5.2,2.4-5.2,5.2v21.1c0,0.7,0.5,1.2,1.2,1.2h0.2c0.7,0,1.2-0.5,1.2-1.2l0-0.8c0,0.7,0.6,1.3,1.3,1.3h17.9
					c0.7,0,1.3-0.6,1.3-1.3L384.4,262.1z"/>
				
					<path fill="none" stroke="#707E85" stroke-width="0.3" stroke-linecap="round" stroke-linejoin="round" stroke-miterlimit="10" d="
					M384.4,262.1c0,0.7,0.5,1.2,1.2,1.2h0.2c0.7,0,1.2-0.5,1.2-1.2V241c0-2.9-2.3-5.2-5.2-5.2h-15.2c-2.9,0-5.2,2.4-5.2,5.2v21.1
					c0,0.7,0.5,1.2,1.2,1.2h0.2c0.7,0,1.2-0.5,1.2-1.2l0-0.8c0,0.7,0.6,1.3,1.3,1.3h17.9c0.7,0,1.3-0.6,1.3-1.3L384.4,262.1z"/>
			</g>
			<g>
				<path fill="#EAF6FE" d="M381.4,259.1c0,0.7,0.5,1.2,1.2,1.2h0.2c0.7,0,1.2-0.5,1.2-1.2V238c0-2.9-2.3-5.2-5.2-5.2h-15.2
					c-2.9,0-5.2,2.4-5.2,5.2v21.1c0,0.7,0.5,1.2,1.2,1.2h0.2c0.7,0,1.2-0.5,1.2-1.2l0-0.8c0,0.7,0.6,1.3,1.3,1.3h17.9
					c0.7,0,1.3-0.6,1.3-1.3L381.4,259.1z"/>
				
					<path fill="none" stroke="#CBD3D7" stroke-width="0.3" stroke-linecap="round" stroke-linejoin="round" stroke-miterlimit="10" d="
					M381.4,259.1c0,0.7,0.5,1.2,1.2,1.2h0.2c0.7,0,1.2-0.5,1.2-1.2V238c0-2.9-2.3-5.2-5.2-5.2h-15.2c-2.9,0-5.2,2.4-5.2,5.2v21.1
					c0,0.7,0.5,1.2,1.2,1.2h0.2c0.7,0,1.2-0.5,1.2-1.2l0-0.8c0,0.7,0.6,1.3,1.3,1.3h17.9c0.7,0,1.3-0.6,1.3-1.3L381.4,259.1z"/>
			</g>
		</g>
		<g>
			<path fill="#EAF6FE" stroke="#CBD3D7" stroke-width="0.3033" stroke-miterlimit="10" d="M378.7,232.8h-15.2
				c-2.9,0-5.2,2.4-5.2,5.2v21.1c0,0.7,0.5,1.2,1.2,1.2h0.2c0.7,0,1.2-0.5,1.2-1.2V241h20.6v18.1c0,0.7,0.5,1.2,1.2,1.2h0.2
				c0.7,0,1.2-0.5,1.2-1.2V238C384,235.1,381.6,232.8,378.7,232.8z"/>
			<g>
				<path fill="#EAF6FE" stroke="#CBD3D7" stroke-width="0.3" stroke-miterlimit="10" d="M362.6,243.1c5.7-0.6,11.4-0.6,17,0
					c1.3,0.1,2.4-0.8,2.6-2c0.1-0.9,0.2-1.9,0.3-2.8c0.2-1.3-0.8-2.4-2.2-2.6c-6.1-0.6-12.3-0.6-18.5,0c-1.4,0.1-2.4,1.3-2.2,2.6
					c0.1,0.9,0.2,1.9,0.3,2.8C360.2,242.4,361.4,243.2,362.6,243.1z"/>
				
					<path fill="#EAF6FE" stroke="#CBD3D7" stroke-width="0.3" stroke-linecap="round" stroke-linejoin="round" stroke-miterlimit="10" d="
					M362.2,241.2c0.1-0.6,17.8-0.6,18,0"/>
			</g>
		</g>
	</g>
	<g>
		<g>
			<g opacity="5.000000e-002">
				<path fill="#707E85" d="M417.2,319v-59.5c0-0.7,0.4-1.2,1-1.2h12.4c0.6,0,1,0.5,1,1.2V319c0,0.7-0.4,1.2-1,1.2h-12.4
					C417.7,320.2,417.2,319.6,417.2,319z"/>
				<path fill="none" stroke="#707E85" stroke-width="0.3" stroke-miterlimit="10" d="M417.2,319v-59.5c0-0.7,0.4-1.2,1-1.2h12.4
					c0.6,0,1,0.5,1,1.2V319c0,0.7-0.4,1.2-1,1.2h-12.4C417.7,320.2,417.2,319.6,417.2,319z"/>
			</g>
			<g>
				<path fill="#EAF6FE" d="M414.2,316v-59.5c0-0.7,0.4-1.2,1-1.2h12.4c0.6,0,1,0.5,1,1.2V316c0,0.7-0.4,1.2-1,1.2h-12.4
					C414.7,317.2,414.2,316.6,414.2,316z"/>
				<path fill="none" stroke="#CBD3D7" stroke-width="0.3" stroke-miterlimit="10" d="M414.2,316v-59.5c0-0.7,0.4-1.2,1-1.2h12.4
					c0.6,0,1,0.5,1,1.2V316c0,0.7-0.4,1.2-1,1.2h-12.4C414.7,317.2,414.2,316.6,414.2,316z"/>
			</g>
		</g>
		<path fill="#EAF6FE" stroke="#CBD3D7" stroke-width="0.3" stroke-miterlimit="10" d="M421.3,278.1h4.8c0.6,0,1,0.4,1,1v14.2
			c0,0.6-0.4,1-1,1h-4.8c-0.6,0-1-0.4-1-1v-14.2C420.3,278.6,420.7,278.1,421.3,278.1z"/>
		<path fill="#EAF6FE" stroke="#CBD3D7" stroke-width="0.2953" stroke-miterlimit="10" d="M426.5,279.4V293c0,0.3-0.3,0.6-0.6,0.6
			h-4.5c-0.3,0-0.6-0.3-0.6-0.6v-13.5c0-0.3,0.3-0.6,0.6-0.6h4.5C426.2,278.8,426.5,279.1,426.5,279.4z"/>
		
			<rect x="422.2" y="261.3" fill="#EAF6FE" stroke="#CBD3D7" stroke-width="0.3" stroke-miterlimit="10" width="1.4" height="49.7"/>
	</g>
	<g>
		<g>
			<g opacity="5.000000e-002">
				<path fill="#707E85" d="M284.8,256.4v62.2c0,3.2,2.6,5.8,5.8,5.8H314c0.7,0,1.3-0.6,1.3-1.3v-0.2c0-0.7-0.6-1.3-1.3-1.3h-0.8
					c0.8,0,1.5-0.7,1.5-1.5v-19.8c0-0.8-0.7-1.5-1.5-1.5c0.8,0,1.5-0.7,1.5-1.5v-19.8c0-0.8-0.7-1.5-1.5-1.5c0.8,0,1.5-0.7,1.5-1.5
					v-19.8c0-0.8-0.6-1.4-1.4-1.5h0.7c0.7,0,1.3-0.6,1.3-1.3v-0.2c0-0.7-0.6-1.3-1.3-1.3h-23.4C287.4,250.6,284.8,253.2,284.8,256.4
					z"/>
				<path fill="none" stroke="#707E85" stroke-width="0.3" stroke-miterlimit="10" d="M284.8,256.4v62.2c0,3.2,2.6,5.8,5.8,5.8H314
					c0.7,0,1.3-0.6,1.3-1.3v-0.2c0-0.7-0.6-1.3-1.3-1.3h-0.8c0.8,0,1.5-0.7,1.5-1.5v-19.8c0-0.8-0.7-1.5-1.5-1.5
					c0.8,0,1.5-0.7,1.5-1.5v-19.8c0-0.8-0.7-1.5-1.5-1.5c0.8,0,1.5-0.7,1.5-1.5v-19.8c0-0.8-0.6-1.4-1.4-1.5h0.7
					c0.7,0,1.3-0.6,1.3-1.3v-0.2c0-0.7-0.6-1.3-1.3-1.3h-23.4C287.4,250.6,284.8,253.2,284.8,256.4z"/>
			</g>
			<g>
				<path fill="#EAF6FE" d="M281.8,253.4v62.2c0,3.2,2.6,5.8,5.8,5.8H311c0.7,0,1.3-0.6,1.3-1.3v-0.2c0-0.7-0.6-1.3-1.3-1.3h-0.8
					c0.8,0,1.5-0.7,1.5-1.5v-19.8c0-0.8-0.7-1.5-1.5-1.5c0.8,0,1.5-0.7,1.5-1.5v-19.8c0-0.8-0.7-1.5-1.5-1.5c0.8,0,1.5-0.7,1.5-1.5
					v-19.8c0-0.8-0.6-1.4-1.4-1.5h0.7c0.7,0,1.3-0.6,1.3-1.3v-0.2c0-0.7-0.6-1.3-1.3-1.3h-23.4C284.4,247.6,281.8,250.2,281.8,253.4
					z"/>
				<path fill="none" stroke="#CBD3D7" stroke-width="0.3" stroke-miterlimit="10" d="M281.8,253.4v62.2c0,3.2,2.6,5.8,5.8,5.8H311
					c0.7,0,1.3-0.6,1.3-1.3v-0.2c0-0.7-0.6-1.3-1.3-1.3h-0.8c0.8,0,1.5-0.7,1.5-1.5v-19.8c0-0.8-0.7-1.5-1.5-1.5
					c0.8,0,1.5-0.7,1.5-1.5v-19.8c0-0.8-0.7-1.5-1.5-1.5c0.8,0,1.5-0.7,1.5-1.5v-19.8c0-0.8-0.6-1.4-1.4-1.5h0.7
					c0.7,0,1.3-0.6,1.3-1.3v-0.2c0-0.7-0.6-1.3-1.3-1.3h-23.4C284.4,247.6,281.8,250.2,281.8,253.4z"/>
			</g>
		</g>
		<g>
			<path fill="#EAF6FE" stroke="#CBD3D7" stroke-width="0.3033" stroke-miterlimit="10" d="M281.8,253.4v62.2c0,3.2,2.6,5.8,5.8,5.8
				H311c0.7,0,1.3-0.6,1.3-1.3v-0.2c0-0.7-0.6-1.3-1.3-1.3h-20.1v-68.2H311c0.7,0,1.3-0.6,1.3-1.3v-0.2c0-0.7-0.6-1.3-1.3-1.3h-23.4
				C284.4,247.6,281.8,250.2,281.8,253.4z"/>
			<g>
				<g>
					<path fill="#EAF6FE" stroke="#CBD3D7" stroke-width="0.3" stroke-miterlimit="10" d="M293.3,316.6c-0.6-6.3-0.6-12.6,0-18.8
						c0.1-1.4-0.8-2.7-2.2-2.9c-1-0.1-2.1-0.3-3.1-0.4c-1.4-0.2-2.7,0.9-2.8,2.4c-0.7,6.8-0.7,13.6,0,20.4c0.2,1.5,1.4,2.6,2.8,2.4
						c1-0.1,2.1-0.3,3.1-0.4C292.4,319.3,293.4,318,293.3,316.6z"/>
					
						<path fill="#EAF6FE" stroke="#CBD3D7" stroke-width="0.3" stroke-linecap="round" stroke-linejoin="round" stroke-miterlimit="10" d="
						M291.2,317.2c-0.7-0.2-0.7-19.7,0-19.9"/>
				</g>
			</g>
			<g>
				<g>
					<path fill="#EAF6FE" stroke="#CBD3D7" stroke-width="0.3" stroke-miterlimit="10" d="M293.3,271.2c-0.6-6.3-0.6-12.6,0-18.8
						c0.1-1.4-0.8-2.7-2.2-2.9c-1-0.1-2.1-0.3-3.1-0.4c-1.4-0.2-2.7,0.9-2.8,2.4c-0.7,6.8-0.7,13.6,0,20.4c0.2,1.5,1.4,2.6,2.8,2.4
						c1-0.1,2.1-0.3,3.1-0.4C292.4,273.8,293.4,272.6,293.3,271.2z"/>
					
						<path fill="#EAF6FE" stroke="#CBD3D7" stroke-width="0.3" stroke-linecap="round" stroke-linejoin="round" stroke-miterlimit="10" d="
						M291.2,271.7c-0.7-0.2-0.7-19.7,0-19.9"/>
				</g>
			</g>
			<g>
				
					<line fill="#EAF6FE" stroke="#CBD3D7" stroke-width="0.3" stroke-miterlimit="10" x1="289.8" y1="295.9" x2="310.2" y2="295.9"/>
				
					<line fill="#EAF6FE" stroke="#CBD3D7" stroke-width="0.3" stroke-miterlimit="10" x1="310.2" y1="273.1" x2="289.8" y2="273.1"/>
				<g>
					<path fill="#EAF6FE" stroke="#CBD3D7" stroke-width="0.3" stroke-miterlimit="10" d="M293.3,293.9c-0.6-6.3-0.6-12.6,0-18.8
						c0.1-1.4-0.8-2.7-2.2-2.9c-1-0.1-2.1-0.3-3.1-0.4c-1.4-0.2-2.7,0.9-2.8,2.4c-0.7,6.8-0.7,13.6,0,20.4c0.2,1.5,1.4,2.6,2.8,2.4
						c1-0.1,2.1-0.3,3.1-0.4C292.4,296.6,293.4,295.3,293.3,293.9z"/>
					
						<path fill="#EAF6FE" stroke="#CBD3D7" stroke-width="0.3" stroke-linecap="round" stroke-linejoin="round" stroke-miterlimit="10" d="
						M291.2,294.4c-0.7-0.2-0.7-19.7,0-19.9"/>
				</g>
			</g>
			<path fill="#EAF6FE" stroke="#CBD3D7" stroke-width="0.3" stroke-miterlimit="10" d="M287.9,317.7c0.6-0.9,4.2-4.2,4.4-4.4
				c0-1.7,0.9-4.8,1.5-5.2c0.5,0.3,0.3,0.4,1,0.8c0.9,0.2,5.4,1.3,7.7,3.3c-1.1,1.2-1.8,7.6-3.7,9.4c-0.4,1-0.7,1.8-1.5,2.6
				c-0.6-0.2-2.6-2.7-2.8-3.7C293.4,319.9,288.8,319,287.9,317.7z"/>
			<path fill="#EAF6FE" stroke="#CBD3D7" stroke-width="0.3" stroke-miterlimit="10" d="M287.1,254.7c0.6-0.9,8-6.3,8.6-6.6
				c1.7,0.4,4.2,3.9,4.8,4.9c1.2,0.4,2.5,1.1,3,1.7c-0.5,0.5-1.5,1.4-2.1,1.7c-0.3,0.5-3.3,4.1-5.6,4.8c-0.6,0.5-1.1,1.2-1.5,1.1
				c-0.6-0.8-1-1.8-1-2.3C292.7,259.4,287.2,255.6,287.1,254.7z"/>
		</g>
	</g>
	<g>
		<g>
			<g opacity="0.2">
				<path fill="#708793" d="M236.8,327.7c0-1.1-0.1-7.1-0.2-8.1c-0.1-0.8-0.2-1.7-0.3-2.5h-11.6c-0.1,0.7-0.2,1.4-0.3,2.1
					c-0.1,1.1-0.2,8.1-0.2,9.4c0,2.7,2.2,8.2,6.2,8.2C234.7,336.8,236.8,330.8,236.8,327.7z"/>
				<path fill="none" stroke="#708793" stroke-width="0.3" stroke-miterlimit="10" d="M236.8,327.7c0-1.1-0.1-7.1-0.2-8.1
					c-0.1-0.8-0.2-1.7-0.3-2.5h-11.6c-0.1,0.7-0.2,1.4-0.3,2.1c-0.1,1.1-0.2,8.1-0.2,9.4c0,2.7,2.2,8.2,6.2,8.2
					C234.7,336.8,236.8,330.8,236.8,327.7z"/>
			</g>
			<g>
				<path fill="#FFFFFF" d="M233.8,324.7c0-1.1-0.1-7.1-0.2-8.1c-0.1-0.8-0.2-1.7-0.3-2.5h-11.6c-0.1,0.7-0.2,1.4-0.3,2.1
					c-0.1,1.1-0.2,8.1-0.2,9.4c0,2.7,2.2,8.2,6.2,8.2C231.7,333.8,233.8,327.8,233.8,324.7z"/>
				<path fill="none" stroke="#707E85" stroke-width="0.3" stroke-miterlimit="10" d="M233.8,324.7c0-1.1-0.1-7.1-0.2-8.1
					c-0.1-0.8-0.2-1.7-0.3-2.5h-11.6c-0.1,0.7-0.2,1.4-0.3,2.1c-0.1,1.1-0.2,8.1-0.2,9.4c0,2.7,2.2,8.2,6.2,8.2
					C231.7,333.8,233.8,327.8,233.8,324.7z"/>
			</g>
		</g>
		<g>
			<circle fill="#FFFFFF" stroke="#707E85" stroke-width="0.3" stroke-miterlimit="10" cx="230.3" cy="316.9" r="0.4"/>
			<circle fill="#FFFFFF" stroke="#707E85" stroke-width="0.3" stroke-miterlimit="10" cx="224.7" cy="316.9" r="0.4"/>
		</g>
		<path fill="#FFFFFF" stroke="#707E85" stroke-width="0.3" stroke-miterlimit="10" d="M227.5,332.2c-2.7,0-4.8-4.1-4.8-6.7
			s2.2-4.8,4.8-4.8c2.7,0,4.8,2.2,4.8,4.8S230.1,332.2,227.5,332.2z"/>
		<path fill="#FFFFFF" stroke="#707E85" stroke-width="0.3" stroke-miterlimit="10" d="M229.1,324.3v-1.8c0-0.5-0.7-0.6-1.6-0.6
			s-1.6,0.2-1.6,0.6v1.8c0,0.9,0.7,1.6,1.6,1.6S229.1,325.2,229.1,324.3z"/>
		<path fill="none" stroke="#707E85" stroke-width="0.3" stroke-miterlimit="10" d="M233.6,316.9c-1.5-0.9-3.9-1.5-6.5-1.5
			c-2.2,0-4.3,0.5-5.8,1.2"/>
	</g>
	<g>
		<g>
			<g opacity="0.2">
				<path fill="#708793" d="M260.6,358.6h13.6V386h-13.6c-2.5,0-4.6-2.5-4.6-5.7v-16C256,361.1,258,358.6,260.6,358.6z"/>
				<path fill="none" stroke="#708793" stroke-width="0.3" stroke-miterlimit="10" d="M260.6,358.6h13.6V386h-13.6
					c-2.5,0-4.6-2.5-4.6-5.7v-16C256,361.1,258,358.6,260.6,358.6z"/>
			</g>
			<g>
				<path fill="#FFFFFF" d="M257.6,355.6h13.6V383h-13.6c-2.5,0-4.6-2.5-4.6-5.7v-16C253,358.1,255,355.6,257.6,355.6z"/>
				<path fill="none" stroke="#707E85" stroke-width="0.3" stroke-miterlimit="10" d="M257.6,355.6h13.6V383h-13.6
					c-2.5,0-4.6-2.5-4.6-5.7v-16C253,358.1,255,355.6,257.6,355.6z"/>
			</g>
		</g>
		<path fill="#FFFFFF" stroke="#707E85" stroke-width="0.3" stroke-miterlimit="10" d="M257.4,358.1h6.7c1.4,0,2.6,1.1,2.6,2.6V378
			c0,1.4-1.1,2.6-2.6,2.6h-6.7c-1.4,0-2.6-1.1-2.6-2.6v-17.3C254.8,359.3,256,358.1,257.4,358.1z"/>
		<circle fill="#FFFFFF" stroke="#707E85" stroke-width="0.3" stroke-miterlimit="10" cx="264.3" cy="369.3" r="1"/>
	</g>
	<g>
		<path fill="#FFFFFF" stroke="#707E85" stroke-width="0.3" stroke-miterlimit="10" d="M269,404.4v21.4c0,0.5-0.4,0.9-0.9,0.9h-53.3
			c-0.5,0-0.9-0.4-0.9-0.9v-21.4c0-0.5,0.4-0.9,0.9-0.9H268C268.5,403.5,269,403.9,269,404.4z"/>
		<path fill="#FFFFFF" stroke="#707E85" stroke-width="0.3" stroke-miterlimit="10" d="M215.9,415.1c0,7,4.3,9.4,6.3,9.4h41.2
			c2.1,0,3.7-1.7,3.7-3.8v-11.3c0-2.1-1.7-3.8-3.7-3.8h-41.2C220.2,405.6,215.9,408.2,215.9,415.1z"/>
		<path fill="#FFFFFF" stroke="#707E85" stroke-width="0.3" stroke-miterlimit="10" d="M224.5,415.1c0,5.9,3.4,7.9,5.1,7.9h33.3
			c1.7,0,3-1.4,3-3.2v-9.6c0-1.8-1.4-3.2-3-3.2h-33.3C227.9,407.1,224.5,409.2,224.5,415.1z"/>
		<circle fill="#FFFFFF" stroke="#707E85" stroke-width="0.3" stroke-miterlimit="10" cx="259.8" cy="415.1" r="1"/>
	</g>
	<g>
		<g>
			
				<rect x="95.3" y="372.6" fill="#FFFFFF" stroke="#707E85" stroke-width="0.3" stroke-miterlimit="10" width="20.8" height="20.8"/>
		</g>
		<g>
			<circle fill="none" stroke="#707E85" stroke-width="0.6204" stroke-miterlimit="10" cx="105.7" cy="383.1" r="4.9"/>
			<path fill="none" stroke="#707E85" stroke-width="0.6204" stroke-miterlimit="10" d="M108.8,383.6c0-1.9-1.5-3.4-3.4-3.4"/>
		</g>
	</g>
	<g>
		<g>
			<g opacity="5.000000e-002">
				<path fill="#707E85" d="M204.9,188.7h67.3c0.6,0,1,0.4,1,1V243c0,0.6-0.4,1-1,1h-67.3c-0.6,0-1-0.4-1-1v-53.3
					C203.9,189.2,204.4,188.7,204.9,188.7z"/>
				<path fill="none" stroke="#707E85" stroke-width="0.3" stroke-miterlimit="10" d="M204.9,188.7h67.3c0.6,0,1,0.4,1,1V243
					c0,0.6-0.4,1-1,1h-67.3c-0.6,0-1-0.4-1-1v-53.3C203.9,189.2,204.4,188.7,204.9,188.7z"/>
			</g>
			<g>
				<path fill="#EAF6FE" d="M201.9,185.7h67.3c0.6,0,1,0.4,1,1V240c0,0.6-0.4,1-1,1h-67.3c-0.6,0-1-0.4-1-1v-53.3
					C200.9,186.2,201.4,185.7,201.9,185.7z"/>
				<path fill="none" stroke="#CBD3D7" stroke-width="0.3" stroke-miterlimit="10" d="M201.9,185.7h67.3c0.6,0,1,0.4,1,1V240
					c0,0.6-0.4,1-1,1h-67.3c-0.6,0-1-0.4-1-1v-53.3C200.9,186.2,201.4,185.7,201.9,185.7z"/>
			</g>
		</g>
		<path fill="#EAF6FE" stroke="#CBD3D7" stroke-width="0.3" stroke-miterlimit="10" d="M205.6,189.4h59.9c0.6,0,1,0.4,1,1v45.9
			c0,0.6-0.4,1-1,1h-59.9c-0.6,0-1-0.4-1-1v-45.9C204.6,189.9,205.1,189.4,205.6,189.4z"/>
		<path fill="#EAF6FE" stroke="#CBD3D7" stroke-width="0.3" stroke-miterlimit="10" d="M263.1,192.6c1.2,2,1.4,16.4,0.1,18.7
			c-0.1,0.2-6.9,0.9-10.6,0.4c-0.6-0.1-1.5-0.7-1.9-1.8c-1.3-3.7-0.8-12.2,0.4-16.2c0.4-1.5,1.9-1.4,2.4-1.5
			C256.4,191.7,262.7,191.9,263.1,192.6z"/>
		<path fill="#EAF6FE" stroke="#CBD3D7" stroke-width="0.3" stroke-miterlimit="10" d="M263.3,215.3c1.6,4.1,1.1,17.9,0.3,18.7
			c-0.3,0.3-6.9,1.1-10,0.4c-0.4-0.1-0.9-0.3-1.1-0.5c-1.2-1.7-2.1-17.8-2-18.1c0.2-0.2,1.5-0.1,2.2-0.4
			C254.4,214.6,263,214.7,263.3,215.3z"/>
		<g>
			<path fill="#EAF6FE" stroke="#CBD3D7" stroke-width="0.3" stroke-miterlimit="10" d="M241.3,234.9c0,0-1.8-19.1-1.8-21.4
				c0-2.5,1.8-21.4,1.8-21.4c0-1.8-3-3.3-1.2-3.3h10.1c1.8,0,3.3,1.5,3.3,3.3c0,0-0.9,18.4-0.9,21.3s0.9,21.5,0.9,21.5
				c0,1.8-1.5,3.3-3.3,3.3h-10.1C238.3,238.2,241.3,236.7,241.3,234.9z"/>
			<path fill="#EAF6FE" stroke="#CBD3D7" stroke-width="0.3" stroke-linecap="round" stroke-miterlimit="10" d="M250.8,195.8
				c-0.3-2.3-3.4-6.9-4.3-7.1"/>
			<path fill="#EAF6FE" stroke="#CBD3D7" stroke-width="0.3" stroke-linecap="round" stroke-miterlimit="10" d="M249.8,219.1
				c-0.2-0.4-5-10.4-7.3-9.2c-0.9,0.4-0.3,2,0.2,2.7"/>
			<path fill="#EAF6FE" stroke="#CBD3D7" stroke-width="0.3" stroke-linecap="round" stroke-miterlimit="10" d="M251.9,235.2
				c-1.4-1.4-5.2-7.3-8.2-15.3"/>
		</g>
		<g>
			<g>
				<g opacity="5.000000e-002">
					<path fill="#707E85" d="M273.3,247.4v9.6c0,0.6-0.4,1-1,1h-8.5c-0.6,0-1-0.4-1-1v-9.6c0-0.6,0.4-1,1-1h8.5
						C272.8,246.4,273.3,246.9,273.3,247.4z"/>
					<path fill="none" stroke="#707E85" stroke-width="0.3" stroke-miterlimit="10" d="M273.3,247.4v9.6c0,0.6-0.4,1-1,1h-8.5
						c-0.6,0-1-0.4-1-1v-9.6c0-0.6,0.4-1,1-1h8.5C272.8,246.4,273.3,246.9,273.3,247.4z"/>
				</g>
				<g>
					<path fill="#EAF6FE" d="M270.3,244.4v9.6c0,0.6-0.4,1-1,1h-8.5c-0.6,0-1-0.4-1-1v-9.6c0-0.6,0.4-1,1-1h8.5
						C269.8,243.4,270.3,243.9,270.3,244.4z"/>
					<path fill="none" stroke="#CBD3D7" stroke-width="0.3" stroke-miterlimit="10" d="M270.3,244.4v9.6c0,0.6-0.4,1-1,1h-8.5
						c-0.6,0-1-0.4-1-1v-9.6c0-0.6,0.4-1,1-1h8.5C269.8,243.4,270.3,243.9,270.3,244.4z"/>
				</g>
			</g>
			<path fill="#EAF6FE" stroke="#CBD3D7" stroke-width="0.3" stroke-miterlimit="10" d="M262.5,250.4l1.5-4c0.2-0.5,0.8-0.8,1.3-0.6
				l1.6,0.6c0.5,0.2,0.8,0.8,0.6,1.3l-1.5,4c-0.2,0.5-0.8,0.8-1.3,0.6l-1.6-0.6C262.5,251.5,262.3,250.9,262.5,250.4z"/>
			<circle fill="#EAF6FE" stroke="#CBD3D7" stroke-width="0.3" stroke-miterlimit="10" cx="264.9" cy="249.1" r="0.6"/>
		</g>
		<g>
			<g>
				<g opacity="5.000000e-002">
					<path fill="#707E85" d="M262.7,185.3v-9.6c0-0.6,0.4-1,1-1h8.5c0.6,0,1,0.4,1,1v9.6c0,0.6-0.4,1-1,1h-8.5
						C263.2,186.3,262.7,185.8,262.7,185.3z"/>
					<path fill="none" stroke="#707E85" stroke-width="0.3" stroke-miterlimit="10" d="M262.7,185.3v-9.6c0-0.6,0.4-1,1-1h8.5
						c0.6,0,1,0.4,1,1v9.6c0,0.6-0.4,1-1,1h-8.5C263.2,186.3,262.7,185.8,262.7,185.3z"/>
				</g>
				<g>
					<path fill="#EAF6FE" d="M259.7,182.3v-9.6c0-0.6,0.4-1,1-1h8.5c0.6,0,1,0.4,1,1v9.6c0,0.6-0.4,1-1,1h-8.5
						C260.2,183.3,259.7,182.8,259.7,182.3z"/>
					<path fill="none" stroke="#CBD3D7" stroke-width="0.3" stroke-miterlimit="10" d="M259.7,182.3v-9.6c0-0.6,0.4-1,1-1h8.5
						c0.6,0,1,0.4,1,1v9.6c0,0.6-0.4,1-1,1h-8.5C260.2,183.3,259.7,182.8,259.7,182.3z"/>
				</g>
			</g>
			<path fill="#EAF6FE" stroke="#CBD3D7" stroke-width="0.3" stroke-miterlimit="10" d="M264.3,175v-0.4c0-0.1,0.1-0.3,0.3-0.3h5.7
				v0.9h-5.7C264.5,175.2,264.3,175.1,264.3,175z"/>
			<path fill="#EAF6FE" stroke="#CBD3D7" stroke-width="0.3" stroke-miterlimit="10" d="M265.2,176.8v-0.4c0-0.1,0.1-0.3,0.3-0.3
				h4.8v0.9h-4.8C265.3,177.1,265.2,176.9,265.2,176.8z"/>
			<path fill="#EAF6FE" stroke="#CBD3D7" stroke-width="0.3" stroke-miterlimit="10" d="M263.7,175.9v-0.4c0-0.1,0.1-0.3,0.3-0.3
				h6.2v0.9H264C263.9,176.1,263.7,176,263.7,175.9z"/>
		</g>
	</g>
	<g>
		<g>
			<g opacity="5.000000e-002">
				<path fill="#707E85" d="M272.3,303.1h-56.9c-0.6,0-1-0.4-1-1v-17.7c0-0.6,0.4-1,1-1h56.9c0.6,0,1,0.4,1,1v17.7
					C273.3,302.6,272.8,303.1,272.3,303.1z"/>
				<path fill="none" stroke="#707E85" stroke-width="0.3" stroke-miterlimit="10" d="M272.3,303.1h-56.9c-0.6,0-1-0.4-1-1v-17.7
					c0-0.6,0.4-1,1-1h56.9c0.6,0,1,0.4,1,1v17.7C273.3,302.6,272.8,303.1,272.3,303.1z"/>
			</g>
			<g>
				<path fill="#EAF6FE" d="M269.3,300.1h-56.9c-0.6,0-1-0.4-1-1v-17.7c0-0.6,0.4-1,1-1h56.9c0.6,0,1,0.4,1,1v17.7
					C270.3,299.6,269.8,300.1,269.3,300.1z"/>
				<path fill="none" stroke="#CBD3D7" stroke-width="0.3" stroke-miterlimit="10" d="M269.3,300.1h-56.9c-0.6,0-1-0.4-1-1v-17.7
					c0-0.6,0.4-1,1-1h56.9c0.6,0,1,0.4,1,1v17.7C270.3,299.6,269.8,300.1,269.3,300.1z"/>
			</g>
		</g>
		<line fill="#EAF6FE" stroke="#CBD3D7" stroke-width="0.3" stroke-miterlimit="10" x1="211.4" y1="283" x2="270.3" y2="283"/>
		<line fill="#EAF6FE" stroke="#CBD3D7" stroke-width="0.3" stroke-miterlimit="10" x1="240.8" y1="283" x2="240.8" y2="280.3"/>
		<polyline fill="none" stroke="#CBD3D7" stroke-width="0.3" stroke-miterlimit="10" points="234.4,280.3 234.4,278.9 236.6,278.9 
			236.6,280.3 		"/>
		<polyline fill="none" stroke="#CBD3D7" stroke-width="0.3" stroke-miterlimit="10" points="245,280.3 245,278.9 247.2,278.9 
			247.2,280.3 		"/>
	</g>
	<line fill="none" stroke="#707E85" stroke-width="0.3" stroke-miterlimit="10" x1="271" y1="402.2" x2="212.4" y2="402.2"/>
	<g>
		<g>
			<rect x="208.3" y="472.8" fill="#FFFFFF" width="62.7" height="20.8"/>
			<path fill="#707E85" d="M270.9,473v20.5h-62.4V473H270.9 M271.2,472.7h-63v21.1h63V472.7L271.2,472.7z"/>
		</g>
		<line fill="none" stroke="#707E85" stroke-width="0.5" stroke-miterlimit="10" x1="216.7" y1="490.1" x2="218" y2="476.4"/>
		<line fill="none" stroke="#707E85" stroke-width="0.5" stroke-miterlimit="10" x1="221.3" y1="490.1" x2="219.9" y2="476.4"/>
		<line fill="none" stroke="#707E85" stroke-width="0.5" stroke-miterlimit="10" x1="223.1" y1="490.1" x2="224.3" y2="476.4"/>
		<line fill="none" stroke="#707E85" stroke-width="0.5" stroke-miterlimit="10" x1="227.7" y1="490.1" x2="226.2" y2="476.4"/>
		<line fill="none" stroke="#707E85" stroke-width="0.5" stroke-miterlimit="10" x1="251.7" y1="490.1" x2="253" y2="476.4"/>
		<line fill="none" stroke="#707E85" stroke-width="0.5" stroke-miterlimit="10" x1="256.3" y1="490.1" x2="254.9" y2="476.4"/>
		<line fill="none" stroke="#707E85" stroke-width="0.5" stroke-miterlimit="10" x1="258.1" y1="490.1" x2="259.3" y2="476.4"/>
		<line fill="none" stroke="#707E85" stroke-width="0.5" stroke-miterlimit="10" x1="262.7" y1="490.1" x2="261.2" y2="476.4"/>
		<line fill="#EAF6FE" stroke="#707E85" stroke-width="0.3" stroke-miterlimit="10" x1="208.2" y1="474.2" x2="270.9" y2="474.2"/>
		<line fill="#EAF6FE" stroke="#707E85" stroke-width="0.3" stroke-miterlimit="10" x1="249.8" y1="474.2" x2="249.8" y2="472.8"/>
		<polyline fill="none" stroke="#707E85" stroke-width="0.3" stroke-miterlimit="10" points="242.9,472.8 242.9,472.1 245.3,472.1 
			245.3,472.8 		"/>
		<polyline fill="none" stroke="#707E85" stroke-width="0.3" stroke-miterlimit="10" points="254.3,472.8 254.3,472.1 256.6,472.1 
			256.6,472.8 		"/>
		<line fill="none" stroke="#707E85" stroke-width="0.3" stroke-miterlimit="10" x1="208.2" y1="483.2" x2="270.9" y2="483.2"/>
		<line fill="#EAF6FE" stroke="#707E85" stroke-width="0.3" stroke-miterlimit="10" x1="229.4" y1="474.2" x2="229.4" y2="472.8"/>
		<polyline fill="none" stroke="#707E85" stroke-width="0.3" stroke-miterlimit="10" points="222.5,472.8 222.5,472.1 224.9,472.1 
			224.9,472.8 		"/>
	</g>
</g>
<g id="Ouvertures">
	<g>
		<g>
			<rect x="305" y="214.9" fill="#FFFFFF" width="124.9" height="6.8"/>
			<path fill="#707E85" d="M429.7,215.1v6.5H305.2v-6.5H429.7 M430,214.8H304.9v7.1H430V214.8L430,214.8z"/>
		</g>
		<g>
			<rect x="367.6" y="214.9" fill="#FFFFFF" width="62.3" height="3.2"/>
			<path fill="#707E85" d="M429.7,215.1v2.9h-62v-2.9H429.7 M430,214.8h-62.6v3.5H430V214.8L430,214.8z"/>
		</g>
		<g>
			<rect x="305" y="218.7" fill="#FFFFFF" width="61.7" height="2.9"/>
			<path fill="#707E85" d="M366.6,218.9v2.6h-61.4v-2.6H366.6 M366.9,218.6h-62v3.2h62V218.6L366.9,218.6z"/>
		</g>
		<g>
			<g>
				<line fill="none" stroke="#707E85" stroke-width="0.3" stroke-miterlimit="1" x1="390" y1="225.1" x2="405.1" y2="225.1"/>
				<g>
					<polygon fill="#707E85" points="404.1,226.4 403.9,226.1 405,225.1 403.9,224.1 404.1,223.9 405.4,225.1 					"/>
				</g>
			</g>
		</g>
		<rect x="364.9" y="218.6" fill="#707E85" width="3.9" height="3.2"/>
		<rect x="364.9" y="214.8" fill="#707E85" width="3.9" height="3.5"/>
		<rect x="304.9" y="218.6" fill="#707E85" width="2.9" height="3.2"/>
		<rect x="426.4" y="214.8" fill="#707E85" width="3.7" height="3.5"/>
		<line fill="none" stroke="#707E85" stroke-width="0.1" stroke-miterlimit="1" x1="368.6" y1="216.6" x2="429.7" y2="216.6"/>
		<line fill="none" stroke="#707E85" stroke-width="0.1" stroke-miterlimit="1" x1="306.3" y1="220.2" x2="367.5" y2="220.2"/>
	</g>
	<g>
		<g>
			<rect x="200.1" y="142.2" fill="#FFFFFF" width="46.2" height="1.6"/>
			<path fill="#707E85" d="M246.2,142.4v1.3h-45.9v-1.3H246.2 M246.5,142.1h-46.5v1.9h46.5V142.1L246.5,142.1z"/>
		</g>
		<path fill="none" stroke="#707E85" stroke-width="0.3" stroke-miterlimit="10" stroke-dasharray="2,2" d="M229.1,144
			c0,0,4.9,13.5,5.2,13.8L248,144"/>
		<rect x="226.5" y="142.1" fill="#707E85" width="3.8" height="1.9"/>
		<g>
			<path fill="none" stroke="#707E85" stroke-width="0.3" stroke-miterlimit="10" stroke-dasharray="2,2" d="M229.1,144
				c0,13.6-12.9,30.3-30.1,30.3"/>
			<line fill="none" stroke="#707E85" stroke-width="0.3" stroke-miterlimit="10" x1="199" y1="144" x2="199" y2="174.3"/>
		</g>
	</g>
	<g>
		<g>
			<rect x="433.5" y="362.5" fill="#FFFFFF" width="2.6" height="94.2"/>
			<path fill="#707E85" d="M436,362.6v93.9h-2.3v-93.9H436 M436.3,362.3h-2.9v94.5h2.9V362.3L436.3,362.3z"/>
		</g>
		<rect x="433.4" y="389.7" fill="#707E85" width="2.9" height="3.4"/>
		<g>
			<path fill="none" stroke="#707E85" stroke-width="0.3" stroke-miterlimit="10" stroke-dasharray="2,2" d="M433.4,391.3
				c-17.3,0-29.8-12.5-29.8-29.8"/>
			<line fill="none" stroke="#707E85" stroke-width="0.3" stroke-miterlimit="10" x1="433.4" y1="361.5" x2="403.6" y2="361.5"/>
		</g>
	</g>
	<g>
		<path fill="none" stroke="#707E85" stroke-width="0.3" stroke-miterlimit="10" stroke-dasharray="2,2" d="M213.5,364.1
			c15.9,0,28.7,13.1,28.7,29.3"/>
		<line fill="none" stroke="#707E85" stroke-width="0.3" stroke-miterlimit="10" x1="213.5" y1="393.5" x2="242.3" y2="393.5"/>
	</g>
	<g>
		<path fill="none" stroke="#707E85" stroke-width="0.3" stroke-miterlimit="10" stroke-dasharray="2,2" d="M168.3,432.4
			c19,0,34.4,15.7,34.4,35.1"/>
		<line fill="none" stroke="#707E85" stroke-width="0.3" stroke-miterlimit="10" x1="168.3" y1="467.5" x2="202.7" y2="467.5"/>
	</g>
	<g>
		<path fill="none" stroke="#707E85" stroke-width="0.3" stroke-miterlimit="10" stroke-dasharray="2,2" d="M161.9,364.1
			c-15.9,0-28.7,13.1-28.7,29.3"/>
		<line fill="none" stroke="#707E85" stroke-width="0.3" stroke-miterlimit="10" x1="161.9" y1="393.5" x2="133.2" y2="393.5"/>
	</g>
	<g>
		<path fill="none" stroke="#707E85" stroke-width="0.3" stroke-miterlimit="10" stroke-dasharray="2,2" d="M202.2,344.8
			c0-15.9-13.1-28.7-29.3-28.7"/>
		<line fill="none" stroke="#707E85" stroke-width="0.3" stroke-miterlimit="10" x1="172.9" y1="344.8" x2="172.9" y2="316.1"/>
	</g>
</g>
<g id="Murs">
	<g>
		<polygon fill="#707E85" points="427.5,493.6 300.7,493.6 285.9,493.6 280.4,493.6 280.4,472.7 271,472.7 271,493.6 208.4,493.6 
			208.4,489.8 167.4,489.8 167.4,465.8 158,465.8 158,502.3 162.7,502.3 167.4,502.3 171.7,502.3 208.4,502.3 271,502.3 
			280.4,502.3 285.9,502.3 285.9,509.6 444.7,509.6 444.7,502.5 444.7,493.6 444.7,487.7 444.7,484.3 444.7,472.8 444.7,458.9 
			444.7,455.5 433.4,455.5 433.4,458.9 430,458.9 430,472.8 427.5,472.8 		"/>
		<polygon fill="#707E85" points="77.9,406.1 158,406.1 158,434.1 167.4,434.1 167.4,408 167.4,396.6 167.4,392.1 163.4,392.1 
			163.4,396.6 158,396.6 92.3,396.6 92.3,350.5 163.4,350.5 163.4,364.6 167.4,364.6 167.4,350.6 173.9,350.6 173.9,345.8 
			167.4,345.8 167.4,146.8 196.7,146.8 196.7,144 199.9,144 199.9,132.1 196.7,132.1 185.2,132.1 158.5,132.1 158.5,136.1 
			158.5,146.8 158.5,341.9 77.9,341.9 77.9,346.2 77.9,350.5 77.9,396.6 77.9,396.6 		"/>
		<polygon fill="#707E85" points="208.4,364.6 212.4,364.6 212.4,350.6 212.4,345.8 212.4,314 254.8,314 254.8,350.6 271,350.6 
			271,427.8 212.4,427.8 212.4,392.1 208.4,392.1 208.4,431.9 211.2,431.9 212.4,431.9 271,431.9 274,431.9 278.8,431.9 
			278.8,221.8 304.9,221.8 304.9,214.4 285.7,214.4 285.7,132.1 278.3,132.1 271,132.1 261.2,132.1 249.8,132.1 246.5,132.1 
			246.5,144 249.8,144 249.8,146.8 271,146.8 271,213.6 271,218.1 271,300.5 212.4,300.5 210.4,300.5 208.4,300.5 208.4,345.8 
			201.4,345.8 201.4,350.6 208.4,350.6 		"/>
		<polygon fill="#707E85" points="433.4,362.3 444.7,362.3 444.7,359.2 444.7,333.5 444.7,214.4 430,214.4 430,359.2 433.4,359.2 		
			"/>
	</g>
</g>
<g id="Étiquettes" display="none">
	<text transform="matrix(1 0 0 1 223.1493 286.0142)" display="inline" fill="#3A3A39" font-family="'Lato-Black'" font-size="7px">Chambre 1</text>
	
		<text transform="matrix(1 0 0 1 230.6425 294.4141)" display="inline" fill="#3A3A39" font-family="'Lato-Italic'" font-size="7px">15.30 m</text>
	
		<text transform="matrix(0.583 0 0 0.583 255.205 292.083)" display="inline" fill="#3A3A39" font-family="'Lato-Italic'" font-size="7px">2</text>
	<text transform="matrix(1 0 0 1 219.9515 461.7837)" display="inline" fill="#3A3A39" font-family="'Lato-Black'" font-size="7px">Dégagement </text>
	
		<text transform="matrix(1 0 0 1 233.5834 470.1836)" display="inline" fill="#3A3A39" font-family="'Lato-Italic'" font-size="7px">8.70 m</text>
	
		<text transform="matrix(0.583 0 0 0.583 254.0853 467.8525)" display="inline" fill="#3A3A39" font-family="'Lato-Italic'" font-size="7px">2</text>
	<text transform="matrix(1 0 0 1 120.1895 381.8784)" display="inline" fill="#3A3A39" font-family="'Lato-Black'" font-size="7px">buanderie </text>
	
		<text transform="matrix(1 0 0 1 129.6563 390.2783)" display="inline" fill="#3A3A39" font-family="'Lato-Italic'" font-size="7px">2.80 m</text>
	
		<text transform="matrix(0.583 0 0 0.583 150.1582 387.9473)" display="inline" fill="#3A3A39" font-family="'Lato-Italic'" font-size="7px">2</text>
	<text transform="matrix(1 0 0 1 480.2012 493.6616)" display="inline" fill="#3A3A39" font-family="'Lato-Black'" font-size="7px">Jardin </text>
	
		<text transform="matrix(1 0 0 1 478.0059 502.0615)" display="inline" fill="#3A3A39" font-family="'Lato-Italic'" font-size="7px">119.00 m</text>
	
		<text transform="matrix(0.583 0 0 0.583 506.6289 499.7305)" display="inline" fill="#3A3A39" font-family="'Lato-Italic'" font-size="7px">2</text>
	<text transform="matrix(1 0 0 1 375.2826 456.8091)" display="inline" fill="#3A3A39" font-family="'Lato-Black'" font-size="7px">Espace Jour </text>
	<text transform="matrix(1 0 0 1 385.6801 465.209)" display="inline" fill="#3A3A39" font-family="'Lato-Italic'" font-size="7px">35.00 m</text>
	
		<text transform="matrix(0.583 0 0 0.583 410.2426 462.8779)" display="inline" fill="#3A3A39" font-family="'Lato-Italic'" font-size="7px">2</text>
	<text transform="matrix(1 0 0 1 401.8971 199.439)" display="inline" fill="#3A3A39" font-family="'Lato-Black'" font-size="7px">Terrasse </text>
	
		<text transform="matrix(1 0 0 1 406.2467 207.8389)" display="inline" fill="#3A3A39" font-family="'Lato-Italic'" font-size="7px">11.00 m</text>
	
		<text transform="matrix(0.583 0 0 0.583 430.8092 205.5078)" display="inline" fill="#3A3A39" font-family="'Lato-Italic'" font-size="7px">2</text>
</g>
<g id="Calque_1">
</g>
<g id="Entree">
	<polygon fill="#3A3A39" points="161.9,444.5 166.7,450 161.9,455.5 	"/>
</g>
<g id="Nord">
	<circle fill="none" stroke="#707E85" stroke-miterlimit="10" cx="89.8" cy="75.7" r="11.9"/>
	<line fill="none" stroke="#707E85" stroke-width="2" stroke-miterlimit="10" x1="97.5" y1="73.3" x2="104.9" y2="70.9"/>
	<text transform="matrix(1 0 0 1 83.6357 81.5257)" fill="#707E85" font-family="'Lato-Black'" font-size="16.4252px">N</text>
</g>
</svg>
