<?xml version="1.0" encoding="utf-8"?>
<!-- Generator: Adobe Illustrator 19.0.0, SVG Export Plug-In . SVG Version: 6.00 Build 0)  -->
<svg version="1.1" xmlns="http://www.w3.org/2000/svg" xmlns:xlink="http://www.w3.org/1999/xlink" x="0px" y="0px"
	 viewBox="0 0 595.3 595.3" enable-background="new 0 0 595.3 595.3" xml:space="preserve">
<pattern  width="3.8" height="3.4" patternUnits="userSpaceOnUse" id="Nouvelle_nuance_de_motif_7" viewBox="0 -3.4 3.8 3.4" overflow="visible">
	<g>
		<polygon fill="none" points="0,0 3.8,0 3.8,-3.4 0,-3.4 		"/>
		<polygon fill="#FFFFFF" points="3.7,0 0.1,0 0.1,-3.4 3.7,-3.4 		"/>
		<polygon fill="#E3E3E3" points="3.8,0 3.7,0 3.7,-3.4 3.8,-3.4 		"/>
		<polygon fill="#E3E3E3" points="0.1,0 0,0 0,-3.4 0.1,-3.4 		"/>
	</g>
</pattern>
<g id="Jardin">
</g>
<g id="Fond">
	<polygon fill="#FFFFFF" stroke="#707E85" stroke-width="0.3" stroke-miterlimit="10" points="436.7,346.1 436.7,337.7 436.7,293.3 
		511.9,293.3 511.7,169.7 511.7,90.9 81.2,90.9 106.9,507.4 362.2,507.4 362.2,345.9 	"/>
	<polygon fill="#EAF6FE" points="78.6,101.1 105,496 354.4,496 354.4,345.5 430.2,345.5 430.2,293.3 509.5,293.3 509.5,101 
		366.3,101.5 366.3,167.6 205.2,167.6 205.2,101.1 	"/>
</g>
<g id="Sol">
	<rect x="432.6" y="220.3" opacity="0.8" fill="#FFFFFF" width="70.8" height="56.5"/>
	<rect x="105.6" y="237.3" opacity="0.8" fill="#FFFFFF" width="57.8" height="119"/>
	<pattern  id="SVGID_1_" xlink:href="#Nouvelle_nuance_de_motif_7" patternTransform="matrix(1 0 0 1 -7.626 10.3125)">
	</pattern>
	<rect x="218.8" y="91.2" fill="url(#SVGID_1_)" width="137.7" height="76.5"/>
</g>
<g id="Installations">
	<rect x="335" y="174.5" fill="#FFFFFF" stroke="#707E85" stroke-width="0.3" stroke-miterlimit="10" width="19.3" height="117.6"/>
	<g>
		<rect x="337.2" y="236.9" fill="none" stroke="#707E85" stroke-width="0.3" stroke-miterlimit="10" width="15.1" height="30.4"/>
		<g>
			<path fill="#FFFFFF" stroke="#707E85" stroke-width="0.3" stroke-miterlimit="10" d="M348.6,252.4h-7.8c-1.3,0-2.4-1.1-2.4-2.4
				v-9.3c0-1.3,1.1-2.4,2.4-2.4h7.8c1.3,0,2.4,1.1,2.4,2.4v9.3C351,251.3,349.9,252.4,348.6,252.4z"/>
			<circle fill="#FFFFFF" stroke="#707E85" stroke-width="0.3" stroke-miterlimit="10" cx="348.5" cy="245.1" r="1"/>
		</g>
		<g>
			<rect x="340.2" y="254.7" fill="#707E85" width="0.5" height="10"/>
			<rect x="342.3" y="254.7" fill="#707E85" width="0.5" height="10"/>
			<rect x="344.4" y="254.7" fill="#707E85" width="0.5" height="10"/>
			<rect x="346.5" y="254.7" fill="#707E85" width="0.5" height="10"/>
			<rect x="348.6" y="254.7" fill="#707E85" width="0.5" height="10"/>
		</g>
	</g>
	<g>
		
			<polyline fill="none" stroke="#000000" stroke-width="0.12" stroke-linecap="square" stroke-linejoin="bevel" stroke-miterlimit="10" points="
			347.6,284.2 346.7,284.2 346.7,285.1 		"/>
		
			<polyline fill="none" stroke="#000000" stroke-width="0.12" stroke-linecap="square" stroke-linejoin="bevel" stroke-miterlimit="10" points="
			342.7,279.3 342.7,280.1 341.9,280.1 		"/>
		
			<line fill="none" stroke="#000000" stroke-width="0.12" stroke-linecap="square" stroke-linejoin="bevel" stroke-miterlimit="10" x1="342.1" y1="279.5" x2="347.3" y2="284.8"/>
		
			<polyline fill="none" stroke="#000000" stroke-width="0.12" stroke-linecap="square" stroke-linejoin="bevel" stroke-miterlimit="10" points="
			342.7,285.1 342.7,284.2 341.9,284.2 		"/>
		
			<polyline fill="none" stroke="#000000" stroke-width="0.12" stroke-linecap="square" stroke-linejoin="bevel" stroke-miterlimit="10" points="
			347.6,280.1 346.7,280.1 346.7,279.3 		"/>
		
			<line fill="none" stroke="#000000" stroke-width="0.12" stroke-linecap="square" stroke-linejoin="bevel" stroke-miterlimit="10" x1="347.3" y1="279.5" x2="342.1" y2="284.8"/>
		
			<polyline fill="none" stroke="#000000" stroke-width="0.12" stroke-linecap="square" stroke-linejoin="bevel" stroke-miterlimit="10" points="
			345.4,285.7 344.8,285.1 344.2,285.7 		"/>
		
			<polyline fill="none" stroke="#000000" stroke-width="0.12" stroke-linecap="square" stroke-linejoin="bevel" stroke-miterlimit="10" points="
			345.4,278.7 344.8,279.3 344.2,278.7 		"/>
		
			<polyline fill="none" stroke="#000000" stroke-width="0.12" stroke-linecap="square" stroke-linejoin="bevel" stroke-miterlimit="10" points="
			341.3,282.8 341.9,282.2 341.3,281.6 		"/>
		
			<polyline fill="none" stroke="#000000" stroke-width="0.12" stroke-linecap="square" stroke-linejoin="bevel" stroke-miterlimit="10" points="
			348.1,282.8 347.5,282.2 348.1,281.6 		"/>
		
			<line fill="none" stroke="#000000" stroke-width="0.12" stroke-linecap="square" stroke-linejoin="bevel" stroke-miterlimit="10" x1="344.8" y1="278.5" x2="344.8" y2="285.9"/>
		
			<line fill="none" stroke="#000000" stroke-width="0.12" stroke-linecap="square" stroke-linejoin="bevel" stroke-miterlimit="10" x1="348.4" y1="282.2" x2="341" y2="282.2"/>
		<polyline fill="none" stroke="#707E85" stroke-width="0.3" stroke-miterlimit="10" points="347.6,284.2 346.7,284.2 346.7,285.1 
					"/>
		<polyline fill="none" stroke="#707E85" stroke-width="0.3" stroke-miterlimit="10" points="342.7,279.3 342.7,280.1 341.9,280.1 
					"/>
		<line fill="none" stroke="#707E85" stroke-width="0.3" stroke-miterlimit="10" x1="342.1" y1="279.5" x2="347.3" y2="284.8"/>
		<polyline fill="none" stroke="#707E85" stroke-width="0.3" stroke-miterlimit="10" points="342.7,285.1 342.7,284.2 341.9,284.2 
					"/>
		<polyline fill="none" stroke="#707E85" stroke-width="0.3" stroke-miterlimit="10" points="347.6,280.1 346.7,280.1 346.7,279.3 
					"/>
		<line fill="none" stroke="#707E85" stroke-width="0.3" stroke-miterlimit="10" x1="347.3" y1="279.5" x2="342.1" y2="284.8"/>
		<polyline fill="none" stroke="#707E85" stroke-width="0.3" stroke-miterlimit="10" points="345.4,285.7 344.8,285.1 344.2,285.7 
					"/>
		<polyline fill="none" stroke="#707E85" stroke-width="0.3" stroke-miterlimit="10" points="345.4,278.7 344.8,279.3 344.2,278.7 
					"/>
		<polyline fill="none" stroke="#707E85" stroke-width="0.3" stroke-miterlimit="10" points="341.3,282.8 341.9,282.2 341.3,281.6 
					"/>
		<polyline fill="none" stroke="#707E85" stroke-width="0.3" stroke-miterlimit="10" points="348.1,282.8 347.5,282.2 348.1,281.6 
					"/>
		<line fill="none" stroke="#707E85" stroke-width="0.3" stroke-miterlimit="10" x1="344.8" y1="278.5" x2="344.8" y2="285.9"/>
		<line fill="none" stroke="#707E85" stroke-width="0.3" stroke-miterlimit="10" x1="348.4" y1="282.2" x2="341" y2="282.2"/>
	</g>
	<g>
		<rect x="336.5" y="194.9" fill="none" stroke="#707E85" stroke-width="0.3" stroke-miterlimit="10" width="16.4" height="16.4"/>
		<path fill="#FFFFFF" stroke="#707E85" stroke-width="0.3" stroke-miterlimit="10" d="M345.1,199.7c0-1.7,1.3-3,3-3
			c1.7,0,3,1.3,3,3c0,1.7-1.3,3-3,3C346.4,202.6,345.1,201.3,345.1,199.7"/>
		<path fill="#FFFFFF" stroke="#707E85" stroke-width="0.3" stroke-miterlimit="10" d="M338.4,206.6c0-1.7,1.3-3,3-3
			c1.7,0,3,1.3,3,3c0,1.7-1.3,3-3,3C339.7,209.6,338.4,208.3,338.4,206.6"/>
		<path fill="#FFFFFF" stroke="#707E85" stroke-width="0.3" stroke-miterlimit="10" d="M345.9,207.2c0-1.3,1.1-2.4,2.4-2.4
			c1.3,0,2.4,1.1,2.4,2.4c0,1.3-1.1,2.4-2.4,2.4C347,209.6,345.9,208.5,345.9,207.2"/>
		<path fill="#FFFFFF" stroke="#707E85" stroke-width="0.3" stroke-miterlimit="10" d="M338.4,199.2c0-1.3,1.1-2.4,2.4-2.4
			s2.4,1.1,2.4,2.4c0,1.3-1.1,2.4-2.4,2.4S338.4,200.6,338.4,199.2"/>
	</g>
	<line fill="none" stroke="#707E85" stroke-width="0.3" stroke-miterlimit="10" x1="335" y1="271.9" x2="354.3" y2="271.9"/>
	<g>
		<g>
			<g opacity="5.000000e-002">
				<path fill="#707E85" d="M156.6,183.7l-63,4c-0.6,0-1-0.4-1.1-0.9l-3.2-49.8c0-0.6,0.4-1,0.9-1.1l63-4c0.6,0,1,0.4,1.1,0.9
					l3.2,49.8C157.5,183.2,157.1,183.7,156.6,183.7z"/>
				<path fill="none" stroke="#707E85" stroke-width="0.3" stroke-miterlimit="10" d="M156.6,183.7l-63,4c-0.6,0-1-0.4-1.1-0.9
					l-3.2-49.8c0-0.6,0.4-1,0.9-1.1l63-4c0.6,0,1,0.4,1.1,0.9l3.2,49.8C157.5,183.2,157.1,183.7,156.6,183.7z"/>
			</g>
			<g>
				<path fill="#EAF6FE" d="M153.6,180.7l-63,4c-0.6,0-1-0.4-1.1-0.9l-3.2-49.8c0-0.6,0.4-1,0.9-1.1l63-4c0.6,0,1,0.4,1.1,0.9
					l3.2,49.8C154.5,180.2,154.1,180.7,153.6,180.7z"/>
				<path fill="none" stroke="#CBD3D7" stroke-width="0.3" stroke-miterlimit="10" d="M153.6,180.7l-63,4c-0.6,0-1-0.4-1.1-0.9
					l-3.2-49.8c0-0.6,0.4-1,0.9-1.1l63-4c0.6,0,1,0.4,1.1,0.9l3.2,49.8C154.5,180.2,154.1,180.7,153.6,180.7z"/>
			</g>
		</g>
		<path fill="#EAF6FE" stroke="#CBD3D7" stroke-width="0.3" stroke-miterlimit="10" d="M149.9,177.5L93.8,181c-0.6,0-1-0.4-1.1-0.9
			L90,137.2c0-0.6,0.4-1,0.9-1.1l56.1-3.6c0.6,0,1,0.4,1.1,0.9l2.7,42.9C150.8,176.9,150.4,177.4,149.9,177.5z"/>
		<path fill="#EAF6FE" stroke="#CBD3D7" stroke-width="0.3" stroke-miterlimit="10" d="M95.8,177.9c-1.2-1.8-2.3-15.3-1.3-17.5
			c0.1-0.1,6.4-1.3,9.9-1c0.6,0,1.4,0.5,1.9,1.5c1.4,3.4,1.5,11.4,0.6,15.2c-0.3,1.4-1.7,1.4-2.2,1.5
			C102.1,178.3,96.2,178.5,95.8,177.9z"/>
		<path fill="#EAF6FE" stroke="#CBD3D7" stroke-width="0.3" stroke-miterlimit="10" d="M94.3,156.6c-1.7-3.8-2.1-16.7-1.4-17.5
			c0.3-0.3,6.4-1.4,9.4-1c0.4,0.1,0.9,0.2,1,0.4c1.3,1.6,3.1,16.6,2.9,16.8s-1.4,0.2-2,0.5C102.7,156.8,94.6,157.2,94.3,156.6z"/>
		<g>
			<path fill="#EAF6FE" stroke="#CBD3D7" stroke-width="0.3" stroke-miterlimit="10" d="M113.8,137c0,0,2.8,17.8,3,20
				c0.2,2.4-0.4,20.2-0.4,20.2c0.1,1.7,3,2.9,1.3,3l-9.4,0.6c-1.7,0.1-3.2-1.2-3.3-2.9c0,0-0.2-17.3-0.4-20
				c-0.2-2.7-2.2-20.1-2.2-20.1c-0.1-1.7,1.2-3.2,2.9-3.3l9.4-0.6C116.4,133.7,113.7,135.3,113.8,137z"/>
			<path fill="#EAF6FE" stroke="#CBD3D7" stroke-width="0.3" stroke-linecap="round" stroke-miterlimit="10" d="M107.2,174.1
				c0.4,2.1,3.6,6.3,4.4,6.4"/>
			<path fill="#EAF6FE" stroke="#CBD3D7" stroke-width="0.3" stroke-linecap="round" stroke-miterlimit="10" d="M106.7,152.3
				c0.2,0.4,5.3,9.4,7.4,8.2c0.8-0.5,0.2-1.9-0.3-2.6"/>
			<path fill="#EAF6FE" stroke="#CBD3D7" stroke-width="0.3" stroke-linecap="round" stroke-miterlimit="10" d="M103.8,137.2
				c1.4,1.2,5.3,6.5,8.6,13.9"/>
		</g>
		<g>
			<g>
				<g opacity="5.000000e-002">
					<path fill="#707E85" d="M89,132.7l-0.6-8.9c0-0.6,0.4-1,0.9-1.1l7.9-0.5c0.6,0,1,0.4,1.1,0.9l0.6,8.9c0,0.6-0.4,1-0.9,1.1
						l-7.9,0.5C89.6,133.6,89.1,133.2,89,132.7z"/>
					<path fill="none" stroke="#707E85" stroke-width="0.3" stroke-miterlimit="10" d="M89,132.7l-0.6-8.9c0-0.6,0.4-1,0.9-1.1
						l7.9-0.5c0.6,0,1,0.4,1.1,0.9l0.6,8.9c0,0.6-0.4,1-0.9,1.1l-7.9,0.5C89.6,133.6,89.1,133.2,89,132.7z"/>
				</g>
				<g>
					<path fill="#EAF6FE" d="M86,129.7l-0.6-8.9c0-0.6,0.4-1,0.9-1.1l7.9-0.5c0.6,0,1,0.4,1.1,0.9l0.6,8.9c0,0.6-0.4,1-0.9,1.1
						l-7.9,0.5C86.6,130.6,86.1,130.2,86,129.7z"/>
					<path fill="none" stroke="#CBD3D7" stroke-width="0.3" stroke-miterlimit="10" d="M86,129.7l-0.6-8.9c0-0.6,0.4-1,0.9-1.1
						l7.9-0.5c0.6,0,1,0.4,1.1,0.9l0.6,8.9c0,0.6-0.4,1-0.9,1.1l-7.9,0.5C86.6,130.6,86.1,130.2,86,129.7z"/>
				</g>
			</g>
			<path fill="#EAF6FE" stroke="#CBD3D7" stroke-width="0.3" stroke-miterlimit="10" d="M93,123.7l-1.2,3.7
				c-0.2,0.5-0.7,0.8-1.3,0.7l-1.4-0.4c-0.5-0.2-0.8-0.7-0.7-1.3l1.2-3.7c0.2-0.5,0.7-0.8,1.3-0.7l1.4,0.4
				C92.9,122.6,93.1,123.2,93,123.7z"/>
			<circle fill="#EAF6FE" stroke="#CBD3D7" stroke-width="0.3" stroke-miterlimit="10" cx="90.7" cy="125" r="0.5"/>
		</g>
		<g>
			<g>
				<g opacity="5.000000e-002">
					<path fill="#707E85" d="M102.6,190.4l0.6,8.9c0,0.6-0.4,1-0.9,1.1l-7.9,0.5c-0.6,0-1-0.4-1.1-0.9l-0.6-8.9c0-0.6,0.4-1,0.9-1.1
						l7.9-0.5C102.1,189.5,102.6,189.9,102.6,190.4z"/>
					<path fill="none" stroke="#707E85" stroke-width="0.3" stroke-miterlimit="10" d="M102.6,190.4l0.6,8.9c0,0.6-0.4,1-0.9,1.1
						l-7.9,0.5c-0.6,0-1-0.4-1.1-0.9l-0.6-8.9c0-0.6,0.4-1,0.9-1.1l7.9-0.5C102.1,189.5,102.6,189.9,102.6,190.4z"/>
				</g>
				<g>
					<path fill="#EAF6FE" d="M99.6,187.4l0.6,8.9c0,0.6-0.4,1-0.9,1.1l-7.9,0.5c-0.6,0-1-0.4-1.1-0.9l-0.6-8.9c0-0.6,0.4-1,0.9-1.1
						l7.9-0.5C99.1,186.5,99.6,186.9,99.6,187.4z"/>
					<path fill="none" stroke="#CBD3D7" stroke-width="0.3" stroke-miterlimit="10" d="M99.6,187.4l0.6,8.9c0,0.6-0.4,1-0.9,1.1
						l-7.9,0.5c-0.6,0-1-0.4-1.1-0.9l-0.6-8.9c0-0.6,0.4-1,0.9-1.1l7.9-0.5C99.1,186.5,99.6,186.9,99.6,187.4z"/>
				</g>
			</g>
			<path fill="#EAF6FE" stroke="#CBD3D7" stroke-width="0.3" stroke-miterlimit="10" d="M95.7,194.5l0,0.4c0,0.1-0.1,0.2-0.2,0.3
				l-5.3,0.3l-0.1-0.9l5.3-0.3C95.6,194.3,95.7,194.4,95.7,194.5z"/>
			<path fill="#EAF6FE" stroke="#CBD3D7" stroke-width="0.3" stroke-miterlimit="10" d="M94.8,192.8l0,0.4c0,0.1-0.1,0.2-0.2,0.3
				l-4.5,0.3l-0.1-0.9l4.5-0.3C94.7,192.6,94.8,192.7,94.8,192.8z"/>
			<path fill="#EAF6FE" stroke="#CBD3D7" stroke-width="0.3" stroke-miterlimit="10" d="M96.2,193.6l0,0.4c0,0.1-0.1,0.2-0.2,0.3
				l-5.9,0.4l-0.1-0.9l5.9-0.4C96.1,193.4,96.2,193.5,96.2,193.6z"/>
		</g>
	</g>
	<g>
		<g>
			<g opacity="5.000000e-002">
				<path fill="#707E85" d="M150.4,234.6H96.5c-0.6,0-1-0.4-1-1V217c0-0.6,0.4-1,1-1h53.9c0.6,0,1,0.4,1,1v16.6
					C151.4,234.1,151,234.6,150.4,234.6z"/>
				<path fill="none" stroke="#707E85" stroke-width="0.3" stroke-miterlimit="10" d="M150.4,234.6H96.5c-0.6,0-1-0.4-1-1V217
					c0-0.6,0.4-1,1-1h53.9c0.6,0,1,0.4,1,1v16.6C151.4,234.1,151,234.6,150.4,234.6z"/>
			</g>
			<g>
				<path fill="#EAF6FE" d="M147.4,231.6H93.5c-0.6,0-1-0.4-1-1V214c0-0.6,0.4-1,1-1h53.9c0.6,0,1,0.4,1,1v16.6
					C148.4,231.1,148,231.6,147.4,231.6z"/>
				<path fill="none" stroke="#CBD3D7" stroke-width="0.3" stroke-miterlimit="10" d="M147.4,231.6H93.5c-0.6,0-1-0.4-1-1V214
					c0-0.6,0.4-1,1-1h53.9c0.6,0,1,0.4,1,1v16.6C148.4,231.1,148,231.6,147.4,231.6z"/>
			</g>
		</g>
		<line fill="#EAF6FE" stroke="#CBD3D7" stroke-width="0.3" stroke-miterlimit="10" x1="92.5" y1="215.5" x2="148.4" y2="215.5"/>
		<line fill="#EAF6FE" stroke="#CBD3D7" stroke-width="0.3" stroke-miterlimit="10" x1="120.5" y1="215.5" x2="120.5" y2="213"/>
		<polyline fill="none" stroke="#CBD3D7" stroke-width="0.3" stroke-miterlimit="10" points="114.4,213 114.4,211.6 116.5,211.6 
			116.5,213 		"/>
		<polyline fill="none" stroke="#CBD3D7" stroke-width="0.3" stroke-miterlimit="10" points="124.5,213 124.5,211.6 126.6,211.6 
			126.6,213 		"/>
	</g>
	<g>
		<path fill="#EAF6FE" stroke="#CBD3D7" stroke-width="0.3" stroke-miterlimit="10" d="M136,439.7l-1.7,0.1l0.9,15l1.7-0.1
			c0.7,0,1.2-0.6,1.1-1.3l-0.8-12.5C137.3,440.2,136.7,439.6,136,439.7z"/>
		
			<rect x="127.6" y="440" transform="matrix(-0.998 6.271578e-002 -6.271578e-002 -0.998 290.2429 885.9046)" fill="#EAF6FE" stroke="#CBD3D7" stroke-width="0.3" stroke-miterlimit="10" width="7.1" height="15"/>
		<line fill="#EAF6FE" stroke="#CBD3D7" stroke-width="0.3" stroke-miterlimit="10" x1="134.4" y1="441.8" x2="127.3" y2="442.3"/>
		<line fill="#EAF6FE" stroke="#CBD3D7" stroke-width="0.3" stroke-miterlimit="10" x1="128" y1="453.2" x2="135.1" y2="452.7"/>
		<g>
			<g opacity="5.000000e-002">
				<path fill="#707E85" d="M109,430.1l19.4-1.2c0.5,0,0.9,0.3,0.9,0.8l2.6,42.1c0,0.5-0.3,0.9-0.8,0.9l-19.4,1.2
					c-0.5,0-0.9-0.3-0.9-0.8l-2.6-42.1C108.1,430.5,108.5,430.1,109,430.1z"/>
				<path fill="none" stroke="#707E85" stroke-width="0.3" stroke-miterlimit="10" d="M109,430.1l19.4-1.2c0.5,0,0.9,0.3,0.9,0.8
					l2.6,42.1c0,0.5-0.3,0.9-0.8,0.9l-19.4,1.2c-0.5,0-0.9-0.3-0.9-0.8l-2.6-42.1C108.1,430.5,108.5,430.1,109,430.1z"/>
			</g>
			<g>
				<path fill="#EAF6FE" d="M106,427.1l19.4-1.2c0.5,0,0.9,0.3,0.9,0.8l2.6,42.1c0,0.5-0.3,0.9-0.8,0.9l-19.4,1.2
					c-0.5,0-0.9-0.3-0.9-0.8l-2.6-42.1C105.1,427.5,105.5,427.1,106,427.1z"/>
				<path fill="none" stroke="#CBD3D7" stroke-width="0.3" stroke-miterlimit="10" d="M106,427.1l19.4-1.2c0.5,0,0.9,0.3,0.9,0.8
					l2.6,42.1c0,0.5-0.3,0.9-0.8,0.9l-19.4,1.2c-0.5,0-0.9-0.3-0.9-0.8l-2.6-42.1C105.1,427.5,105.5,427.1,106,427.1z"/>
			</g>
		</g>
	</g>
	<g>
		<g>
			<g opacity="5.000000e-002">
				<path fill="#707E85" d="M206.9,457.9v36.2c0,0.6-0.4,1-1,1H190c-0.6,0-1-0.4-1-1v-36.2c0-0.6,0.4-1,1-1h15.9
					C206.5,456.9,206.9,457.3,206.9,457.9z"/>
				<path fill="none" stroke="#707E85" stroke-width="0.3" stroke-miterlimit="10" d="M206.9,457.9v36.2c0,0.6-0.4,1-1,1H190
					c-0.6,0-1-0.4-1-1v-36.2c0-0.6,0.4-1,1-1h15.9C206.5,456.9,206.9,457.3,206.9,457.9z"/>
			</g>
			<g>
				<path fill="#EAF6FE" d="M203.9,454.9v36.2c0,0.6-0.4,1-1,1H187c-0.6,0-1-0.4-1-1v-36.2c0-0.6,0.4-1,1-1h15.9
					C203.5,453.9,203.9,454.3,203.9,454.9z"/>
				<path fill="none" stroke="#CBD3D7" stroke-width="0.3" stroke-miterlimit="10" d="M203.9,454.9v36.2c0,0.6-0.4,1-1,1H187
					c-0.6,0-1-0.4-1-1v-36.2c0-0.6,0.4-1,1-1h15.9C203.5,453.9,203.9,454.3,203.9,454.9z"/>
			</g>
		</g>
		<line fill="#EAF6FE" stroke="#CBD3D7" stroke-width="0.3" stroke-miterlimit="10" x1="188.4" y1="492.1" x2="188.4" y2="453.9"/>
		<line fill="#EAF6FE" stroke="#CBD3D7" stroke-width="0.3" stroke-miterlimit="10" x1="188.4" y1="473" x2="186" y2="473"/>
		<polyline fill="none" stroke="#CBD3D7" stroke-width="0.3" stroke-miterlimit="10" points="186,477.1 184.7,477.1 184.7,475.7 
			186,475.7 		"/>
		<polyline fill="none" stroke="#CBD3D7" stroke-width="0.3" stroke-miterlimit="10" points="186,470.3 184.7,470.3 184.7,468.8 
			186,468.8 		"/>
	</g>
	<g>
		<path fill="#FFFFFF" stroke="#707E85" stroke-width="0.3" stroke-miterlimit="10" d="M161.4,343.6c0-7.4-4.5-9.9-6.7-9.9h-43.6
			c-2.2,0-4,1.8-4,4v11.9c0,2.2,1.8,4,4,4h43.6C156.9,353.6,161.4,351,161.4,343.6z"/>
		<path fill="#FFFFFF" stroke="#707E85" stroke-width="0.3" stroke-miterlimit="10" d="M152.4,343.6c0-6.2-3.6-8.4-5.4-8.4h-35.2
			c-1.8,0-3.2,1.5-3.2,3.4v10.1c0,1.9,1.4,3.4,3.2,3.4H147C148.7,352.1,152.4,349.8,152.4,343.6z"/>
		<circle fill="#FFFFFF" stroke="#707E85" stroke-width="0.3" stroke-miterlimit="10" cx="115" cy="343.7" r="1"/>
	</g>
	<g>
		<g>
			<g opacity="0.2">
				<path fill="#708793" d="M120.5,328.9h-12.2v-31.7h12.2c2.3,0,4.1,1.8,4.1,4.1v23.5C124.6,327.1,122.8,328.9,120.5,328.9z"/>
				<path fill="none" stroke="#708793" stroke-width="0.3" stroke-miterlimit="10" d="M120.5,328.9h-12.2v-31.7h12.2
					c2.3,0,4.1,1.8,4.1,4.1v23.5C124.6,327.1,122.8,328.9,120.5,328.9z"/>
			</g>
			<g>
				<path fill="#FFFFFF" d="M117.5,325.9h-12.2v-31.7h12.2c2.3,0,4.1,1.8,4.1,4.1v23.5C121.6,324.1,119.8,325.9,117.5,325.9z"/>
				<path fill="none" stroke="#707E85" stroke-width="0.3" stroke-miterlimit="10" d="M117.5,325.9h-12.2v-31.7h12.2
					c2.3,0,4.1,1.8,4.1,4.1v23.5C121.6,324.1,119.8,325.9,117.5,325.9z"/>
			</g>
		</g>
		<path fill="#FFFFFF" stroke="#707E85" stroke-width="0.3" stroke-miterlimit="10" d="M117.4,320.1H112c-1.4,0-2.6-1.1-2.6-2.6
			v-15.1c0-1.4,1.1-2.6,2.6-2.6h5.5c1.4,0,2.6,1.1,2.6,2.6v15.1C120,319,118.8,320.1,117.4,320.1z"/>
		<circle fill="#FFFFFF" stroke="#707E85" stroke-width="0.3" stroke-miterlimit="10" cx="111.5" cy="310" r="0.9"/>
	</g>
	<g>
		<g>
			<g opacity="0.2">
				<path fill="#708793" d="M118.2,281.5c-1,0-6.5,0.1-7.5,0.2c-0.8,0.1-1.5,0.2-2.3,0.3v10.7c0.6,0.1,1.3,0.2,1.9,0.3
					c1,0.1,7.5,0.1,8.6,0.1c2.4,0,7.6-2,7.6-5.7C126.5,283.5,121.1,281.5,118.2,281.5z"/>
				<path fill="none" stroke="#708793" stroke-width="0.3" stroke-miterlimit="10" d="M118.2,281.5c-1,0-6.5,0.1-7.5,0.2
					c-0.8,0.1-1.5,0.2-2.3,0.3v10.7c0.6,0.1,1.3,0.2,1.9,0.3c1,0.1,7.5,0.1,8.6,0.1c2.4,0,7.6-2,7.6-5.7
					C126.5,283.5,121.1,281.5,118.2,281.5z"/>
			</g>
			<g>
				<path fill="#FFFFFF" d="M115.2,278.5c-1,0-6.5,0.1-7.5,0.2c-0.8,0.1-1.5,0.2-2.3,0.3v10.7c0.6,0.1,1.3,0.2,1.9,0.3
					c1,0.1,7.5,0.1,8.6,0.1c2.4,0,7.6-2,7.6-5.7C123.5,280.5,118.1,278.5,115.2,278.5z"/>
				<path fill="none" stroke="#707E85" stroke-width="0.3" stroke-miterlimit="10" d="M115.2,278.5c-1,0-6.5,0.1-7.5,0.2
					c-0.8,0.1-1.5,0.2-2.3,0.3v10.7c0.6,0.1,1.3,0.2,1.9,0.3c1,0.1,7.5,0.1,8.6,0.1c2.4,0,7.6-2,7.6-5.7
					C123.5,280.5,118.1,278.5,115.2,278.5z"/>
			</g>
		</g>
		<g>
			<circle fill="#FFFFFF" stroke="#707E85" stroke-width="0.3" stroke-miterlimit="10" cx="108" cy="281.8" r="0.4"/>
			<circle fill="#FFFFFF" stroke="#707E85" stroke-width="0.3" stroke-miterlimit="10" cx="108" cy="286.9" r="0.4"/>
		</g>
		<path fill="#FFFFFF" stroke="#707E85" stroke-width="0.3" stroke-miterlimit="10" d="M122.1,284.3c0,2.5-3.7,4.4-6.2,4.4
			c-2.5,0-4.4-2-4.4-4.4c0-2.5,2-4.4,4.4-4.4C118.3,279.9,122.1,281.9,122.1,284.3z"/>
		<path fill="#FFFFFF" stroke="#707E85" stroke-width="0.3" stroke-miterlimit="10" d="M114.8,282.8h-1.6c-0.5,0-0.5,0.7-0.5,1.5
			s0.1,1.5,0.5,1.5h1.6c0.8,0,1.5-0.7,1.5-1.5S115.7,282.8,114.8,282.8z"/>
		<path fill="none" stroke="#707E85" stroke-width="0.3" stroke-miterlimit="10" d="M108,278.7c-0.9,1.4-1.4,3.5-1.4,5.9
			c0,2.1,0.4,3.9,1.1,5.3"/>
	</g>
	<g>
		<g>
			<rect x="141.1" y="240.4" fill="#FFFFFF" stroke="#707E85" stroke-width="0.3" stroke-miterlimit="10" width="19" height="19"/>
		</g>
		<g>
			<circle fill="none" stroke="#707E85" stroke-width="0.6204" stroke-miterlimit="10" cx="150.6" cy="249.9" r="4.4"/>
			<path fill="none" stroke="#707E85" stroke-width="0.6204" stroke-miterlimit="10" d="M150.1,252.8c1.7,0,3.1-1.4,3.1-3.1"/>
		</g>
	</g>
	<g>
		<g>
			<g>
				<path fill="#EAF6FE" stroke="#CBD3D7" stroke-width="0.3" stroke-miterlimit="10" d="M286.8,234.1v-1.6h-14.2v1.6
					c0,0.6,0.5,1.2,1.2,1.2h11.9C286.3,235.3,286.8,234.8,286.8,234.1z"/>
				
					<rect x="272.6" y="228.1" fill="#EAF6FE" stroke="#CBD3D7" stroke-width="0.3" stroke-miterlimit="10" width="14.2" height="4.5"/>
				
					<line fill="#EAF6FE" stroke="#CBD3D7" stroke-width="0.3" stroke-miterlimit="10" x1="284.9" y1="232.5" x2="284.9" y2="228.1"/>
				
					<line fill="#EAF6FE" stroke="#CBD3D7" stroke-width="0.3" stroke-miterlimit="10" x1="274.5" y1="228.1" x2="274.5" y2="232.5"/>
			</g>
			<g>
				<path fill="#EAF6FE" stroke="#CBD3D7" stroke-width="0.3" stroke-miterlimit="10" d="M270,234.1v-1.6h-14.2v1.6
					c0,0.6,0.5,1.2,1.2,1.2h11.9C269.5,235.3,270,234.8,270,234.1z"/>
				
					<rect x="255.7" y="228.1" fill="#EAF6FE" stroke="#CBD3D7" stroke-width="0.3" stroke-miterlimit="10" width="14.2" height="4.5"/>
				<line fill="#EAF6FE" stroke="#CBD3D7" stroke-width="0.3" stroke-miterlimit="10" x1="268" y1="232.5" x2="268" y2="228.1"/>
				
					<line fill="#EAF6FE" stroke="#CBD3D7" stroke-width="0.3" stroke-miterlimit="10" x1="257.7" y1="228.1" x2="257.7" y2="232.5"/>
			</g>
			<g>
				<path fill="#EAF6FE" stroke="#CBD3D7" stroke-width="0.3" stroke-miterlimit="10" d="M253.1,234.1v-1.6h-14.2v1.6
					c0,0.6,0.5,1.2,1.2,1.2H252C252.6,235.3,253.1,234.8,253.1,234.1z"/>
				
					<rect x="238.9" y="228.1" fill="#EAF6FE" stroke="#CBD3D7" stroke-width="0.3" stroke-miterlimit="10" width="14.2" height="4.5"/>
				
					<line fill="#EAF6FE" stroke="#CBD3D7" stroke-width="0.3" stroke-miterlimit="10" x1="251.2" y1="232.5" x2="251.2" y2="228.1"/>
				
					<line fill="#EAF6FE" stroke="#CBD3D7" stroke-width="0.3" stroke-miterlimit="10" x1="240.8" y1="228.1" x2="240.8" y2="232.5"/>
			</g>
		</g>
		<g>
			<path fill="#EAF6FE" stroke="#CBD3D7" stroke-width="0.3" stroke-miterlimit="10" d="M238.9,194.1v1.6h14.2v-1.6
				c0-0.6-0.5-1.2-1.2-1.2H240C239.4,192.9,238.9,193.5,238.9,194.1z"/>
			
				<rect x="238.9" y="195.7" fill="#EAF6FE" stroke="#CBD3D7" stroke-width="0.3" stroke-miterlimit="10" width="14.2" height="4.5"/>
			<line fill="#EAF6FE" stroke="#CBD3D7" stroke-width="0.3" stroke-miterlimit="10" x1="240.8" y1="195.7" x2="240.8" y2="200.2"/>
			<line fill="#EAF6FE" stroke="#CBD3D7" stroke-width="0.3" stroke-miterlimit="10" x1="251.2" y1="200.2" x2="251.2" y2="195.7"/>
		</g>
		<g>
			<path fill="#EAF6FE" stroke="#CBD3D7" stroke-width="0.3" stroke-miterlimit="10" d="M255.7,194.1v1.6H270v-1.6
				c0-0.6-0.5-1.2-1.2-1.2h-11.9C256.2,192.9,255.7,193.5,255.7,194.1z"/>
			
				<rect x="255.7" y="195.7" fill="#EAF6FE" stroke="#CBD3D7" stroke-width="0.3" stroke-miterlimit="10" width="14.2" height="4.5"/>
			<line fill="#EAF6FE" stroke="#CBD3D7" stroke-width="0.3" stroke-miterlimit="10" x1="257.7" y1="195.7" x2="257.7" y2="200.2"/>
			<line fill="#EAF6FE" stroke="#CBD3D7" stroke-width="0.3" stroke-miterlimit="10" x1="268" y1="200.2" x2="268" y2="195.7"/>
		</g>
		<g>
			<path fill="#EAF6FE" stroke="#CBD3D7" stroke-width="0.3" stroke-miterlimit="10" d="M276.8,190l-0.6,1.5l13.1,5.5l0.6-1.5
				c0.2-0.6,0-1.3-0.6-1.5l-11-4.6C277.7,189.2,277.1,189.4,276.8,190z"/>
			
				<rect x="274.1" y="192.9" transform="matrix(-0.3873 0.922 -0.922 -0.3873 573.3397 19.0619)" fill="#EAF6FE" stroke="#CBD3D7" stroke-width="0.3" stroke-miterlimit="10" width="12.5" height="14.2"/>
			<line fill="#EAF6FE" stroke="#CBD3D7" stroke-width="0.3" stroke-miterlimit="10" x1="278" y1="192.3" x2="273.1" y2="203.8"/>
			<line fill="#EAF6FE" stroke="#CBD3D7" stroke-width="0.3" stroke-miterlimit="10" x1="282.7" y1="207.8" x2="287.5" y2="196.3"/>
		</g>
		<g>
			<g opacity="5.000000e-002">
				<path fill="#707E85" d="M236.3,229.9v-25.6c0-0.6,0.5-1.2,1.2-1.2h56.8c0.6,0,1.2,0.5,1.2,1.2v25.6c0,0.6-0.5,1.2-1.2,1.2h-56.8
					C236.8,231.1,236.3,230.5,236.3,229.9z"/>
				<path fill="none" stroke="#707E85" stroke-width="0.3" stroke-miterlimit="10" d="M236.3,229.9v-25.6c0-0.6,0.5-1.2,1.2-1.2
					h56.8c0.6,0,1.2,0.5,1.2,1.2v25.6c0,0.6-0.5,1.2-1.2,1.2h-56.8C236.8,231.1,236.3,230.5,236.3,229.9z"/>
			</g>
			<g>
				<path fill="#EAF6FE" d="M233.3,226.9v-25.6c0-0.6,0.5-1.2,1.2-1.2h56.8c0.6,0,1.2,0.5,1.2,1.2v25.6c0,0.6-0.5,1.2-1.2,1.2h-56.8
					C233.8,228.1,233.3,227.5,233.3,226.9z"/>
				<path fill="none" stroke="#CBD3D7" stroke-width="0.3" stroke-miterlimit="10" d="M233.3,226.9v-25.6c0-0.6,0.5-1.2,1.2-1.2
					h56.8c0.6,0,1.2,0.5,1.2,1.2v25.6c0,0.6-0.5,1.2-1.2,1.2h-56.8C233.8,228.1,233.3,227.5,233.3,226.9z"/>
			</g>
		</g>
		<path fill="#EAF6FE" stroke="#CBD3D7" stroke-width="0.3" stroke-miterlimit="10" d="M241.8,215.6l1.8-2.5c0.3-0.4,1-0.5,1.4-0.2
			l4.5,3.3c0.4,0.3,0.5,1,0.2,1.4l-1.8,2.5c-0.3,0.4-1,0.5-1.4,0.2L242,217C241.6,216.6,241.5,216,241.8,215.6z"/>
	</g>
	<g>
		<g>
			<g opacity="5.000000e-002">
				<path fill="#707E85" d="M291.3,368.2c0,0.6,0.5,1.1,1.1,1.1h0.2c0.6,0,1.1-0.5,1.1-1.1v-18.8c0-2.6-2.1-4.7-4.7-4.7h-13.5
					c-2.6,0-4.7,2.1-4.7,4.7v18.8c0,0.6,0.5,1.1,1.1,1.1h0.2c0.6,0,1.1-0.5,1.1-1.1l0-0.7c0,0.7,0.5,1.2,1.2,1.2h15.9
					c0.7,0,1.2-0.5,1.2-1.2L291.3,368.2z"/>
				
					<path fill="none" stroke="#707E85" stroke-width="0.3" stroke-linecap="round" stroke-linejoin="round" stroke-miterlimit="10" d="
					M291.3,368.2c0,0.6,0.5,1.1,1.1,1.1h0.2c0.6,0,1.1-0.5,1.1-1.1v-18.8c0-2.6-2.1-4.7-4.7-4.7h-13.5c-2.6,0-4.7,2.1-4.7,4.7v18.8
					c0,0.6,0.5,1.1,1.1,1.1h0.2c0.6,0,1.1-0.5,1.1-1.1l0-0.7c0,0.7,0.5,1.2,1.2,1.2h15.9c0.7,0,1.2-0.5,1.2-1.2L291.3,368.2z"/>
			</g>
			<g>
				<path fill="#EAF6FE" d="M288.3,365.2c0,0.6,0.5,1.1,1.1,1.1h0.2c0.6,0,1.1-0.5,1.1-1.1v-18.8c0-2.6-2.1-4.7-4.7-4.7h-13.5
					c-2.6,0-4.7,2.1-4.7,4.7v18.8c0,0.6,0.5,1.1,1.1,1.1h0.2c0.6,0,1.1-0.5,1.1-1.1l0-0.7c0,0.7,0.5,1.2,1.2,1.2h15.9
					c0.7,0,1.2-0.5,1.2-1.2L288.3,365.2z"/>
				
					<path fill="none" stroke="#CBD3D7" stroke-width="0.3" stroke-linecap="round" stroke-linejoin="round" stroke-miterlimit="10" d="
					M288.3,365.2c0,0.6,0.5,1.1,1.1,1.1h0.2c0.6,0,1.1-0.5,1.1-1.1v-18.8c0-2.6-2.1-4.7-4.7-4.7h-13.5c-2.6,0-4.7,2.1-4.7,4.7v18.8
					c0,0.6,0.5,1.1,1.1,1.1h0.2c0.6,0,1.1-0.5,1.1-1.1l0-0.7c0,0.7,0.5,1.2,1.2,1.2h15.9c0.7,0,1.2-0.5,1.2-1.2L288.3,365.2z"/>
			</g>
		</g>
		<g>
			<path fill="#EAF6FE" stroke="#CBD3D7" stroke-width="0.3033" stroke-miterlimit="10" d="M285.9,341.7h-13.5
				c-2.6,0-4.7,2.1-4.7,4.7v18.8c0,0.6,0.5,1.1,1.1,1.1h0.2c0.6,0,1.1-0.5,1.1-1.1V349h18.3v16.1c0,0.6,0.5,1.1,1.1,1.1h0.2
				c0.6,0,1.1-0.5,1.1-1.1v-18.8C290.5,343.8,288.4,341.7,285.9,341.7z"/>
			<g>
				<path fill="#EAF6FE" stroke="#CBD3D7" stroke-width="0.3" stroke-miterlimit="10" d="M271.5,350.9c5-0.5,10.1-0.5,15.1,0
					c1.1,0.1,2.1-0.7,2.3-1.8c0.1-0.8,0.2-1.7,0.3-2.5c0.1-1.1-0.7-2.2-2-2.3c-5.5-0.5-11-0.5-16.4,0c-1.2,0.1-2.1,1.2-2,2.3
					c0.1,0.8,0.2,1.7,0.3,2.5C269.4,350.2,270.4,351,271.5,350.9z"/>
				
					<path fill="#EAF6FE" stroke="#CBD3D7" stroke-width="0.3" stroke-linecap="round" stroke-linejoin="round" stroke-miterlimit="10" d="
					M271.1,349.2c0.1-0.5,15.9-0.5,16,0"/>
			</g>
		</g>
	</g>
	<g>
		<g>
			<g opacity="5.000000e-002">
				<path fill="#707E85" d="M217.6,378.8v54.5c0,2.8,2.3,5.1,5.1,5.1h20.5c0.6,0,1.1-0.5,1.1-1.1V437c0-0.6-0.5-1.1-1.1-1.1h-0.7
					c0.7,0,1.3-0.6,1.3-1.3v-17.3c0-0.7-0.6-1.3-1.3-1.3c0.7,0,1.3-0.6,1.3-1.3v-17.3c0-0.7-0.6-1.3-1.3-1.3c0.7,0,1.3-0.6,1.3-1.3
					v-17.3c0-0.7-0.5-1.2-1.2-1.3h0.6c0.6,0,1.1-0.5,1.1-1.1v-0.2c0-0.6-0.5-1.1-1.1-1.1h-20.5C219.9,373.7,217.6,376,217.6,378.8z"
					/>
				<path fill="none" stroke="#707E85" stroke-width="0.3" stroke-miterlimit="10" d="M217.6,378.8v54.5c0,2.8,2.3,5.1,5.1,5.1h20.5
					c0.6,0,1.1-0.5,1.1-1.1V437c0-0.6-0.5-1.1-1.1-1.1h-0.7c0.7,0,1.3-0.6,1.3-1.3v-17.3c0-0.7-0.6-1.3-1.3-1.3
					c0.7,0,1.3-0.6,1.3-1.3v-17.3c0-0.7-0.6-1.3-1.3-1.3c0.7,0,1.3-0.6,1.3-1.3v-17.3c0-0.7-0.5-1.2-1.2-1.3h0.6
					c0.6,0,1.1-0.5,1.1-1.1v-0.2c0-0.6-0.5-1.1-1.1-1.1h-20.5C219.9,373.7,217.6,376,217.6,378.8z"/>
			</g>
			<g>
				<path fill="#EAF6FE" d="M214.6,375.8v54.5c0,2.8,2.3,5.1,5.1,5.1h20.5c0.6,0,1.1-0.5,1.1-1.1V434c0-0.6-0.5-1.1-1.1-1.1h-0.7
					c0.7,0,1.3-0.6,1.3-1.3v-17.3c0-0.7-0.6-1.3-1.3-1.3c0.7,0,1.3-0.6,1.3-1.3v-17.3c0-0.7-0.6-1.3-1.3-1.3c0.7,0,1.3-0.6,1.3-1.3
					v-17.3c0-0.7-0.5-1.2-1.2-1.3h0.6c0.6,0,1.1-0.5,1.1-1.1v-0.2c0-0.6-0.5-1.1-1.1-1.1h-20.5C216.9,370.7,214.6,373,214.6,375.8z"
					/>
				<path fill="none" stroke="#CBD3D7" stroke-width="0.3" stroke-miterlimit="10" d="M214.6,375.8v54.5c0,2.8,2.3,5.1,5.1,5.1h20.5
					c0.6,0,1.1-0.5,1.1-1.1V434c0-0.6-0.5-1.1-1.1-1.1h-0.7c0.7,0,1.3-0.6,1.3-1.3v-17.3c0-0.7-0.6-1.3-1.3-1.3
					c0.7,0,1.3-0.6,1.3-1.3v-17.3c0-0.7-0.6-1.3-1.3-1.3c0.7,0,1.3-0.6,1.3-1.3v-17.3c0-0.7-0.5-1.2-1.2-1.3h0.6
					c0.6,0,1.1-0.5,1.1-1.1v-0.2c0-0.6-0.5-1.1-1.1-1.1h-20.5C216.9,370.7,214.6,373,214.6,375.8z"/>
			</g>
		</g>
		<g>
			<path fill="#EAF6FE" stroke="#CBD3D7" stroke-width="0.3033" stroke-miterlimit="10" d="M214.6,375.8v54.5c0,2.8,2.3,5.1,5.1,5.1
				h20.5c0.6,0,1.1-0.5,1.1-1.1V434c0-0.6-0.5-1.1-1.1-1.1h-17.6v-59.7h17.6c0.6,0,1.1-0.5,1.1-1.1v-0.2c0-0.6-0.5-1.1-1.1-1.1
				h-20.5C216.9,370.7,214.6,373,214.6,375.8z"/>
			<g>
				<g>
					<path fill="#EAF6FE" stroke="#CBD3D7" stroke-width="0.3" stroke-miterlimit="10" d="M224.6,431.2c-0.5-5.5-0.5-11,0-16.5
						c0.1-1.2-0.7-2.3-2-2.5c-0.9-0.1-1.8-0.2-2.7-0.3c-1.2-0.2-2.3,0.8-2.5,2.1c-0.6,5.9-0.6,11.9,0,17.9c0.1,1.3,1.3,2.3,2.5,2.1
						c0.9-0.1,1.8-0.2,2.7-0.3C223.9,433.5,224.8,432.4,224.6,431.2z"/>
					
						<path fill="#EAF6FE" stroke="#CBD3D7" stroke-width="0.3" stroke-linecap="round" stroke-linejoin="round" stroke-miterlimit="10" d="
						M222.8,431.6c-0.6-0.1-0.6-17.3,0-17.4"/>
				</g>
			</g>
			<g>
				<g>
					<path fill="#EAF6FE" stroke="#CBD3D7" stroke-width="0.3" stroke-miterlimit="10" d="M224.6,391.4c-0.5-5.5-0.5-11,0-16.5
						c0.1-1.2-0.7-2.3-2-2.5c-0.9-0.1-1.8-0.2-2.7-0.3c-1.2-0.2-2.3,0.8-2.5,2.1c-0.6,5.9-0.6,11.9,0,17.9c0.1,1.3,1.3,2.3,2.5,2.1
						c0.9-0.1,1.8-0.2,2.7-0.3C223.9,393.7,224.8,392.6,224.6,391.4z"/>
					
						<path fill="#EAF6FE" stroke="#CBD3D7" stroke-width="0.3" stroke-linecap="round" stroke-linejoin="round" stroke-miterlimit="10" d="
						M222.8,391.8c-0.6-0.1-0.6-17.3,0-17.4"/>
				</g>
			</g>
			<g>
				<line fill="#EAF6FE" stroke="#CBD3D7" stroke-width="0.3" stroke-miterlimit="10" x1="221.6" y1="413" x2="239.4" y2="413"/>
				
					<line fill="#EAF6FE" stroke="#CBD3D7" stroke-width="0.3" stroke-miterlimit="10" x1="239.4" y1="393.1" x2="221.6" y2="393.1"/>
				<g>
					<path fill="#EAF6FE" stroke="#CBD3D7" stroke-width="0.3" stroke-miterlimit="10" d="M224.6,411.3c-0.5-5.5-0.5-11,0-16.5
						c0.1-1.2-0.7-2.3-2-2.5c-0.9-0.1-1.8-0.2-2.7-0.3c-1.2-0.2-2.3,0.8-2.5,2.1c-0.6,5.9-0.6,11.9,0,17.9c0.1,1.3,1.3,2.3,2.5,2.1
						c0.9-0.1,1.8-0.2,2.7-0.3C223.9,413.6,224.8,412.5,224.6,411.3z"/>
					
						<path fill="#EAF6FE" stroke="#CBD3D7" stroke-width="0.3" stroke-linecap="round" stroke-linejoin="round" stroke-miterlimit="10" d="
						M222.8,411.7c-0.6-0.1-0.6-17.3,0-17.4"/>
				</g>
			</g>
			<path fill="#EAF6FE" stroke="#CBD3D7" stroke-width="0.3" stroke-miterlimit="10" d="M219.9,432.1c0.5-0.8,3.6-3.7,3.9-3.9
				c0-1.5,0.8-4.2,1.3-4.6c0.4,0.2,0.3,0.4,0.9,0.7c0.7,0.2,4.7,1.2,6.8,2.9c-1,1.1-1.6,6.7-3.2,8.2c-0.4,0.9-0.6,1.6-1.3,2.3
				c-0.5-0.2-2.3-2.3-2.5-3.2C224.7,434,220.7,433.2,219.9,432.1z"/>
			<path fill="#EAF6FE" stroke="#CBD3D7" stroke-width="0.3" stroke-miterlimit="10" d="M219.2,376.9c0.6-0.8,7-5.5,7.5-5.8
				c1.5,0.4,3.7,3.4,4.2,4.3c1,0.3,2.1,0.9,2.6,1.5c-0.4,0.4-1.3,1.2-1.8,1.5c-0.3,0.5-2.9,3.6-4.9,4.2c-0.5,0.4-1,1-1.3,1
				c-0.5-0.7-0.9-1.6-0.9-2C224.1,381.1,219.3,377.7,219.2,376.9z"/>
		</g>
	</g>
	<g>
		<g>
			<g opacity="5.000000e-002">
				<path fill="#707E85" d="M342,433.8v-56.4c0-0.6,0.4-1.1,0.9-1.1h11c0.5,0,0.9,0.5,0.9,1.1v56.4c0,0.6-0.4,1.1-0.9,1.1h-11
					C342.4,434.9,342,434.4,342,433.8z"/>
				<path fill="none" stroke="#707E85" stroke-width="0.3" stroke-miterlimit="10" d="M342,433.8v-56.4c0-0.6,0.4-1.1,0.9-1.1h11
					c0.5,0,0.9,0.5,0.9,1.1v56.4c0,0.6-0.4,1.1-0.9,1.1h-11C342.4,434.9,342,434.4,342,433.8z"/>
			</g>
			<g>
				<path fill="#EAF6FE" d="M339,430.8v-56.4c0-0.6,0.4-1.1,0.9-1.1h11c0.5,0,0.9,0.5,0.9,1.1v56.4c0,0.6-0.4,1.1-0.9,1.1h-11
					C339.4,431.9,339,431.4,339,430.8z"/>
				<path fill="none" stroke="#CBD3D7" stroke-width="0.3" stroke-miterlimit="10" d="M339,430.8v-56.4c0-0.6,0.4-1.1,0.9-1.1h11
					c0.5,0,0.9,0.5,0.9,1.1v56.4c0,0.6-0.4,1.1-0.9,1.1h-11C339.4,431.9,339,431.4,339,430.8z"/>
			</g>
		</g>
		<path fill="#EAF6FE" stroke="#CBD3D7" stroke-width="0.3" stroke-miterlimit="10" d="M345.4,394.9h4c0.6,0,1,0.4,1,1v13.3
			c0,0.6-0.4,1-1,1h-4c-0.6,0-1-0.4-1-1v-13.3C344.4,395.4,344.9,394.9,345.4,394.9z"/>
		<path fill="#EAF6FE" stroke="#CBD3D7" stroke-width="0.2953" stroke-miterlimit="10" d="M349.9,396.2v12.8c0,0.3-0.3,0.6-0.6,0.6
			h-3.9c-0.3,0-0.6-0.3-0.6-0.6v-12.8c0-0.3,0.3-0.6,0.6-0.6h3.9C349.7,395.6,349.9,395.9,349.9,396.2z"/>
		<rect x="346.1" y="379" fill="#EAF6FE" stroke="#CBD3D7" stroke-width="0.3" stroke-miterlimit="10" width="1.3" height="47.1"/>
	</g>
	<line fill="none" stroke="#707E85" stroke-width="0.3" stroke-miterlimit="10" x1="163.4" y1="331.1" x2="105" y2="331.1"/>
	<g>
		<g>
			<rect x="409.8" y="289.7" fill="#FFFFFF" width="18.6" height="47.8"/>
			<path fill="#707E85" d="M428.3,289.9v47.5H410v-47.5H428.3 M428.6,289.6h-18.9v48.1h18.9V289.6L428.6,289.6z"/>
		</g>
		<line fill="none" stroke="#707E85" stroke-width="0.5" stroke-miterlimit="10" x1="425.3" y1="331.2" x2="413" y2="330.3"/>
		<line fill="none" stroke="#707E85" stroke-width="0.5" stroke-miterlimit="10" x1="425.3" y1="327.7" x2="413" y2="328.8"/>
		<line fill="none" stroke="#707E85" stroke-width="0.5" stroke-miterlimit="10" x1="425.3" y1="326.4" x2="413" y2="325.4"/>
		<line fill="none" stroke="#707E85" stroke-width="0.5" stroke-miterlimit="10" x1="425.3" y1="322.9" x2="413" y2="324"/>
		<line fill="none" stroke="#707E85" stroke-width="0.5" stroke-miterlimit="10" x1="425.3" y1="304.5" x2="413" y2="303.5"/>
		<line fill="none" stroke="#707E85" stroke-width="0.5" stroke-miterlimit="10" x1="425.3" y1="301" x2="413" y2="302.1"/>
		<line fill="none" stroke="#707E85" stroke-width="0.5" stroke-miterlimit="10" x1="425.3" y1="299.6" x2="413" y2="298.7"/>
		<line fill="none" stroke="#707E85" stroke-width="0.5" stroke-miterlimit="10" x1="425.3" y1="296.1" x2="413" y2="297.3"/>
		<line fill="#EAF6FE" stroke="#707E85" stroke-width="0.3" stroke-miterlimit="10" x1="411.1" y1="337.7" x2="411.1" y2="289.8"/>
		<line fill="#EAF6FE" stroke="#707E85" stroke-width="0.3" stroke-miterlimit="10" x1="411.1" y1="313.8" x2="409.8" y2="313.8"/>
		<polyline fill="none" stroke="#707E85" stroke-width="0.3" stroke-miterlimit="10" points="409.8,319 409.1,319 409.1,317.2 
			409.8,317.2 		"/>
		<polyline fill="none" stroke="#707E85" stroke-width="0.3" stroke-miterlimit="10" points="409.8,310.3 409.1,310.3 409.1,308.5 
			409.8,308.5 		"/>
		<line fill="none" stroke="#707E85" stroke-width="0.3" stroke-miterlimit="10" x1="419.1" y1="337.7" x2="419.1" y2="289.8"/>
	</g>
	<g>
		<g>
			<g>
				<g opacity="5.000000e-002">
					<path fill="#707E85" d="M265,392.8c6.7-1.2,16.6-1.2,23.3,0c0.7,0.1,1.2,0.8,1.2,1.5v21.1c0,0.7-0.5,1.4-1.2,1.5
						c-6.7,1.2-16.6,1.2-23.3,0c-0.7-0.1-1.2-0.8-1.2-1.5v-21.1C263.8,393.5,264.3,392.9,265,392.8z"/>
					<path fill="none" stroke="#707E85" stroke-width="0.3" stroke-miterlimit="10" d="M265,392.8c6.7-1.2,16.6-1.2,23.3,0
						c0.7,0.1,1.2,0.8,1.2,1.5v21.1c0,0.7-0.5,1.4-1.2,1.5c-6.7,1.2-16.6,1.2-23.3,0c-0.7-0.1-1.2-0.8-1.2-1.5v-21.1
						C263.8,393.5,264.3,392.9,265,392.8z"/>
				</g>
				<g>
					<path fill="#EAF6FE" d="M262,389.8c6.7-1.2,16.6-1.2,23.3,0c0.7,0.1,1.2,0.8,1.2,1.5v21.1c0,0.7-0.5,1.4-1.2,1.5
						c-6.7,1.2-16.6,1.2-23.3,0c-0.7-0.1-1.2-0.8-1.2-1.5v-21.1C260.8,390.5,261.3,389.9,262,389.8z"/>
					<path fill="none" stroke="#CBD3D7" stroke-width="0.3" stroke-miterlimit="10" d="M262,389.8c6.7-1.2,16.6-1.2,23.3,0
						c0.7,0.1,1.2,0.8,1.2,1.5v21.1c0,0.7-0.5,1.4-1.2,1.5c-6.7,1.2-16.6,1.2-23.3,0c-0.7-0.1-1.2-0.8-1.2-1.5v-21.1
						C260.8,390.5,261.3,389.9,262,389.8z"/>
				</g>
			</g>
		</g>
		<g>
			<g>
				
					<path fill="#EAF6FE" stroke="#CBD3D7" stroke-width="0.3" stroke-linecap="round" stroke-linejoin="round" stroke-miterlimit="10" d="
					M273.5,402.7c0,0,1.8,4.2,0.2,6.7C273.7,409.4,271.7,407.8,273.5,402.7z"/>
				
					<path fill="#EAF6FE" stroke="#CBD3D7" stroke-width="0.3" stroke-linecap="round" stroke-linejoin="round" stroke-miterlimit="10" d="
					M273.5,402.7c0,0-0.1,4.4-2.6,6.2C270.9,408.8,269.7,406.5,273.5,402.7z"/>
				
					<path fill="#EAF6FE" stroke="#CBD3D7" stroke-width="0.3" stroke-linecap="round" stroke-linejoin="round" stroke-miterlimit="10" d="
					M278,408c0,0,0-4.4-4.5-5.4C273.5,402.7,274.7,407.8,278,408z"/>
				
					<path fill="#EAF6FE" stroke="#CBD3D7" stroke-width="0.3" stroke-linecap="round" stroke-linejoin="round" stroke-miterlimit="10" d="
					M278.5,395.9c0,0-1,5.4-5,6.8C273.5,402.7,273,398.3,278.5,395.9z"/>
				
					<path fill="#EAF6FE" stroke="#CBD3D7" stroke-width="0.3" stroke-linecap="round" stroke-linejoin="round" stroke-miterlimit="10" d="
					M280.9,403.7c0,0-3,0.9-7.4-1.1C273.5,402.7,277.6,401.1,280.9,403.7z"/>
				
					<path fill="#EAF6FE" stroke="#CBD3D7" stroke-width="0.3" stroke-linecap="round" stroke-linejoin="round" stroke-miterlimit="10" d="
					M273.7,394.2c0,0,2.2,5.5-0.1,8.6C273.6,402.8,271.9,402.2,273.7,394.2z"/>
				
					<path fill="#EAF6FE" stroke="#CBD3D7" stroke-width="0.3" stroke-linecap="round" stroke-linejoin="round" stroke-miterlimit="10" d="
					M267.9,407.3c0,0,4.7-1.9,5.5-4.6C273.5,402.7,270.4,403.9,267.9,407.3z"/>
				
					<path fill="#EAF6FE" stroke="#CBD3D7" stroke-width="0.3" stroke-linecap="round" stroke-linejoin="round" stroke-miterlimit="10" d="
					M269.3,395.6c0,0,3.8,2.8,4.2,7.1C273.5,402.7,269.9,400.5,269.3,395.6z"/>
				
					<path fill="#EAF6FE" stroke="#CBD3D7" stroke-width="0.3" stroke-linecap="round" stroke-linejoin="round" stroke-miterlimit="10" d="
					M266.1,404.2c0,0,4.6,0.8,7.5-1.5C273.6,402.8,270.6,401.2,266.1,404.2z"/>
				
					<path fill="#EAF6FE" stroke="#CBD3D7" stroke-width="0.3" stroke-linecap="round" stroke-linejoin="round" stroke-miterlimit="10" d="
					M280.9,399.9c0,0-2.2,3-7.2,2.9C273.6,402.8,276.6,399.4,280.9,399.9z"/>
				
					<path fill="#EAF6FE" stroke="#CBD3D7" stroke-width="0.3" stroke-linecap="round" stroke-linejoin="round" stroke-miterlimit="10" d="
					M267.2,397.8c0,0,5.6,1.7,6.6,5.1C273.8,402.9,269.6,402.5,267.2,397.8z"/>
				
					<path fill="#EAF6FE" stroke="#CBD3D7" stroke-width="0.3" stroke-linecap="round" stroke-linejoin="round" stroke-miterlimit="10" d="
					M265.9,400.7c0,0,4.7-0.8,7.8,2C273.6,402.8,270.3,404.2,265.9,400.7z"/>
				
					<path fill="#EAF6FE" stroke="#CBD3D7" stroke-width="0.3" stroke-linecap="round" stroke-linejoin="round" stroke-miterlimit="10" d="
					M273.9,402.8c0,0,2.7-0.2,6,3.1C280,405.9,277,405.7,273.9,402.8z"/>
				
					<path fill="#EAF6FE" stroke="#CBD3D7" stroke-width="0.3" stroke-linecap="round" stroke-linejoin="round" stroke-miterlimit="10" d="
					M279.7,398.2c0,0-2.5,3.6-5.9,4.5C273.9,402.7,274.3,399.7,279.7,398.2z"/>
			</g>
			<g>
				
					<path fill="#EAF6FE" stroke="#CBD3D7" stroke-width="0.3" stroke-linecap="round" stroke-linejoin="round" stroke-miterlimit="10" d="
					M273.4,402.3c0,0-0.1,2.6-1.5,3.7C271.9,406,271.2,404.6,273.4,402.3z"/>
				
					<path fill="#EAF6FE" stroke="#CBD3D7" stroke-width="0.3" stroke-linecap="round" stroke-linejoin="round" stroke-miterlimit="10" d="
					M276.1,405.5c0,0,0-2.6-2.7-3.2C273.4,402.3,274.2,405.4,276.1,405.5z"/>
				
					<path fill="#EAF6FE" stroke="#CBD3D7" stroke-width="0.3" stroke-linecap="round" stroke-linejoin="round" stroke-miterlimit="10" d="
					M276.4,398.3c0,0-0.6,3.2-3,4C273.4,402.3,273.1,399.7,276.4,398.3z"/>
				
					<path fill="#EAF6FE" stroke="#CBD3D7" stroke-width="0.3" stroke-linecap="round" stroke-linejoin="round" stroke-miterlimit="10" d="
					M277.8,402.9c0,0-1.8,0.6-4.4-0.6C273.4,402.3,275.9,401.4,277.8,402.9z"/>
				
					<path fill="#EAF6FE" stroke="#CBD3D7" stroke-width="0.3" stroke-linecap="round" stroke-linejoin="round" stroke-miterlimit="10" d="
					M270.9,398.1c0,0,2.3,1.6,2.5,4.2C273.4,402.3,271.3,401,270.9,398.1z"/>
				
					<path fill="#EAF6FE" stroke="#CBD3D7" stroke-width="0.3" stroke-linecap="round" stroke-linejoin="round" stroke-miterlimit="10" d="
					M269.1,403.2c0,0,2.8,0.5,4.5-0.9C273.5,402.4,271.8,401.4,269.1,403.2z"/>
				
					<path fill="#EAF6FE" stroke="#CBD3D7" stroke-width="0.3" stroke-linecap="round" stroke-linejoin="round" stroke-miterlimit="10" d="
					M277.8,400.7c0,0-1.3,1.8-4.3,1.7C273.5,402.4,275.3,400.4,277.8,400.7z"/>
				
					<path fill="#EAF6FE" stroke="#CBD3D7" stroke-width="0.3" stroke-linecap="round" stroke-linejoin="round" stroke-miterlimit="10" d="
					M268.9,401.2c0,0,2.8-0.5,4.6,1.2C273.5,402.4,271.5,403.2,268.9,401.2z"/>
			</g>
		</g>
	</g>
	<g>
		<g>
			<g opacity="5.000000e-002">
				<path fill="#707E85" d="M261.2,443.9c0-0.6-0.5-1.2-1.2-1.2h-0.2c-0.6,0-1.2,0.5-1.2,1.2v20.8c0,2.9,2.3,5.2,5.2,5.2h35.2
					c2.9,0,5.2-2.3,5.2-5.2v-20.8c0-0.6-0.5-1.2-1.2-1.2h-0.2c-0.6,0-1.2,0.5-1.2,1.2v0.7c0-0.7-0.6-1.3-1.3-1.3h-17.6
					c-0.7,0-1.3,0.6-1.3,1.3c0-0.7-0.6-1.3-1.3-1.3h-17.6c-0.7,0-1.3,0.6-1.3,1.3V443.9z"/>
				<path fill="none" stroke="#707E85" stroke-width="0.3" stroke-miterlimit="10" d="M261.2,443.9c0-0.6-0.5-1.2-1.2-1.2h-0.2
					c-0.6,0-1.2,0.5-1.2,1.2v20.8c0,2.9,2.3,5.2,5.2,5.2h35.2c2.9,0,5.2-2.3,5.2-5.2v-20.8c0-0.6-0.5-1.2-1.2-1.2h-0.2
					c-0.6,0-1.2,0.5-1.2,1.2v0.7c0-0.7-0.6-1.3-1.3-1.3h-17.6c-0.7,0-1.3,0.6-1.3,1.3c0-0.7-0.6-1.3-1.3-1.3h-17.6
					c-0.7,0-1.3,0.6-1.3,1.3V443.9z"/>
			</g>
			<g>
				<path fill="#EAF6FE" d="M258.2,440.9c0-0.6-0.5-1.2-1.2-1.2h-0.2c-0.6,0-1.2,0.5-1.2,1.2v20.8c0,2.9,2.3,5.2,5.2,5.2h35.2
					c2.9,0,5.2-2.3,5.2-5.2v-20.8c0-0.6-0.5-1.2-1.2-1.2h-0.2c-0.6,0-1.2,0.5-1.2,1.2v0.7c0-0.7-0.6-1.3-1.3-1.3h-17.6
					c-0.7,0-1.3,0.6-1.3,1.3c0-0.7-0.6-1.3-1.3-1.3h-17.6c-0.7,0-1.3,0.6-1.3,1.3V440.9z"/>
				<path fill="none" stroke="#CBD3D7" stroke-width="0.3" stroke-miterlimit="10" d="M258.2,440.9c0-0.6-0.5-1.2-1.2-1.2h-0.2
					c-0.6,0-1.2,0.5-1.2,1.2v20.8c0,2.9,2.3,5.2,5.2,5.2h35.2c2.9,0,5.2-2.3,5.2-5.2v-20.8c0-0.6-0.5-1.2-1.2-1.2h-0.2
					c-0.6,0-1.2,0.5-1.2,1.2v0.7c0-0.7-0.6-1.3-1.3-1.3h-17.6c-0.7,0-1.3,0.6-1.3,1.3c0-0.7-0.6-1.3-1.3-1.3h-17.6
					c-0.7,0-1.3,0.6-1.3,1.3V440.9z"/>
			</g>
		</g>
		<g>
			<path fill="#EAF6FE" stroke="#CBD3D7" stroke-width="0.3033" stroke-miterlimit="10" d="M260.9,466.9h35.2c2.9,0,5.2-2.3,5.2-5.2
				v-20.8c0-0.6-0.5-1.2-1.2-1.2h-0.2c-0.6,0-1.2,0.5-1.2,1.2v17.9h-40.5v-17.9c0-0.6-0.5-1.2-1.2-1.2h-0.2c-0.6,0-1.2,0.5-1.2,1.2
				v20.8C255.7,464.6,258,466.9,260.9,466.9z"/>
			<g>
				<g>
					<path fill="#EAF6FE" stroke="#CBD3D7" stroke-width="0.3" stroke-miterlimit="10" d="M297,456.7c-5.6,0.5-11.2,0.5-16.8,0
						c-1.2-0.1-2.4,0.8-2.5,2c-0.1,0.9-0.2,1.8-0.3,2.7c-0.2,1.2,0.8,2.4,2.2,2.5c6.1,0.6,12.1,0.6,18.2,0c1.4-0.1,2.3-1.3,2.2-2.5
						c-0.1-0.9-0.2-1.8-0.3-2.7C299.4,457.5,298.3,456.6,297,456.7z"/>
					
						<path fill="#EAF6FE" stroke="#CBD3D7" stroke-width="0.3" stroke-linecap="round" stroke-linejoin="round" stroke-miterlimit="10" d="
						M297.5,458.6c-0.1,0.6-17.6,0.6-17.7,0"/>
				</g>
			</g>
			<g>
				
					<line fill="#EAF6FE" stroke="#CBD3D7" stroke-width="0.3" stroke-miterlimit="10" x1="278.5" y1="459.8" x2="278.5" y2="441.7"/>
				<g>
					<path fill="#EAF6FE" stroke="#CBD3D7" stroke-width="0.3" stroke-miterlimit="10" d="M276.8,456.7c-5.6,0.5-11.2,0.5-16.8,0
						c-1.2-0.1-2.4,0.8-2.5,2c-0.1,0.9-0.2,1.8-0.3,2.7c-0.2,1.2,0.8,2.4,2.2,2.5c6.1,0.6,12.1,0.6,18.2,0c1.4-0.1,2.3-1.3,2.2-2.5
						c-0.1-0.9-0.2-1.8-0.3-2.7C279.1,457.5,278,456.6,276.8,456.7z"/>
					
						<path fill="#EAF6FE" stroke="#CBD3D7" stroke-width="0.3" stroke-linecap="round" stroke-linejoin="round" stroke-miterlimit="10" d="
						M277.2,458.6c-0.1,0.6-17.6,0.6-17.7,0"/>
				</g>
			</g>
			<g>
				<g>
					<path fill="#EAF6FE" stroke="#CBD3D7" stroke-width="0.3" stroke-miterlimit="10" d="M276.8,456.7c-5.6,0.5-11.2,0.5-16.8,0
						c-1.2-0.1-2.4,0.8-2.5,2c-0.1,0.9-0.2,1.8-0.3,2.7c-0.2,1.2,0.8,2.4,2.2,2.5c6.1,0.6,12.1,0.6,18.2,0c1.4-0.1,2.3-1.3,2.2-2.5
						c-0.1-0.9-0.2-1.8-0.3-2.7C279.1,457.5,278,456.6,276.8,456.7z"/>
					
						<path fill="#EAF6FE" stroke="#CBD3D7" stroke-width="0.3" stroke-linecap="round" stroke-linejoin="round" stroke-miterlimit="10" d="
						M277.2,458.6c-0.1,0.6-17.6,0.6-17.7,0"/>
				</g>
			</g>
			<path fill="#EAF6FE" stroke="#CBD3D7" stroke-width="0.3" stroke-miterlimit="10" d="M297.9,461.5c-0.8-0.5-3.7-3.7-3.9-4
				c-1.6,0-4.2-0.8-4.7-1.4c0.2-0.4,0.4-0.3,0.8-0.9c0.2-0.8,1.2-4.8,3-6.9c1.1,1,6.8,1.6,8.4,3.3c0.9,0.4,1.6,0.6,2.3,1.3
				c-0.2,0.5-2.4,2.3-3.3,2.5C299.9,456.6,299.1,460.7,297.9,461.5z"/>
			<path fill="#EAF6FE" stroke="#CBD3D7" stroke-width="0.3" stroke-miterlimit="10" d="M262,462.2c-0.8-0.6-5.6-7.2-5.9-7.7
				c0.4-1.5,3.4-3.7,4.3-4.3c0.3-1,0.9-2.2,1.6-2.7c0.4,0.4,1.2,1.3,1.5,1.8c0.5,0.3,3.6,2.9,4.3,5c0.5,0.5,1,1,1,1.3
				c-0.7,0.6-1.6,0.9-2.1,0.9C266.3,457.2,262.9,462.1,262,462.2z"/>
		</g>
	</g>
	<g>
		<g>
			<g opacity="5.000000e-002">
				<path fill="#707E85" d="M167.7,392.9h-60.8c-0.6,0-1-0.4-1-1v-26.4c0-0.6,0.4-1,1-1h60.8c0.6,0,1,0.4,1,1v26.4
					C168.7,392.4,168.2,392.9,167.7,392.9z"/>
				<path fill="none" stroke="#707E85" stroke-width="0.3" stroke-miterlimit="10" d="M167.7,392.9h-60.8c-0.6,0-1-0.4-1-1v-26.4
					c0-0.6,0.4-1,1-1h60.8c0.6,0,1,0.4,1,1v26.4C168.7,392.4,168.2,392.9,167.7,392.9z"/>
			</g>
			<g>
				<path fill="#EAF6FE" d="M164.7,389.9h-60.8c-0.6,0-1-0.4-1-1v-26.4c0-0.6,0.4-1,1-1h60.8c0.6,0,1,0.4,1,1v26.4
					C165.7,389.4,165.2,389.9,164.7,389.9z"/>
				<path fill="none" stroke="#CBD3D7" stroke-width="0.3" stroke-miterlimit="10" d="M164.7,389.9h-60.8c-0.6,0-1-0.4-1-1v-26.4
					c0-0.6,0.4-1,1-1h60.8c0.6,0,1,0.4,1,1v26.4C165.7,389.4,165.2,389.9,164.7,389.9z"/>
			</g>
		</g>
		<g>
			<g>
				<g opacity="5.000000e-002">
					<path fill="#707E85" d="M105.9,404.8v-8.5c0-0.6,0.4-1,1-1h7.5c0.6,0,1,0.4,1,1v8.5c0,0.6-0.4,1-1,1h-7.5
						C106.3,405.8,105.9,405.4,105.9,404.8z"/>
					<path fill="none" stroke="#707E85" stroke-width="0.3" stroke-miterlimit="10" d="M105.9,404.8v-8.5c0-0.6,0.4-1,1-1h7.5
						c0.6,0,1,0.4,1,1v8.5c0,0.6-0.4,1-1,1h-7.5C106.3,405.8,105.9,405.4,105.9,404.8z"/>
				</g>
				<g>
					<path fill="#EAF6FE" d="M102.9,401.8v-8.5c0-0.6,0.4-1,1-1h7.5c0.6,0,1,0.4,1,1v8.5c0,0.6-0.4,1-1,1h-7.5
						C103.3,402.8,102.9,402.4,102.9,401.8z"/>
					<path fill="none" stroke="#CBD3D7" stroke-width="0.3" stroke-miterlimit="10" d="M102.9,401.8v-8.5c0-0.6,0.4-1,1-1h7.5
						c0.6,0,1,0.4,1,1v8.5c0,0.6-0.4,1-1,1h-7.5C103.3,402.8,102.9,402.4,102.9,401.8z"/>
				</g>
			</g>
			<path fill="#EAF6FE" stroke="#CBD3D7" stroke-width="0.3" stroke-miterlimit="10" d="M109.9,396.5l-1.3,3.4
				c-0.2,0.5-0.8,0.8-1.3,0.6l-1.3-0.5c-0.5-0.2-0.8-0.8-0.6-1.3l1.3-3.4c0.2-0.5,0.8-0.8,1.3-0.6l1.3,0.5
				C109.8,395.5,110.1,396,109.9,396.5z"/>
			<circle fill="#EAF6FE" stroke="#CBD3D7" stroke-width="0.3" stroke-miterlimit="10" cx="107.7" cy="397.7" r="0.5"/>
		</g>
		<path fill="#EAF6FE" stroke="#CBD3D7" stroke-width="0.3" stroke-miterlimit="10" d="M161.3,386.5h-54.1c-0.6,0-1-0.4-1-1v-19.7
			c0-0.6,0.4-1,1-1h54.1c0.6,0,1,0.4,1,1v19.7C162.3,386.1,161.9,386.5,161.3,386.5z"/>
		<path fill="#EAF6FE" stroke="#CBD3D7" stroke-width="0.3" stroke-miterlimit="10" d="M109.1,383.6c-0.2-0.5,0.1-0.9,0-1.7
			c-1.5-7,0.4-14.5,0.7-14.6c0.3-0.2,0.2,0.2,1.8,0.5c1.7,0.1,5.5-0.3,6.8-0.1c0.4,0.1,0.6,0.2,0.7,0.3c1,1.3,0.6,15,0.5,15.2
			c-0.1,0.2-0.6,0.7-1.2,0.8C116.9,384.2,109.3,384.1,109.1,383.6z"/>
		<g>
			<g>
				<path fill="#EAF6FE" stroke="#CBD3D7" stroke-width="0.3" stroke-miterlimit="10" d="M129.1,367c0,0,0.9,6.5,0.9,8.6
					c0,2.3-0.9,8.6-0.9,8.6c0,1.6,2.7,3,1.1,3h-9.1c-1.6,0-3-1.3-3-3c0,0,0.9-5.9,0.9-8.5c0-2.6-0.9-8.8-0.9-8.8c0-1.6,1.3-3,3-3
					h9.1C131.8,364,129.1,365.4,129.1,367z"/>
			</g>
			<path fill="#EAF6FE" stroke="#CBD3D7" stroke-width="0.3" stroke-linecap="round" stroke-miterlimit="10" d="M122.1,383.7
				c1.3,0.2,4.6-1.3,5.1-3.6"/>
			<path fill="#EAF6FE" stroke="#CBD3D7" stroke-width="0.3" stroke-linecap="round" stroke-miterlimit="10" d="M121.7,376.5
				c1.7-1.8,4-6,3.8-8.7"/>
		</g>
	</g>
	<g>
		<g>
			<g opacity="5.000000e-002">
				<path fill="#707E85" d="M443.2,127.6h60.6c0.6,0,1,0.4,1,1v47.9c0,0.6-0.4,1-1,1h-60.6c-0.6,0-1-0.4-1-1v-47.9
					C442.2,128,442.6,127.6,443.2,127.6z"/>
				<path fill="none" stroke="#707E85" stroke-width="0.3" stroke-miterlimit="10" d="M443.2,127.6h60.6c0.6,0,1,0.4,1,1v47.9
					c0,0.6-0.4,1-1,1h-60.6c-0.6,0-1-0.4-1-1v-47.9C442.2,128,442.6,127.6,443.2,127.6z"/>
			</g>
			<g>
				<path fill="#EAF6FE" d="M440.2,124.6h60.6c0.6,0,1,0.4,1,1v47.9c0,0.6-0.4,1-1,1h-60.6c-0.6,0-1-0.4-1-1v-47.9
					C439.2,125,439.6,124.6,440.2,124.6z"/>
				<path fill="none" stroke="#CBD3D7" stroke-width="0.3" stroke-miterlimit="10" d="M440.2,124.6h60.6c0.6,0,1,0.4,1,1v47.9
					c0,0.6-0.4,1-1,1h-60.6c-0.6,0-1-0.4-1-1v-47.9C439.2,125,439.6,124.6,440.2,124.6z"/>
			</g>
		</g>
		<path fill="#EAF6FE" stroke="#CBD3D7" stroke-width="0.3" stroke-miterlimit="10" d="M443.5,127.9h53.9c0.6,0,1,0.4,1,1v41.3
			c0,0.6-0.4,1-1,1h-53.9c-0.6,0-1-0.4-1-1v-41.3C442.5,128.4,443,127.9,443.5,127.9z"/>
		<path fill="#EAF6FE" stroke="#CBD3D7" stroke-width="0.3" stroke-miterlimit="10" d="M495.4,130.8c1.1,1.8,1.3,14.9,0.1,16.9
			c-0.1,0.1-6.2,0.8-9.5,0.4c-0.6-0.1-1.4-0.6-1.7-1.6c-1.2-3.3-0.7-11,0.4-14.7c0.4-1.3,1.7-1.2,2.2-1.3
			C489.3,130,495,130.2,495.4,130.8z"/>
		<path fill="#EAF6FE" stroke="#CBD3D7" stroke-width="0.3" stroke-miterlimit="10" d="M495.5,151.3c1.4,3.7,1,16.2,0.3,16.9
			c-0.3,0.3-6.3,1-9,0.4c-0.4-0.1-0.8-0.3-0.9-0.5c-1.1-1.6-1.9-16.1-1.8-16.3c0.2-0.2,1.3-0.1,1.9-0.4
			C487.5,150.7,495.3,150.7,495.5,151.3z"/>
		<g>
			<path fill="#EAF6FE" stroke="#CBD3D7" stroke-width="0.3" stroke-miterlimit="10" d="M475.7,169c0,0-1.6-17.2-1.6-19.3
				c0-2.3,1.6-19.3,1.6-19.3c0-1.6-2.7-3-1.1-3h9.1c1.6,0,3,1.3,3,3c0,0-0.9,16.6-0.9,19.2c0,2.6,0.9,19.5,0.9,19.5c0,1.6-1.3,3-3,3
				h-9.1C472.9,172,475.7,170.6,475.7,169z"/>
			<path fill="#EAF6FE" stroke="#CBD3D7" stroke-width="0.3" stroke-linecap="round" stroke-miterlimit="10" d="M484.2,133.7
				c-0.3-2-3-6.2-3.9-6.4"/>
			<path fill="#EAF6FE" stroke="#CBD3D7" stroke-width="0.3" stroke-linecap="round" stroke-miterlimit="10" d="M483.3,154.7
				c-0.1-0.3-4.5-9.4-6.6-8.3c-0.8,0.4-0.3,1.8,0.1,2.5"/>
			<path fill="#EAF6FE" stroke="#CBD3D7" stroke-width="0.3" stroke-linecap="round" stroke-miterlimit="10" d="M485.2,169.3
				c-1.2-1.3-4.7-6.6-7.5-13.8"/>
		</g>
		<g>
			<g>
				<g opacity="5.000000e-002">
					<path fill="#707E85" d="M504.8,180.7v8.5c0,0.6-0.4,1-1,1h-7.5c-0.6,0-1-0.4-1-1v-8.5c0-0.6,0.4-1,1-1h7.5
						C504.4,179.7,504.8,180.2,504.8,180.7z"/>
					<path fill="none" stroke="#707E85" stroke-width="0.3" stroke-miterlimit="10" d="M504.8,180.7v8.5c0,0.6-0.4,1-1,1h-7.5
						c-0.6,0-1-0.4-1-1v-8.5c0-0.6,0.4-1,1-1h7.5C504.4,179.7,504.8,180.2,504.8,180.7z"/>
				</g>
				<g>
					<path fill="#EAF6FE" d="M501.8,177.7v8.5c0,0.6-0.4,1-1,1h-7.5c-0.6,0-1-0.4-1-1v-8.5c0-0.6,0.4-1,1-1h7.5
						C501.4,176.7,501.8,177.2,501.8,177.7z"/>
					<path fill="none" stroke="#CBD3D7" stroke-width="0.3" stroke-miterlimit="10" d="M501.8,177.7v8.5c0,0.6-0.4,1-1,1h-7.5
						c-0.6,0-1-0.4-1-1v-8.5c0-0.6,0.4-1,1-1h7.5C501.4,176.7,501.8,177.2,501.8,177.7z"/>
				</g>
			</g>
			<path fill="#EAF6FE" stroke="#CBD3D7" stroke-width="0.3" stroke-miterlimit="10" d="M494.8,183l1.3-3.4c0.2-0.5,0.8-0.8,1.3-0.6
				l1.3,0.5c0.5,0.2,0.8,0.8,0.6,1.3l-1.3,3.4c-0.2,0.5-0.8,0.8-1.3,0.6l-1.3-0.5C494.9,184.1,494.6,183.5,494.8,183z"/>
			<circle fill="#EAF6FE" stroke="#CBD3D7" stroke-width="0.3" stroke-miterlimit="10" cx="497" cy="181.9" r="0.5"/>
		</g>
		<g>
			<g>
				<g opacity="5.000000e-002">
					<path fill="#707E85" d="M495.3,124.4v-8.5c0-0.6,0.4-1,1-1h7.5c0.6,0,1,0.4,1,1v8.5c0,0.6-0.4,1-1,1h-7.5
						C495.8,125.4,495.3,124.9,495.3,124.4z"/>
					<path fill="none" stroke="#707E85" stroke-width="0.3" stroke-miterlimit="10" d="M495.3,124.4v-8.5c0-0.6,0.4-1,1-1h7.5
						c0.6,0,1,0.4,1,1v8.5c0,0.6-0.4,1-1,1h-7.5C495.8,125.4,495.3,124.9,495.3,124.4z"/>
				</g>
				<g>
					<path fill="#EAF6FE" d="M492.3,121.4v-8.5c0-0.6,0.4-1,1-1h7.5c0.6,0,1,0.4,1,1v8.5c0,0.6-0.4,1-1,1h-7.5
						C492.8,122.4,492.3,121.9,492.3,121.4z"/>
					<path fill="none" stroke="#CBD3D7" stroke-width="0.3" stroke-miterlimit="10" d="M492.3,121.4v-8.5c0-0.6,0.4-1,1-1h7.5
						c0.6,0,1,0.4,1,1v8.5c0,0.6-0.4,1-1,1h-7.5C492.8,122.4,492.3,121.9,492.3,121.4z"/>
				</g>
			</g>
			<path fill="#EAF6FE" stroke="#CBD3D7" stroke-width="0.3" stroke-miterlimit="10" d="M496.5,114.9v-0.4c0-0.1,0.1-0.2,0.2-0.2
				h5.1v0.8h-5.1C496.6,115.1,496.5,115,496.5,114.9z"/>
			<path fill="#EAF6FE" stroke="#CBD3D7" stroke-width="0.3" stroke-miterlimit="10" d="M497.3,116.5v-0.4c0-0.1,0.1-0.2,0.2-0.2
				h4.3v0.8h-4.3C497.4,116.8,497.3,116.7,497.3,116.5z"/>
			<path fill="#EAF6FE" stroke="#CBD3D7" stroke-width="0.3" stroke-miterlimit="10" d="M495.9,115.7v-0.4c0-0.1,0.1-0.2,0.2-0.2
				h5.6v0.8h-5.6C496,115.9,495.9,115.8,495.9,115.7z"/>
		</g>
	</g>
	<g>
		<g>
			<g opacity="5.000000e-002">
				<path fill="#707E85" d="M503.6,218.2h-55.8c-0.6,0-1-0.4-1-1v-14.9c0-0.6,0.4-1,1-1h55.8c0.6,0,1,0.4,1,1v14.9
					C504.6,217.8,504.1,218.2,503.6,218.2z"/>
				<path fill="none" stroke="#707E85" stroke-width="0.3" stroke-miterlimit="10" d="M503.6,218.2h-55.8c-0.6,0-1-0.4-1-1v-14.9
					c0-0.6,0.4-1,1-1h55.8c0.6,0,1,0.4,1,1v14.9C504.6,217.8,504.1,218.2,503.6,218.2z"/>
			</g>
			<g>
				<path fill="#EAF6FE" d="M500.6,215.2h-55.8c-0.6,0-1-0.4-1-1v-14.9c0-0.6,0.4-1,1-1h55.8c0.6,0,1,0.4,1,1v14.9
					C501.6,214.8,501.1,215.2,500.6,215.2z"/>
				<path fill="none" stroke="#CBD3D7" stroke-width="0.3" stroke-miterlimit="10" d="M500.6,215.2h-55.8c-0.6,0-1-0.4-1-1v-14.9
					c0-0.6,0.4-1,1-1h55.8c0.6,0,1,0.4,1,1v14.9C501.6,214.8,501.1,215.2,500.6,215.2z"/>
			</g>
		</g>
		<line fill="#EAF6FE" stroke="#CBD3D7" stroke-width="0.3" stroke-miterlimit="10" x1="443.8" y1="200.6" x2="501.6" y2="200.6"/>
		<line fill="#EAF6FE" stroke="#CBD3D7" stroke-width="0.3" stroke-miterlimit="10" x1="472.7" y1="200.6" x2="472.7" y2="198.4"/>
		<polyline fill="none" stroke="#CBD3D7" stroke-width="0.3" stroke-miterlimit="10" points="466.4,198.4 466.4,197.1 468.5,197.1 
			468.5,198.4 		"/>
		<polyline fill="none" stroke="#CBD3D7" stroke-width="0.3" stroke-miterlimit="10" points="476.8,198.4 476.8,197.1 479,197.1 
			479,198.4 		"/>
	</g>
	<g>
		<path fill="#FFFFFF" stroke="#707E85" stroke-width="0.3" stroke-miterlimit="10" d="M477.8,276.1v-24.3c0-0.4,0.3-0.7,0.7-0.7
			h24.3c0.4,0,0.7,0.3,0.7,0.7v24.3c0,0.4-0.3,0.7-0.7,0.7h-24.3C478.1,276.8,477.8,276.5,477.8,276.1z"/>
		<path fill="#FFFFFF" stroke="#707E85" stroke-width="0.3" stroke-miterlimit="10" d="M479.4,273.3v-18.5c0-1.1,0.9-2,2-2h18.3
			c1.1,0,2,0.9,2,2v18.5c0,1.1-0.9,2-2,2h-18.3C480.3,275.3,479.4,274.4,479.4,273.3z"/>
		<path fill="#FFFFFF" stroke="#707E85" stroke-width="0.3" stroke-miterlimit="10" d="M480.8,271.9v-15.7c0-1.1,0.9-2,2-2h15.6
			c1.1,0,2,0.9,2,2v15.7c0,1.1-0.9,2-2,2h-15.6C481.7,274,480.8,273.1,480.8,271.9z"/>
		<circle fill="#FFFFFF" stroke="#707E85" stroke-width="0.3" stroke-miterlimit="10" cx="496.4" cy="269.7" r="1.5"/>
	</g>
	<g>
		<g>
			<g opacity="0.2">
				<path fill="#708793" d="M446,270.3c0,1,0.1,6.4,0.2,7.3c0.1,0.8,0.2,1.5,0.3,2.2h10.5c0.1-0.6,0.2-1.2,0.3-1.9
					c0.1-1,0.1-7.3,0.1-8.4c0-2.4-2-7.4-5.6-7.4C447.9,262.1,446,267.5,446,270.3z"/>
				<path fill="none" stroke="#708793" stroke-width="0.3" stroke-miterlimit="10" d="M446,270.3c0,1,0.1,6.4,0.2,7.3
					c0.1,0.8,0.2,1.5,0.3,2.2h10.5c0.1-0.6,0.2-1.2,0.3-1.9c0.1-1,0.1-7.3,0.1-8.4c0-2.4-2-7.4-5.6-7.4
					C447.9,262.1,446,267.5,446,270.3z"/>
			</g>
			<g>
				<path fill="#FFFFFF" d="M443,267.3c0,1,0.1,6.4,0.2,7.3c0.1,0.8,0.2,1.5,0.3,2.2h10.5c0.1-0.6,0.2-1.2,0.3-1.9
					c0.1-1,0.1-7.3,0.1-8.4c0-2.4-2-7.4-5.6-7.4C444.9,259.1,443,264.5,443,267.3z"/>
				<path fill="none" stroke="#707E85" stroke-width="0.3" stroke-miterlimit="10" d="M443,267.3c0,1,0.1,6.4,0.2,7.3
					c0.1,0.8,0.2,1.5,0.3,2.2h10.5c0.1-0.6,0.2-1.2,0.3-1.9c0.1-1,0.1-7.3,0.1-8.4c0-2.4-2-7.4-5.6-7.4
					C444.9,259.1,443,264.5,443,267.3z"/>
			</g>
		</g>
		<g>
			<circle fill="#FFFFFF" stroke="#707E85" stroke-width="0.3" stroke-miterlimit="10" cx="446.2" cy="274.4" r="0.4"/>
			<circle fill="#FFFFFF" stroke="#707E85" stroke-width="0.3" stroke-miterlimit="10" cx="451.2" cy="274.4" r="0.4"/>
		</g>
		<path fill="#FFFFFF" stroke="#707E85" stroke-width="0.3" stroke-miterlimit="10" d="M448.7,260.6c2.4,0,4.4,3.7,4.4,6.1
			c0,2.4-2,4.4-4.4,4.4c-2.4,0-4.4-2-4.4-4.4C444.3,264.3,446.3,260.6,448.7,260.6z"/>
		<path fill="#FFFFFF" stroke="#707E85" stroke-width="0.3" stroke-miterlimit="10" d="M447.2,267.7v1.6c0,0.5,0.7,0.5,1.5,0.5
			s1.5-0.1,1.5-0.5v-1.6c0-0.8-0.7-1.5-1.5-1.5S447.2,266.9,447.2,267.7z"/>
		<path fill="none" stroke="#707E85" stroke-width="0.3" stroke-miterlimit="10" d="M443.2,274.4c1.4,0.8,3.5,1.4,5.8,1.4
			c2,0,3.9-0.4,5.2-1.1"/>
	</g>
	<g>
		<g>
			<g opacity="0.2">
				<path fill="#708793" d="M494.6,228.5h11.9v19.2h-11.9c-2.2,0-4-1.8-4-4v-11.3C490.7,230.3,492.4,228.5,494.6,228.5z"/>
				<path fill="none" stroke="#708793" stroke-width="0.3" stroke-miterlimit="10" d="M494.6,228.5h11.9v19.2h-11.9
					c-2.2,0-4-1.8-4-4v-11.3C490.7,230.3,492.4,228.5,494.6,228.5z"/>
			</g>
			<g>
				<path fill="#FFFFFF" d="M491.6,225.5h11.9v19.2h-11.9c-2.2,0-4-1.8-4-4v-11.3C487.7,227.3,489.4,225.5,491.6,225.5z"/>
				<path fill="none" stroke="#707E85" stroke-width="0.3" stroke-miterlimit="10" d="M491.6,225.5h11.9v19.2h-11.9
					c-2.2,0-4-1.8-4-4v-11.3C487.7,227.3,489.4,225.5,491.6,225.5z"/>
			</g>
		</g>
		<path fill="#FFFFFF" stroke="#707E85" stroke-width="0.3" stroke-miterlimit="10" d="M491.8,227.3h5.2c1.4,0,2.6,1.1,2.6,2.6v10.6
			c0,1.4-1.1,2.6-2.6,2.6h-5.2c-1.4,0-2.6-1.1-2.6-2.6v-10.6C489.3,228.4,490.4,227.3,491.8,227.3z"/>
		<circle fill="#FFFFFF" stroke="#707E85" stroke-width="0.3" stroke-miterlimit="10" cx="497.5" cy="235.1" r="0.9"/>
	</g>
	<g>
		<g>
			<g>
				
					<rect x="285.1" y="304.7" transform="matrix(-0.9535 0.3014 -0.3014 -0.9535 651.1414 517.6209)" fill="none" stroke="#CBD3D7" stroke-width="0.3" stroke-miterlimit="10" width="1.1" height="8.7"/>
				
					<rect x="289.5" y="303.3" transform="matrix(0.9535 -0.3014 0.3014 0.9535 -79.2336 101.7257)" fill="none" stroke="#CBD3D7" stroke-width="0.3" stroke-miterlimit="10" width="1.1" height="8.7"/>
				<g>
					<g opacity="5.000000e-002">
						<path fill="#707E85" d="M294.7,300.8l2.8,8.8c0.2,0.7-0.2,1.5-0.9,1.7l-10.7,3.4c-0.7,0.2-1.5-0.2-1.7-0.9l-2.8-8.8
							L294.7,300.8z"/>
						<path fill="none" stroke="#707E85" stroke-width="0.3" stroke-miterlimit="10" d="M294.7,300.8l2.8,8.8
							c0.2,0.7-0.2,1.5-0.9,1.7l-10.7,3.4c-0.7,0.2-1.5-0.2-1.7-0.9l-2.8-8.8L294.7,300.8z"/>
					</g>
					<g>
						<path fill="#EAF6FE" d="M291.7,297.8l2.8,8.8c0.2,0.7-0.2,1.5-0.9,1.7l-10.7,3.4c-0.7,0.2-1.5-0.2-1.7-0.9l-2.8-8.8
							L291.7,297.8z"/>
						<path fill="none" stroke="#CBD3D7" stroke-width="0.3" stroke-miterlimit="10" d="M291.7,297.8l2.8,8.8
							c0.2,0.7-0.2,1.5-0.9,1.7l-10.7,3.4c-0.7,0.2-1.5-0.2-1.7-0.9l-2.8-8.8L291.7,297.8z"/>
					</g>
				</g>
			</g>
			<g>
				<path fill="#EAF6FE" stroke="#CBD3D7" stroke-width="0.3" stroke-miterlimit="10" d="M285.2,312.9c2.7,0.5,5.2-0.3,7.2-2.3
					c0.2-0.2,0.5-0.1,0.6,0.2c0.2,0.3,0.3,0.6,0.5,1c-2.2,2.5-5.3,3.5-8.5,2.7c-0.1-0.4-0.1-0.7-0.2-1.1
					C284.8,313.1,285,312.8,285.2,312.9z"/>
				<path fill="#EAF6FE" stroke="#CBD3D7" stroke-width="0.3" stroke-miterlimit="10" d="M285,314.5c3,0.7,6.4-0.4,8.5-2.7
					c0.2,0.4,0.4,0.8,0.6,1.1c0.1,0.2,0.1,0.5,0,0.7c-2.1,2.2-5.4,3.2-8.4,2.7c-0.2,0-0.4-0.3-0.4-0.5
					C285.1,315.3,285.1,314.9,285,314.5z"/>
			</g>
		</g>
		<g>
			<g>
				<rect x="266.1" y="304.1" fill="none" stroke="#CBD3D7" stroke-width="0.3" stroke-miterlimit="10" width="1.1" height="8.7"/>
				<rect x="270.7" y="304.1" fill="none" stroke="#CBD3D7" stroke-width="0.3" stroke-miterlimit="10" width="1.1" height="8.7"/>
				<g>
					<g opacity="5.000000e-002">
						<path fill="#707E85" d="M278.8,302.5l0,9.3c0,0.7-0.6,1.3-1.3,1.3l-11.3,0c-0.7,0-1.3-0.6-1.3-1.3l0-9.3L278.8,302.5z"/>
						<path fill="none" stroke="#707E85" stroke-width="0.3" stroke-miterlimit="10" d="M278.8,302.5l0,9.3c0,0.7-0.6,1.3-1.3,1.3
							l-11.3,0c-0.7,0-1.3-0.6-1.3-1.3l0-9.3L278.8,302.5z"/>
					</g>
					<g>
						<path fill="#EAF6FE" d="M275.8,299.5l0,9.3c0,0.7-0.6,1.3-1.3,1.3l-11.3,0c-0.7,0-1.3-0.6-1.3-1.3l0-9.3L275.8,299.5z"/>
						<path fill="none" stroke="#CBD3D7" stroke-width="0.3" stroke-miterlimit="10" d="M275.8,299.5l0,9.3c0,0.7-0.6,1.3-1.3,1.3
							l-11.3,0c-0.7,0-1.3-0.6-1.3-1.3l0-9.3L275.8,299.5z"/>
					</g>
				</g>
			</g>
			<g>
				<path fill="#EAF6FE" stroke="#CBD3D7" stroke-width="0.3" stroke-miterlimit="10" d="M265.1,312c2.4,1.3,5.1,1.3,7.5,0
					c0.2-0.1,0.5,0.1,0.5,0.4c0.1,0.4,0.1,0.7,0.2,1.1c-2.9,1.7-6.1,1.7-8.9,0c0.1-0.4,0.1-0.7,0.2-1.1
					C264.6,312,264.8,311.9,265.1,312z"/>
				<path fill="#EAF6FE" stroke="#CBD3D7" stroke-width="0.3" stroke-miterlimit="10" d="M264.4,313.4c2.7,1.6,6.3,1.6,8.9,0
					c0.1,0.4,0.1,0.8,0.2,1.3c0,0.3-0.1,0.5-0.2,0.6c-2.7,1.5-6.1,1.5-8.8,0c-0.2-0.1-0.3-0.4-0.2-0.6
					C264.2,314.3,264.3,313.9,264.4,313.4z"/>
			</g>
		</g>
	</g>
	<g>
		<rect x="249" y="274.8" fill="#FFFFFF" width="58.4" height="29.4"/>
		<path fill="#707E85" d="M307.3,275v29.1h-58.1V275H307.3 M307.6,274.7h-58.7v29.7h58.7V274.7L307.6,274.7z"/>
	</g>
</g>
<g id="Ouvertures">
	<g>
		<g>
			<rect x="215.5" y="496.1" fill="#FFFFFF" width="113.7" height="1.4"/>
			<path fill="#707E85" d="M329.1,496.3v1.1H215.7v-1.1H329.1 M329.4,496h-114v1.7h114V496L329.4,496z"/>
		</g>
		<rect x="240.5" y="496" fill="#707E85" width="3.6" height="1.7"/>
		<rect x="301.1" y="496" fill="#707E85" width="3.6" height="1.7"/>
		<g>
			<path fill="none" stroke="#707E85" stroke-width="0.3" stroke-miterlimit="10" stroke-dasharray="2,2" d="M243,496
				c0-12.6-12.3-28.2-28.5-28.2"/>
			<line fill="none" stroke="#707E85" stroke-width="0.3" stroke-miterlimit="10" x1="214.4" y1="496" x2="214.4" y2="467.8"/>
		</g>
		<g>
			<path fill="none" stroke="#707E85" stroke-width="0.3" stroke-miterlimit="10" stroke-dasharray="2,2" d="M302.1,496.1
				c0-12.6,12.3-28.2,28.5-28.2"/>
			<line fill="none" stroke="#707E85" stroke-width="0.3" stroke-miterlimit="10" x1="330.7" y1="496.1" x2="330.7" y2="467.9"/>
		</g>
	</g>
	<g>
		<path fill="none" stroke="#707E85" stroke-width="0.3" stroke-miterlimit="10" stroke-dasharray="2,2" d="M173.8,232.6
			c0-15.1,12.4-28.3,27.8-28.3"/>
		<line fill="none" stroke="#707E85" stroke-width="0.3" stroke-miterlimit="10" x1="201.6" y1="231.6" x2="201.6" y2="204.3"/>
	</g>
	<g>
		<path fill="none" stroke="#707E85" stroke-width="0.3" stroke-miterlimit="10" stroke-dasharray="2,2" d="M402.4,214.3
			c0-15.1-12.4-26.2-26.9-26.2"/>
		<line fill="none" stroke="#707E85" stroke-width="0.3" stroke-miterlimit="10" x1="375.4" y1="214.3" x2="375.4" y2="188.1"/>
	</g>
	<g>
		<path fill="none" stroke="#707E85" stroke-width="0.3" stroke-miterlimit="10" stroke-dasharray="2,2" d="M202.2,364.1"/>
	</g>
	<g>
		<g>
			<rect x="219" y="167.9" fill="#FFFFFF" width="110.9" height="6.4"/>
			<path fill="#707E85" d="M329.7,168v6.1H219.1V168H329.7 M330,167.7H218.8v6.7H330V167.7L330,167.7z"/>
		</g>
		<g>
			<rect x="219" y="167.9" fill="#FFFFFF" width="55.3" height="3"/>
			<path fill="#707E85" d="M274.1,168v2.7h-55V168H274.1 M274.4,167.7h-55.6v3.3h55.6V167.7L274.4,167.7z"/>
		</g>
		<g>
			<rect x="275" y="171.5" fill="#FFFFFF" width="54.8" height="2.8"/>
			<path fill="#707E85" d="M329.7,171.6v2.5h-54.5v-2.5H329.7 M330,171.3h-55.1v3.1H330V171.3L330,171.3z"/>
		</g>
		<g>
			<g>
				<line fill="none" stroke="#707E85" stroke-width="0.3" stroke-miterlimit="1" x1="254.4" y1="177.5" x2="241" y2="177.5"/>
				<g>
					<polygon fill="#707E85" points="242,176.3 242.2,176.5 241.1,177.5 242.2,178.5 242,178.7 240.7,177.5 					"/>
				</g>
			</g>
		</g>
		<rect x="273.1" y="171.3" fill="#707E85" width="3.5" height="3.1"/>
		<rect x="273.1" y="167.7" fill="#707E85" width="3.5" height="3.3"/>
		<rect x="327.4" y="171.4" fill="#707E85" width="2.6" height="3"/>
		<rect x="218.8" y="167.7" fill="#707E85" width="3.3" height="3.3"/>
		<line fill="none" stroke="#707E85" stroke-width="0.1" stroke-miterlimit="1" x1="273.4" y1="169.4" x2="219.1" y2="169.4"/>
		<line fill="none" stroke="#707E85" stroke-width="0.1" stroke-miterlimit="1" x1="328.7" y1="172.8" x2="274.3" y2="172.8"/>
	</g>
	<g>
		<path fill="none" stroke="#707E85" stroke-width="0.3" stroke-miterlimit="10" stroke-dasharray="2,2" d="M162,293.5
			c-15.4,0-27.8-12.7-27.8-28.4"/>
		<line fill="none" stroke="#707E85" stroke-width="0.3" stroke-miterlimit="10" x1="162" y1="265.1" x2="134.2" y2="265.1"/>
	</g>
	<g>
		<path fill="none" stroke="#707E85" stroke-width="0.3" stroke-miterlimit="10" stroke-dasharray="2,2" d="M172.8,361.6
			c0,14.7,12.2,26.6,27.2,26.6"/>
		<line fill="none" stroke="#707E85" stroke-width="0.3" stroke-miterlimit="10" x1="199.9" y1="361.6" x2="199.9" y2="388.3"/>
	</g>
	<g>
		<path fill="none" stroke="#707E85" stroke-width="0.3" stroke-miterlimit="10" stroke-dasharray="2,2" d="M364.4,336.6
			c0-17.4,14.4-31.5,32.2-31.5"/>
		<line fill="none" stroke="#707E85" stroke-width="0.3" stroke-miterlimit="10" x1="396.6" y1="336.6" x2="396.6" y2="305"/>
	</g>
	<g>
		<g>
			<rect x="97" y="99.8" fill="#FFFFFF" width="43.6" height="1.8"/>
			<path fill="#707E85" d="M140.4,100v1.5H97.1V100H140.4 M140.7,99.7H96.8v2.1h43.9V99.7L140.7,99.7z"/>
		</g>
		<path fill="none" stroke="#707E85" stroke-width="0.3" stroke-miterlimit="10" stroke-dasharray="2,2" d="M122.5,101.8
			c0,0,0.4,10.8-7.7,18.9l-17.5-18.9"/>
		<rect x="121" y="99.7" fill="#707E85" width="2.4" height="2.1"/>
		<g>
			<path fill="none" stroke="#707E85" stroke-width="0.3" stroke-miterlimit="10" stroke-dasharray="2,2" d="M122.5,101.8
				c0,10,8,18.1,17.9,18.1"/>
			<line fill="none" stroke="#707E85" stroke-width="0.3" stroke-miterlimit="10" x1="140.4" y1="101.8" x2="140.4" y2="119.9"/>
		</g>
	</g>
	<g>
		<g>
			<rect x="135.1" y="496.1" fill="#FFFFFF" width="43.6" height="1.8"/>
			<path fill="#707E85" d="M178.5,496.3v1.5h-43.3v-1.5H178.5 M178.8,496h-43.9v2.1h43.9V496L178.8,496z"/>
		</g>
		<path fill="none" stroke="#707E85" stroke-width="0.3" stroke-miterlimit="10" stroke-dasharray="2,2" d="M153.1,496
			c0,0-0.4-10.8,7.7-18.9l17.5,18.9"/>
		<rect x="152.2" y="496" fill="#707E85" width="2.4" height="2.1"/>
		<g>
			<path fill="none" stroke="#707E85" stroke-width="0.3" stroke-miterlimit="10" stroke-dasharray="2,2" d="M153.1,496
				c0-10-8-18.1-17.9-18.1"/>
			<line fill="none" stroke="#707E85" stroke-width="0.3" stroke-miterlimit="10" x1="135.2" y1="496" x2="135.2" y2="477.9"/>
		</g>
	</g>
	<g>
		<g>
			<rect x="394.1" y="100.3" fill="#FFFFFF" width="43.6" height="1.8"/>
			<path fill="#707E85" d="M437.6,100.5v1.5h-43.3v-1.5H437.6 M437.9,100.2H394v2.1h43.9V100.2L437.9,100.2z"/>
		</g>
		<path fill="none" stroke="#707E85" stroke-width="0.3" stroke-miterlimit="10" stroke-dasharray="2,2" d="M419.7,102.3
			c0,0,0.4,10.8-7.7,18.9l-17.5-18.9"/>
		<rect x="418.2" y="100.2" fill="#707E85" width="2.4" height="2.1"/>
		<g>
			<path fill="none" stroke="#707E85" stroke-width="0.3" stroke-miterlimit="10" stroke-dasharray="2,2" d="M419.7,102.3
				c0,10,8,18.1,17.9,18.1"/>
			<line fill="none" stroke="#707E85" stroke-width="0.3" stroke-miterlimit="10" x1="437.6" y1="102.3" x2="437.6" y2="120.4"/>
		</g>
	</g>
	<g>
		<path fill="none" stroke="#707E85" stroke-width="0.3" stroke-miterlimit="10" stroke-dasharray="2,2" d="M433.5,247.8
			c13.3,0,24-10.9,24-24.5"/>
		<line fill="none" stroke="#707E85" stroke-width="0.3" stroke-miterlimit="10" x1="433.5" y1="223.3" x2="457.5" y2="223.3"/>
	</g>
</g>
<g id="Étiquettes" display="none">
	<text transform="matrix(1 0 0 1 130.6929 218.4263)" display="inline" fill="#3A3A39" font-family="'Lato-Black'" font-size="7px">Chambre 2</text>
	<text transform="matrix(1 0 0 1 138.186 226.8262)" display="inline" fill="#3A3A39" font-family="'Lato-Italic'" font-size="7px">14.90 m</text>
	
		<text transform="matrix(0.583 0 0 0.583 162.7485 224.4951)" display="inline" fill="#3A3A39" font-family="'Lato-Italic'" font-size="7px">2</text>
	<text transform="matrix(1 0 0 1 455.8342 200.0483)" display="inline" fill="#3A3A39" font-family="'Lato-Black'" font-size="7px">Chambre 1</text>
	
		<text transform="matrix(1 0 0 1 463.3273 208.4482)" display="inline" fill="#3A3A39" font-family="'Lato-Italic'" font-size="7px">14.60 m</text>
	
		<text transform="matrix(0.583 0 0 0.583 487.8898 206.1172)" display="inline" fill="#3A3A39" font-family="'Lato-Italic'" font-size="7px">2</text>
	<text transform="matrix(1 0 0 1 157.3485 475.7046)" display="inline" fill="#3A3A39" font-family="'Lato-Black'" font-size="7px">Chambre 3</text>
	
		<text transform="matrix(1 0 0 1 164.8417 484.1045)" display="inline" fill="#3A3A39" font-family="'Lato-Italic'" font-size="7px">13.40 m</text>
	
		<text transform="matrix(0.583 0 0 0.583 189.4042 481.7734)" display="inline" fill="#3A3A39" font-family="'Lato-Italic'" font-size="7px">2</text>
	<text transform="matrix(1 0 0 1 376.4669 264.0034)" display="inline" fill="#3A3A39" font-family="'Lato-Black'" font-size="7px">Dégagement </text>
	
		<text transform="matrix(1 0 0 1 390.0988 272.4033)" display="inline" fill="#3A3A39" font-family="'Lato-Italic'" font-size="7px">7.30 m</text>
	
		<text transform="matrix(0.583 0 0 0.583 410.6007 270.0723)" display="inline" fill="#3A3A39" font-family="'Lato-Italic'" font-size="7px">2</text>
	<text transform="matrix(1 0 0 1 174.8682 313.3257)" display="inline" fill="#3A3A39" font-family="'Lato-Black'" font-size="7px">Dégagement </text>
	<text transform="matrix(1 0 0 1 188.5 321.7256)" display="inline" fill="#3A3A39" font-family="'Lato-Italic'" font-size="7px">5.10 m</text>
	
		<text transform="matrix(0.583 0 0 0.583 209.002 319.3945)" display="inline" fill="#3A3A39" font-family="'Lato-Italic'" font-size="7px">2</text>
	<text transform="matrix(1 0 0 1 318.9644 151.0981)" display="inline" fill="#3A3A39" font-family="'Lato-Black'" font-size="7px">Loggia </text>
	<text transform="matrix(1 0 0 1 319.3247 159.498)" display="inline" fill="#3A3A39" font-family="'Lato-Italic'" font-size="7px">10.20 m</text>
	
		<text transform="matrix(0.583 0 0 0.583 343.8872 157.167)" display="inline" fill="#3A3A39" font-family="'Lato-Italic'" font-size="7px">2</text>
	<text transform="matrix(1 0 0 1 300.6563 481.9077)" display="inline" fill="#3A3A39" font-family="'Lato-Black'" font-size="7px">ESPACE JOUR </text>
	
		<text transform="matrix(1 0 0 1 311.0537 490.3076)" display="inline" fill="#3A3A39" font-family="'Lato-Italic'" font-size="7px">44.20 m</text>
	
		<text transform="matrix(0.583 0 0 0.583 335.6162 487.9766)" display="inline" fill="#3A3A39" font-family="'Lato-Italic'" font-size="7px">2</text>
</g>
<g id="Murs">
	<line fill="none" stroke="#A5B8C4" stroke-miterlimit="10" x1="140.7" y1="93.5" x2="97.4" y2="93.5"/>
	<line fill="none" stroke="#A5B8C4" stroke-miterlimit="10" x1="394.5" y1="93.5" x2="437.9" y2="93.5"/>
	<line fill="none" stroke="#A5B8C4" stroke-miterlimit="10" x1="329.4" y1="504.9" x2="215.6" y2="504.9"/>
	<line fill="none" stroke="#A5B8C4" stroke-miterlimit="10" x1="178.6" y1="504.9" x2="135.4" y2="504.9"/>
	<rect x="335" y="292.2" fill="#707E85" width="35.8" height="2.2"/>
	<rect x="428.6" y="285.7" fill="#707E85" width="8.1" height="52.1"/>
	<rect x="428.6" y="247.1" fill="#707E85" width="4.1" height="52.1"/>
	<rect x="428.6" y="216.5" fill="#707E85" width="4.1" height="8.3"/>
	<rect x="401.8" y="216.5" fill="#707E85" width="104.4" height="3.8"/>
	<rect x="358.6" y="216.5" fill="#707E85" width="17.1" height="3.8"/>
	<rect x="432.6" y="285.7" fill="#707E85" width="79.2" height="8.3"/>
	<rect x="409.8" y="276.8" fill="#707E85" width="102" height="13"/>
	<rect x="503.4" y="90.9" fill="#707E85" width="8.4" height="189.4"/>
	<rect x="354.3" y="171" fill="#707E85" width="16.8" height="123.4"/>
	<rect x="199.1" y="233.1" fill="#707E85" width="9.8" height="3.8"/>
	<rect x="356.7" y="90.9" fill="#707E85" width="14.4" height="81.3"/>
	<rect x="369.3" y="90.9" fill="#707E85" width="22.1" height="13.4"/>
	<rect x="440.8" y="90.9" fill="#707E85" width="65.9" height="13.4"/>
	<rect x="372.4" y="90.9" fill="#707E85" width="22.1" height="11.5"/>
	<rect x="437.7" y="90.9" fill="#707E85" width="22.1" height="11.5"/>
	<rect x="330" y="167.6" fill="#707E85" width="36.3" height="6.7"/>
	<rect x="205.2" y="165" fill="#707E85" width="13.6" height="9.3"/>
	<rect x="140.7" y="90.9" fill="#707E85" width="76" height="10.9"/>
	<rect x="78.6" y="90.9" fill="#707E85" width="18.8" height="10.9"/>
	<rect x="143.7" y="93.5" fill="#707E85" width="73" height="10.9"/>
	<rect x="79.9" y="93.5" fill="#707E85" width="14.5" height="10.9"/>
	<rect x="205.2" y="172.9" fill="#707E85" width="7.5" height="121.2"/>
	<polygon fill="#707E85" points="173.3,360.1 165,360.1 163.1,360.1 105.6,360.1 99.4,360.1 107.3,493.3 132.3,493.3 132.3,496 
		135.4,496 135.4,507.4 104,507.4 100,507.9 74.5,91.9 78.2,90.9 97,90.9 97,101.2 94,101.2 94,104 83.4,104 91.5,233.6 
		163.1,233.6 166.9,233.6 175,233.6 175,237.3 166.9,237.3 166.9,266.9 163.1,266.9 163.1,237.3 105.6,237.3 105.6,356.2 
		173.3,356.2 	"/>
	<polygon fill="#707E85" points="181.7,493.3 205,493.3 205,359.8 199,359.8 199,356.4 205,356.4 205,337.2 212.3,337.2 
		212.3,385.5 212.3,507.4 212.3,507.4 211.5,507.4 206,507.4 205,507.4 178.6,507.4 178.6,496 181.7,496 	"/>
	<rect x="163.4" y="291.2" fill="#707E85" width="3.7" height="66.6"/>
	<rect x="210.7" y="493.3" fill="#707E85" width="1.8" height="14"/>
	<rect x="210.8" y="496" fill="#707E85" width="4.8" height="11.4"/>
	<line fill="none" stroke="#A5B8C4" stroke-width="1.4" stroke-miterlimit="10" x1="354.5" y1="97.8" x2="221" y2="97.8"/>
	<rect x="205.2" y="90.9" fill="#707E85" width="13.6" height="76.7"/>
	<rect x="396.6" y="337.6" fill="#707E85" width="40.1" height="8.5"/>
	<rect x="395.3" y="337.6" fill="#707E85" width="12.4" height="8.5"/>
	<polyline fill="#707E85" points="353.5,507.4 362.2,507.4 362.2,493.8 362.2,493.8 362.2,345.9 365.3,345.9 365.3,337.6 
		353.5,337.6 353.5,341.7 353.5,345.9 353.5,493.8 	"/>
	<rect x="329.5" y="496" fill="#707E85" width="4.8" height="11.4"/>
	<rect x="332.8" y="493.6" fill="#707E85" width="27.4" height="13.8"/>
</g>
<g id="Entree">
	<polygon fill="#3A3A39" points="374.3,341.7 379.7,337 385.2,341.7 	"/>
</g>
<g id="Nord">
	<circle fill="none" stroke="#707E85" stroke-miterlimit="10" cx="496" cy="497" r="11.9"/>
	<line fill="none" stroke="#707E85" stroke-width="2" stroke-miterlimit="10" x1="503.6" y1="494.5" x2="511" y2="492.2"/>
	<text transform="matrix(1 0 0 1 489.7676 502.7935)" fill="#707E85" font-family="'Lato-Black'" font-size="16.4252px">N</text>
</g>
</svg>
