<?xml version="1.0" encoding="utf-8"?>
<!-- Generator: Adobe Illustrator 19.0.0, SVG Export Plug-In . SVG Version: 6.00 Build 0)  -->
<svg version="1.1" xmlns="http://www.w3.org/2000/svg" xmlns:xlink="http://www.w3.org/1999/xlink" x="0px" y="0px"
	 viewBox="0 0 595.3 595.3" enable-background="new 0 0 595.3 595.3" xml:space="preserve">
<pattern  width="3.8" height="3.4" patternUnits="userSpaceOnUse" id="Nouvelle_nuance_de_motif_7" viewBox="0 -3.4 3.8 3.4" overflow="visible">
	<g>
		<polygon fill="none" points="0,0 3.8,0 3.8,-3.4 0,-3.4 		"/>
		<polygon fill="#FFFFFF" points="3.7,0 0.1,0 0.1,-3.4 3.7,-3.4 		"/>
		<polygon fill="#E3E3E3" points="3.8,0 3.7,0 3.7,-3.4 3.8,-3.4 		"/>
		<polygon fill="#E3E3E3" points="0.1,0 0,0 0,-3.4 0.1,-3.4 		"/>
	</g>
</pattern>
<g id="Jardin">
</g>
<g id="Fond">
	<polygon fill="#FFFFFF" stroke="#707E85" stroke-width="0.3" stroke-miterlimit="10" points="509.6,205.9 509.6,442.7 368.6,442.7 
		332.5,442.7 76.1,442.7 76.1,161.5 274.6,161.5 283.7,161.5 277.8,206.1 	"/>
	<polygon fill="#EAF6FE" points="277.8,210 332.5,210 332.5,205.8 498.6,205.8 498.6,429.4 201.5,429.4 195.2,432 156.9,432.1 
		156.9,295.2 86.7,295.2 86.7,167.3 277.8,167.3 	"/>
</g>
<g id="Sol">
	<g>
		<pattern  id="SVGID_1_" xlink:href="#Nouvelle_nuance_de_motif_7" patternTransform="matrix(1 0 0 1 -7.626 10.3125)">
		</pattern>
		<rect x="76.3" y="296.2" fill="url(#SVGID_1_)" width="74.8" height="145.6"/>
	</g>
	<rect x="278.1" y="209.4" opacity="0.8" fill="#FFFFFF" width="53.8" height="51.1"/>
	<rect x="277.8" y="327.7" opacity="0.8" fill="#FFFFFF" width="64.7" height="101.7"/>
</g>
<g id="Installations">
	<polygon fill="#FFFFFF" stroke="#707E85" stroke-width="0.3" stroke-miterlimit="10" points="274.6,429.4 274.6,328.7 255.2,328.7 
		255.2,410.7 195.3,410.7 195.3,429.4 	"/>
	<line fill="none" stroke="#707E85" stroke-width="0.3" stroke-miterlimit="10" x1="255.2" y1="348.7" x2="274.6" y2="348.7"/>
	<line fill="none" stroke="#707E85" stroke-width="0.3" stroke-miterlimit="10" x1="255.2" y1="366.9" x2="274.6" y2="366.9"/>
	<g>
		
			<polyline fill="none" stroke="#000000" stroke-width="0.12" stroke-linecap="square" stroke-linejoin="bevel" stroke-miterlimit="10" points="
			267,341.1 267,340.2 267.8,340.2 		"/>
		
			<polyline fill="none" stroke="#000000" stroke-width="0.12" stroke-linecap="square" stroke-linejoin="bevel" stroke-miterlimit="10" points="
			262.1,336.3 262.9,336.3 262.9,335.4 		"/>
		
			<line fill="none" stroke="#000000" stroke-width="0.12" stroke-linecap="square" stroke-linejoin="bevel" stroke-miterlimit="10" x1="262.3" y1="335.7" x2="267.6" y2="340.8"/>
		
			<polyline fill="none" stroke="#000000" stroke-width="0.12" stroke-linecap="square" stroke-linejoin="bevel" stroke-miterlimit="10" points="
			267.8,336.3 267,336.3 267,335.4 		"/>
		
			<polyline fill="none" stroke="#000000" stroke-width="0.12" stroke-linecap="square" stroke-linejoin="bevel" stroke-miterlimit="10" points="
			262.9,341.1 262.9,340.2 262.1,340.2 		"/>
		
			<line fill="none" stroke="#000000" stroke-width="0.12" stroke-linecap="square" stroke-linejoin="bevel" stroke-miterlimit="10" x1="262.3" y1="340.8" x2="267.6" y2="335.7"/>
		
			<polyline fill="none" stroke="#000000" stroke-width="0.12" stroke-linecap="square" stroke-linejoin="bevel" stroke-miterlimit="10" points="
			268.4,338.9 267.8,338.3 268.4,337.7 		"/>
		
			<polyline fill="none" stroke="#000000" stroke-width="0.12" stroke-linecap="square" stroke-linejoin="bevel" stroke-miterlimit="10" points="
			261.5,338.9 262.1,338.3 261.5,337.7 		"/>
		
			<polyline fill="none" stroke="#000000" stroke-width="0.12" stroke-linecap="square" stroke-linejoin="bevel" stroke-miterlimit="10" points="
			265.5,334.8 264.9,335.4 264.4,334.8 		"/>
		
			<polyline fill="none" stroke="#000000" stroke-width="0.12" stroke-linecap="square" stroke-linejoin="bevel" stroke-miterlimit="10" points="
			265.5,341.6 264.9,341 264.4,341.6 		"/>
		
			<line fill="none" stroke="#000000" stroke-width="0.12" stroke-linecap="square" stroke-linejoin="bevel" stroke-miterlimit="10" x1="261.3" y1="338.3" x2="268.6" y2="338.3"/>
		
			<line fill="none" stroke="#000000" stroke-width="0.12" stroke-linecap="square" stroke-linejoin="bevel" stroke-miterlimit="10" x1="264.9" y1="341.8" x2="264.9" y2="334.6"/>
		<polyline fill="none" stroke="#707E85" stroke-width="0.3" stroke-miterlimit="10" points="267,341.1 267,340.2 267.8,340.2 		"/>
		<polyline fill="none" stroke="#707E85" stroke-width="0.3" stroke-miterlimit="10" points="262.1,336.3 262.9,336.3 262.9,335.4 
					"/>
		<line fill="none" stroke="#707E85" stroke-width="0.3" stroke-miterlimit="10" x1="262.3" y1="335.7" x2="267.6" y2="340.8"/>
		<polyline fill="none" stroke="#707E85" stroke-width="0.3" stroke-miterlimit="10" points="267.8,336.3 267,336.3 267,335.4 		"/>
		<polyline fill="none" stroke="#707E85" stroke-width="0.3" stroke-miterlimit="10" points="262.9,341.1 262.9,340.2 262.1,340.2 
					"/>
		<line fill="none" stroke="#707E85" stroke-width="0.3" stroke-miterlimit="10" x1="262.3" y1="340.8" x2="267.6" y2="335.7"/>
		<polyline fill="none" stroke="#707E85" stroke-width="0.3" stroke-miterlimit="10" points="268.4,338.9 267.8,338.3 268.4,337.7 
					"/>
		<polyline fill="none" stroke="#707E85" stroke-width="0.3" stroke-miterlimit="10" points="261.5,338.9 262.1,338.3 261.5,337.7 
					"/>
		<polyline fill="none" stroke="#707E85" stroke-width="0.3" stroke-miterlimit="10" points="265.5,334.8 264.9,335.4 264.4,334.8 
					"/>
		<polyline fill="none" stroke="#707E85" stroke-width="0.3" stroke-miterlimit="10" points="265.5,341.6 264.9,341 264.4,341.6 		
			"/>
		<line fill="none" stroke="#707E85" stroke-width="0.3" stroke-miterlimit="10" x1="261.3" y1="338.3" x2="268.6" y2="338.3"/>
		<line fill="none" stroke="#707E85" stroke-width="0.3" stroke-miterlimit="10" x1="264.9" y1="341.8" x2="264.9" y2="334.6"/>
	</g>
	<g>
		<rect x="204.8" y="412.4" fill="none" stroke="#707E85" stroke-width="0.3" stroke-miterlimit="10" width="31" height="15.4"/>
		<g>
			<path fill="#FFFFFF" stroke="#707E85" stroke-width="0.3" stroke-miterlimit="10" d="M220,424.1v-8c0-1.3,1.1-2.4,2.4-2.4h9.6
				c1.3,0,2.4,1.1,2.4,2.4v8c0,1.3-1.1,2.4-2.4,2.4h-9.6C221.1,426.5,220,425.4,220,424.1z"/>
			<circle fill="#FFFFFF" stroke="#707E85" stroke-width="0.3" stroke-miterlimit="10" cx="227.4" cy="424" r="1"/>
		</g>
		<g>
			<rect x="207.4" y="415.5" fill="#707E85" width="10.2" height="0.6"/>
			<rect x="207.4" y="417.6" fill="#707E85" width="10.2" height="0.6"/>
			<rect x="207.4" y="419.8" fill="#707E85" width="10.2" height="0.6"/>
			<rect x="207.4" y="421.9" fill="#707E85" width="10.2" height="0.6"/>
			<rect x="207.4" y="424.1" fill="#707E85" width="10.2" height="0.6"/>
		</g>
	</g>
	<g>
		<rect x="257.2" y="373.2" fill="none" stroke="#707E85" stroke-width="0.3" stroke-miterlimit="10" width="15.4" height="15.4"/>
		<path fill="#FFFFFF" stroke="#707E85" stroke-width="0.3" stroke-miterlimit="10" d="M268.1,380.5c1.6,0,2.8-1.3,2.8-2.8
			c0-1.6-1.3-2.8-2.8-2.8c-1.6,0-2.8,1.3-2.8,2.8C265.3,379.2,266.6,380.5,268.1,380.5"/>
		<path fill="#FFFFFF" stroke="#707E85" stroke-width="0.3" stroke-miterlimit="10" d="M261.6,386.8c1.6,0,2.8-1.3,2.8-2.8
			c0-1.6-1.3-2.8-2.8-2.8c-1.6,0-2.8,1.3-2.8,2.8C258.8,385.5,260.1,386.8,261.6,386.8"/>
		<path fill="#FFFFFF" stroke="#707E85" stroke-width="0.3" stroke-miterlimit="10" d="M261.1,379.7c1.3,0,2.3-1,2.3-2.3
			c0-1.3-1-2.3-2.3-2.3c-1.3,0-2.3,1-2.3,2.3C258.8,378.7,259.8,379.7,261.1,379.7"/>
		<path fill="#FFFFFF" stroke="#707E85" stroke-width="0.3" stroke-miterlimit="10" d="M268.5,386.8c1.3,0,2.3-1,2.3-2.3
			s-1-2.3-2.3-2.3s-2.3,1-2.3,2.3S267.3,386.8,268.5,386.8"/>
	</g>
	<g>
		<g>
			<g opacity="5.000000e-002">
				<path fill="#707E85" d="M241,260.9c0-0.6,0.5-1.1,1.1-1.1h0.2c0.6,0,1.1,0.5,1.1,1.1V281c0,2.8-2.2,5-5,5h-33.9
					c-2.8,0-5-2.2-5-5v-20.1c0-0.6,0.5-1.1,1.1-1.1h0.2c0.6,0,1.1,0.5,1.1,1.1v0.7c0-0.7,0.6-1.3,1.3-1.3h17c0.7,0,1.3,0.6,1.3,1.3
					c0-0.7,0.6-1.3,1.3-1.3h17c0.7,0,1.3,0.6,1.3,1.3V260.9z"/>
				<path fill="none" stroke="#707E85" stroke-width="0.3" stroke-miterlimit="10" d="M241,260.9c0-0.6,0.5-1.1,1.1-1.1h0.2
					c0.6,0,1.1,0.5,1.1,1.1V281c0,2.8-2.2,5-5,5h-33.9c-2.8,0-5-2.2-5-5v-20.1c0-0.6,0.5-1.1,1.1-1.1h0.2c0.6,0,1.1,0.5,1.1,1.1v0.7
					c0-0.7,0.6-1.3,1.3-1.3h17c0.7,0,1.3,0.6,1.3,1.3c0-0.7,0.6-1.3,1.3-1.3h17c0.7,0,1.3,0.6,1.3,1.3V260.9z"/>
			</g>
			<g>
				<path fill="#EAF6FE" d="M238,257.9c0-0.6,0.5-1.1,1.1-1.1h0.2c0.6,0,1.1,0.5,1.1,1.1V278c0,2.8-2.2,5-5,5h-33.9
					c-2.8,0-5-2.2-5-5v-20.1c0-0.6,0.5-1.1,1.1-1.1h0.2c0.6,0,1.1,0.5,1.1,1.1v0.7c0-0.7,0.6-1.3,1.3-1.3h17c0.7,0,1.3,0.6,1.3,1.3
					c0-0.7,0.6-1.3,1.3-1.3h17c0.7,0,1.3,0.6,1.3,1.3V257.9z"/>
				<path fill="none" stroke="#CBD3D7" stroke-width="0.3" stroke-miterlimit="10" d="M238,257.9c0-0.6,0.5-1.1,1.1-1.1h0.2
					c0.6,0,1.1,0.5,1.1,1.1V278c0,2.8-2.2,5-5,5h-33.9c-2.8,0-5-2.2-5-5v-20.1c0-0.6,0.5-1.1,1.1-1.1h0.2c0.6,0,1.1,0.5,1.1,1.1v0.7
					c0-0.7,0.6-1.3,1.3-1.3h17c0.7,0,1.3,0.6,1.3,1.3c0-0.7,0.6-1.3,1.3-1.3h17c0.7,0,1.3,0.6,1.3,1.3V257.9z"/>
			</g>
		</g>
		<g>
			<path fill="#EAF6FE" stroke="#CBD3D7" stroke-width="0.3033" stroke-miterlimit="10" d="M235.4,283h-33.9c-2.8,0-5-2.2-5-5v-20.1
				c0-0.6,0.5-1.1,1.1-1.1h0.2c0.6,0,1.1,0.5,1.1,1.1v17.2h39v-17.2c0-0.6,0.5-1.1,1.1-1.1h0.2c0.6,0,1.1,0.5,1.1,1.1V278
				C240.4,280.7,238.2,283,235.4,283z"/>
			<g>
				<g>
					<path fill="#EAF6FE" stroke="#CBD3D7" stroke-width="0.3" stroke-miterlimit="10" d="M200.6,273.1c5.4,0.5,10.8,0.5,16.2,0
						c1.2-0.1,2.3,0.7,2.4,1.9c0.1,0.9,0.2,1.8,0.3,2.6c0.2,1.2-0.8,2.3-2.1,2.4c-5.8,0.6-11.7,0.6-17.5,0c-1.3-0.1-2.2-1.2-2.1-2.4
						c0.1-0.9,0.2-1.8,0.3-2.6C198.3,273.9,199.4,273,200.6,273.1z"/>
					
						<path fill="#EAF6FE" stroke="#CBD3D7" stroke-width="0.3" stroke-linecap="round" stroke-linejoin="round" stroke-miterlimit="10" d="
						M200.2,275c0.1,0.6,16.9,0.6,17.1,0"/>
				</g>
			</g>
			<g>
				
					<line fill="#EAF6FE" stroke="#CBD3D7" stroke-width="0.3" stroke-miterlimit="10" x1="218.5" y1="276.1" x2="218.5" y2="258.6"/>
				<g>
					<path fill="#EAF6FE" stroke="#CBD3D7" stroke-width="0.3" stroke-miterlimit="10" d="M220.1,273.1c5.4,0.5,10.8,0.5,16.2,0
						c1.2-0.1,2.3,0.7,2.4,1.9c0.1,0.9,0.2,1.8,0.3,2.6c0.2,1.2-0.8,2.3-2.1,2.4c-5.8,0.6-11.7,0.6-17.5,0c-1.3-0.1-2.2-1.2-2.1-2.4
						c0.1-0.9,0.2-1.8,0.3-2.6C217.9,273.9,218.9,273,220.1,273.1z"/>
					
						<path fill="#EAF6FE" stroke="#CBD3D7" stroke-width="0.3" stroke-linecap="round" stroke-linejoin="round" stroke-miterlimit="10" d="
						M219.7,275c0.1,0.6,16.9,0.6,17.1,0"/>
				</g>
			</g>
			<g>
				<g>
					<path fill="#EAF6FE" stroke="#CBD3D7" stroke-width="0.3" stroke-miterlimit="10" d="M220.1,273.1c5.4,0.5,10.8,0.5,16.2,0
						c1.2-0.1,2.3,0.7,2.4,1.9c0.1,0.9,0.2,1.8,0.3,2.6c0.2,1.2-0.8,2.3-2.1,2.4c-5.8,0.6-11.7,0.6-17.5,0c-1.3-0.1-2.2-1.2-2.1-2.4
						c0.1-0.9,0.2-1.8,0.3-2.6C217.9,273.9,218.9,273,220.1,273.1z"/>
					
						<path fill="#EAF6FE" stroke="#CBD3D7" stroke-width="0.3" stroke-linecap="round" stroke-linejoin="round" stroke-miterlimit="10" d="
						M219.7,275c0.1,0.6,16.9,0.6,17.1,0"/>
				</g>
			</g>
			<path fill="#EAF6FE" stroke="#CBD3D7" stroke-width="0.3" stroke-miterlimit="10" d="M199.8,277.8c0.8-0.5,3.6-3.6,3.8-3.8
				c1.5,0,4.1-0.8,4.5-1.3c-0.2-0.4-0.4-0.3-0.7-0.9c-0.2-0.7-1.1-4.6-2.8-6.6c-1.1,1-6.6,1.6-8.1,3.2c-0.8,0.4-1.6,0.6-2.2,1.3
				c0.2,0.5,2.3,2.3,3.2,2.4C197.9,273.1,198.6,277,199.8,277.8z"/>
			<path fill="#EAF6FE" stroke="#CBD3D7" stroke-width="0.3" stroke-miterlimit="10" d="M234.3,278.5c0.8-0.6,5.4-6.9,5.7-7.4
				c-0.4-1.5-3.3-3.6-4.2-4.1c-0.3-1-0.9-2.1-1.5-2.6c-0.4,0.4-1.2,1.3-1.5,1.8c-0.5,0.3-3.5,2.8-4.1,4.8c-0.4,0.5-1,1-1,1.3
				c0.7,0.5,1.5,0.9,2,0.9C230.2,273.6,233.5,278.4,234.3,278.5z"/>
		</g>
	</g>
	<g>
		<g>
			<rect x="277.9" y="267.2" fill="#FFFFFF" width="54.4" height="18.8"/>
			<path fill="#707E85" d="M332.2,267.3v18.5h-54.2v-18.5H332.2 M332.5,267h-54.8v19.1h54.8V267L332.5,267z"/>
		</g>
		<line fill="none" stroke="#707E85" stroke-width="0.5" stroke-miterlimit="10" x1="285.2" y1="270.4" x2="286.3" y2="282.7"/>
		<line fill="none" stroke="#707E85" stroke-width="0.5" stroke-miterlimit="10" x1="289.2" y1="270.4" x2="287.9" y2="282.7"/>
		<line fill="none" stroke="#707E85" stroke-width="0.5" stroke-miterlimit="10" x1="290.7" y1="270.4" x2="291.7" y2="282.7"/>
		<line fill="none" stroke="#707E85" stroke-width="0.5" stroke-miterlimit="10" x1="294.7" y1="270.4" x2="293.4" y2="282.7"/>
		<line fill="none" stroke="#707E85" stroke-width="0.5" stroke-miterlimit="10" x1="315.6" y1="270.4" x2="316.7" y2="282.7"/>
		<line fill="none" stroke="#707E85" stroke-width="0.5" stroke-miterlimit="10" x1="319.6" y1="270.4" x2="318.3" y2="282.7"/>
		<line fill="none" stroke="#707E85" stroke-width="0.5" stroke-miterlimit="10" x1="321.1" y1="270.4" x2="322.1" y2="282.7"/>
		<line fill="none" stroke="#707E85" stroke-width="0.5" stroke-miterlimit="10" x1="325.1" y1="270.4" x2="323.8" y2="282.7"/>
		<line fill="#EAF6FE" stroke="#707E85" stroke-width="0.3" stroke-miterlimit="10" x1="277.8" y1="284.7" x2="332.3" y2="284.7"/>
		<line fill="#EAF6FE" stroke="#707E85" stroke-width="0.3" stroke-miterlimit="10" x1="305" y1="284.7" x2="305" y2="286"/>
		<polyline fill="none" stroke="#707E85" stroke-width="0.3" stroke-miterlimit="10" points="299.1,286 299.1,286.7 301.1,286.7 
			301.1,286 		"/>
		<polyline fill="none" stroke="#707E85" stroke-width="0.3" stroke-miterlimit="10" points="308.9,286 308.9,286.7 311,286.7 
			311,286 		"/>
		<line fill="none" stroke="#707E85" stroke-width="0.3" stroke-miterlimit="10" x1="277.8" y1="276.6" x2="332.3" y2="276.6"/>
	</g>
	<g>
		<g>
			
				<rect x="279.9" y="330.9" fill="#FFFFFF" stroke="#707E85" stroke-width="0.3" stroke-miterlimit="10" width="19.1" height="19.1"/>
		</g>
		<g>
			<circle fill="none" stroke="#707E85" stroke-width="0.6204" stroke-miterlimit="10" cx="289.5" cy="340.4" r="4.5"/>
			<path fill="none" stroke="#707E85" stroke-width="0.6204" stroke-miterlimit="10" d="M289,337.5c1.7,0,3.1,1.4,3.1,3.1"/>
		</g>
	</g>
	<g>
		<g>
			<g opacity="0.2">
				<path fill="#708793" d="M298.3,379.8c-1,0-6.5-0.1-7.4-0.2c-0.8-0.1-1.5-0.2-2.2-0.3v-10.6c0.6-0.1,1.3-0.2,1.9-0.3
					c1-0.1,7.4-0.1,8.5-0.1c2.4,0,7.5,2,7.5,5.7C306.6,377.9,301.2,379.8,298.3,379.8z"/>
				<path fill="none" stroke="#708793" stroke-width="0.3" stroke-miterlimit="10" d="M298.3,379.8c-1,0-6.5-0.1-7.4-0.2
					c-0.8-0.1-1.5-0.2-2.2-0.3v-10.6c0.6-0.1,1.3-0.2,1.9-0.3c1-0.1,7.4-0.1,8.5-0.1c2.4,0,7.5,2,7.5,5.7
					C306.6,377.9,301.2,379.8,298.3,379.8z"/>
			</g>
			<g>
				<path fill="#FFFFFF" d="M295.3,376.8c-1,0-6.5-0.1-7.4-0.2c-0.8-0.1-1.5-0.2-2.2-0.3v-10.6c0.6-0.1,1.3-0.2,1.9-0.3
					c1-0.1,7.4-0.1,8.5-0.1c2.4,0,7.5,2,7.5,5.7C303.6,374.9,298.2,376.8,295.3,376.8z"/>
				<path fill="none" stroke="#707E85" stroke-width="0.3" stroke-miterlimit="10" d="M295.3,376.8c-1,0-6.5-0.1-7.4-0.2
					c-0.8-0.1-1.5-0.2-2.2-0.3v-10.6c0.6-0.1,1.3-0.2,1.9-0.3c1-0.1,7.4-0.1,8.5-0.1c2.4,0,7.5,2,7.5,5.7
					C303.6,374.9,298.2,376.8,295.3,376.8z"/>
			</g>
		</g>
		<g>
			<circle fill="#FFFFFF" stroke="#707E85" stroke-width="0.3" stroke-miterlimit="10" cx="288.2" cy="373.6" r="0.4"/>
			<circle fill="#FFFFFF" stroke="#707E85" stroke-width="0.3" stroke-miterlimit="10" cx="288.2" cy="368.5" r="0.4"/>
		</g>
		<path fill="#FFFFFF" stroke="#707E85" stroke-width="0.3" stroke-miterlimit="10" d="M302.2,371c0-2.4-3.7-4.4-6.2-4.4
			s-4.4,2-4.4,4.4s2,4.4,4.4,4.4S302.2,373.5,302.2,371z"/>
		<path fill="#FFFFFF" stroke="#707E85" stroke-width="0.3" stroke-miterlimit="10" d="M295,372.5h-1.6c-0.5,0-0.5-0.7-0.5-1.5
			c0-0.8,0.1-1.5,0.5-1.5h1.6c0.8,0,1.5,0.7,1.5,1.5C296.5,371.8,295.8,372.5,295,372.5z"/>
		<path fill="none" stroke="#707E85" stroke-width="0.3" stroke-miterlimit="10" d="M288.2,376.6c-0.9-1.4-1.4-3.5-1.4-5.9
			c0-2,0.4-3.9,1.1-5.3"/>
	</g>
	<g>
		<g>
			<g opacity="0.2">
				<path fill="#708793" d="M289.4,222.3c0-1,0.1-6.5,0.2-7.4c0.1-0.8,0.2-1.5,0.3-2.2h10.6c0.1,0.6,0.2,1.3,0.3,1.9
					c0.1,1,0.1,7.4,0.1,8.5c0,2.4-2,7.5-5.7,7.5C291.3,230.6,289.4,225.1,289.4,222.3z"/>
				<path fill="none" stroke="#708793" stroke-width="0.3" stroke-miterlimit="10" d="M289.4,222.3c0-1,0.1-6.5,0.2-7.4
					c0.1-0.8,0.2-1.5,0.3-2.2h10.6c0.1,0.6,0.2,1.3,0.3,1.9c0.1,1,0.1,7.4,0.1,8.5c0,2.4-2,7.5-5.7,7.5
					C291.3,230.6,289.4,225.1,289.4,222.3z"/>
			</g>
			<g>
				<path fill="#FFFFFF" d="M286.4,219.3c0-1,0.1-6.5,0.2-7.4c0.1-0.8,0.2-1.5,0.3-2.2h10.6c0.1,0.6,0.2,1.3,0.3,1.9
					c0.1,1,0.1,7.4,0.1,8.5c0,2.4-2,7.5-5.7,7.5C288.3,227.6,286.4,222.1,286.4,219.3z"/>
				<path fill="none" stroke="#707E85" stroke-width="0.3" stroke-miterlimit="10" d="M286.4,219.3c0-1,0.1-6.5,0.2-7.4
					c0.1-0.8,0.2-1.5,0.3-2.2h10.6c0.1,0.6,0.2,1.3,0.3,1.9c0.1,1,0.1,7.4,0.1,8.5c0,2.4-2,7.5-5.7,7.5
					C288.3,227.6,286.4,222.1,286.4,219.3z"/>
			</g>
		</g>
		<g>
			<circle fill="#FFFFFF" stroke="#707E85" stroke-width="0.3" stroke-miterlimit="10" cx="289.6" cy="212.1" r="0.4"/>
			<circle fill="#FFFFFF" stroke="#707E85" stroke-width="0.3" stroke-miterlimit="10" cx="294.7" cy="212.1" r="0.4"/>
		</g>
		<path fill="#FFFFFF" stroke="#707E85" stroke-width="0.3" stroke-miterlimit="10" d="M292.2,226.1c2.4,0,4.4-3.7,4.4-6.2
			c0-2.4-2-4.4-4.4-4.4c-2.4,0-4.4,2-4.4,4.4C287.7,222.4,289.7,226.1,292.2,226.1z"/>
		<path fill="#FFFFFF" stroke="#707E85" stroke-width="0.3" stroke-miterlimit="10" d="M290.7,218.9v-1.6c0-0.5,0.7-0.5,1.5-0.5
			s1.5,0.1,1.5,0.5v1.6c0,0.8-0.7,1.5-1.5,1.5S290.7,219.7,290.7,218.9z"/>
		<path fill="none" stroke="#707E85" stroke-width="0.3" stroke-miterlimit="10" d="M286.6,212.1c1.4-0.9,3.5-1.4,5.9-1.4
			c2,0,3.9,0.4,5.3,1.1"/>
	</g>
	<g>
		<path fill="#FFFFFF" stroke="#707E85" stroke-width="0.3" stroke-miterlimit="10" d="M287.8,407v20c0,0.5,0.4,0.9,0.9,0.9h51.6
			c0.5,0,0.9-0.4,0.9-0.9v-20c0-0.5-0.4-0.9-0.9-0.9h-51.6C288.3,406.1,287.8,406.5,287.8,407z"/>
		<path fill="#FFFFFF" stroke="#707E85" stroke-width="0.3" stroke-miterlimit="10" d="M339.3,417.1c0,6.6-4.1,8.8-6.1,8.8h-40
			c-2,0-3.6-1.6-3.6-3.6v-10.6c0-2,1.6-3.6,3.6-3.6h40C335.1,408.2,339.3,410.5,339.3,417.1z"/>
		<path fill="#FFFFFF" stroke="#707E85" stroke-width="0.3" stroke-miterlimit="10" d="M331,417.1c0,5.6-3.3,7.5-5,7.5h-32.3
			c-1.6,0-2.9-1.4-2.9-3v-9c0-1.7,1.3-3,2.9-3H326C327.7,409.5,331,411.5,331,417.1z"/>
		<ellipse fill="#FFFFFF" stroke="#707E85" stroke-width="0.3" stroke-miterlimit="10" cx="296.7" cy="417" rx="1" ry="0.9"/>
	</g>
	<g>
		<g>
			<g opacity="5.000000e-002">
				<path fill="#707E85" d="M275.7,194.8v52.8c0,2.7-2.2,4.9-4.9,4.9h-19.8c-0.6,0-1.1-0.5-1.1-1.1v-0.2c0-0.6,0.5-1.1,1.1-1.1h0.7
					c-0.7,0-1.3-0.6-1.3-1.3v-16.8c0-0.7,0.6-1.3,1.3-1.3c-0.7,0-1.3-0.6-1.3-1.3v-16.8c0-0.7,0.6-1.3,1.3-1.3
					c-0.7,0-1.3-0.6-1.3-1.3v-16.8c0-0.7,0.5-1.2,1.2-1.2h-0.6c-0.6,0-1.1-0.5-1.1-1.1v-0.2c0-0.6,0.5-1.1,1.1-1.1h19.8
					C273.5,189.8,275.7,192,275.7,194.8z"/>
				<path fill="none" stroke="#707E85" stroke-width="0.3" stroke-miterlimit="10" d="M275.7,194.8v52.8c0,2.7-2.2,4.9-4.9,4.9
					h-19.8c-0.6,0-1.1-0.5-1.1-1.1v-0.2c0-0.6,0.5-1.1,1.1-1.1h0.7c-0.7,0-1.3-0.6-1.3-1.3v-16.8c0-0.7,0.6-1.3,1.3-1.3
					c-0.7,0-1.3-0.6-1.3-1.3v-16.8c0-0.7,0.6-1.3,1.3-1.3c-0.7,0-1.3-0.6-1.3-1.3v-16.8c0-0.7,0.5-1.2,1.2-1.2h-0.6
					c-0.6,0-1.1-0.5-1.1-1.1v-0.2c0-0.6,0.5-1.1,1.1-1.1h19.8C273.5,189.8,275.7,192,275.7,194.8z"/>
			</g>
			<g>
				<path fill="#EAF6FE" d="M272.7,191.8v52.8c0,2.7-2.2,4.9-4.9,4.9h-19.8c-0.6,0-1.1-0.5-1.1-1.1v-0.2c0-0.6,0.5-1.1,1.1-1.1h0.7
					c-0.7,0-1.3-0.6-1.3-1.3v-16.8c0-0.7,0.6-1.3,1.3-1.3c-0.7,0-1.3-0.6-1.3-1.3v-16.8c0-0.7,0.6-1.3,1.3-1.3
					c-0.7,0-1.3-0.6-1.3-1.3v-16.8c0-0.7,0.5-1.2,1.2-1.2h-0.6c-0.6,0-1.1-0.5-1.1-1.1v-0.2c0-0.6,0.5-1.1,1.1-1.1h19.8
					C270.5,186.8,272.7,189,272.7,191.8z"/>
				<path fill="none" stroke="#CBD3D7" stroke-width="0.3" stroke-miterlimit="10" d="M272.7,191.8v52.8c0,2.7-2.2,4.9-4.9,4.9
					h-19.8c-0.6,0-1.1-0.5-1.1-1.1v-0.2c0-0.6,0.5-1.1,1.1-1.1h0.7c-0.7,0-1.3-0.6-1.3-1.3v-16.8c0-0.7,0.6-1.3,1.3-1.3
					c-0.7,0-1.3-0.6-1.3-1.3v-16.8c0-0.7,0.6-1.3,1.3-1.3c-0.7,0-1.3-0.6-1.3-1.3v-16.8c0-0.7,0.5-1.2,1.2-1.2h-0.6
					c-0.6,0-1.1-0.5-1.1-1.1v-0.2c0-0.6,0.5-1.1,1.1-1.1h19.8C270.5,186.8,272.7,189,272.7,191.8z"/>
			</g>
		</g>
		<g>
			<path fill="#EAF6FE" stroke="#CBD3D7" stroke-width="0.3033" stroke-miterlimit="10" d="M272.7,191.8v52.8c0,2.7-2.2,4.9-4.9,4.9
				h-19.8c-0.6,0-1.1-0.5-1.1-1.1v-0.2c0-0.6,0.5-1.1,1.1-1.1h17v-57.9h-17c-0.6,0-1.1-0.5-1.1-1.1v-0.2c0-0.6,0.5-1.1,1.1-1.1h19.8
				C270.5,186.8,272.7,189,272.7,191.8z"/>
			<g>
				<g>
					<path fill="#EAF6FE" stroke="#CBD3D7" stroke-width="0.3" stroke-miterlimit="10" d="M262.9,245.4c0.5-5.3,0.5-10.7,0-16
						c-0.1-1.2,0.7-2.3,1.9-2.4c0.9-0.1,1.7-0.2,2.6-0.3c1.2-0.2,2.3,0.8,2.4,2.1c0.6,5.8,0.6,11.6,0,17.3c-0.1,1.3-1.2,2.2-2.4,2.1
						c-0.9-0.1-1.7-0.2-2.6-0.3C263.7,247.7,262.8,246.6,262.9,245.4z"/>
					
						<path fill="#EAF6FE" stroke="#CBD3D7" stroke-width="0.3" stroke-linecap="round" stroke-linejoin="round" stroke-miterlimit="10" d="
						M264.7,245.9c0.6-0.1,0.6-16.8,0-16.9"/>
				</g>
			</g>
			<g>
				<g>
					<path fill="#EAF6FE" stroke="#CBD3D7" stroke-width="0.3" stroke-miterlimit="10" d="M262.9,206.9c0.5-5.3,0.5-10.7,0-16
						c-0.1-1.2,0.7-2.3,1.9-2.4c0.9-0.1,1.7-0.2,2.6-0.3c1.2-0.2,2.3,0.8,2.4,2.1c0.6,5.8,0.6,11.6,0,17.3c-0.1,1.3-1.2,2.2-2.4,2.1
						c-0.9-0.1-1.7-0.2-2.6-0.3C263.7,209.1,262.8,208,262.9,206.9z"/>
					
						<path fill="#EAF6FE" stroke="#CBD3D7" stroke-width="0.3" stroke-linecap="round" stroke-linejoin="round" stroke-miterlimit="10" d="
						M264.7,207.3c0.6-0.1,0.6-16.8,0-16.9"/>
				</g>
			</g>
			<g>
				
					<line fill="#EAF6FE" stroke="#CBD3D7" stroke-width="0.3" stroke-miterlimit="10" x1="265.9" y1="227.8" x2="248.6" y2="227.8"/>
				
					<line fill="#EAF6FE" stroke="#CBD3D7" stroke-width="0.3" stroke-miterlimit="10" x1="248.6" y1="208.5" x2="265.9" y2="208.5"/>
				<g>
					<path fill="#EAF6FE" stroke="#CBD3D7" stroke-width="0.3" stroke-miterlimit="10" d="M262.9,226.1c0.5-5.3,0.5-10.7,0-16
						c-0.1-1.2,0.7-2.3,1.9-2.4c0.9-0.1,1.7-0.2,2.6-0.3c1.2-0.2,2.3,0.8,2.4,2.1c0.6,5.8,0.6,11.6,0,17.3c-0.1,1.3-1.2,2.2-2.4,2.1
						c-0.9-0.1-1.7-0.2-2.6-0.3C263.7,228.4,262.8,227.3,262.9,226.1z"/>
					
						<path fill="#EAF6FE" stroke="#CBD3D7" stroke-width="0.3" stroke-linecap="round" stroke-linejoin="round" stroke-miterlimit="10" d="
						M264.7,226.6c0.6-0.1,0.6-16.8,0-16.9"/>
				</g>
			</g>
			<path fill="#EAF6FE" stroke="#CBD3D7" stroke-width="0.3" stroke-miterlimit="10" d="M267.5,246.3c-0.5-0.7-3.5-3.5-3.8-3.7
				c0-1.5-0.8-4-1.3-4.4c-0.4,0.2-0.3,0.4-0.9,0.7c-0.7,0.2-4.6,1.1-6.6,2.8c1,1.1,1.5,6.5,3.1,8c0.4,0.8,0.6,1.6,1.3,2.2
				c0.5-0.2,2.2-2.3,2.4-3.1C262.8,248.2,266.8,247.4,267.5,246.3z"/>
			<path fill="#EAF6FE" stroke="#CBD3D7" stroke-width="0.3" stroke-miterlimit="10" d="M268.2,192.8c-0.6-0.8-6.8-5.3-7.3-5.6
				c-1.5,0.3-3.6,3.3-4.1,4.1c-1,0.3-2.1,0.9-2.6,1.5c0.4,0.4,1.2,1.2,1.8,1.5c0.3,0.5,2.8,3.5,4.7,4.1c0.5,0.4,1,1,1.3,1
				c0.5-0.7,0.8-1.5,0.9-2C263.4,196.9,268.1,193.6,268.2,192.8z"/>
		</g>
	</g>
	<g>
		<g>
			<g>
				<path fill="#EAF6FE" stroke="#CBD3D7" stroke-width="0.3" stroke-miterlimit="10" d="M216.2,375.1h-1.6v-13.9h1.6
					c0.6,0,1.1,0.5,1.1,1.1V374C217.3,374.6,216.8,375.1,216.2,375.1z"/>
				
					<rect x="210.3" y="361.2" fill="#EAF6FE" stroke="#CBD3D7" stroke-width="0.3" stroke-miterlimit="10" width="4.3" height="13.9"/>
				
					<line fill="#EAF6FE" stroke="#CBD3D7" stroke-width="0.3" stroke-miterlimit="10" x1="214.6" y1="373.2" x2="210.3" y2="373.2"/>
				
					<line fill="#EAF6FE" stroke="#CBD3D7" stroke-width="0.3" stroke-miterlimit="10" x1="210.3" y1="363.1" x2="214.6" y2="363.1"/>
			</g>
			<g>
				<path fill="#EAF6FE" stroke="#CBD3D7" stroke-width="0.3" stroke-miterlimit="10" d="M216.2,358.7h-1.6v-13.9h1.6
					c0.6,0,1.1,0.5,1.1,1.1v11.6C217.3,358.2,216.8,358.7,216.2,358.7z"/>
				
					<rect x="210.3" y="344.8" fill="#EAF6FE" stroke="#CBD3D7" stroke-width="0.3" stroke-miterlimit="10" width="4.3" height="13.9"/>
				
					<line fill="#EAF6FE" stroke="#CBD3D7" stroke-width="0.3" stroke-miterlimit="10" x1="214.6" y1="356.8" x2="210.3" y2="356.8"/>
				
					<line fill="#EAF6FE" stroke="#CBD3D7" stroke-width="0.3" stroke-miterlimit="10" x1="210.3" y1="346.7" x2="214.6" y2="346.7"/>
			</g>
			<g>
				<path fill="#EAF6FE" stroke="#CBD3D7" stroke-width="0.3" stroke-miterlimit="10" d="M216.2,342.3h-1.6v-13.9h1.6
					c0.6,0,1.1,0.5,1.1,1.1v11.6C217.3,341.8,216.8,342.3,216.2,342.3z"/>
				
					<rect x="210.3" y="328.4" fill="#EAF6FE" stroke="#CBD3D7" stroke-width="0.3" stroke-miterlimit="10" width="4.3" height="13.9"/>
				
					<line fill="#EAF6FE" stroke="#CBD3D7" stroke-width="0.3" stroke-miterlimit="10" x1="214.6" y1="340.4" x2="210.3" y2="340.4"/>
				
					<line fill="#EAF6FE" stroke="#CBD3D7" stroke-width="0.3" stroke-miterlimit="10" x1="210.3" y1="330.3" x2="214.6" y2="330.3"/>
			</g>
		</g>
		<g>
			<path fill="#EAF6FE" stroke="#CBD3D7" stroke-width="0.3" stroke-miterlimit="10" d="M177.2,328.4h1.6v13.9h-1.6
				c-0.6,0-1.1-0.5-1.1-1.1v-11.6C176.1,328.9,176.6,328.4,177.2,328.4z"/>
			
				<rect x="178.8" y="328.4" fill="#EAF6FE" stroke="#CBD3D7" stroke-width="0.3" stroke-miterlimit="10" width="4.3" height="13.9"/>
			<line fill="#EAF6FE" stroke="#CBD3D7" stroke-width="0.3" stroke-miterlimit="10" x1="178.8" y1="330.3" x2="183.1" y2="330.3"/>
			<line fill="#EAF6FE" stroke="#CBD3D7" stroke-width="0.3" stroke-miterlimit="10" x1="183.1" y1="340.4" x2="178.8" y2="340.4"/>
		</g>
		<g>
			<path fill="#EAF6FE" stroke="#CBD3D7" stroke-width="0.3" stroke-miterlimit="10" d="M177.2,344.8h1.6v13.9h-1.6
				c-0.6,0-1.1-0.5-1.1-1.1V346C176.1,345.3,176.6,344.8,177.2,344.8z"/>
			
				<rect x="178.8" y="344.8" fill="#EAF6FE" stroke="#CBD3D7" stroke-width="0.3" stroke-miterlimit="10" width="4.3" height="13.9"/>
			<line fill="#EAF6FE" stroke="#CBD3D7" stroke-width="0.3" stroke-miterlimit="10" x1="178.8" y1="346.7" x2="183.1" y2="346.7"/>
			<line fill="#EAF6FE" stroke="#CBD3D7" stroke-width="0.3" stroke-miterlimit="10" x1="183.1" y1="356.8" x2="178.8" y2="356.8"/>
		</g>
		<g>
			<path fill="#EAF6FE" stroke="#CBD3D7" stroke-width="0.3" stroke-miterlimit="10" d="M173.3,365.3l1.4-0.6l5.4,12.8l-1.4,0.6
				c-0.6,0.2-1.2,0-1.5-0.6l-4.5-10.7C172.5,366.2,172.7,365.6,173.3,365.3z"/>
			
				<rect x="176.9" y="361.8" transform="matrix(0.922 -0.3873 0.3873 0.922 -128.5284 99.658)" fill="#EAF6FE" stroke="#CBD3D7" stroke-width="0.3" stroke-miterlimit="10" width="12.2" height="13.9"/>
			<line fill="#EAF6FE" stroke="#CBD3D7" stroke-width="0.3" stroke-miterlimit="10" x1="175.5" y1="366.5" x2="186.7" y2="361.8"/>
			<line fill="#EAF6FE" stroke="#CBD3D7" stroke-width="0.3" stroke-miterlimit="10" x1="190.6" y1="371" x2="179.4" y2="375.8"/>
		</g>
		<g>
			<g opacity="5.000000e-002">
				<path fill="#707E85" d="M212.1,326h-24.9c-0.6,0-1.1,0.5-1.1,1.1v55.2c0,0.6,0.5,1.1,1.1,1.1h24.9c0.6,0,1.1-0.5,1.1-1.1v-55.2
					C213.3,326.5,212.8,326,212.1,326z"/>
				<path fill="none" stroke="#707E85" stroke-width="0.3" stroke-miterlimit="10" d="M212.1,326h-24.9c-0.6,0-1.1,0.5-1.1,1.1v55.2
					c0,0.6,0.5,1.1,1.1,1.1h24.9c0.6,0,1.1-0.5,1.1-1.1v-55.2C213.3,326.5,212.8,326,212.1,326z"/>
			</g>
			<g>
				<path fill="#EAF6FE" d="M209.1,323h-24.9c-0.6,0-1.1,0.5-1.1,1.1v55.2c0,0.6,0.5,1.1,1.1,1.1h24.9c0.6,0,1.1-0.5,1.1-1.1v-55.2
					C210.3,323.5,209.8,323,209.1,323z"/>
				<path fill="none" stroke="#CBD3D7" stroke-width="0.3" stroke-miterlimit="10" d="M209.1,323h-24.9c-0.6,0-1.1,0.5-1.1,1.1v55.2
					c0,0.6,0.5,1.1,1.1,1.1h24.9c0.6,0,1.1-0.5,1.1-1.1v-55.2C210.3,323.5,209.8,323,209.1,323z"/>
			</g>
		</g>
		<path fill="#EAF6FE" stroke="#CBD3D7" stroke-width="0.3" stroke-miterlimit="10" d="M198.1,331.3l-2.4,1.7
			c-0.4,0.3-0.5,1-0.2,1.4l3.1,4.3c0.3,0.4,1,0.5,1.4,0.2l2.4-1.7c0.4-0.3,0.5-1,0.2-1.4l-3.1-4.3
			C199.2,331.1,198.5,331,198.1,331.3z"/>
	</g>
	<line fill="none" stroke="#707E85" stroke-width="0.3" stroke-miterlimit="10" x1="342.5" y1="404.4" x2="285.8" y2="404.4"/>
	<g>
		<g>
			<g opacity="0.2">
				<path fill="#708793" d="M300.9,383.5h-11.8v19.2h11.8c2.2,0,4-1.8,4-4v-11.2C304.8,385.3,303.1,383.5,300.9,383.5z"/>
				<path fill="none" stroke="#708793" stroke-width="0.3" stroke-miterlimit="10" d="M300.9,383.5h-11.8v19.2h11.8c2.2,0,4-1.8,4-4
					v-11.2C304.8,385.3,303.1,383.5,300.9,383.5z"/>
			</g>
			<g>
				<path fill="#FFFFFF" d="M297.9,380.5h-11.8v19.2h11.8c2.2,0,4-1.8,4-4v-11.2C301.8,382.3,300.1,380.5,297.9,380.5z"/>
				<path fill="none" stroke="#707E85" stroke-width="0.3" stroke-miterlimit="10" d="M297.9,380.5h-11.8v19.2h11.8c2.2,0,4-1.8,4-4
					v-11.2C301.8,382.3,300.1,380.5,297.9,380.5z"/>
			</g>
		</g>
		<path fill="#FFFFFF" stroke="#707E85" stroke-width="0.3" stroke-miterlimit="10" d="M297.7,382.3h-5.2c-1.4,0-2.6,1.1-2.6,2.6
			v10.6c0,1.4,1.1,2.6,2.6,2.6h5.2c1.4,0,2.6-1.1,2.6-2.6v-10.6C300.3,383.4,299.1,382.3,297.7,382.3z"/>
		<circle fill="#FFFFFF" stroke="#707E85" stroke-width="0.3" stroke-miterlimit="10" cx="292" cy="390.1" r="0.9"/>
	</g>
	<g>
		<g>
			<g opacity="0.2">
				<path fill="#708793" d="M287.9,243.8h-7.7v13.7h7.7c1.4,0,2.6-1.3,2.6-2.8v-8C290.5,245,289.3,243.8,287.9,243.8z"/>
				<path fill="none" stroke="#708793" stroke-width="0.3" stroke-miterlimit="10" d="M287.9,243.8h-7.7v13.7h7.7
					c1.4,0,2.6-1.3,2.6-2.8v-8C290.5,245,289.3,243.8,287.9,243.8z"/>
			</g>
			<g>
				<path fill="#FFFFFF" d="M284.9,240.8h-7.7v13.7h7.7c1.4,0,2.6-1.3,2.6-2.8v-8C287.5,242,286.3,240.8,284.9,240.8z"/>
				<path fill="none" stroke="#707E85" stroke-width="0.3" stroke-miterlimit="10" d="M284.9,240.8h-7.7v13.7h7.7
					c1.4,0,2.6-1.3,2.6-2.8v-8C287.5,242,286.3,240.8,284.9,240.8z"/>
			</g>
		</g>
		<path fill="#FFFFFF" stroke="#707E85" stroke-width="0.3" stroke-miterlimit="10" d="M283.9,242h-1.6c-1.4,0-2.6,1.1-2.6,2.6v6.1
			c0,1.4,1.1,2.6,2.6,2.6h1.6c1.4,0,2.6-1.1,2.6-2.6v-6.1C286.4,243.2,285.3,242,283.9,242z"/>
		<ellipse fill="#FFFFFF" stroke="#707E85" stroke-width="0.3" stroke-miterlimit="10" cx="281.1" cy="247.7" rx="0.6" ry="0.6"/>
	</g>
	<g>
		<g>
			<g opacity="5.000000e-002">
				<path fill="#707E85" d="M417.8,282.4v-63.3c0-0.6-0.4-1-1-1h-27.5c-0.6,0-1,0.4-1,1v63.3c0,0.6,0.4,1,1,1h27.5
					C417.3,283.4,417.8,282.9,417.8,282.4z"/>
				<path fill="none" stroke="#707E85" stroke-width="0.3" stroke-miterlimit="10" d="M417.8,282.4v-63.3c0-0.6-0.4-1-1-1h-27.5
					c-0.6,0-1,0.4-1,1v63.3c0,0.6,0.4,1,1,1h27.5C417.3,283.4,417.8,282.9,417.8,282.4z"/>
			</g>
			<g>
				<path fill="#EAF6FE" d="M414.8,279.4v-63.3c0-0.6-0.4-1-1-1h-27.5c-0.6,0-1,0.4-1,1v63.3c0,0.6,0.4,1,1,1h27.5
					C414.3,280.4,414.8,279.9,414.8,279.4z"/>
				<path fill="none" stroke="#CBD3D7" stroke-width="0.3" stroke-miterlimit="10" d="M414.8,279.4v-63.3c0-0.6-0.4-1-1-1h-27.5
					c-0.6,0-1,0.4-1,1v63.3c0,0.6,0.4,1,1,1h27.5C414.3,280.4,414.8,279.9,414.8,279.4z"/>
			</g>
		</g>
		<g>
			<g>
				<g opacity="5.000000e-002">
					<path fill="#707E85" d="M430.2,218.1h-8.9c-0.6,0-1,0.4-1,1v7.9c0,0.6,0.4,1,1,1h8.9c0.6,0,1-0.4,1-1v-7.9
						C431.2,218.5,430.8,218.1,430.2,218.1z"/>
					<path fill="none" stroke="#707E85" stroke-width="0.3" stroke-miterlimit="10" d="M430.2,218.1h-8.9c-0.6,0-1,0.4-1,1v7.9
						c0,0.6,0.4,1,1,1h8.9c0.6,0,1-0.4,1-1v-7.9C431.2,218.5,430.8,218.1,430.2,218.1z"/>
				</g>
				<g>
					<path fill="#EAF6FE" d="M427.2,215.1h-8.9c-0.6,0-1,0.4-1,1v7.9c0,0.6,0.4,1,1,1h8.9c0.6,0,1-0.4,1-1v-7.9
						C428.2,215.5,427.8,215.1,427.2,215.1z"/>
					<path fill="none" stroke="#CBD3D7" stroke-width="0.3" stroke-miterlimit="10" d="M427.2,215.1h-8.9c-0.6,0-1,0.4-1,1v7.9
						c0,0.6,0.4,1,1,1h8.9c0.6,0,1-0.4,1-1v-7.9C428.2,215.5,427.8,215.1,427.2,215.1z"/>
				</g>
			</g>
			<path fill="#EAF6FE" stroke="#CBD3D7" stroke-width="0.3" stroke-miterlimit="10" d="M421.7,222.4l3.6-1.4
				c0.5-0.2,0.8-0.8,0.6-1.3l-0.5-1.4c-0.2-0.5-0.8-0.8-1.3-0.6l-3.6,1.4c-0.5,0.2-0.8,0.8-0.6,1.3l0.5,1.4
				C420.6,222.4,421.1,222.6,421.7,222.4z"/>
			<circle fill="#EAF6FE" stroke="#CBD3D7" stroke-width="0.3" stroke-miterlimit="10" cx="422.9" cy="220.1" r="0.5"/>
		</g>
		<path fill="#EAF6FE" stroke="#CBD3D7" stroke-width="0.3" stroke-miterlimit="10" d="M411.3,275.9v-56.3c0-0.6-0.4-1-1-1h-20.6
			c-0.6,0-1,0.4-1,1v56.3c0,0.6,0.4,1,1,1h20.6C410.8,276.9,411.3,276.5,411.3,275.9z"/>
		<path fill="#EAF6FE" stroke="#CBD3D7" stroke-width="0.3" stroke-miterlimit="10" d="M408.3,221.6c-0.5-0.2-0.9,0.1-1.7,0.1
			c-7.2-1.5-15,0.4-15.2,0.7c-0.2,0.3,0.2,0.2,0.5,1.9c0.1,1.7-0.3,5.7-0.1,7.1c0.1,0.4,0.2,0.6,0.4,0.7c1.4,1,15.6,0.6,15.8,0.5
			c0.2-0.1,0.7-0.7,0.8-1.3C408.9,229.7,408.8,221.8,408.3,221.6z"/>
		<g>
			<g>
				<path fill="#EAF6FE" stroke="#CBD3D7" stroke-width="0.3" stroke-miterlimit="10" d="M391,242.4c0,0,6.8,0.9,9,0.9
					c2.4,0,9-0.9,9-0.9c1.7,0,3.1,2.8,3.1,1.1V234c0-1.7-1.4-3.1-3.1-3.1c0,0-6.2,0.9-8.9,0.9c-2.7,0-9.1-0.9-9.1-0.9
					c-1.7,0-3.1,1.4-3.1,3.1v9.5C387.9,245.2,389.3,242.4,391,242.4z"/>
			</g>
			<path fill="#EAF6FE" stroke="#CBD3D7" stroke-width="0.3" stroke-linecap="round" stroke-miterlimit="10" d="M408.3,235.1
				c0.2,1.3-1.3,4.8-3.8,5.3"/>
			<path fill="#EAF6FE" stroke="#CBD3D7" stroke-width="0.3" stroke-linecap="round" stroke-miterlimit="10" d="M400.8,234.7
				c-1.8,1.8-6.2,4.2-9.1,4"/>
		</g>
	</g>
	<g>
		<g>
			<g opacity="5.000000e-002">
				<path fill="#707E85" d="M499.1,324.8v-35.1c0-0.6-0.4-1-1-1h-16.9c-0.6,0-1,0.4-1,1v35.1c0,0.6,0.4,1,1,1h16.9
					C498.6,325.8,499.1,325.4,499.1,324.8z"/>
				<path fill="none" stroke="#707E85" stroke-width="0.3" stroke-miterlimit="10" d="M499.1,324.8v-35.1c0-0.6-0.4-1-1-1h-16.9
					c-0.6,0-1,0.4-1,1v35.1c0,0.6,0.4,1,1,1h16.9C498.6,325.8,499.1,325.4,499.1,324.8z"/>
			</g>
			<g>
				<path fill="#EAF6FE" d="M496.1,321.8v-35.1c0-0.6-0.4-1-1-1h-16.9c-0.6,0-1,0.4-1,1v35.1c0,0.6,0.4,1,1,1h16.9
					C495.6,322.8,496.1,322.4,496.1,321.8z"/>
				<path fill="none" stroke="#CBD3D7" stroke-width="0.3" stroke-miterlimit="10" d="M496.1,321.8v-35.1c0-0.6-0.4-1-1-1h-16.9
					c-0.6,0-1,0.4-1,1v35.1c0,0.6,0.4,1,1,1h16.9C495.6,322.8,496.1,322.4,496.1,321.8z"/>
			</g>
		</g>
		<line fill="#EAF6FE" stroke="#CBD3D7" stroke-width="0.3" stroke-miterlimit="10" x1="479.7" y1="285.8" x2="479.7" y2="322.8"/>
		<line fill="#EAF6FE" stroke="#CBD3D7" stroke-width="0.3" stroke-miterlimit="10" x1="479.7" y1="304.3" x2="477.1" y2="304.3"/>
		<polyline fill="none" stroke="#CBD3D7" stroke-width="0.3" stroke-miterlimit="10" points="477.1,300.3 475.7,300.3 475.7,301.7 
			477.1,301.7 		"/>
		<polyline fill="none" stroke="#CBD3D7" stroke-width="0.3" stroke-miterlimit="10" points="477.1,307 475.7,307 475.7,308.4 
			477.1,308.4 		"/>
	</g>
	<g>
		<g>
			<g opacity="5.000000e-002">
				<path fill="#707E85" d="M350.4,375v54.4c0,0.6,0.4,1,1,1h16.9c0.6,0,1-0.4,1-1V375c0-0.6-0.4-1-1-1h-16.9
					C350.9,374,350.4,374.5,350.4,375z"/>
				<path fill="none" stroke="#707E85" stroke-width="0.3" stroke-miterlimit="10" d="M350.4,375v54.4c0,0.6,0.4,1,1,1h16.9
					c0.6,0,1-0.4,1-1V375c0-0.6-0.4-1-1-1h-16.9C350.9,374,350.4,374.5,350.4,375z"/>
			</g>
			<g>
				<path fill="#EAF6FE" d="M347.4,372v54.4c0,0.6,0.4,1,1,1h16.9c0.6,0,1-0.4,1-1V372c0-0.6-0.4-1-1-1h-16.9
					C347.9,371,347.4,371.5,347.4,372z"/>
				<path fill="none" stroke="#CBD3D7" stroke-width="0.3" stroke-miterlimit="10" d="M347.4,372v54.4c0,0.6,0.4,1,1,1h16.9
					c0.6,0,1-0.4,1-1V372c0-0.6-0.4-1-1-1h-16.9C347.9,371,347.4,371.5,347.4,372z"/>
			</g>
		</g>
		<line fill="#EAF6FE" stroke="#CBD3D7" stroke-width="0.3" stroke-miterlimit="10" x1="363.9" y1="427.4" x2="363.9" y2="371"/>
		<line fill="#EAF6FE" stroke="#CBD3D7" stroke-width="0.3" stroke-miterlimit="10" x1="363.9" y1="399.2" x2="366.4" y2="399.2"/>
		<polyline fill="none" stroke="#CBD3D7" stroke-width="0.3" stroke-miterlimit="10" points="366.4,405.4 367.8,405.4 367.8,403.3 
			366.4,403.3 		"/>
		<polyline fill="none" stroke="#CBD3D7" stroke-width="0.3" stroke-miterlimit="10" points="366.4,395.2 367.8,395.2 367.8,393.1 
			366.4,393.1 		"/>
	</g>
	<g>
		<path fill="#EAF6FE" stroke="#CBD3D7" stroke-width="0.3" stroke-miterlimit="10" d="M465.9,245.8v-1.7h15.4v1.7
			c0,0.7-0.6,1.2-1.2,1.2h-12.9C466.5,247.1,465.9,246.5,465.9,245.8z"/>
		
			<rect x="465.9" y="236.8" fill="#EAF6FE" stroke="#CBD3D7" stroke-width="0.3" stroke-miterlimit="10" width="15.4" height="7.3"/>
		<line fill="#EAF6FE" stroke="#CBD3D7" stroke-width="0.3" stroke-miterlimit="10" x1="468" y1="244.1" x2="468" y2="236.8"/>
		<line fill="#EAF6FE" stroke="#CBD3D7" stroke-width="0.3" stroke-miterlimit="10" x1="479.2" y1="236.8" x2="479.2" y2="244.1"/>
		<g>
			<g opacity="5.000000e-002">
				<path fill="#707E85" d="M454.2,219v19.9c0,0.5,0.4,0.9,0.9,0.9h43.2c0.5,0,0.9-0.4,0.9-0.9V219c0-0.5-0.4-0.9-0.9-0.9H455
					C454.5,218.1,454.2,218.5,454.2,219z"/>
				<path fill="none" stroke="#707E85" stroke-width="0.3" stroke-miterlimit="10" d="M454.2,219v19.9c0,0.5,0.4,0.9,0.9,0.9h43.2
					c0.5,0,0.9-0.4,0.9-0.9V219c0-0.5-0.4-0.9-0.9-0.9H455C454.5,218.1,454.2,218.5,454.2,219z"/>
			</g>
			<g>
				<path fill="#EAF6FE" d="M451.2,216v19.9c0,0.5,0.4,0.9,0.9,0.9h43.2c0.5,0,0.9-0.4,0.9-0.9V216c0-0.5-0.4-0.9-0.9-0.9H452
					C451.5,215.1,451.2,215.5,451.2,216z"/>
				<path fill="none" stroke="#CBD3D7" stroke-width="0.3" stroke-miterlimit="10" d="M451.2,216v19.9c0,0.5,0.4,0.9,0.9,0.9h43.2
					c0.5,0,0.9-0.4,0.9-0.9V216c0-0.5-0.4-0.9-0.9-0.9H452C451.5,215.1,451.2,215.5,451.2,216z"/>
			</g>
		</g>
	</g>
	<g>
		<g>
			<g opacity="5.000000e-002">
				<path fill="#707E85" d="M174.7,188.5h54.9c0.6,0,1.1-0.4,1.1-1v-12.4c0-0.6-0.5-1-1.1-1h-54.9c-0.6,0-1.1,0.4-1.1,1v12.4
					C173.6,188,174.1,188.5,174.7,188.5z"/>
				<path fill="none" stroke="#707E85" stroke-width="0.3" stroke-miterlimit="10" d="M174.7,188.5h54.9c0.6,0,1.1-0.4,1.1-1v-12.4
					c0-0.6-0.5-1-1.1-1h-54.9c-0.6,0-1.1,0.4-1.1,1v12.4C173.6,188,174.1,188.5,174.7,188.5z"/>
			</g>
			<g>
				<path fill="#EAF6FE" d="M171.7,185.5h54.9c0.6,0,1.1-0.4,1.1-1v-12.4c0-0.6-0.5-1-1.1-1h-54.9c-0.6,0-1.1,0.4-1.1,1v12.4
					C170.6,185,171.1,185.5,171.7,185.5z"/>
				<path fill="none" stroke="#CBD3D7" stroke-width="0.3" stroke-miterlimit="10" d="M171.7,185.5h54.9c0.6,0,1.1-0.4,1.1-1v-12.4
					c0-0.6-0.5-1-1.1-1h-54.9c-0.6,0-1.1,0.4-1.1,1v12.4C170.6,185,171.1,185.5,171.7,185.5z"/>
			</g>
		</g>
		<path fill="#EAF6FE" stroke="#CBD3D7" stroke-width="0.3" stroke-miterlimit="10" d="M206.6,178.4v-4.8c0-0.6-0.4-1-1-1h-12.9
			c-0.6,0-1,0.4-1,1v4.8c0,0.6,0.4,1,1,1h12.9C206.2,179.4,206.6,178.9,206.6,178.4z"/>
		<path fill="#EAF6FE" stroke="#CBD3D7" stroke-width="0.2953" stroke-miterlimit="10" d="M205.4,173.2H193c-0.3,0-0.6,0.3-0.6,0.6
			v4.5c0,0.3,0.3,0.6,0.6,0.6h12.4c0.3,0,0.6-0.3,0.6-0.6v-4.5C205.9,173.5,205.7,173.2,205.4,173.2z"/>
		<rect x="176.2" y="176" fill="#EAF6FE" stroke="#CBD3D7" stroke-width="0.3" stroke-miterlimit="10" width="45.9" height="1.4"/>
	</g>
	<g>
		<g>
			<g>
				<g opacity="5.000000e-002">
					<path fill="#707E85" d="M202.9,202c-2.1,11.8-2.1,23.6,0,35.4c0.1,0.5,0.5,0.8,1,0.8h14c0.5,0,0.9-0.3,1-0.8
						c2.1-11.8,2.1-23.6,0-35.4c-0.1-0.5-0.5-0.8-1-0.8h-14C203.4,201.2,203,201.5,202.9,202z"/>
					<path fill="none" stroke="#707E85" stroke-width="0.3" stroke-miterlimit="10" d="M202.9,202c-2.1,11.8-2.1,23.6,0,35.4
						c0.1,0.5,0.5,0.8,1,0.8h14c0.5,0,0.9-0.3,1-0.8c2.1-11.8,2.1-23.6,0-35.4c-0.1-0.5-0.5-0.8-1-0.8h-14
						C203.4,201.2,203,201.5,202.9,202z"/>
				</g>
				<g>
					<path fill="#EAF6FE" d="M199.9,199c-2.1,11.8-2.1,23.6,0,35.4c0.1,0.5,0.5,0.8,1,0.8h14c0.5,0,0.9-0.3,1-0.8
						c2.1-11.8,2.1-23.6,0-35.4c-0.1-0.5-0.5-0.8-1-0.8h-14C200.4,198.2,200,198.5,199.9,199z"/>
					<path fill="none" stroke="#CBD3D7" stroke-width="0.3" stroke-miterlimit="10" d="M199.9,199c-2.1,11.8-2.1,23.6,0,35.4
						c0.1,0.5,0.5,0.8,1,0.8h14c0.5,0,0.9-0.3,1-0.8c2.1-11.8,2.1-23.6,0-35.4c-0.1-0.5-0.5-0.8-1-0.8h-14
						C200.4,198.2,200,198.5,199.9,199z"/>
				</g>
			</g>
			<path fill="#EAF6FE" stroke="#CBD3D7" stroke-width="0.3" stroke-miterlimit="10" d="M207.7,214.7l-1.9,1.4
				c-0.4,0.3-0.5,1-0.2,1.4l2.7,3.6c0.3,0.4,1,0.5,1.4,0.2l1.9-1.4c0.4-0.3,0.5-1,0.2-1.4l-2.7-3.6
				C208.7,214.5,208.1,214.4,207.7,214.7z"/>
			<path fill="#EAF6FE" stroke="#CBD3D7" stroke-width="0.3" stroke-miterlimit="10" d="M205.4,212.7l-1.1,2.1
				c-0.3,0.5-0.1,1.1,0.4,1.3l4,2.1c0.5,0.3,1.1,0.1,1.3-0.4l1.1-2.1c0.3-0.5,0.1-1.1-0.4-1.3l-4-2.1
				C206.3,212,205.7,212.2,205.4,212.7z"/>
			<circle fill="#EAF6FE" stroke="#CBD3D7" stroke-width="0.3" stroke-miterlimit="10" cx="204.4" cy="205.6" r="4.3"/>
			
				<path fill="#EAF6FE" stroke="#CBD3D7" stroke-width="0.3" stroke-linecap="round" stroke-linejoin="round" stroke-miterlimit="10" d="
				M207.1,206.7c3.4-2.3-0.4-6.3-3.5-4.3C204.5,201.7,208.4,205.3,207.1,206.7z"/>
			<circle fill="#EAF6FE" stroke="#CBD3D7" stroke-width="0.3" stroke-miterlimit="10" cx="207.4" cy="210" r="0.6"/>
			<circle fill="#EAF6FE" stroke="#CBD3D7" stroke-width="0.3" stroke-miterlimit="10" cx="206.1" cy="210.1" r="0.6"/>
			<circle fill="#EAF6FE" stroke="#CBD3D7" stroke-width="0.3" stroke-miterlimit="10" cx="206" cy="209.1" r="0.6"/>
			<circle fill="#EAF6FE" stroke="#CBD3D7" stroke-width="0.3" stroke-miterlimit="10" cx="207" cy="209.1" r="0.6"/>
			<circle fill="#EAF6FE" stroke="#CBD3D7" stroke-width="0.3" stroke-miterlimit="10" cx="208.4" cy="209.2" r="0.6"/>
			<circle fill="#EAF6FE" stroke="#CBD3D7" stroke-width="0.3" stroke-miterlimit="10" cx="208.7" cy="208.4" r="0.6"/>
			<circle fill="#EAF6FE" stroke="#CBD3D7" stroke-width="0.3" stroke-miterlimit="10" cx="208.5" cy="207.2" r="0.6"/>
			<circle fill="#EAF6FE" stroke="#CBD3D7" stroke-width="0.3" stroke-miterlimit="10" cx="207.7" cy="208.4" r="0.6"/>
			<circle fill="#EAF6FE" stroke="#CBD3D7" stroke-width="0.3" stroke-miterlimit="10" cx="206.6" cy="208.1" r="0.6"/>
			<circle fill="#EAF6FE" stroke="#CBD3D7" stroke-width="0.3" stroke-miterlimit="10" cx="207.5" cy="207.3" r="0.6"/>
			<circle fill="#EAF6FE" stroke="#CBD3D7" stroke-width="0.3" stroke-miterlimit="10" cx="203.3" cy="207.6" r="1.5"/>
			<circle fill="#EAF6FE" stroke="#CBD3D7" stroke-width="0.3" stroke-miterlimit="10" cx="205.8" cy="206.9" r="1.1"/>
			
				<ellipse transform="matrix(0.2653 -0.9642 0.9642 0.2653 -48.4077 347.7673)" fill="#EAF6FE" stroke="#CBD3D7" stroke-width="0.3" stroke-miterlimit="10" cx="204" cy="205.6" rx="0.9" ry="1.4"/>
			
				<path fill="#EAF6FE" stroke="#CBD3D7" stroke-width="0.3" stroke-linecap="round" stroke-linejoin="round" stroke-miterlimit="10" d="
				M207,206.9c2-3.6-3.1-5.4-5.1-2.3C202.5,203.5,207.6,205,207,206.9z"/>
		</g>
		<g>
			<g>
				
					<path fill="#EAF6FE" stroke="#CBD3D7" stroke-width="0.3" stroke-linecap="round" stroke-linejoin="round" stroke-miterlimit="10" d="
					M206.7,228.2c0,0,2.8,1.2,4.4,0.2C211.1,228.4,210.1,227,206.7,228.2z"/>
				
					<path fill="#EAF6FE" stroke="#CBD3D7" stroke-width="0.3" stroke-linecap="round" stroke-linejoin="round" stroke-miterlimit="10" d="
					M206.7,228.2c0,0,2.9-0.1,4.1-1.7C210.8,226.5,209.2,225.7,206.7,228.2z"/>
				
					<path fill="#EAF6FE" stroke="#CBD3D7" stroke-width="0.3" stroke-linecap="round" stroke-linejoin="round" stroke-miterlimit="10" d="
					M210.2,231.2c0,0-2.9,0-3.5-3C206.7,228.2,210.1,229,210.2,231.2z"/>
				
					<path fill="#EAF6FE" stroke="#CBD3D7" stroke-width="0.3" stroke-linecap="round" stroke-linejoin="round" stroke-miterlimit="10" d="
					M202.2,231.5c0,0,3.6-0.6,4.5-3.3C206.7,228.2,203.8,227.9,202.2,231.5z"/>
				
					<path fill="#EAF6FE" stroke="#CBD3D7" stroke-width="0.3" stroke-linecap="round" stroke-linejoin="round" stroke-miterlimit="10" d="
					M207.4,233.1c0,0,0.6-2-0.7-4.9C206.7,228.2,205.7,230.9,207.4,233.1z"/>
				
					<path fill="#EAF6FE" stroke="#CBD3D7" stroke-width="0.3" stroke-linecap="round" stroke-linejoin="round" stroke-miterlimit="10" d="
					M201.1,228.4c0,0,3.6,1.5,5.7-0.1C206.8,228.3,206.4,227.2,201.1,228.4z"/>
				
					<path fill="#EAF6FE" stroke="#CBD3D7" stroke-width="0.3" stroke-linecap="round" stroke-linejoin="round" stroke-miterlimit="10" d="
					M209.7,224.5c0,0-1.2,3.1-3,3.7C206.7,228.2,207.5,226.1,209.7,224.5z"/>
				
					<path fill="#EAF6FE" stroke="#CBD3D7" stroke-width="0.3" stroke-linecap="round" stroke-linejoin="round" stroke-miterlimit="10" d="
					M202,225.4c0,0,1.8,2.5,4.7,2.8C206.7,228.2,205.2,225.8,202,225.4z"/>
				
					<path fill="#EAF6FE" stroke="#CBD3D7" stroke-width="0.3" stroke-linecap="round" stroke-linejoin="round" stroke-miterlimit="10" d="
					M207.7,223.3c0,0,0.5,3.1-1,5C206.8,228.3,205.7,226.3,207.7,223.3z"/>
				
					<path fill="#EAF6FE" stroke="#CBD3D7" stroke-width="0.3" stroke-linecap="round" stroke-linejoin="round" stroke-miterlimit="10" d="
					M204.9,233.1c0,0,2-1.4,1.9-4.8C206.8,228.3,204.5,230.2,204.9,233.1z"/>
				
					<path fill="#EAF6FE" stroke="#CBD3D7" stroke-width="0.3" stroke-linecap="round" stroke-linejoin="round" stroke-miterlimit="10" d="
					M203.5,224c0,0,1.1,3.7,3.4,4.4C206.8,228.4,206.6,225.7,203.5,224z"/>
				
					<path fill="#EAF6FE" stroke="#CBD3D7" stroke-width="0.3" stroke-linecap="round" stroke-linejoin="round" stroke-miterlimit="10" d="
					M205.4,223.2c0,0-0.5,3.1,1.4,5.1C206.8,228.3,207.7,226.1,205.4,223.2z"/>
				
					<path fill="#EAF6FE" stroke="#CBD3D7" stroke-width="0.3" stroke-linecap="round" stroke-linejoin="round" stroke-miterlimit="10" d="
					M206.8,228.5c0,0-0.1,1.8,2,4C208.8,232.5,208.7,230.6,206.8,228.5z"/>
				
					<path fill="#EAF6FE" stroke="#CBD3D7" stroke-width="0.3" stroke-linecap="round" stroke-linejoin="round" stroke-miterlimit="10" d="
					M203.7,232.4c0,0,2.4-1.6,3-3.9C206.7,228.5,204.7,228.7,203.7,232.4z"/>
			</g>
			<g>
				
					<path fill="#EAF6FE" stroke="#CBD3D7" stroke-width="0.3" stroke-linecap="round" stroke-linejoin="round" stroke-miterlimit="10" d="
					M206.4,228.2c0,0,1.7,0,2.4-1C208.9,227.2,207.9,226.7,206.4,228.2z"/>
				
					<path fill="#EAF6FE" stroke="#CBD3D7" stroke-width="0.3" stroke-linecap="round" stroke-linejoin="round" stroke-miterlimit="10" d="
					M208.6,230c0,0-1.7,0-2.1-1.8C206.4,228.2,208.5,228.7,208.6,230z"/>
				
					<path fill="#EAF6FE" stroke="#CBD3D7" stroke-width="0.3" stroke-linecap="round" stroke-linejoin="round" stroke-miterlimit="10" d="
					M203.8,230.1c0,0,2.1-0.4,2.7-2C206.4,228.2,204.7,228,203.8,230.1z"/>
				
					<path fill="#EAF6FE" stroke="#CBD3D7" stroke-width="0.3" stroke-linecap="round" stroke-linejoin="round" stroke-miterlimit="10" d="
					M206.9,231.1c0,0,0.4-1.2-0.4-2.9C206.4,228.2,205.8,229.8,206.9,231.1z"/>
				
					<path fill="#EAF6FE" stroke="#CBD3D7" stroke-width="0.3" stroke-linecap="round" stroke-linejoin="round" stroke-miterlimit="10" d="
					M203.7,226.5c0,0,1.1,1.5,2.8,1.6C206.4,228.2,205.6,226.7,203.7,226.5z"/>
				
					<path fill="#EAF6FE" stroke="#CBD3D7" stroke-width="0.3" stroke-linecap="round" stroke-linejoin="round" stroke-miterlimit="10" d="
					M207.1,225.3c0,0,0.3,1.8-0.6,2.9C206.5,228.2,205.9,227.1,207.1,225.3z"/>
				
					<path fill="#EAF6FE" stroke="#CBD3D7" stroke-width="0.3" stroke-linecap="round" stroke-linejoin="round" stroke-miterlimit="10" d="
					M205.4,231.1c0,0,1.2-0.9,1.1-2.8C206.5,228.2,205.2,229.4,205.4,231.1z"/>
				
					<path fill="#EAF6FE" stroke="#CBD3D7" stroke-width="0.3" stroke-linecap="round" stroke-linejoin="round" stroke-miterlimit="10" d="
					M205.7,225.2c0,0-0.3,1.9,0.8,3C206.5,228.2,207.1,226.9,205.7,225.2z"/>
			</g>
		</g>
	</g>
	<g>
		<g>
			<g opacity="5.000000e-002">
				<path fill="#707E85" d="M459.1,393.9v-60.6c0-0.6-0.4-1-1-1h-47.9c-0.6,0-1,0.4-1,1v60.6c0,0.6,0.4,1,1,1h47.9
					C458.6,394.9,459.1,394.5,459.1,393.9z"/>
				<path fill="none" stroke="#707E85" stroke-width="0.3" stroke-miterlimit="10" d="M459.1,393.9v-60.6c0-0.6-0.4-1-1-1h-47.9
					c-0.6,0-1,0.4-1,1v60.6c0,0.6,0.4,1,1,1h47.9C458.6,394.9,459.1,394.5,459.1,393.9z"/>
			</g>
			<g>
				<path fill="#EAF6FE" d="M456.1,390.9v-60.6c0-0.6-0.4-1-1-1h-47.9c-0.6,0-1,0.4-1,1v60.6c0,0.6,0.4,1,1,1h47.9
					C455.6,391.9,456.1,391.5,456.1,390.9z"/>
				<path fill="none" stroke="#CBD3D7" stroke-width="0.3" stroke-miterlimit="10" d="M456.1,390.9v-60.6c0-0.6-0.4-1-1-1h-47.9
					c-0.6,0-1,0.4-1,1v60.6c0,0.6,0.4,1,1,1h47.9C455.6,391.9,456.1,391.5,456.1,390.9z"/>
			</g>
		</g>
		<path fill="#EAF6FE" stroke="#CBD3D7" stroke-width="0.3" stroke-miterlimit="10" d="M452.7,387.6v-53.9c0-0.6-0.4-1-1-1h-41.3
			c-0.6,0-1,0.4-1,1v53.9c0,0.6,0.4,1,1,1h41.3C452.3,388.6,452.7,388.2,452.7,387.6z"/>
		<path fill="#EAF6FE" stroke="#CBD3D7" stroke-width="0.3" stroke-miterlimit="10" d="M449.9,335.8c-1.8-1.1-14.9-1.3-16.9-0.1
			c-0.1,0.1-0.8,6.2-0.4,9.5c0.1,0.6,0.6,1.4,1.6,1.7c3.3,1.2,11,0.7,14.7-0.4c1.3-0.4,1.2-1.7,1.3-2.2
			C450.7,341.8,450.5,336.1,449.9,335.8z"/>
		<path fill="#EAF6FE" stroke="#CBD3D7" stroke-width="0.3" stroke-miterlimit="10" d="M429.3,335.6c-3.7-1.4-16.2-1-16.9-0.3
			c-0.3,0.3-1,6.3-0.4,9c0.1,0.4,0.3,0.8,0.5,0.9c1.6,1.1,16.1,1.9,16.3,1.8c0.2-0.2,0.1-1.3,0.4-1.9
			C430,343.7,429.9,335.8,429.3,335.6z"/>
		<g>
			<path fill="#EAF6FE" stroke="#CBD3D7" stroke-width="0.3" stroke-miterlimit="10" d="M411.7,355.5c0,0,17.2,1.6,19.3,1.6
				c2.3,0,19.3-1.6,19.3-1.6c1.6,0,3,2.7,3,1.1v-9.1c0-1.6-1.3-3-3-3c0,0-16.6,0.9-19.2,0.9s-19.5-0.9-19.5-0.9c-1.6,0-3,1.3-3,3
				v9.1C408.7,358.2,410,355.5,411.7,355.5z"/>
			<path fill="#EAF6FE" stroke="#CBD3D7" stroke-width="0.3" stroke-linecap="round" stroke-miterlimit="10" d="M446.9,346.9
				c2,0.3,6.2,3,6.4,3.9"/>
			<path fill="#EAF6FE" stroke="#CBD3D7" stroke-width="0.3" stroke-linecap="round" stroke-miterlimit="10" d="M425.9,347.8
				c0.3,0.1,9.4,4.5,8.3,6.6c-0.4,0.8-1.8,0.3-2.5-0.1"/>
			<path fill="#EAF6FE" stroke="#CBD3D7" stroke-width="0.3" stroke-linecap="round" stroke-miterlimit="10" d="M411.3,345.9
				c1.3,1.2,6.6,4.7,13.8,7.5"/>
		</g>
		<g>
			<g>
				<g opacity="5.000000e-002">
					<path fill="#707E85" d="M406,332.3h-8.5c-0.6,0-1,0.4-1,1v7.5c0,0.6,0.4,1,1,1h8.5c0.6,0,1-0.4,1-1v-7.5
						C407,332.8,406.5,332.3,406,332.3z"/>
					<path fill="none" stroke="#707E85" stroke-width="0.3" stroke-miterlimit="10" d="M406,332.3h-8.5c-0.6,0-1,0.4-1,1v7.5
						c0,0.6,0.4,1,1,1h8.5c0.6,0,1-0.4,1-1v-7.5C407,332.8,406.5,332.3,406,332.3z"/>
				</g>
				<g>
					<path fill="#EAF6FE" d="M403,329.3h-8.5c-0.6,0-1,0.4-1,1v7.5c0,0.6,0.4,1,1,1h8.5c0.6,0,1-0.4,1-1v-7.5
						C404,329.8,403.5,329.3,403,329.3z"/>
					<path fill="none" stroke="#CBD3D7" stroke-width="0.3" stroke-miterlimit="10" d="M403,329.3h-8.5c-0.6,0-1,0.4-1,1v7.5
						c0,0.6,0.4,1,1,1h8.5c0.6,0,1-0.4,1-1v-7.5C404,329.8,403.5,329.3,403,329.3z"/>
				</g>
			</g>
			<path fill="#EAF6FE" stroke="#CBD3D7" stroke-width="0.3" stroke-miterlimit="10" d="M397.7,336.3l3.4-1.3
				c0.5-0.2,0.8-0.8,0.6-1.3l-0.5-1.3c-0.2-0.5-0.8-0.8-1.3-0.6l-3.4,1.3c-0.5,0.2-0.8,0.8-0.6,1.3l0.5,1.3
				C396.6,336.3,397.2,336.5,397.7,336.3z"/>
			<circle fill="#EAF6FE" stroke="#CBD3D7" stroke-width="0.3" stroke-miterlimit="10" cx="398.8" cy="334.1" r="0.5"/>
		</g>
		<g>
			<g>
				<g opacity="5.000000e-002">
					<path fill="#707E85" d="M462.3,341.8h8.5c0.6,0,1-0.4,1-1v-7.5c0-0.6-0.4-1-1-1h-8.5c-0.6,0-1,0.4-1,1v7.5
						C461.3,341.4,461.7,341.8,462.3,341.8z"/>
					<path fill="none" stroke="#707E85" stroke-width="0.3" stroke-miterlimit="10" d="M462.3,341.8h8.5c0.6,0,1-0.4,1-1v-7.5
						c0-0.6-0.4-1-1-1h-8.5c-0.6,0-1,0.4-1,1v7.5C461.3,341.4,461.7,341.8,462.3,341.8z"/>
				</g>
				<g>
					<path fill="#EAF6FE" d="M459.3,338.8h8.5c0.6,0,1-0.4,1-1v-7.5c0-0.6-0.4-1-1-1h-8.5c-0.6,0-1,0.4-1,1v7.5
						C458.3,338.4,458.7,338.8,459.3,338.8z"/>
					<path fill="none" stroke="#CBD3D7" stroke-width="0.3" stroke-miterlimit="10" d="M459.3,338.8h8.5c0.6,0,1-0.4,1-1v-7.5
						c0-0.6-0.4-1-1-1h-8.5c-0.6,0-1,0.4-1,1v7.5C458.3,338.4,458.7,338.8,459.3,338.8z"/>
				</g>
			</g>
			<path fill="#EAF6FE" stroke="#CBD3D7" stroke-width="0.3" stroke-miterlimit="10" d="M465.8,334.7h0.4c0.1,0,0.2-0.1,0.2-0.2
				v-5.1h-0.8v5.1C465.6,334.6,465.7,334.7,465.8,334.7z"/>
			<path fill="#EAF6FE" stroke="#CBD3D7" stroke-width="0.3" stroke-miterlimit="10" d="M464.1,333.9h0.4c0.1,0,0.2-0.1,0.2-0.2
				v-4.3h-0.8v4.3C463.9,333.8,464,333.9,464.1,333.9z"/>
			<path fill="#EAF6FE" stroke="#CBD3D7" stroke-width="0.3" stroke-miterlimit="10" d="M465,335.2h0.4c0.1,0,0.2-0.1,0.2-0.2v-5.6
				h-0.8v5.6C464.7,335.1,464.8,335.2,465,335.2z"/>
		</g>
	</g>
	<line fill="none" stroke="#707E85" stroke-width="0.3" stroke-miterlimit="10" x1="286.4" y1="429.4" x2="342.5" y2="429.4"/>
</g>
<g id="Ouvertures">
	<g>
		<g>
			<rect x="151.1" y="305.9" fill="#FFFFFF" width="6.7" height="121.7"/>
			<path fill="#707E85" d="M157.6,306.1v121.4h-6.4V306.1H157.6 M157.9,305.8h-7v122h7V305.8L157.9,305.8z"/>
		</g>
		<g>
			<rect x="151.1" y="366.9" fill="#FFFFFF" width="3.2" height="60.7"/>
			<path fill="#707E85" d="M154.1,367.1v60.4h-2.9v-60.4H154.1 M154.4,366.8h-3.5v61h3.5V366.8L154.4,366.8z"/>
		</g>
		<g>
			<rect x="154.9" y="305.9" fill="#FFFFFF" width="2.9" height="60.1"/>
			<path fill="#707E85" d="M157.6,306.1v59.8H155v-59.8H157.6 M157.9,305.8h-3.2v60.4h3.2V305.8L157.9,305.8z"/>
		</g>
		<g>
			<g>
				<line fill="none" stroke="#707E85" stroke-width="0.3" stroke-miterlimit="1" x1="161.2" y1="388.7" x2="161.2" y2="403.4"/>
				<g>
					<polygon fill="#707E85" points="160,402.5 160.2,402.2 161.2,403.3 162.2,402.2 162.5,402.5 161.2,403.8 					"/>
				</g>
			</g>
		</g>
		<rect x="154.7" y="364.3" fill="#707E85" width="3.2" height="3.8"/>
		<rect x="150.9" y="364.3" fill="#707E85" width="3.5" height="3.8"/>
		<rect x="154.8" y="305.8" fill="#707E85" width="3.2" height="2.9"/>
		<rect x="150.9" y="424.2" fill="#707E85" width="3.5" height="3.6"/>
		<line fill="none" stroke="#707E85" stroke-width="0.1" stroke-miterlimit="1" x1="152.7" y1="367.8" x2="152.7" y2="427.5"/>
		<line fill="none" stroke="#707E85" stroke-width="0.1" stroke-miterlimit="1" x1="156.3" y1="307.2" x2="156.3" y2="366.8"/>
	</g>
	<g>
		<g>
			<rect x="85.2" y="218" fill="#FFFFFF" width="1.3" height="73.8"/>
			<path fill="#707E85" d="M86.4,218.2v73.5h-1v-73.5H86.4 M86.7,217.9H85V292h1.6V217.9L86.7,217.9z"/>
		</g>
		<path fill="none" stroke="#707E85" stroke-width="0.3" stroke-miterlimit="10" stroke-dasharray="2,2" d="M86.7,243.3
			c0,0,12.8,1.3,13,1.5l-13,49"/>
		<rect x="85" y="241.6" fill="#707E85" width="1.6" height="3.3"/>
		<g>
			<path fill="none" stroke="#707E85" stroke-width="0.3" stroke-miterlimit="10" stroke-dasharray="2,2" d="M86.7,243.3
				c11.9,0,26.4-11.3,26.4-26.3"/>
			<line fill="none" stroke="#707E85" stroke-width="0.3" stroke-miterlimit="10" x1="86.7" y1="217" x2="113.1" y2="217"/>
		</g>
	</g>
	<g>
		<g>
			<rect x="498.8" y="239.7" fill="#FFFFFF" width="1.4" height="42.6"/>
			<path fill="#707E85" d="M500,239.8v42.3h-1.1v-42.3H500 M500.3,239.5h-1.7v42.9h1.7V239.5L500.3,239.5z"/>
		</g>
		<path fill="none" stroke="#707E85" stroke-width="0.3" stroke-miterlimit="10" stroke-dasharray="2,2" d="M498.6,265.6
			c0,0-18.3-8.7-18.5-9l18.5-18.5"/>
		<rect x="498.6" y="263.8" fill="#707E85" width="1.7" height="3.5"/>
		<g>
			<path fill="none" stroke="#707E85" stroke-width="0.3" stroke-miterlimit="10" stroke-dasharray="2,2" d="M498.6,265.6
				c-9.2,0-18,6.9-18,17.8"/>
			<line fill="none" stroke="#707E85" stroke-width="0.3" stroke-miterlimit="10" x1="498.6" y1="283.4" x2="480.6" y2="283.4"/>
		</g>
	</g>
	<g>
		<g>
			<rect x="498.8" y="363.8" fill="#FFFFFF" width="1.4" height="42.6"/>
			<path fill="#707E85" d="M500,363.9v42.3h-1.1v-42.3H500 M500.3,363.6h-1.7v42.9h1.7V363.6L500.3,363.6z"/>
		</g>
		<path fill="none" stroke="#707E85" stroke-width="0.3" stroke-miterlimit="10" stroke-dasharray="2,2" d="M498.6,380.5
			c0,0-18.3,8.7-18.5,9l18.5,18.5"/>
		<rect x="498.6" y="378.7" fill="#707E85" width="1.7" height="3.5"/>
		<g>
			<path fill="none" stroke="#707E85" stroke-width="0.3" stroke-miterlimit="10" stroke-dasharray="2,2" d="M498.6,380.5
				c-9.2,0-18-6.9-18-17.8"/>
			<line fill="none" stroke="#707E85" stroke-width="0.3" stroke-miterlimit="10" x1="498.6" y1="362.7" x2="480.6" y2="362.7"/>
		</g>
	</g>
	<g>
		<g>
			<g>
				<rect x="95.4" y="295.3" fill="#FFFFFF" width="47.1" height="1.9"/>
				<path fill="#707E85" d="M142.4,295.4v1.6H95.5v-1.6H142.4 M142.7,295.1H95.2v2.2h47.4V295.1L142.7,295.1z"/>
			</g>
		</g>
		<g>
			<g>
				<rect x="142.7" y="295.1" fill="#707E85" width="3.4" height="2.2"/>
			</g>
		</g>
		<g>
			<g>
				<rect x="91.9" y="295.1" fill="#707E85" width="3.4" height="2.2"/>
			</g>
		</g>
	</g>
	<g>
		<g>
			<g>
				<rect x="298.2" y="440.6" fill="#FFFFFF" width="41.4" height="1.9"/>
				<path fill="#707E85" d="M339.4,440.8v1.6h-41.1v-1.6H339.4 M339.7,440.5h-41.7v2.2h41.7V440.5L339.7,440.5z"/>
			</g>
		</g>
		<g>
			<g>
				<rect x="339.7" y="440.5" fill="#707E85" width="3" height="2.2"/>
			</g>
		</g>
		<g>
			<g>
				<rect x="295.1" y="440.5" fill="#707E85" width="3" height="2.2"/>
			</g>
		</g>
	</g>
	<g>
		<g>
			<rect x="165.3" y="432.2" fill="#FFFFFF" width="27.7" height="1.7"/>
			<path fill="#707E85" d="M192.9,432.3v1.4h-27.4v-1.4H192.9 M193.2,432h-28v2h28V432L193.2,432z"/>
		</g>
		<rect x="191.1" y="432" fill="#707E85" width="4.1" height="2"/>
		<rect x="163.1" y="432" fill="#707E85" width="4.1" height="2"/>
		<g>
			<path fill="none" stroke="#707E85" stroke-width="0.3" stroke-miterlimit="10" stroke-dasharray="2,2" d="M193.2,431.3
				c0-16.4-14.3-27-28-27"/>
			<line fill="none" stroke="#707E85" stroke-width="0.3" stroke-miterlimit="10" x1="165.2" y1="432" x2="165.2" y2="404.3"/>
		</g>
	</g>
	<g>
		<path fill="none" stroke="#707E85" stroke-width="0.3" stroke-miterlimit="10" stroke-dasharray="2,2" d="M312.8,329.1
			c0,14.8,12.2,26.7,27.3,26.7"/>
		<line fill="none" stroke="#707E85" stroke-width="0.3" stroke-miterlimit="10" x1="340.1" y1="329.1" x2="340.1" y2="355.8"/>
	</g>
	<g>
		<path fill="none" stroke="#707E85" stroke-width="0.3" stroke-miterlimit="10" stroke-dasharray="2,2" d="M331,233.9
			c-12.9,0-23.3,10.6-23.3,23.7"/>
		<line fill="none" stroke="#707E85" stroke-width="0.3" stroke-miterlimit="10" x1="331" y1="257.7" x2="307.7" y2="257.7"/>
	</g>
	<g>
		<path fill="none" stroke="#707E85" stroke-width="0.3" stroke-miterlimit="10" stroke-dasharray="2,2" d="M347.2,216.7
			c0,16.4,13.6,29.7,30.3,29.7"/>
		<line fill="none" stroke="#707E85" stroke-width="0.3" stroke-miterlimit="10" x1="377.5" y1="216.7" x2="377.5" y2="246.5"/>
	</g>
	<g>
		<path fill="none" stroke="#707E85" stroke-width="0.3" stroke-miterlimit="10" stroke-dasharray="2,2" d="M385.2,293.9
			c14.8,0,26.8,12.2,26.8,27.3"/>
		<line fill="none" stroke="#707E85" stroke-width="0.3" stroke-miterlimit="10" x1="385.2" y1="321.2" x2="412" y2="321.2"/>
	</g>
	<g>
		<path fill="none" stroke="#707E85" stroke-width="0.3" stroke-miterlimit="10" stroke-dasharray="2,2" d="M376.5,329.1
			c0,14.8-12.2,26.8-27.3,26.8"/>
		<line fill="none" stroke="#707E85" stroke-width="0.3" stroke-miterlimit="10" x1="349.2" y1="329.1" x2="349.2" y2="355.9"/>
	</g>
</g>
<g id="Étiquettes" display="none">
	<text transform="matrix(1 0 0 1 449.5882 310.6245)" display="inline" fill="#3A3A39" font-family="'Lato-Black'" font-size="7px">Chambre 1</text>
	
		<text transform="matrix(1 0 0 1 457.0814 319.0244)" display="inline" fill="#3A3A39" font-family="'Lato-Italic'" font-size="7px">12.70 m</text>
	
		<text transform="matrix(0.583 0 0 0.583 481.6439 316.6934)" display="inline" fill="#3A3A39" font-family="'Lato-Italic'" font-size="7px">2</text>
	<text transform="matrix(1 0 0 1 449.5886 415.4595)" display="inline" fill="#3A3A39" font-family="'Lato-Black'" font-size="7px">Chambre 2</text>
	
		<text transform="matrix(1 0 0 1 457.0817 423.8594)" display="inline" fill="#3A3A39" font-family="'Lato-Italic'" font-size="7px">15.70 m</text>
	
		<text transform="matrix(0.583 0 0 0.583 481.6442 421.5283)" display="inline" fill="#3A3A39" font-family="'Lato-Italic'" font-size="7px">2</text>
	<text transform="matrix(1 0 0 1 289.0784 310.6245)" display="inline" fill="#3A3A39" font-family="'Lato-Black'" font-size="7px">Dégagement </text>
	
		<text transform="matrix(1 0 0 1 302.7102 319.0244)" display="inline" fill="#3A3A39" font-family="'Lato-Italic'" font-size="7px">8.90 m</text>
	
		<text transform="matrix(0.583 0 0 0.583 323.2122 316.6934)" display="inline" fill="#3A3A39" font-family="'Lato-Italic'" font-size="7px">2</text>
	<text transform="matrix(1 0 0 1 202.5786 397.9771)" display="inline" fill="#3A3A39" font-family="'Lato-Black'" font-size="7px">Espace Jour </text>
	<text transform="matrix(1 0 0 1 212.9761 406.377)" display="inline" fill="#3A3A39" font-family="'Lato-Italic'" font-size="7px">39.80 m</text>
	
		<text transform="matrix(0.583 0 0 0.583 237.5386 404.0459)" display="inline" fill="#3A3A39" font-family="'Lato-Italic'" font-size="7px">2</text>
	<text transform="matrix(1 0 0 1 118.2794 424.9712)" display="inline" fill="#3A3A39" font-family="'Lato-Black'" font-size="7px">Loggia </text>
	
		<text transform="matrix(1 0 0 1 118.6398 433.3711)" display="inline" fill="#3A3A39" font-family="'Lato-Italic'" font-size="7px">10.90 m</text>
	
		<text transform="matrix(0.583 0 0 0.583 143.2023 431.04)" display="inline" fill="#3A3A39" font-family="'Lato-Italic'" font-size="7px">2</text>
</g>
<g id="Murs">
	<rect x="496.7" y="207.6" fill="#707E85" width="12.9" height="29.2"/>
	<rect x="498.6" y="210.5" fill="#707E85" width="11" height="29.2"/>
	<rect x="496.7" y="285.3" fill="#707E85" width="12.9" height="75.6"/>
	<rect x="498.6" y="282.4" fill="#707E85" width="11" height="81.6"/>
	<rect x="496.7" y="409.5" fill="#707E85" width="12.9" height="33.2"/>
	<rect x="342.5" y="429.4" fill="#707E85" width="159.5" height="13.3"/>
	<rect x="498.6" y="406.5" fill="#707E85" width="11" height="30.9"/>
	<rect x="195.3" y="429.4" fill="#707E85" width="100.2" height="13.3"/>
	<rect x="192.2" y="432.1" fill="#707E85" width="7.8" height="10.6"/>
	<rect x="150.9" y="432.1" fill="#707E85" width="15" height="10.6"/>
	<rect x="150.9" y="429.4" fill="#707E85" width="12" height="10.6"/>
	<rect x="150.9" y="427.6" fill="#707E85" width="7.1" height="10.6"/>
	<rect x="146" y="295.2" fill="#707E85" width="12" height="10.6"/>
	<rect x="76" y="295.2" fill="#707E85" width="15.7" height="10.6"/>
	<rect x="76" y="292" fill="#707E85" width="10.7" height="10.6"/>
	<rect x="76" y="207.5" fill="#707E85" width="10.7" height="10.6"/>
	<rect x="76" y="161.6" fill="#707E85" width="13.3" height="53.5"/>
	<rect x="76" y="161.6" fill="#707E85" width="201.1" height="8"/>
	<polygon fill="#707E85" points="331.9,200.8 283.7,200.8 283.7,198 274.5,198 274.5,210 331.9,210 333.1,210 333.1,200.8 	"/>
	<rect x="274.6" y="202.2" fill="#707E85" width="3.2" height="83.9"/>
	<rect x="274.6" y="324.7" fill="#707E85" width="3.2" height="109.1"/>
	<rect x="331.9" y="202.2" fill="#707E85" width="3.5" height="32"/>
	<rect x="331.9" y="256.1" fill="#707E85" width="3.5" height="30.1"/>
	<rect x="276.2" y="260.5" fill="#707E85" width="56.5" height="6.6"/>
	<rect x="274.6" y="357.1" fill="#707E85" width="11.9" height="73.5"/>
	<rect x="342.5" y="326.8" fill="#707E85" width="3.4" height="103.8"/>
	<rect x="255.1" y="324.7" fill="#707E85" width="58.2" height="3.1"/>
	<rect x="255.1" y="326" fill="#707E85" width="21.1" height="3.1"/>
	<rect x="338.1" y="324.7" fill="#707E85" width="12.7" height="3.1"/>
	<rect x="376" y="324.7" fill="#707E85" width="126.5" height="3.1"/>
	<rect x="380.7" y="320" fill="#707E85" width="3.3" height="5.6"/>
	<rect x="380.7" y="212.3" fill="#707E85" width="3.3" height="82.6"/>
	<rect x="78.2" y="439.4" fill="#A5B8C4" width="70.9" height="1.5"/>
	<rect x="77.8" y="307.3" fill="#A5B8C4" width="1.5" height="133.6"/>
	<rect x="78.6" y="218.1" fill="#A5B8C4" width="1" height="73.9"/>
	<rect x="165.9" y="439.2" fill="#A5B8C4" width="26.2" height="1.3"/>
	<rect x="506.2" y="364" fill="#A5B8C4" width="1.4" height="42.5"/>
	<rect x="506.3" y="239.7" fill="#A5B8C4" width="1.4" height="42.6"/>
	<rect x="274.5" y="161.5" fill="#707E85" width="9.2" height="36.6"/>
	<g>
		<polygon fill="#707E85" points="376.3,214.1 432,214.1 496.7,214.1 509.6,214.1 509.6,205.9 509.6,205.9 496.7,205.9 496.7,205.8 
			405,205.8 399.9,205.8 376.3,205.8 		"/>
	</g>
	<rect x="331.9" y="205.8" fill="#707E85" width="15.6" height="8.3"/>
	<polygon fill="#707E85" points="331.9,200.8 331.9,210 333.1,210 340,210 340,200.8 333.1,200.8 	"/>
	<line fill="none" x1="333.1" y1="200.8" x2="331.9" y2="200.8"/>
</g>
<g id="Entree">
	<polygon fill="#3A3A39" points="367.8,209.4 362.3,214.2 356.8,209.4 	"/>
</g>
<g id="Nord">
	<circle fill="none" stroke="#707E85" stroke-miterlimit="10" cx="493.9" cy="171.9" r="11.9"/>
	<line fill="none" stroke="#707E85" stroke-width="2" stroke-miterlimit="10" x1="501.6" y1="169.5" x2="509" y2="167.1"/>
	<text transform="matrix(1 0 0 1 487.7278 177.7153)" fill="#707E85" font-family="'Lato-Black'" font-size="16.4252px">N</text>
</g>
</svg>
