<?xml version="1.0" encoding="utf-8"?>
<!-- Generator: Adobe Illustrator 19.0.1, SVG Export Plug-In . SVG Version: 6.00 Build 0)  -->
<svg version="1.1" xmlns="http://www.w3.org/2000/svg" xmlns:xlink="http://www.w3.org/1999/xlink" x="0px" y="0px"
	 viewBox="0 0 595.3 595.3" style="enable-background:new 0 0 595.3 595.3;" xml:space="preserve">
<style type="text/css">
	.st0{fill:none;}
	.st1{fill:#FFFFFF;}
	.st2{fill:#E3E3E3;}
	.st3{fill:#DBEBD0;}
	.st4{fill:#ABBBA1;}
	.st5{fill:#FFFFFF;stroke:#000000;stroke-width:0.5;stroke-miterlimit:10;}
	.st6{fill:#707E85;}
	.st7{fill:#EAF6FE;}
	.st8{fill:url(#SVGID_1_);}
	.st9{opacity:0.8;fill:#FFFFFF;}
	.st10{opacity:5.000000e-02;}
	.st11{fill:none;stroke:#707E85;stroke-width:0.3;stroke-miterlimit:10;}
	.st12{fill:none;stroke:#CBD3D7;stroke-width:0.3;stroke-miterlimit:10;}
	.st13{fill:#EAF6FE;stroke:#CBD3D7;stroke-width:0.3;stroke-miterlimit:10;}
	.st14{fill:#EAF6FE;stroke:#CBD3D7;stroke-width:0.3;stroke-linecap:round;stroke-miterlimit:10;}
	.st15{fill:#CBD3D7;}
	.st16{fill:#EAF6FE;stroke:#CBD3D7;stroke-width:0.3;stroke-linecap:round;stroke-linejoin:round;stroke-miterlimit:10;}
	.st17{fill:#EAF6FE;stroke:#CBD3D7;stroke-width:0.3033;stroke-miterlimit:10;}
	.st18{fill:#EAF6FE;stroke:#CBD3D7;stroke-width:0.2953;stroke-miterlimit:10;}
	.st19{fill:none;stroke:#707E85;stroke-width:0.5;stroke-miterlimit:10;}
	.st20{fill:#EAF6FE;stroke:#707E85;stroke-width:0.3;stroke-miterlimit:10;}
	.st21{opacity:0.2;}
	.st22{fill:#708793;}
	.st23{fill:none;stroke:#708793;stroke-width:0.3;stroke-miterlimit:10;}
	.st24{fill:#FFFFFF;stroke:#707E85;stroke-width:0.3;stroke-miterlimit:10;}
	.st25{fill:none;stroke:#707E85;stroke-width:0.6204;stroke-miterlimit:10;}
	.st26{fill:none;stroke:#000000;stroke-width:0.12;stroke-linecap:square;stroke-linejoin:bevel;stroke-miterlimit:10;}
	.st27{fill:none;stroke:#707E85;stroke-width:0.3;stroke-miterlimit:1;}
	.st28{fill:none;stroke:#707E85;stroke-width:0.1;stroke-miterlimit:1;}
	.st29{fill:none;stroke:#707E85;stroke-width:0.3;stroke-miterlimit:10;stroke-dasharray:2,2;}
	.st30{fill:#3A3A39;}
	.st31{fill:none;stroke:#707E85;stroke-miterlimit:10;}
	.st32{fill:none;stroke:#707E85;stroke-width:2;stroke-miterlimit:10;}
	.st33{font-family:'Lato-Black';}
	.st34{font-size:16.4252px;}
</style>
<pattern  width="3.8" height="3.4" patternUnits="userSpaceOnUse" id="Nouvelle_nuance_de_motif_7" viewBox="0 -3.4 3.8 3.4" style="overflow:visible;">
	<g>
		<polygon class="st0" points="0,0 3.8,0 3.8,-3.4 0,-3.4 		"/>
		<polygon class="st1" points="3.7,0 0.1,0 0.1,-3.4 3.7,-3.4 		"/>
		<polygon class="st2" points="3.8,0 3.7,0 3.7,-3.4 3.8,-3.4 		"/>
		<polygon class="st2" points="0.1,0 0,0 0,-3.4 0.1,-3.4 		"/>
	</g>
</pattern>
<g id="Jardin">
	<polygon class="st3" points="81,438.2 81,160.5 16.9,160.5 16.9,441.1 	"/>
	<polygon class="st3" points="523.3,415 523.3,196 587.7,196 587.7,411.7 	"/>
	<path class="st4" d="M567.8,377.4c0,0,0.1-0.1,0.2-0.1c0.2-0.1,0.6-0.2,0.6,0.2c0.2,0,0.5,0,0.6-0.1c0.2-0.1,0.3-0.3,0.5-0.3
		c0.2-0.1,0.5-0.1,0.8-0.2c0.2,0,0.5,0.1,0.7,0.1c0.3-0.1,0.4-0.4,0.7-0.4c0.3,0,0.6,0.3,0.9,0.2c0.3-0.1,0.4-0.6,0.6-0.8
		c0.3-0.3,0.8-0.1,1.1-0.4c0.3-0.3,0-0.9,0.6-1c0.7-0.1,1.1-0.6,1.5-1.1c0.2-0.2,0.1-0.3,0.2-0.6c0.1-0.2,0.2-0.2,0.4-0.3
		c0.2-0.1,0.2,0,0.3-0.3c0-0.2,0-0.4,0-0.6c0.2,0,0.5,0.1,0.6-0.2c0.1-0.2-0.2-0.4-0.3-0.6c-0.1-0.4,0.3-0.4,0.5-0.6
		c0.2-0.3,0.3-0.7,0.5-1c0.2-0.3,0.1-0.3,0-0.7c0-0.2-0.1-0.5,0.1-0.7c0.1-0.2,0.4,0,0.4-0.4c0-0.2-0.4-0.4-0.4-0.6
		c-0.1-0.3,0-0.4,0.1-0.5c0.1-0.2,0.3-0.2,0.3-0.5c0.1-0.6-0.3-0.9-0.4-1.5c0-0.2,0.1-0.3,0-0.5c0-0.3-0.2-0.4-0.3-0.6
		c-0.2-0.4,0.1-0.7-0.2-1.1c-0.2-0.2-0.3-0.2-0.4-0.5c0-0.1,0-0.3,0-0.4c-0.2-0.1-0.6-0.2-0.7-0.5c-0.1-0.5,0.3-1.1-0.3-1.5
		c-0.6-0.3-0.1-0.2-0.2-0.7c-0.2,0-0.4-0.1-0.6-0.1c0-0.1,0.1-0.4,0-0.6c-0.2-0.3-0.7-0.2-0.9-0.2c-0.6,0-0.2-0.2-0.4-0.6
		c-0.1-0.3-0.9-0.5-1.2-0.5c-0.1,0-0.3,0.1-0.4,0.1c-0.1,0-0.1-0.2-0.2-0.3c-0.3-0.3-0.3-0.1-0.7-0.2c-0.4-0.1-0.3-0.3-0.5-0.6
		c-0.2-0.2-0.3,0-0.6-0.1c-0.2-0.1-0.3-0.2-0.5-0.1c-0.2,0-0.5,0.4-0.8,0.3c-0.2-0.1-0.1-0.5-0.3-0.6c-0.1-0.1-0.4-0.3-0.5-0.3
		c-0.2,0-0.3,0.1-0.5,0.1c-0.3,0-0.4-0.1-0.6-0.1c-0.3,0-0.5,0.2-0.7,0.2c-0.2,0-0.3-0.3-0.5-0.3c-0.2-0.1-0.6,0.1-0.9,0.1
		c-0.3,0-0.6,0-0.9,0.2c-0.2,0.2-0.2,0.5-0.4,0.6c-0.4,0.2-0.7-0.3-1-0.3c-0.3,0-0.5,0.6-0.4,0.9c-0.5,0.1-0.9-0.5-1.4-0.3
		c0,0.3,0.1,0.8-0.2,0.9c-0.3,0.1-0.7-0.2-0.9,0.1c-0.2,0.2,0.1,0.7-0.2,0.9c-0.1,0.1-0.6,0-0.8,0c0,0.3,0,0.5-0.1,0.6
		c0,0-0.4,0.3-0.5,0.3c-0.1,0.5-0.2,1.2-0.8,1.3c-0.2,0-0.5-0.2-0.7,0c-0.3,0.2,0,0.5-0.1,0.7c-0.1,0.2-0.1,0.1-0.3,0.2
		c-0.1,0.2-0.1,0.1-0.2,0.3c0,0.1,0.1,0.3,0.1,0.4c-0.1,0.2-0.5,0.3-0.7,0.5c-0.2,0.3-0.4,0.7-0.3,1c0.1,0.2,0.4,0.2,0.4,0.5
		c0,0.1-0.2,0.1-0.2,0.2c-0.1,0.1-0.2,0.3-0.2,0.4c-0.2,0.3-0.2,0.5,0,0.8c0.2,0.2,0.4,0.2,0.3,0.5c-0.1,0.3-0.2,0.7-0.3,1
		c-0.1,0.3-0.3,0.6-0.2,0.8c0.1,0.2,0.5,0.3,0.6,0.5c0.3,0.5-0.1,1.1,0.1,1.7c0.1,0.2,0.3,0.4,0.3,0.6c0,0.3-0.2,0.6-0.2,0.9
		c0,0.5,0.6,0.8,1,0.9c0.2,0,0.3-0.1,0.4,0.1c0.1,0.2-0.2,0.5-0.2,0.7c0,0.5,0.7,0.1,0.9,0.4c0.2,0.2,0,0.5,0.3,0.7
		c0.2,0.2,0.6,0,0.9,0.1c-0.1,0.5,0.5,0.4,0.8,0.5c0.4,0.1,0.5,0.4,0.5,0.9c0,0.2,0,0.5,0.2,0.7c0.3,0.3,0.6-0.1,0.9,0
		c0.1,0.1,0.1,0.2,0.2,0.3c0.2,0.1,0.3,0.1,0.5,0.1c0.3,0,0.5,0,0.8,0.1c0.5,0.2,0.8,0.8,1.3,1c0.3,0.1,0.5-0.2,0.8-0.1
		c0.3,0,0.2,0.1,0.4,0.3C567.3,377.9,567.5,377.7,567.8,377.4z"/>
	<path class="st4" d="M572.1,408.5c0,0,0.1-0.1,0.2-0.1c0.2-0.1,0.6-0.2,0.6,0.2c0.2,0,0.5,0,0.6-0.1c0.2-0.1,0.3-0.3,0.5-0.3
		c0.2-0.1,0.5-0.1,0.8-0.2c0.2,0,0.5,0.1,0.7,0.1c0.3-0.1,0.4-0.4,0.7-0.4c0.3,0,0.6,0.3,0.9,0.2c0.3-0.1,0.4-0.6,0.6-0.8
		c0.3-0.3,0.8-0.1,1.1-0.4c0.3-0.3,0-0.9,0.6-1c0.7-0.1,1.1-0.6,1.5-1.1c0.2-0.2,0.1-0.3,0.2-0.6c0.1-0.2,0.2-0.2,0.4-0.3
		c0.2-0.1,0.2,0,0.3-0.3c0-0.2,0-0.4,0-0.6c0.2,0,0.5,0.1,0.6-0.2c0.1-0.2-0.2-0.4-0.3-0.6c-0.1-0.4,0.3-0.4,0.5-0.6
		c0.2-0.3,0.3-0.7,0.5-1c0.2-0.3,0.1-0.3,0-0.7c0-0.2-0.1-0.5,0.1-0.7c0.1-0.2,0.4,0,0.4-0.4c0-0.2-0.4-0.4-0.4-0.6
		c-0.1-0.3,0-0.4,0.1-0.5c0.1-0.2,0.3-0.2,0.3-0.5c0.1-0.6-0.3-0.9-0.4-1.5c0-0.2,0.1-0.3,0-0.5c0-0.3-0.2-0.4-0.3-0.6
		c-0.2-0.4,0.1-0.7-0.2-1.1c-0.2-0.2-0.3-0.2-0.4-0.5c0-0.1,0-0.3,0-0.4c-0.2-0.1-0.6-0.2-0.7-0.5c-0.1-0.5,0.3-1.1-0.3-1.5
		c-0.6-0.3-0.1-0.2-0.2-0.7c-0.2,0-0.4-0.1-0.6-0.1c0-0.1,0.1-0.4,0-0.6c-0.2-0.3-0.7-0.2-0.9-0.2c-0.6,0-0.2-0.2-0.4-0.6
		c-0.1-0.3-0.9-0.5-1.2-0.5c-0.1,0-0.3,0.1-0.4,0.1c-0.1,0-0.1-0.2-0.2-0.3c-0.3-0.3-0.3-0.1-0.7-0.2c-0.4-0.1-0.3-0.3-0.5-0.6
		c-0.2-0.2-0.3,0-0.6-0.1c-0.2-0.1-0.3-0.2-0.5-0.1c-0.2,0-0.5,0.4-0.8,0.3c-0.2-0.1-0.1-0.5-0.3-0.6c-0.1-0.1-0.4-0.3-0.5-0.3
		c-0.2,0-0.3,0.1-0.5,0.1c-0.3,0-0.4-0.1-0.6-0.1c-0.3,0-0.5,0.2-0.7,0.2c-0.2,0-0.3-0.3-0.5-0.3c-0.2-0.1-0.6,0.1-0.9,0.1
		c-0.3,0-0.6,0-0.9,0.2c-0.2,0.2-0.2,0.5-0.4,0.6c-0.4,0.2-0.7-0.3-1-0.3c-0.3,0-0.5,0.6-0.4,0.9c-0.5,0.1-0.9-0.5-1.4-0.3
		c0,0.3,0.1,0.8-0.2,0.9c-0.3,0.1-0.7-0.2-0.9,0.1c-0.2,0.2,0.1,0.7-0.2,0.9c-0.1,0.1-0.6,0-0.8,0c0,0.3,0,0.5-0.1,0.6
		c0,0-0.4,0.3-0.5,0.3c-0.1,0.5-0.2,1.2-0.8,1.3c-0.2,0-0.5-0.2-0.7,0c-0.3,0.2,0,0.5-0.1,0.7c-0.1,0.2-0.1,0.1-0.3,0.2
		c-0.1,0.2-0.1,0.1-0.2,0.3c0,0.1,0.1,0.3,0.1,0.4c-0.1,0.2-0.5,0.3-0.7,0.5c-0.2,0.3-0.4,0.7-0.3,1c0.1,0.2,0.4,0.2,0.4,0.5
		c0,0.1-0.2,0.1-0.2,0.2c-0.1,0.1-0.2,0.3-0.2,0.4c-0.2,0.3-0.2,0.5,0,0.8c0.2,0.2,0.4,0.2,0.3,0.5c-0.1,0.3-0.2,0.7-0.3,1
		c-0.1,0.3-0.3,0.6-0.2,0.8c0.1,0.2,0.5,0.3,0.6,0.5c0.3,0.5-0.1,1.1,0.1,1.7c0.1,0.2,0.3,0.4,0.3,0.6c0,0.3-0.2,0.6-0.2,0.9
		c0,0.5,0.6,0.8,1,0.9c0.2,0,0.3-0.1,0.4,0.1c0.1,0.2-0.2,0.5-0.2,0.7c0,0.5,0.7,0.1,0.9,0.4c0.2,0.2,0,0.5,0.3,0.7
		c0.2,0.2,0.6,0,0.9,0.1c-0.1,0.5,0.5,0.4,0.8,0.5c0.4,0.1,0.5,0.4,0.5,0.9c0,0.2,0,0.5,0.2,0.7c0.3,0.3,0.6-0.1,0.9,0
		c0.1,0.1,0.1,0.2,0.2,0.3c0.2,0.1,0.3,0.1,0.5,0.1c0.3,0,0.5,0,0.8,0.1c0.5,0.2,0.8,0.8,1.3,1c0.3,0.1,0.5-0.2,0.8-0.1
		c0.3,0,0.2,0.1,0.4,0.3C571.7,409.1,571.8,408.8,572.1,408.5z"/>
	<path class="st4" d="M36.2,192.6c0,0,0.1-0.1,0.2-0.1c0.2-0.1,0.6-0.2,0.6,0.2c0.2,0,0.5,0,0.6-0.1c0.2-0.1,0.3-0.3,0.5-0.3
		c0.2-0.1,0.5-0.1,0.8-0.2c0.2,0,0.5,0.1,0.7,0.1c0.3-0.1,0.4-0.4,0.7-0.4c0.3,0,0.6,0.3,0.9,0.2c0.3-0.1,0.4-0.6,0.6-0.8
		c0.3-0.3,0.8-0.1,1.1-0.4c0.3-0.3,0-0.9,0.6-1c0.7-0.1,1.1-0.6,1.5-1.1c0.2-0.2,0.1-0.3,0.2-0.6c0.1-0.2,0.2-0.2,0.4-0.3
		c0.2-0.1,0.2,0,0.3-0.3c0-0.2,0-0.4,0-0.6c0.2,0,0.5,0.1,0.6-0.2c0.1-0.2-0.2-0.4-0.3-0.6c-0.1-0.4,0.3-0.4,0.5-0.6
		c0.2-0.3,0.3-0.7,0.5-1c0.2-0.3,0.1-0.3,0-0.7c0-0.2-0.1-0.5,0.1-0.7c0.1-0.2,0.4,0,0.4-0.4c0-0.2-0.4-0.4-0.4-0.6
		c-0.1-0.3,0-0.4,0.1-0.5c0.1-0.2,0.3-0.2,0.3-0.5c0.1-0.6-0.3-0.9-0.4-1.5c0-0.2,0.1-0.3,0-0.5c0-0.3-0.2-0.4-0.3-0.6
		c-0.2-0.4,0.1-0.7-0.2-1.1c-0.2-0.2-0.3-0.2-0.4-0.5c0-0.1,0-0.3,0-0.4c-0.2-0.1-0.6-0.2-0.7-0.5c-0.1-0.5,0.3-1.1-0.3-1.5
		c-0.6-0.3-0.1-0.2-0.2-0.7c-0.2,0-0.4-0.1-0.6-0.1c0-0.1,0.1-0.4,0-0.6c-0.2-0.3-0.7-0.2-0.9-0.2c-0.6,0-0.2-0.2-0.4-0.6
		c-0.1-0.3-0.9-0.5-1.2-0.5c-0.1,0-0.3,0.1-0.4,0.1c-0.1,0-0.1-0.2-0.2-0.3c-0.3-0.3-0.3-0.1-0.7-0.2c-0.4-0.1-0.3-0.3-0.5-0.6
		c-0.2-0.2-0.3,0-0.6-0.1c-0.2-0.1-0.3-0.2-0.5-0.1c-0.2,0-0.5,0.4-0.8,0.3c-0.2-0.1-0.1-0.5-0.3-0.6c-0.1-0.1-0.4-0.3-0.5-0.3
		c-0.2,0-0.3,0.1-0.5,0.1c-0.3,0-0.4-0.1-0.6-0.1c-0.3,0-0.5,0.2-0.7,0.2c-0.2,0-0.3-0.3-0.5-0.3c-0.2-0.1-0.6,0.1-0.9,0.1
		c-0.3,0-0.6,0-0.9,0.2c-0.2,0.2-0.2,0.5-0.4,0.6c-0.4,0.2-0.7-0.3-1-0.3c-0.3,0-0.5,0.6-0.4,0.9c-0.5,0.1-0.9-0.5-1.4-0.3
		c0,0.3,0.1,0.8-0.2,0.9c-0.3,0.1-0.7-0.2-0.9,0.1c-0.2,0.2,0.1,0.7-0.2,0.9c-0.1,0.1-0.6,0-0.8,0c0,0.3,0,0.5-0.1,0.6
		c0,0-0.4,0.3-0.5,0.3c-0.1,0.5-0.2,1.2-0.8,1.3c-0.2,0-0.5-0.2-0.7,0c-0.3,0.2,0,0.5-0.1,0.7c-0.1,0.2-0.1,0.1-0.3,0.2
		c-0.1,0.2-0.1,0.1-0.2,0.3c0,0.1,0.1,0.3,0.1,0.4c-0.1,0.2-0.5,0.3-0.7,0.5c-0.2,0.3-0.4,0.7-0.3,1c0.1,0.2,0.4,0.2,0.4,0.5
		c0,0.1-0.2,0.1-0.2,0.2c-0.1,0.1-0.2,0.3-0.2,0.4c-0.2,0.3-0.2,0.5,0,0.8c0.2,0.2,0.4,0.2,0.3,0.5c-0.1,0.3-0.2,0.7-0.3,1
		c-0.1,0.3-0.3,0.6-0.2,0.8c0.1,0.2,0.5,0.3,0.6,0.5c0.3,0.5-0.1,1.1,0.1,1.7c0.1,0.2,0.3,0.4,0.3,0.6c0,0.3-0.2,0.6-0.2,0.9
		c0,0.5,0.6,0.8,1,0.9c0.2,0,0.3-0.1,0.4,0.1c0.1,0.2-0.2,0.5-0.2,0.7c0,0.5,0.7,0.1,0.9,0.4c0.2,0.2,0,0.5,0.3,0.7
		c0.2,0.2,0.6,0,0.9,0.1c-0.1,0.5,0.5,0.4,0.8,0.5c0.4,0.1,0.5,0.4,0.5,0.9c0,0.2,0,0.5,0.2,0.7c0.3,0.3,0.6-0.1,0.9,0
		c0.1,0.1,0.1,0.2,0.2,0.3c0.2,0.1,0.3,0.1,0.5,0.1c0.3,0,0.5,0,0.8,0.1c0.5,0.2,0.8,0.8,1.3,1c0.3,0.1,0.5-0.2,0.8-0.1
		c0.3,0,0.2,0.1,0.4,0.3C35.7,193.1,35.9,192.9,36.2,192.6z"/>
	<path class="st4" d="M40.5,223.7c0,0,0.1-0.1,0.2-0.1c0.2-0.1,0.6-0.2,0.6,0.2c0.2,0,0.5,0,0.6-0.1c0.2-0.1,0.3-0.3,0.5-0.3
		c0.2-0.1,0.5-0.1,0.8-0.2c0.2,0,0.5,0.1,0.7,0.1c0.3-0.1,0.4-0.4,0.7-0.4c0.3,0,0.6,0.3,0.9,0.2c0.3-0.1,0.4-0.6,0.6-0.8
		c0.3-0.3,0.8-0.1,1.1-0.4c0.3-0.3,0-0.9,0.6-1c0.7-0.1,1.1-0.6,1.5-1.1c0.2-0.2,0.1-0.3,0.2-0.6c0.1-0.2,0.2-0.2,0.4-0.3
		c0.2-0.1,0.2,0,0.3-0.3c0-0.2,0-0.4,0-0.6c0.2,0,0.5,0.1,0.6-0.2c0.1-0.2-0.2-0.4-0.3-0.6c-0.1-0.4,0.3-0.4,0.5-0.6
		c0.2-0.3,0.3-0.7,0.5-1c0.2-0.3,0.1-0.3,0-0.7c0-0.2-0.1-0.5,0.1-0.7c0.1-0.2,0.4,0,0.4-0.4c0-0.2-0.4-0.4-0.4-0.6
		c-0.1-0.3,0-0.4,0.1-0.5c0.1-0.2,0.3-0.2,0.3-0.5c0.1-0.6-0.3-0.9-0.4-1.5c0-0.2,0.1-0.3,0-0.5c0-0.3-0.2-0.4-0.3-0.6
		c-0.2-0.4,0.1-0.7-0.2-1.1c-0.2-0.2-0.3-0.2-0.4-0.5c0-0.1,0-0.3,0-0.4c-0.2-0.1-0.6-0.2-0.7-0.5c-0.1-0.5,0.3-1.1-0.3-1.5
		c-0.6-0.3-0.1-0.2-0.2-0.7c-0.2,0-0.4-0.1-0.6-0.1c0-0.1,0.1-0.4,0-0.6c-0.2-0.3-0.7-0.2-0.9-0.2c-0.6,0-0.2-0.2-0.4-0.6
		c-0.1-0.3-0.9-0.5-1.2-0.5c-0.1,0-0.3,0.1-0.4,0.1c-0.1,0-0.1-0.2-0.2-0.3c-0.3-0.3-0.3-0.1-0.7-0.2c-0.4-0.1-0.3-0.3-0.5-0.6
		c-0.2-0.2-0.3,0-0.6-0.1c-0.2-0.1-0.3-0.2-0.5-0.1c-0.2,0-0.5,0.4-0.8,0.3c-0.2-0.1-0.1-0.5-0.3-0.6c-0.1-0.1-0.4-0.3-0.5-0.3
		c-0.2,0-0.3,0.1-0.5,0.1c-0.3,0-0.4-0.1-0.6-0.1c-0.3,0-0.5,0.2-0.7,0.2c-0.2,0-0.3-0.3-0.5-0.3c-0.2-0.1-0.6,0.1-0.9,0.1
		c-0.3,0-0.6,0-0.9,0.2c-0.2,0.2-0.2,0.5-0.4,0.6c-0.4,0.2-0.7-0.3-1-0.3c-0.3,0-0.5,0.6-0.4,0.9c-0.5,0.1-0.9-0.5-1.4-0.3
		c0,0.3,0.1,0.8-0.2,0.9c-0.3,0.1-0.7-0.2-0.9,0.1c-0.2,0.2,0.1,0.7-0.2,0.9c-0.1,0.1-0.6,0-0.8,0c0,0.3,0,0.5-0.1,0.6
		c0,0-0.4,0.3-0.5,0.3c-0.1,0.5-0.2,1.2-0.8,1.3c-0.2,0-0.5-0.2-0.7,0c-0.3,0.2,0,0.5-0.1,0.7c-0.1,0.2-0.1,0.1-0.3,0.2
		c-0.1,0.2-0.1,0.1-0.2,0.3c0,0.1,0.1,0.3,0.1,0.4c-0.1,0.2-0.5,0.3-0.7,0.5c-0.2,0.3-0.4,0.7-0.3,1c0.1,0.2,0.4,0.2,0.4,0.5
		c0,0.1-0.2,0.1-0.2,0.2c-0.1,0.1-0.2,0.3-0.2,0.4c-0.2,0.3-0.2,0.5,0,0.8c0.2,0.2,0.4,0.2,0.3,0.5c-0.1,0.3-0.2,0.7-0.3,1
		c-0.1,0.3-0.3,0.6-0.2,0.8c0.1,0.2,0.5,0.3,0.6,0.5c0.3,0.5-0.1,1.1,0.1,1.7c0.1,0.2,0.3,0.4,0.3,0.6c0,0.3-0.2,0.6-0.2,0.9
		c0,0.5,0.6,0.8,1,0.9c0.2,0,0.3-0.1,0.4,0.1c0.1,0.2-0.2,0.5-0.2,0.7c0,0.5,0.7,0.1,0.9,0.4c0.2,0.2,0,0.5,0.3,0.7
		c0.2,0.2,0.6,0,0.9,0.1c-0.1,0.5,0.5,0.4,0.8,0.5c0.4,0.1,0.5,0.4,0.5,0.9c0,0.2,0,0.5,0.2,0.7c0.3,0.3,0.6-0.1,0.9,0
		c0.1,0.1,0.1,0.2,0.2,0.3c0.2,0.1,0.3,0.1,0.5,0.1c0.3,0,0.5,0,0.8,0.1c0.5,0.2,0.8,0.8,1.3,1c0.3,0.1,0.5-0.2,0.8-0.1
		c0.3,0,0.2,0.1,0.4,0.3C40,224.3,40.2,224,40.5,223.7z"/>
</g>
<g id="Fond">
	<rect x="81.3" y="196" class="st5" width="442" height="222"/>
	<g>
		<path class="st6" d="M283.1,146.1v43.3v0.3h0.3h58.2v5.3v0.3h0.3h67.4H523v224.6L81.3,445.4V146.1H283.1 M283.4,145.8H81v299.9
			l442.4-25.6V194.9h-114h-67.4v-5.6h-58.5V145.8L283.4,145.8z"/>
	</g>
	<polygon class="st7" points="512.3,415 512.3,191.7 344.8,191.7 344.8,195 286.5,195 286.5,153.1 162,153.1 161.8,306.5 92,306.5 
		92,438.9 	"/>
</g>
<g id="Sol">
	<pattern  id="SVGID_1_" xlink:href="#Nouvelle_nuance_de_motif_7" patternTransform="matrix(1 0 0 1 -7.626 10.3125)">
	</pattern>
	<rect x="81.3" y="160.5" class="st8" width="79.4" height="144.5"/>
	<rect x="286.5" y="314.7" class="st9" width="66.6" height="105.4"/>
	<rect x="286.5" y="187.6" class="st9" width="55.7" height="59.1"/>
</g>
<g id="Installations">
	<g>
		<g>
			<g class="st10">
				<path class="st6" d="M432.4,268.1v-62.8c0-0.6-0.4-1-1-1h-27.3c-0.6,0-1,0.4-1,1v62.8c0,0.6,0.4,1,1,1h27.3
					C431.9,269.1,432.4,268.6,432.4,268.1z"/>
				<path class="st11" d="M432.4,268.1v-62.8c0-0.6-0.4-1-1-1h-27.3c-0.6,0-1,0.4-1,1v62.8c0,0.6,0.4,1,1,1h27.3
					C431.9,269.1,432.4,268.6,432.4,268.1z"/>
			</g>
			<g>
				<path class="st7" d="M429.4,265.1v-62.8c0-0.6-0.4-1-1-1h-27.3c-0.6,0-1,0.4-1,1v62.8c0,0.6,0.4,1,1,1h27.3
					C428.9,266.1,429.4,265.6,429.4,265.1z"/>
				<path class="st12" d="M429.4,265.1v-62.8c0-0.6-0.4-1-1-1h-27.3c-0.6,0-1,0.4-1,1v62.8c0,0.6,0.4,1,1,1h27.3
					C428.9,266.1,429.4,265.6,429.4,265.1z"/>
			</g>
		</g>
		<g>
			<g>
				<g class="st10">
					<path class="st6" d="M444.7,204.3h-8.8c-0.6,0-1,0.4-1,1v7.8c0,0.6,0.4,1,1,1h8.8c0.6,0,1-0.4,1-1v-7.8
						C445.7,204.7,445.3,204.3,444.7,204.3z"/>
					<path class="st11" d="M444.7,204.3h-8.8c-0.6,0-1,0.4-1,1v7.8c0,0.6,0.4,1,1,1h8.8c0.6,0,1-0.4,1-1v-7.8
						C445.7,204.7,445.3,204.3,444.7,204.3z"/>
				</g>
				<g>
					<path class="st7" d="M441.7,201.3h-8.8c-0.6,0-1,0.4-1,1v7.8c0,0.6,0.4,1,1,1h8.8c0.6,0,1-0.4,1-1v-7.8
						C442.7,201.7,442.3,201.3,441.7,201.3z"/>
					<path class="st12" d="M441.7,201.3h-8.8c-0.6,0-1,0.4-1,1v7.8c0,0.6,0.4,1,1,1h8.8c0.6,0,1-0.4,1-1v-7.8
						C442.7,201.7,442.3,201.3,441.7,201.3z"/>
				</g>
			</g>
			<path class="st13" d="M436.2,208.5l3.6-1.4c0.5-0.2,0.8-0.8,0.6-1.3l-0.5-1.4c-0.2-0.5-0.8-0.8-1.3-0.6l-3.6,1.4
				c-0.5,0.2-0.8,0.8-0.6,1.3l0.5,1.4C435.1,208.5,435.7,208.7,436.2,208.5z"/>
			<circle class="st13" cx="437.4" cy="206.2" r="0.5"/>
		</g>
		<path class="st13" d="M425.9,261.6v-55.9c0-0.6-0.4-1-1-1h-20.4c-0.6,0-1,0.4-1,1v55.9c0,0.6,0.4,1,1,1h20.4
			C425.4,262.6,425.9,262.2,425.9,261.6z"/>
		<path class="st13" d="M422.9,207.7c-0.5-0.2-0.9,0.1-1.7,0.1c-7.2-1.5-14.9,0.4-15.1,0.7c-0.2,0.3,0.2,0.2,0.5,1.9
			c0.1,1.7-0.3,5.6-0.1,7c0.1,0.4,0.2,0.6,0.3,0.7c1.4,1,15.5,0.6,15.7,0.5c0.2-0.1,0.7-0.7,0.8-1.3
			C423.5,215.8,423.4,207.9,422.9,207.7z"/>
		<g>
			<g>
				<path class="st13" d="M405.8,228.4c0,0,6.7,0.9,8.9,0.9c2.4,0,8.9-0.9,8.9-0.9c1.7,0,3.1,2.8,3.1,1.1v-9.4
					c0-1.7-1.4-3.1-3.1-3.1c0,0-6.1,0.9-8.8,0.9s-9-0.9-9-0.9c-1.7,0-3.1,1.4-3.1,3.1v9.4C402.7,231.2,404.1,228.4,405.8,228.4z"/>
			</g>
			<path class="st14" d="M423,221.1c0.2,1.3-1.3,4.7-3.8,5.3"/>
			<path class="st14" d="M415.5,220.7c-1.8,1.8-6.1,4.2-9,3.9"/>
		</g>
	</g>
	<g>
		<g>
			<g class="st10">
				<path class="st6" d="M510.2,312.2H474c-0.6,0-1-0.4-1-1v-15.3c0-0.6,0.4-1,1-1h36.2c0.6,0,1,0.4,1,1v15.3
					C511.2,311.8,510.8,312.2,510.2,312.2z"/>
				<path class="st11" d="M510.2,312.2H474c-0.6,0-1-0.4-1-1v-15.3c0-0.6,0.4-1,1-1h36.2c0.6,0,1,0.4,1,1v15.3
					C511.2,311.8,510.8,312.2,510.2,312.2z"/>
			</g>
			<g>
				<path class="st7" d="M507.2,309.2H471c-0.6,0-1-0.4-1-1v-15.3c0-0.6,0.4-1,1-1h36.2c0.6,0,1,0.4,1,1v15.3
					C508.2,308.8,507.8,309.2,507.2,309.2z"/>
				<path class="st12" d="M507.2,309.2H471c-0.6,0-1-0.4-1-1v-15.3c0-0.6,0.4-1,1-1h36.2c0.6,0,1,0.4,1,1v15.3
					C508.2,308.8,507.8,309.2,507.2,309.2z"/>
			</g>
		</g>
		<line class="st13" x1="470" y1="294.2" x2="508.2" y2="294.2"/>
		<line class="st13" x1="489.1" y1="294.2" x2="489.1" y2="291.9"/>
		<polyline class="st12" points="485,291.9 485,290.6 486.4,290.6 486.4,291.9 		"/>
		<polyline class="st12" points="491.9,291.9 491.9,290.6 493.3,290.6 493.3,291.9 		"/>
	</g>
	<g>
		<g>
			<g class="st10">
				<path class="st6" d="M365.2,420.1v-53.9c0-0.6,0.4-1,1-1h16.5c0.6,0,1,0.4,1,1v53.9c0,0.6-0.4,1-1,1h-16.5
					C365.6,421.1,365.2,420.6,365.2,420.1z"/>
				<path class="st11" d="M365.2,420.1v-53.9c0-0.6,0.4-1,1-1h16.5c0.6,0,1,0.4,1,1v53.9c0,0.6-0.4,1-1,1h-16.5
					C365.6,421.1,365.2,420.6,365.2,420.1z"/>
			</g>
			<g>
				<path class="st7" d="M362.2,417.1v-53.9c0-0.6,0.4-1,1-1h16.5c0.6,0,1,0.4,1,1v53.9c0,0.6-0.4,1-1,1h-16.5
					C362.6,418.1,362.2,417.6,362.2,417.1z"/>
				<path class="st12" d="M362.2,417.1v-53.9c0-0.6,0.4-1,1-1h16.5c0.6,0,1,0.4,1,1v53.9c0,0.6-0.4,1-1,1h-16.5
					C362.6,418.1,362.2,417.6,362.2,417.1z"/>
			</g>
		</g>
		<line class="st13" x1="378.2" y1="362.2" x2="378.2" y2="418.1"/>
		<line class="st13" x1="378.2" y1="390.1" x2="380.6" y2="390.1"/>
		<polyline class="st12" points="380.6,384 382,384 382,386.1 380.6,386.1 		"/>
		<polyline class="st12" points="380.6,394.1 382,394.1 382,396.2 380.6,396.2 		"/>
	</g>
	<g>
		<path class="st13" d="M493.6,231.8v-1.7h-15.2v1.7c0,0.7,0.6,1.2,1.2,1.2h12.7C493.1,233.1,493.6,232.5,493.6,231.8z"/>
		<rect x="478.4" y="222.9" class="st13" width="15.2" height="7.2"/>
		<line class="st13" x1="491.5" y1="230.1" x2="491.5" y2="222.9"/>
		<line class="st13" x1="480.5" y1="222.9" x2="480.5" y2="230.1"/>
		<g>
			<g class="st10">
				<path class="st6" d="M511.2,205.3V225c0,0.5-0.4,0.9-0.9,0.9h-42.7c-0.5,0-0.9-0.4-0.9-0.9v-19.7c0-0.5,0.4-0.9,0.9-0.9h42.7
					C510.8,204.4,511.2,204.8,511.2,205.3z"/>
				<path class="st11" d="M511.2,205.3V225c0,0.5-0.4,0.9-0.9,0.9h-42.7c-0.5,0-0.9-0.4-0.9-0.9v-19.7c0-0.5,0.4-0.9,0.9-0.9h42.7
					C510.8,204.4,511.2,204.8,511.2,205.3z"/>
			</g>
			<g>
				<path class="st7" d="M508.2,202.3V222c0,0.5-0.4,0.9-0.9,0.9h-42.7c-0.5,0-0.9-0.4-0.9-0.9v-19.7c0-0.5,0.4-0.9,0.9-0.9h42.7
					C507.8,201.4,508.2,201.8,508.2,202.3z"/>
				<path class="st12" d="M508.2,202.3V222c0,0.5-0.4,0.9-0.9,0.9h-42.7c-0.5,0-0.9-0.4-0.9-0.9v-19.7c0-0.5,0.4-0.9,0.9-0.9h42.7
					C507.8,201.4,508.2,201.8,508.2,202.3z"/>
			</g>
		</g>
	</g>
	<g>
		<g>
			<g class="st10">
				<path class="st6" d="M456.7,356l4,59.9c0,0.6-0.4,1-0.9,1.1l-47.4,3.2c-0.6,0-1-0.4-1.1-0.9l-4-59.9c0-0.6,0.4-1,0.9-1.1
					l47.4-3.2C456.2,355,456.7,355.4,456.7,356z"/>
				<path class="st11" d="M456.7,356l4,59.9c0,0.6-0.4,1-0.9,1.1l-47.4,3.2c-0.6,0-1-0.4-1.1-0.9l-4-59.9c0-0.6,0.4-1,0.9-1.1
					l47.4-3.2C456.2,355,456.7,355.4,456.7,356z"/>
			</g>
			<g>
				<path class="st7" d="M453.7,353l4,59.9c0,0.6-0.4,1-0.9,1.1l-47.4,3.2c-0.6,0-1-0.4-1.1-0.9l-4-59.9c0-0.6,0.4-1,0.9-1.1
					l47.4-3.2C453.2,352,453.7,352.4,453.7,353z"/>
				<path class="st12" d="M453.7,353l4,59.9c0,0.6-0.4,1-0.9,1.1l-47.4,3.2c-0.6,0-1-0.4-1.1-0.9l-4-59.9c0-0.6,0.4-1,0.9-1.1
					l47.4-3.2C453.2,352,453.7,352.4,453.7,353z"/>
			</g>
		</g>
		<path class="st13" d="M450.6,356.5l3.6,53.3c0,0.6-0.4,1-0.9,1.1l-40.8,2.7c-0.6,0-1-0.4-1.1-0.9l-3.6-53.3c0-0.6,0.4-1,0.9-1.1
			l40.8-2.7C450.1,355.5,450.6,356,450.6,356.5z"/>
		<path class="st13" d="M451.3,407.9c-1.7,1.2-14.6,2.3-16.7,1.2c-0.1-0.1-1.2-6.1-1-9.4c0-0.6,0.5-1.4,1.5-1.8
			c3.2-1.4,10.8-1.4,14.5-0.6c1.3,0.3,1.3,1.6,1.4,2.1C451.6,401.9,451.8,407.5,451.3,407.9z"/>
		<path class="st13" d="M431,409.4c-3.6,1.6-15.9,2-16.6,1.4c-0.3-0.3-1.4-6.1-1-8.9c0.1-0.4,0.2-0.8,0.4-1c1.5-1.2,15.8-3,16-2.8
			c0.2,0.1,0.2,1.3,0.5,1.9C431.1,401.4,431.5,409.1,431,409.4z"/>
		<g>
			<path class="st13" d="M412.2,391c0,0,16.9-2.7,19-2.9c2.2-0.2,19.2,0.3,19.2,0.3c1.6-0.1,2.7-2.9,2.9-1.3l0.6,9
				c0.1,1.6-1.1,3-2.7,3.1c0,0-16.5,0.3-19,0.4s-19.2,2.1-19.2,2.1c-1.6,0.1-3-1.1-3.1-2.7l-0.6-9
				C409.1,388.5,410.6,391.1,412.2,391z"/>
			<path class="st14" d="M447.6,397.1c2-0.4,6-3.4,6.1-4.2"/>
			<path class="st14" d="M426.8,397.6c0.3-0.2,9-5,7.8-7c-0.5-0.8-1.8-0.2-2.4,0.3"/>
			<path class="st14" d="M412.5,400.4c1.2-1.3,6.2-5.1,13.2-8.3"/>
		</g>
		<g>
			<g>
				<g class="st10">
					<path class="st6" d="M408.3,420.4l-8.4,0.6c-0.6,0-1-0.4-1.1-0.9l-0.5-7.4c0-0.6,0.4-1,0.9-1.1l8.4-0.6c0.6,0,1,0.4,1.1,0.9
						l0.5,7.4C409.3,419.9,408.8,420.3,408.3,420.4z"/>
					<path class="st11" d="M408.3,420.4l-8.4,0.6c-0.6,0-1-0.4-1.1-0.9l-0.5-7.4c0-0.6,0.4-1,0.9-1.1l8.4-0.6c0.6,0,1,0.4,1.1,0.9
						l0.5,7.4C409.3,419.9,408.8,420.3,408.3,420.4z"/>
				</g>
				<g>
					<path class="st7" d="M405.3,417.4l-8.4,0.6c-0.6,0-1-0.4-1.1-0.9l-0.5-7.4c0-0.6,0.4-1,0.9-1.1l8.4-0.6c0.6,0,1,0.4,1.1,0.9
						l0.5,7.4C406.3,416.9,405.8,417.3,405.3,417.4z"/>
					<path class="st12" d="M405.3,417.4l-8.4,0.6c-0.6,0-1-0.4-1.1-0.9l-0.5-7.4c0-0.6,0.4-1,0.9-1.1l8.4-0.6c0.6,0,1,0.4,1.1,0.9
						l0.5,7.4C406.3,416.9,405.8,417.3,405.3,417.4z"/>
				</g>
			</g>
			<path class="st13" d="M399.7,410.8l3.4,1.1c0.5,0.2,0.8,0.7,0.7,1.3l-0.4,1.3c-0.2,0.5-0.7,0.8-1.3,0.7l-3.4-1.1
				c-0.5-0.2-0.8-0.7-0.7-1.3l0.4-1.3C398.6,410.9,399.1,410.6,399.7,410.8z"/>
			<circle class="st13" cx="400.9" cy="412.9" r="0.5"/>
		</g>
		<g>
			<g>
				<g class="st10">
					<path class="st6" d="M463.3,407.3l8.4-0.6c0.6,0,1,0.4,1.1,0.9l0.5,7.4c0,0.6-0.4,1-0.9,1.1l-8.4,0.6c-0.6,0-1-0.4-1.1-0.9
						l-0.5-7.4C462.4,407.8,462.8,407.3,463.3,407.3z"/>
					<path class="st11" d="M463.3,407.3l8.4-0.6c0.6,0,1,0.4,1.1,0.9l0.5,7.4c0,0.6-0.4,1-0.9,1.1l-8.4,0.6c-0.6,0-1-0.4-1.1-0.9
						l-0.5-7.4C462.4,407.8,462.8,407.3,463.3,407.3z"/>
				</g>
				<g>
					<path class="st7" d="M460.3,404.3l8.4-0.6c0.6,0,1,0.4,1.1,0.9l0.5,7.4c0,0.6-0.4,1-0.9,1.1l-8.4,0.6c-0.6,0-1-0.4-1.1-0.9
						l-0.5-7.4C459.4,404.8,459.8,404.3,460.3,404.3z"/>
					<path class="st12" d="M460.3,404.3l8.4-0.6c0.6,0,1,0.4,1.1,0.9l0.5,7.4c0,0.6-0.4,1-0.9,1.1l-8.4,0.6c-0.6,0-1-0.4-1.1-0.9
						l-0.5-7.4C459.4,404.8,459.8,404.3,460.3,404.3z"/>
				</g>
			</g>
			<path class="st13" d="M467.1,407.9l0.4,0c0.1,0,0.2,0.1,0.2,0.2l0.3,5.1l-0.8,0.1l-0.3-5.1C466.8,408.1,466.9,408,467.1,407.9z"
				/>
			<path class="st13" d="M465.5,408.8l0.4,0c0.1,0,0.2,0.1,0.2,0.2l0.3,4.3l-0.8,0.1l-0.3-4.3C465.2,409,465.3,408.9,465.5,408.8z"
				/>
			<path class="st13" d="M466.2,407.5l0.4,0c0.1,0,0.2,0.1,0.2,0.2l0.4,5.6l-0.8,0.1l-0.4-5.6C466,407.6,466.1,407.5,466.2,407.5z"
				/>
		</g>
	</g>
	<g>
		<polygon class="st1" points="263.9,271.2 263.9,172.8 223.5,172.8 223.5,154 282.6,154 282.6,271.2 		"/>
		<path class="st15" d="M282.5,154.2v13v5.8v98.1H264V173v-0.3h-0.3h-40.1v-18.5H282.5 M282.8,153.9h-59.4V173h40.4v98.4h19V173
			v-5.8V153.9L282.8,153.9z"/>
	</g>
	<g>
		<g>
			<g>
				<path class="st13" d="M224.3,219.9h-1.6v14h1.6c0.6,0,1.1-0.5,1.1-1.1V221C225.5,220.4,225,219.9,224.3,219.9z"/>
				<rect x="218.4" y="219.9" class="st13" width="4.4" height="14"/>
				<line class="st13" x1="222.8" y1="221.8" x2="218.4" y2="221.8"/>
				<line class="st13" x1="218.4" y1="232" x2="222.8" y2="232"/>
			</g>
			<g>
				<path class="st13" d="M224.3,236.5h-1.6v14h1.6c0.6,0,1.1-0.5,1.1-1.1v-11.7C225.5,237,225,236.5,224.3,236.5z"/>
				<rect x="218.4" y="236.5" class="st13" width="4.4" height="14"/>
				<line class="st13" x1="222.8" y1="238.4" x2="218.4" y2="238.4"/>
				<line class="st13" x1="218.4" y1="248.5" x2="222.8" y2="248.5"/>
			</g>
			<g>
				<path class="st13" d="M224.3,253h-1.6v14h1.6c0.6,0,1.1-0.5,1.1-1.1v-11.7C225.5,253.5,225,253,224.3,253z"/>
				<rect x="218.4" y="253" class="st13" width="4.4" height="14"/>
				<line class="st13" x1="222.8" y1="254.9" x2="218.4" y2="254.9"/>
				<line class="st13" x1="218.4" y1="265.1" x2="222.8" y2="265.1"/>
			</g>
		</g>
		<g>
			<path class="st13" d="M185,267h1.6v-14H185c-0.6,0-1.1,0.5-1.1,1.1v11.7C183.8,266.5,184.4,267,185,267z"/>
			<rect x="186.6" y="253" class="st13" width="4.4" height="14"/>
			<line class="st13" x1="186.6" y1="265.1" x2="191" y2="265.1"/>
			<line class="st13" x1="191" y1="254.9" x2="186.6" y2="254.9"/>
		</g>
		<g>
			<path class="st13" d="M185,250.5h1.6v-14H185c-0.6,0-1.1,0.5-1.1,1.1v11.7C183.8,249.9,184.4,250.5,185,250.5z"/>
			<rect x="186.6" y="236.5" class="st13" width="4.4" height="14"/>
			<line class="st13" x1="186.6" y1="248.5" x2="191" y2="248.5"/>
			<line class="st13" x1="191" y1="238.4" x2="186.6" y2="238.4"/>
		</g>
		<g>
			<path class="st13" d="M181,229.7l1.5,0.6l5.4-12.9l-1.5-0.6c-0.6-0.2-1.2,0-1.5,0.6l-4.5,10.8C180.1,228.8,180.4,229.5,181,229.7
				z"/>
			
				<rect x="184.7" y="219.3" transform="matrix(0.922 0.3873 -0.3873 0.922 102.5192 -56.2472)" class="st13" width="12.3" height="14"/>
			<line class="st13" x1="183.2" y1="228.6" x2="194.5" y2="233.3"/>
			<line class="st13" x1="198.5" y1="224" x2="187.1" y2="219.2"/>
		</g>
		<g>
			<g class="st10">
				<path class="st6" d="M220.2,275.5h-25.1c-0.6,0-1.1-0.5-1.1-1.1v-55.8c0-0.6,0.5-1.1,1.1-1.1h25.1c0.6,0,1.1,0.5,1.1,1.1v55.8
					C221.4,275,220.9,275.5,220.2,275.5z"/>
				<path class="st11" d="M220.2,275.5h-25.1c-0.6,0-1.1-0.5-1.1-1.1v-55.8c0-0.6,0.5-1.1,1.1-1.1h25.1c0.6,0,1.1,0.5,1.1,1.1v55.8
					C221.4,275,220.9,275.5,220.2,275.5z"/>
			</g>
			<g>
				<path class="st7" d="M217.2,272.5h-25.1c-0.6,0-1.1-0.5-1.1-1.1v-55.8c0-0.6,0.5-1.1,1.1-1.1h25.1c0.6,0,1.1,0.5,1.1,1.1v55.8
					C218.4,272,217.9,272.5,217.2,272.5z"/>
				<path class="st12" d="M217.2,272.5h-25.1c-0.6,0-1.1-0.5-1.1-1.1v-55.8c0-0.6,0.5-1.1,1.1-1.1h25.1c0.6,0,1.1,0.5,1.1,1.1v55.8
					C218.4,272,217.9,272.5,217.2,272.5z"/>
			</g>
		</g>
		<path class="st13" d="M206.1,264.1l-2.4-1.8c-0.4-0.3-0.5-1-0.2-1.4l3.2-4.4c0.3-0.4,1-0.5,1.4-0.2l2.4,1.8c0.4,0.3,0.5,1,0.2,1.4
			l-3.2,4.4C207.1,264.4,206.5,264.5,206.1,264.1z"/>
	</g>
	<g>
		<g>
			<g>
				<g class="st10">
					<path class="st6" d="M173.7,391.9c-1.2-6.6-1.2-16.3,0-23c0.1-0.7,0.8-1.2,1.5-1.2H196c0.7,0,1.3,0.5,1.5,1.2
						c1.2,6.6,1.2,16.3,0,23c-0.1,0.7-0.8,1.2-1.5,1.2h-20.8C174.5,393.1,173.8,392.6,173.7,391.9z"/>
					<path class="st11" d="M173.7,391.9c-1.2-6.6-1.2-16.3,0-23c0.1-0.7,0.8-1.2,1.5-1.2H196c0.7,0,1.3,0.5,1.5,1.2
						c1.2,6.6,1.2,16.3,0,23c-0.1,0.7-0.8,1.2-1.5,1.2h-20.8C174.5,393.1,173.8,392.6,173.7,391.9z"/>
				</g>
				<g>
					<path class="st7" d="M170.7,388.9c-1.2-6.6-1.2-16.3,0-23c0.1-0.7,0.8-1.2,1.5-1.2H193c0.7,0,1.3,0.5,1.5,1.2
						c1.2,6.6,1.2,16.3,0,23c-0.1,0.7-0.8,1.2-1.5,1.2h-20.8C171.5,390.1,170.8,389.6,170.7,388.9z"/>
					<path class="st12" d="M170.7,388.9c-1.2-6.6-1.2-16.3,0-23c0.1-0.7,0.8-1.2,1.5-1.2H193c0.7,0,1.3,0.5,1.5,1.2
						c1.2,6.6,1.2,16.3,0,23c-0.1,0.7-0.8,1.2-1.5,1.2h-20.8C171.5,390.1,170.8,389.6,170.7,388.9z"/>
				</g>
			</g>
		</g>
		<g>
			<g>
				<path class="st16" d="M183.4,377.6c0,0,4.1-1.8,6.6-0.2C190,377.3,188.4,379.3,183.4,377.6z"/>
				<path class="st16" d="M183.4,377.6c0,0,4.3,0.1,6.1,2.6C189.5,380.1,187.2,381.3,183.4,377.6z"/>
				<path class="st16" d="M188.7,373.1c0,0-4.3,0-5.3,4.4C183.4,377.6,188.5,376.3,188.7,373.1z"/>
				<path class="st16" d="M176.7,372.6c0,0,5.3,1,6.7,4.9C183.4,377.6,179.1,378.1,176.7,372.6z"/>
				<path class="st16" d="M184.5,370.3c0,0,0.9,2.9-1.1,7.2C183.4,377.6,181.9,373.6,184.5,370.3z"/>
				<path class="st16" d="M175.1,377.3c0,0,5.4-2.2,8.4,0.1C183.5,377.4,183,379.1,175.1,377.3z"/>
				<path class="st16" d="M187.9,383c0,0-1.8-4.6-4.5-5.5C183.4,377.6,184.6,380.6,187.9,383z"/>
				<path class="st16" d="M176.4,381.7c0,0,2.7-3.8,7-4.1C183.4,377.6,181.2,381.1,176.4,381.7z"/>
				<path class="st16" d="M184.9,384.8c0,0,0.7-4.6-1.4-7.4C183.5,377.4,181.9,380.4,184.9,384.8z"/>
				<path class="st16" d="M180.7,370.3c0,0,3,2.1,2.8,7.1C183.5,377.4,180.2,374.5,180.7,370.3z"/>
				<path class="st16" d="M178.6,383.8c0,0,1.7-5.5,5-6.5C183.6,377.3,183.2,381.4,178.6,383.8z"/>
				<path class="st16" d="M181.5,385.1c0,0-0.7-4.7,2-7.6C183.5,377.4,184.9,380.7,181.5,385.1z"/>
				<path class="st16" d="M183.6,377.1c0,0-0.2-2.7,3-5.9C186.6,371.2,186.4,374.1,183.6,377.1z"/>
				<path class="st16" d="M179,371.4c0,0,3.5,2.5,4.4,5.8C183.4,377.2,180.4,376.8,179,371.4z"/>
			</g>
			<g>
				<path class="st16" d="M183,377.6c0,0,2.5,0.1,3.6,1.5C186.6,379.1,185.3,379.9,183,377.6z"/>
				<path class="st16" d="M186.2,375c0,0-2.6,0-3.1,2.6C183,377.6,186.1,376.9,186.2,375z"/>
				<path class="st16" d="M179.1,374.7c0,0,3.2,0.6,4,2.9C183,377.6,180.5,377.9,179.1,374.7z"/>
				<path class="st16" d="M183.7,373.3c0,0,0.5,1.7-0.6,4.3C183,377.6,182.1,375.2,183.7,373.3z"/>
				<path class="st16" d="M178.9,380.1c0,0,1.6-2.2,4.1-2.5C183,377.6,181.8,379.7,178.9,380.1z"/>
				<path class="st16" d="M184,381.9c0,0,0.4-2.7-0.8-4.4C183.1,377.5,182.2,379.3,184,381.9z"/>
				<path class="st16" d="M181.4,373.3c0,0,1.8,1.3,1.7,4.2C183.1,377.5,181.1,375.8,181.4,373.3z"/>
				<path class="st16" d="M181.9,382.1c0,0-0.4-2.8,1.2-4.5C183.1,377.5,184,379.5,181.9,382.1z"/>
			</g>
		</g>
	</g>
	<g>
		<g>
			<g class="st10">
				<path class="st6" d="M126.9,347.2v54.6c0,2.8,2.3,5.1,5.1,5.1h20.5c0.6,0,1.1-0.5,1.1-1.1v-0.2c0-0.6-0.5-1.1-1.1-1.1h-0.7
					c0.7,0,1.3-0.6,1.3-1.3v-17.3c0-0.7-0.6-1.3-1.3-1.3c0.7,0,1.3-0.6,1.3-1.3v-17.3c0-0.7-0.6-1.3-1.3-1.3c0.7,0,1.3-0.6,1.3-1.3
					v-17.3c0-0.7-0.5-1.2-1.2-1.3h0.6c0.6,0,1.1-0.5,1.1-1.1v-0.2c0-0.6-0.5-1.1-1.1-1.1H132C129.2,342.1,126.9,344.4,126.9,347.2z"
					/>
				<path class="st11" d="M126.9,347.2v54.6c0,2.8,2.3,5.1,5.1,5.1h20.5c0.6,0,1.1-0.5,1.1-1.1v-0.2c0-0.6-0.5-1.1-1.1-1.1h-0.7
					c0.7,0,1.3-0.6,1.3-1.3v-17.3c0-0.7-0.6-1.3-1.3-1.3c0.7,0,1.3-0.6,1.3-1.3v-17.3c0-0.7-0.6-1.3-1.3-1.3c0.7,0,1.3-0.6,1.3-1.3
					v-17.3c0-0.7-0.5-1.2-1.2-1.3h0.6c0.6,0,1.1-0.5,1.1-1.1v-0.2c0-0.6-0.5-1.1-1.1-1.1H132C129.2,342.1,126.9,344.4,126.9,347.2z"
					/>
			</g>
			<g>
				<path class="st7" d="M123.9,344.2v54.6c0,2.8,2.3,5.1,5.1,5.1h20.5c0.6,0,1.1-0.5,1.1-1.1v-0.2c0-0.6-0.5-1.1-1.1-1.1h-0.7
					c0.7,0,1.3-0.6,1.3-1.3v-17.3c0-0.7-0.6-1.3-1.3-1.3c0.7,0,1.3-0.6,1.3-1.3v-17.3c0-0.7-0.6-1.3-1.3-1.3c0.7,0,1.3-0.6,1.3-1.3
					v-17.3c0-0.7-0.5-1.2-1.2-1.3h0.6c0.6,0,1.1-0.5,1.1-1.1v-0.2c0-0.6-0.5-1.1-1.1-1.1H129C126.2,339.1,123.9,341.4,123.9,344.2z"
					/>
				<path class="st12" d="M123.9,344.2v54.6c0,2.8,2.3,5.1,5.1,5.1h20.5c0.6,0,1.1-0.5,1.1-1.1v-0.2c0-0.6-0.5-1.1-1.1-1.1h-0.7
					c0.7,0,1.3-0.6,1.3-1.3v-17.3c0-0.7-0.6-1.3-1.3-1.3c0.7,0,1.3-0.6,1.3-1.3v-17.3c0-0.7-0.6-1.3-1.3-1.3c0.7,0,1.3-0.6,1.3-1.3
					v-17.3c0-0.7-0.5-1.2-1.2-1.3h0.6c0.6,0,1.1-0.5,1.1-1.1v-0.2c0-0.6-0.5-1.1-1.1-1.1H129C126.2,339.1,123.9,341.4,123.9,344.2z"
					/>
			</g>
		</g>
		<g>
			<path class="st17" d="M123.9,344.2v54.6c0,2.8,2.3,5.1,5.1,5.1h20.5c0.6,0,1.1-0.5,1.1-1.1v-0.2c0-0.6-0.5-1.1-1.1-1.1h-17.6
				v-59.8h17.6c0.6,0,1.1-0.5,1.1-1.1v-0.2c0-0.6-0.5-1.1-1.1-1.1H129C126.2,339.1,123.9,341.4,123.9,344.2z"/>
			<g>
				<g>
					<path class="st13" d="M134,399.7c-0.5-5.5-0.5-11,0-16.5c0.1-1.2-0.7-2.3-2-2.5c-0.9-0.1-1.8-0.2-2.7-0.3
						c-1.2-0.2-2.4,0.8-2.5,2.1c-0.6,6-0.6,12,0,17.9c0.1,1.3,1.3,2.3,2.5,2.1c0.9-0.1,1.8-0.2,2.7-0.3
						C133.2,402,134.1,400.9,134,399.7z"/>
					<path class="st16" d="M132.1,400.2c-0.6-0.1-0.6-17.3,0-17.5"/>
				</g>
			</g>
			<g>
				<g>
					<path class="st13" d="M134,359.8c-0.5-5.5-0.5-11,0-16.5c0.1-1.2-0.7-2.3-2-2.5c-0.9-0.1-1.8-0.2-2.7-0.3
						c-1.2-0.2-2.4,0.8-2.5,2.1c-0.6,6-0.6,12,0,17.9c0.1,1.3,1.3,2.3,2.5,2.1c0.9-0.1,1.8-0.2,2.7-0.3
						C133.2,362.1,134.1,361,134,359.8z"/>
					<path class="st16" d="M132.1,360.3c-0.6-0.1-0.6-17.3,0-17.5"/>
				</g>
			</g>
			<g>
				<line class="st13" x1="130.9" y1="381.5" x2="148.8" y2="381.5"/>
				<line class="st13" x1="148.8" y1="361.5" x2="130.9" y2="361.5"/>
				<g>
					<path class="st13" d="M134,379.7c-0.5-5.5-0.5-11,0-16.5c0.1-1.2-0.7-2.3-2-2.5c-0.9-0.1-1.8-0.2-2.7-0.3
						c-1.2-0.2-2.4,0.8-2.5,2.1c-0.6,6-0.6,12,0,17.9c0.1,1.3,1.3,2.3,2.5,2.1c0.9-0.1,1.8-0.2,2.7-0.3
						C133.2,382.1,134.1,381,134,379.7z"/>
					<path class="st16" d="M132.1,380.2c-0.6-0.1-0.6-17.3,0-17.5"/>
				</g>
			</g>
			<path class="st13" d="M129.3,400.6c0.5-0.8,3.6-3.7,3.9-3.9c0-1.5,0.8-4.2,1.3-4.6c0.4,0.2,0.3,0.4,0.9,0.7
				c0.8,0.2,4.7,1.2,6.8,2.9c-1,1.1-1.6,6.7-3.3,8.2c-0.4,0.9-0.6,1.6-1.3,2.3c-0.5-0.2-2.3-2.4-2.5-3.2
				C134.1,402.5,130,401.8,129.3,400.6z"/>
			<path class="st13" d="M128.5,345.3c0.6-0.8,7.1-5.5,7.5-5.8c1.5,0.4,3.7,3.4,4.2,4.3c1,0.3,2.2,0.9,2.7,1.5
				c-0.4,0.4-1.3,1.2-1.8,1.5c-0.3,0.5-2.9,3.6-4.9,4.2c-0.5,0.4-1,1-1.3,1c-0.5-0.7-0.9-1.6-0.9-2
				C133.5,349.5,128.6,346.1,128.5,345.3z"/>
		</g>
	</g>
	<g>
		<g>
			<g class="st10">
				<path class="st6" d="M229.6,348.9c0,0.7,0.5,1.2,1.2,1.2h0.2c0.7,0,1.2-0.5,1.2-1.2v-21.2c0-2.9-2.4-5.3-5.3-5.3H191
					c-2.9,0-5.3,2.4-5.3,5.3v21.2c0,0.7,0.5,1.2,1.2,1.2h0.2c0.7,0,1.2-0.5,1.2-1.2v-0.8c0,0.7,0.6,1.3,1.3,1.3h18
					c0.7,0,1.3-0.6,1.3-1.3c0,0.7,0.6,1.3,1.3,1.3h18c0.7,0,1.3-0.6,1.3-1.3V348.9z"/>
				<path class="st11" d="M229.6,348.9c0,0.7,0.5,1.2,1.2,1.2h0.2c0.7,0,1.2-0.5,1.2-1.2v-21.2c0-2.9-2.4-5.3-5.3-5.3H191
					c-2.9,0-5.3,2.4-5.3,5.3v21.2c0,0.7,0.5,1.2,1.2,1.2h0.2c0.7,0,1.2-0.5,1.2-1.2v-0.8c0,0.7,0.6,1.3,1.3,1.3h18
					c0.7,0,1.3-0.6,1.3-1.3c0,0.7,0.6,1.3,1.3,1.3h18c0.7,0,1.3-0.6,1.3-1.3V348.9z"/>
			</g>
			<g>
				<path class="st7" d="M226.6,345.9c0,0.7,0.5,1.2,1.2,1.2h0.2c0.7,0,1.2-0.5,1.2-1.2v-21.2c0-2.9-2.4-5.3-5.3-5.3H188
					c-2.9,0-5.3,2.4-5.3,5.3v21.2c0,0.7,0.5,1.2,1.2,1.2h0.2c0.7,0,1.2-0.5,1.2-1.2v-0.8c0,0.7,0.6,1.3,1.3,1.3h18
					c0.7,0,1.3-0.6,1.3-1.3c0,0.7,0.6,1.3,1.3,1.3h18c0.7,0,1.3-0.6,1.3-1.3V345.9z"/>
				<path class="st12" d="M226.6,345.9c0,0.7,0.5,1.2,1.2,1.2h0.2c0.7,0,1.2-0.5,1.2-1.2v-21.2c0-2.9-2.4-5.3-5.3-5.3H188
					c-2.9,0-5.3,2.4-5.3,5.3v21.2c0,0.7,0.5,1.2,1.2,1.2h0.2c0.7,0,1.2-0.5,1.2-1.2v-0.8c0,0.7,0.6,1.3,1.3,1.3h18
					c0.7,0,1.3-0.6,1.3-1.3c0,0.7,0.6,1.3,1.3,1.3h18c0.7,0,1.3-0.6,1.3-1.3V345.9z"/>
			</g>
		</g>
		<g>
			<path class="st17" d="M223.8,319.4H188c-2.9,0-5.3,2.4-5.3,5.3v21.2c0,0.7,0.5,1.2,1.2,1.2h0.2c0.7,0,1.2-0.5,1.2-1.2v-18.2h41.3
				v18.2c0,0.7,0.5,1.2,1.2,1.2h0.2c0.7,0,1.2-0.5,1.2-1.2v-21.2C229.1,321.8,226.8,319.4,223.8,319.4z"/>
			<g>
				<g>
					<path class="st13" d="M187,329.8c5.7-0.6,11.4-0.6,17.1,0c1.3,0.1,2.4-0.8,2.6-2c0.1-0.9,0.2-1.9,0.3-2.8
						c0.2-1.3-0.8-2.4-2.2-2.6c-6.2-0.6-12.4-0.6-18.6,0c-1.4,0.1-2.4,1.3-2.2,2.6c0.1,0.9,0.2,1.9,0.3,2.8
						C184.6,329.1,185.8,330,187,329.8z"/>
					<path class="st16" d="M186.5,327.9c0.1-0.6,17.9-0.6,18.1,0"/>
				</g>
			</g>
			<g>
				<line class="st13" x1="205.9" y1="326.7" x2="205.9" y2="345.2"/>
				<g>
					<path class="st13" d="M207.7,329.8c5.7-0.6,11.4-0.6,17.1,0c1.3,0.1,2.4-0.8,2.6-2c0.1-0.9,0.2-1.9,0.3-2.8
						c0.2-1.3-0.8-2.4-2.2-2.6c-6.2-0.6-12.4-0.6-18.6,0c-1.4,0.1-2.4,1.3-2.2,2.6c0.1,0.9,0.2,1.9,0.3,2.8
						C205.2,329.1,206.4,330,207.7,329.8z"/>
					<path class="st16" d="M207.2,327.9c0.1-0.6,17.9-0.6,18.1,0"/>
				</g>
			</g>
			<g>
				<g>
					<path class="st13" d="M207.7,329.8c5.7-0.6,11.4-0.6,17.1,0c1.3,0.1,2.4-0.8,2.6-2c0.1-0.9,0.2-1.9,0.3-2.8
						c0.2-1.3-0.8-2.4-2.2-2.6c-6.2-0.6-12.4-0.6-18.6,0c-1.4,0.1-2.4,1.3-2.2,2.6c0.1,0.9,0.2,1.9,0.3,2.8
						C205.2,329.1,206.4,330,207.7,329.8z"/>
					<path class="st16" d="M207.2,327.9c0.1-0.6,17.9-0.6,18.1,0"/>
				</g>
			</g>
			<path class="st13" d="M186.1,325c0.8,0.5,3.8,3.8,4,4c1.6,0,4.3,0.8,4.8,1.4c-0.2,0.4-0.4,0.3-0.8,0.9c-0.2,0.8-1.2,4.9-3,7
				c-1.1-1-6.9-1.6-8.5-3.4c-0.9-0.4-1.7-0.6-2.4-1.3c0.2-0.5,2.4-2.4,3.3-2.6C184.1,329.9,184.9,325.7,186.1,325z"/>
			<path class="st13" d="M222.7,324.2c0.8,0.6,5.7,7.3,6,7.8c-0.4,1.6-3.5,3.8-4.4,4.3c-0.3,1.1-1,2.2-1.6,2.7
				c-0.4-0.4-1.2-1.3-1.6-1.9c-0.5-0.3-3.7-3-4.4-5.1c-0.5-0.5-1.1-1-1-1.3c0.7-0.6,1.6-0.9,2.1-1
				C218.3,329.3,221.8,324.3,222.7,324.2z"/>
		</g>
	</g>
	<g>
		<g>
			<g class="st10">
				<path class="st6" d="M174.8,420.6l54.2-3.1c0.6,0,1.1,0.4,1.2,0.9l0.9,11.5c0,0.5-0.4,1-1,1l-54.2,3.1c-0.6,0-1.1-0.4-1.2-0.9
					l-0.9-11.5C173.7,421.1,174.2,420.7,174.8,420.6z"/>
				<path class="st11" d="M174.8,420.6l54.2-3.1c0.6,0,1.1,0.4,1.2,0.9l0.9,11.5c0,0.5-0.4,1-1,1l-54.2,3.1c-0.6,0-1.1-0.4-1.2-0.9
					l-0.9-11.5C173.7,421.1,174.2,420.7,174.8,420.6z"/>
			</g>
			<g>
				<path class="st7" d="M171.8,417.6l54.2-3.1c0.6,0,1.1,0.4,1.2,0.9l0.9,11.5c0,0.5-0.4,1-1,1l-54.2,3.1c-0.6,0-1.1-0.4-1.2-0.9
					l-0.9-11.5C170.7,418.1,171.2,417.7,171.8,417.6z"/>
				<path class="st12" d="M171.8,417.6l54.2-3.1c0.6,0,1.1,0.4,1.2,0.9l0.9,11.5c0,0.5-0.4,1-1,1l-54.2,3.1c-0.6,0-1.1-0.4-1.2-0.9
					l-0.9-11.5C170.7,418.1,171.2,417.7,171.8,417.6z"/>
			</g>
		</g>
		<path class="st13" d="M206.8,422.2l0.4,4.4c0,0.5-0.4,1-0.9,1l-12.9,0.7c-0.5,0-0.9-0.3-1-0.9l-0.4-4.4c0-0.5,0.4-1,0.9-1
			l12.9-0.7C206.3,421.3,206.7,421.7,206.8,422.2z"/>
		<path class="st18" d="M205.9,427.1l-12.3,0.7c-0.3,0-0.6-0.2-0.6-0.5l-0.3-4.2c0-0.3,0.2-0.6,0.5-0.6l12.3-0.7
			c0.3,0,0.6,0.2,0.6,0.5l0.3,4.2C206.5,426.8,206.2,427.1,205.9,427.1z"/>
		<polygon class="st13" points="222.1,422.2 222.2,423.5 176.9,426.1 176.8,424.8 		"/>
	</g>
	<g>
		<g>
			<rect x="286.6" y="253.6" class="st1" width="55.2" height="19.4"/>
			<path class="st6" d="M341.6,253.7v19.1h-54.9v-19.1H341.6 M341.9,253.4h-55.5v19.7h55.5V253.4L341.9,253.4z"/>
		</g>
		<line class="st19" x1="334.4" y1="256.9" x2="333.3" y2="269.7"/>
		<line class="st19" x1="330.3" y1="256.9" x2="331.6" y2="269.7"/>
		<line class="st19" x1="328.8" y1="256.9" x2="327.7" y2="269.7"/>
		<line class="st19" x1="324.8" y1="256.9" x2="326.1" y2="269.7"/>
		<line class="st19" x1="303.6" y1="256.9" x2="302.5" y2="269.7"/>
		<line class="st19" x1="299.5" y1="256.9" x2="300.8" y2="269.7"/>
		<line class="st19" x1="298" y1="256.9" x2="296.9" y2="269.7"/>
		<line class="st19" x1="294" y1="256.9" x2="295.3" y2="269.7"/>
		<line class="st20" x1="341.9" y1="271.7" x2="286.7" y2="271.7"/>
		<line class="st20" x1="314.3" y1="271.7" x2="314.3" y2="273"/>
		<polyline class="st11" points="320.3,273 320.3,273.8 318.2,273.8 318.2,273 		"/>
		<polyline class="st11" points="310.3,273 310.3,273.8 308.3,273.8 308.3,273 		"/>
		<line class="st11" x1="341.9" y1="263.3" x2="286.7" y2="263.3"/>
	</g>
	<g>
		<g>
			<g class="st21">
				<path class="st22" d="M308.3,357.6c-1,0-6.7,0.1-7.6,0.2c-0.8,0.1-1.6,0.2-2.3,0.3V369c0.6,0.1,1.3,0.2,2,0.3
					c1.1,0.1,7.6,0.1,8.8,0.1c2.5,0,7.7-2,7.7-5.9C316.8,359.6,311.2,357.6,308.3,357.6z"/>
				<path class="st23" d="M308.3,357.6c-1,0-6.7,0.1-7.6,0.2c-0.8,0.1-1.6,0.2-2.3,0.3V369c0.6,0.1,1.3,0.2,2,0.3
					c1.1,0.1,7.6,0.1,8.8,0.1c2.5,0,7.7-2,7.7-5.9C316.8,359.6,311.2,357.6,308.3,357.6z"/>
			</g>
			<g>
				<path class="st1" d="M305.3,354.6c-1,0-6.7,0.1-7.6,0.2c-0.8,0.1-1.6,0.2-2.3,0.3V366c0.6,0.1,1.3,0.2,2,0.3
					c1.1,0.1,7.6,0.1,8.8,0.1c2.5,0,7.7-2,7.7-5.9C313.8,356.6,308.2,354.6,305.3,354.6z"/>
				<path class="st11" d="M305.3,354.6c-1,0-6.7,0.1-7.6,0.2c-0.8,0.1-1.6,0.2-2.3,0.3V366c0.6,0.1,1.3,0.2,2,0.3
					c1.1,0.1,7.6,0.1,8.8,0.1c2.5,0,7.7-2,7.7-5.9C313.8,356.6,308.2,354.6,305.3,354.6z"/>
			</g>
		</g>
		<g>
			<circle class="st24" cx="298" cy="357.9" r="0.4"/>
			<circle class="st24" cx="298" cy="363.1" r="0.4"/>
		</g>
		<path class="st24" d="M312.3,360.5c0,2.5-3.8,4.5-6.3,4.5c-2.5,0-4.5-2-4.5-4.5c0-2.5,2-4.5,4.5-4.5
			C308.5,356,312.3,358,312.3,360.5z"/>
		<path class="st24" d="M304.9,359h-1.7c-0.5,0-0.5,0.7-0.5,1.5s0.1,1.5,0.5,1.5h1.7c0.9,0,1.5-0.7,1.5-1.5S305.8,359,304.9,359z"/>
		<path class="st11" d="M297.9,354.8c-0.9,1.4-1.4,3.6-1.4,6.1c0,2.1,0.4,4,1.1,5.4"/>
	</g>
	<g>
		<g>
			<g class="st21">
				<path class="st22" d="M310.3,392.4h-11.8v-19.2h11.8c2.2,0,4,1.8,4,4v11.2C314.3,390.6,312.5,392.4,310.3,392.4z"/>
				<path class="st23" d="M310.3,392.4h-11.8v-19.2h11.8c2.2,0,4,1.8,4,4v11.2C314.3,390.6,312.5,392.4,310.3,392.4z"/>
			</g>
			<g>
				<path class="st1" d="M307.3,389.4h-11.8v-19.2h11.8c2.2,0,4,1.8,4,4v11.2C311.3,387.6,309.5,389.4,307.3,389.4z"/>
				<path class="st11" d="M307.3,389.4h-11.8v-19.2h11.8c2.2,0,4,1.8,4,4v11.2C311.3,387.6,309.5,389.4,307.3,389.4z"/>
			</g>
		</g>
		<path class="st24" d="M307.1,387.6h-5.2c-1.4,0-2.6-1.1-2.6-2.6v-10.6c0-1.4,1.1-2.6,2.6-2.6h5.2c1.4,0,2.6,1.1,2.6,2.6V385
			C309.7,386.5,308.5,387.6,307.1,387.6z"/>
		<circle class="st24" cx="301.4" cy="379.7" r="0.9"/>
	</g>
	<g>
		<g>
			<rect x="289.3" y="318.2" class="st24" width="19.6" height="19.6"/>
		</g>
		<g>
			<circle class="st25" cx="299" cy="328" r="4.6"/>
			<path class="st25" d="M302,328.4c0-1.8-1.4-3.2-3.2-3.2"/>
		</g>
	</g>
	<g>
		<path class="st24" d="M295,419.2v-23.5c0-0.5,0.4-0.9,0.9-0.9h56.2c0.5,0,0.9,0.4,0.9,0.9v23.5c0,0.5-0.4,0.9-0.9,0.9H296
			C295.5,420.1,295,419.7,295,419.2z"/>
		<path class="st24" d="M350.9,407.4c0-7.6-4.5-10.2-6.7-10.2h-43.4c-2.2,0-3.9,1.9-3.9,4.1v12.3c0,2.3,1.8,4.1,3.9,4.1h43.4
			C346.4,417.7,350.9,415,350.9,407.4z"/>
		<path class="st24" d="M341.9,407.4c0-6.4-3.6-8.7-5.4-8.7h-35.1c-1.8,0-3.2,1.6-3.2,3.5v10.4c0,1.9,1.4,3.5,3.2,3.5h35.1
			C338.3,416.2,341.9,413.8,341.9,407.4z"/>
		<ellipse class="st24" cx="304.7" cy="407.4" rx="1" ry="1.1"/>
	</g>
	<g>
		<g>
			<g class="st21">
				<path class="st22" d="M297.8,243.8h-8.2v-14.5h8.2c1.5,0,2.8,1.4,2.8,3v8.5C300.6,242.5,299.3,243.8,297.8,243.8z"/>
				<path class="st23" d="M297.8,243.8h-8.2v-14.5h8.2c1.5,0,2.8,1.4,2.8,3v8.5C300.6,242.5,299.3,243.8,297.8,243.8z"/>
			</g>
			<g>
				<path class="st1" d="M294.8,240.8h-8.2v-14.5h8.2c1.5,0,2.8,1.4,2.8,3v8.5C297.6,239.5,296.3,240.8,294.8,240.8z"/>
				<path class="st11" d="M294.8,240.8h-8.2v-14.5h8.2c1.5,0,2.8,1.4,2.8,3v8.5C297.6,239.5,296.3,240.8,294.8,240.8z"/>
			</g>
		</g>
		<path class="st24" d="M293.9,239.5h-2.1c-1.4,0-2.6-1.1-2.6-2.6v-6.8c0-1.4,1.1-2.6,2.6-2.6h2.1c1.4,0,2.6,1.1,2.6,2.6v6.8
			C296.5,238.3,295.3,239.5,293.9,239.5z"/>
		<ellipse class="st24" cx="290.7" cy="233.5" rx="0.6" ry="0.7"/>
	</g>
	<g>
		<g>
			<g class="st21">
				<path class="st22" d="M309.6,207.5c0-1-0.1-6.4-0.2-7.3c-0.1-0.8-0.2-1.5-0.3-2.2h-10.5c-0.1,0.6-0.2,1.2-0.3,1.9
					c-0.1,1-0.1,7.3-0.1,8.4c0,2.4,1.9,7.4,5.6,7.4C307.8,215.6,309.6,210.3,309.6,207.5z"/>
				<path class="st23" d="M309.6,207.5c0-1-0.1-6.4-0.2-7.3c-0.1-0.8-0.2-1.5-0.3-2.2h-10.5c-0.1,0.6-0.2,1.2-0.3,1.9
					c-0.1,1-0.1,7.3-0.1,8.4c0,2.4,1.9,7.4,5.6,7.4C307.8,215.6,309.6,210.3,309.6,207.5z"/>
			</g>
			<g>
				<path class="st1" d="M306.6,204.5c0-1-0.1-6.4-0.2-7.3c-0.1-0.8-0.2-1.5-0.3-2.2h-10.5c-0.1,0.6-0.2,1.2-0.3,1.9
					c-0.1,1-0.1,7.3-0.1,8.4c0,2.4,1.9,7.4,5.6,7.4C304.8,212.6,306.6,207.3,306.6,204.5z"/>
				<path class="st11" d="M306.6,204.5c0-1-0.1-6.4-0.2-7.3c-0.1-0.8-0.2-1.5-0.3-2.2h-10.5c-0.1,0.6-0.2,1.2-0.3,1.9
					c-0.1,1-0.1,7.3-0.1,8.4c0,2.4,1.9,7.4,5.6,7.4C304.8,212.6,306.6,207.3,306.6,204.5z"/>
			</g>
		</g>
		<g>
			<circle class="st24" cx="303.5" cy="197.4" r="0.4"/>
			<circle class="st24" cx="298.4" cy="197.4" r="0.4"/>
		</g>
		<path class="st24" d="M301,211.2c-2.4,0-4.4-3.7-4.4-6.1c0-2.4,2-4.4,4.4-4.4c2.4,0,4.4,2,4.4,4.4
			C305.3,207.5,303.4,211.2,301,211.2z"/>
		<path class="st24" d="M302.4,204.1v-1.6c0-0.5-0.7-0.5-1.5-0.5c-0.8,0-1.5,0.1-1.5,0.5v1.6c0,0.8,0.7,1.5,1.5,1.5
			C301.8,205.6,302.4,204.9,302.4,204.1z"/>
		<path class="st11" d="M306.5,197.4c-1.4-0.8-3.5-1.4-5.8-1.4c-2,0-3.9,0.4-5.2,1.1"/>
	</g>
	<line class="st11" x1="263.7" y1="252.8" x2="282.9" y2="252.8"/>
	<line class="st11" x1="263.8" y1="233.5" x2="283.4" y2="233.5"/>
	<g>
		<polyline class="st26" points="275.3,265.1 275.3,264.2 276.1,264.2 		"/>
		<polyline class="st26" points="270.8,260.6 271.5,260.6 271.5,259.8 		"/>
		<line class="st26" x1="271" y1="260" x2="275.9" y2="264.8"/>
		<polyline class="st26" points="276.1,260.6 275.3,260.6 275.3,259.8 		"/>
		<polyline class="st26" points="271.5,265.1 271.5,264.2 270.8,264.2 		"/>
		<line class="st26" x1="271" y1="264.8" x2="275.9" y2="260"/>
		<polyline class="st26" points="276.7,263 276.1,262.5 276.7,261.9 		"/>
		<polyline class="st26" points="270.2,263 270.8,262.5 270.2,261.9 		"/>
		<polyline class="st26" points="274,259.2 273.4,259.8 272.9,259.2 		"/>
		<polyline class="st26" points="274,265.6 273.4,265 272.9,265.6 		"/>
		<line class="st26" x1="270" y1="262.5" x2="276.9" y2="262.5"/>
		<line class="st26" x1="273.4" y1="265.8" x2="273.4" y2="259"/>
		<polyline class="st11" points="275.3,265.1 275.3,264.2 276.1,264.2 		"/>
		<polyline class="st11" points="270.8,260.6 271.5,260.6 271.5,259.8 		"/>
		<line class="st11" x1="271" y1="260" x2="275.9" y2="264.8"/>
		<polyline class="st11" points="276.1,260.6 275.3,260.6 275.3,259.8 		"/>
		<polyline class="st11" points="271.5,265.1 271.5,264.2 270.8,264.2 		"/>
		<line class="st11" x1="271" y1="264.8" x2="275.9" y2="260"/>
		<polyline class="st11" points="276.7,263 276.1,262.5 276.7,261.9 		"/>
		<polyline class="st11" points="270.2,263 270.8,262.5 270.2,261.9 		"/>
		<polyline class="st11" points="274,259.2 273.4,259.8 272.9,259.2 		"/>
		<polyline class="st11" points="274,265.6 273.4,265 272.9,265.6 		"/>
		<line class="st11" x1="270" y1="262.5" x2="276.9" y2="262.5"/>
		<line class="st11" x1="273.4" y1="265.8" x2="273.4" y2="259"/>
	</g>
	<g>
		<rect x="265.4" y="202.6" class="st11" width="16.2" height="16.2"/>
		<path class="st24" d="M270.1,211.1c-1.6,0-2.9,1.3-2.9,2.9c0,1.6,1.3,2.9,2.9,2.9c1.6,0,2.9-1.3,2.9-2.9
			C273,212.4,271.7,211.1,270.1,211.1"/>
		<path class="st24" d="M276.9,204.5c-1.6,0-2.9,1.3-2.9,2.9c0,1.6,1.3,2.9,2.9,2.9c1.6,0,2.9-1.3,2.9-2.9
			C279.9,205.8,278.6,204.5,276.9,204.5"/>
		<path class="st24" d="M277.5,211.9c-1.3,0-2.4,1.1-2.4,2.4c0,1.3,1.1,2.4,2.4,2.4s2.4-1.1,2.4-2.4
			C279.9,213,278.8,211.9,277.5,211.9"/>
		<path class="st24" d="M269.7,204.5c-1.3,0-2.4,1.1-2.4,2.4s1.1,2.4,2.4,2.4c1.3,0,2.4-1.1,2.4-2.4S271,204.5,269.7,204.5"/>
	</g>
	<g>
		<rect x="228.7" y="155.2" class="st11" width="32.7" height="16.2"/>
		<g>
			<path class="st24" d="M244.7,159v8.7c0,1.3,1.1,2.4,2.4,2.4h10.3c1.3,0,2.4-1.1,2.4-2.4V159c0-1.3-1.1-2.4-2.4-2.4h-10.3
				C245.8,156.5,244.7,157.6,244.7,159z"/>
			<circle class="st24" cx="252.5" cy="159.2" r="1.1"/>
		</g>
		<g>
			<rect x="231.4" y="167.6" class="st6" width="10.7" height="0.6"/>
			<rect x="231.4" y="165.3" class="st6" width="10.7" height="0.6"/>
			<rect x="231.4" y="163" class="st6" width="10.7" height="0.6"/>
			<rect x="231.4" y="160.8" class="st6" width="10.7" height="0.6"/>
			<rect x="231.4" y="158.5" class="st6" width="10.7" height="0.6"/>
		</g>
	</g>
</g>
<g id="Ouvertures">
	<g>
		<g>
			<rect x="157.3" y="170.7" class="st1" width="6.8" height="125.6"/>
			<path class="st6" d="M164,170.8v125.3h-6.5V170.8H164 M164.3,170.5h-7.1v125.9h7.1V170.5L164.3,170.5z"/>
		</g>
		<g>
			<rect x="157.3" y="170.7" class="st1" width="3.3" height="62.7"/>
			<path class="st6" d="M160.4,170.8v62.4h-3v-62.4H160.4 M160.7,170.5h-3.6v63h3.6V170.5L160.7,170.5z"/>
		</g>
		<g>
			<rect x="161.2" y="234.2" class="st1" width="3" height="62.1"/>
			<path class="st6" d="M164,234.3v61.8h-2.7v-61.8H164 M164.3,234H161v62.4h3.3V234L164.3,234z"/>
		</g>
		<g>
			<g>
				<line class="st27" x1="167.6" y1="210.8" x2="167.6" y2="195.6"/>
				<g>
					<polygon class="st6" points="168.9,196.6 168.6,196.8 167.6,195.7 166.6,196.8 166.4,196.6 167.6,195.3 					"/>
				</g>
			</g>
		</g>
		<rect x="161" y="232" class="st6" width="3.3" height="4"/>
		<rect x="157.2" y="232" class="st6" width="3.6" height="4"/>
		<rect x="161.1" y="293.5" class="st6" width="3.2" height="2.9"/>
		<rect x="157.2" y="170.5" class="st6" width="3.6" height="3.7"/>
		<line class="st28" x1="159" y1="232.3" x2="159" y2="170.8"/>
		<line class="st28" x1="162.7" y1="294.9" x2="162.7" y2="233.4"/>
	</g>
	<g>
		<rect x="90" y="310.4" class="st6" width="1.9" height="1.4"/>
		<g>
			<rect x="90.2" y="311" class="st1" width="1.6" height="76"/>
			<path class="st6" d="M91.6,311.2v75.7h-1.3v-75.7H91.6 M91.9,310.9H90v76.3h1.9V310.9L91.9,310.9z"/>
		</g>
		<rect x="90" y="336.9" class="st6" width="1.9" height="3.5"/>
		<g>
			<path class="st29" d="M91.9,338.6c16,0,27.5-11.6,27.5-27.5"/>
			<line class="st11" x1="91.9" y1="311.1" x2="119.4" y2="311.1"/>
		</g>
		<rect x="90" y="386.3" class="st6" width="1.9" height="1.2"/>
		<rect x="90" y="311.1" class="st6" width="1.9" height="1.2"/>
	</g>
	<g>
		<rect x="149.9" y="305.2" class="st6" width="1.6" height="1.9"/>
		<g>
			<rect x="97.8" y="305.4" class="st1" width="53" height="1.6"/>
			<path class="st6" d="M150.7,305.5v1.3H98v-1.3H150.7 M151,305.2H97.7v1.9H151V305.2L151,305.2z"/>
		</g>
		<rect x="95.2" y="305.2" class="st6" width="5.1" height="1.9"/>
		<rect x="146.9" y="305.2" class="st6" width="5.3" height="1.9"/>
	</g>
	<g>
		<g>
			<rect x="512.5" y="226" class="st1" width="1.5" height="43.1"/>
			<path class="st6" d="M513.8,226.1V269h-1.2v-42.8H513.8 M514.1,225.8h-1.8v43.4h1.8V225.8L514.1,225.8z"/>
		</g>
		<path class="st29" d="M512.3,242.1c0,0-12.6-4.6-12.9-4.8l12.9-12.9"/>
		<rect x="512.3" y="240.9" class="st6" width="1.8" height="3.6"/>
		<g>
			<path class="st29" d="M512.3,242.1c-12.7,0-28.3,12.1-28.3,28.1"/>
			<line class="st11" x1="512.3" y1="270.2" x2="484" y2="270.2"/>
		</g>
	</g>
	<g>
		<g>
			<rect x="512.5" y="356.3" class="st1" width="1.5" height="43.1"/>
			<path class="st6" d="M513.8,356.5v42.8h-1.2v-42.8H513.8 M514.1,356.2h-1.8v43.4h1.8V356.2L514.1,356.2z"/>
		</g>
		<path class="st29" d="M512.3,372.4c0,0-12.6-4.6-12.9-4.8l12.9-12.9"/>
		<rect x="512.3" y="371.3" class="st6" width="1.8" height="3.6"/>
		<g>
			<path class="st29" d="M512.3,372.4c-12.7,0-28.3,12.1-28.3,28.1"/>
			<line class="st11" x1="512.3" y1="400.6" x2="484" y2="400.6"/>
		</g>
	</g>
	<g>
		<path class="st29" d="M392,315.6c0,15.2-12.5,27.5-28,27.5"/>
		<line class="st11" x1="363.9" y1="315.6" x2="363.9" y2="343"/>
	</g>
	<g>
		<path class="st29" d="M321.7,315.6c0,15.2,12.5,27.5,28,27.5"/>
		<line class="st11" x1="349.7" y1="315.6" x2="349.7" y2="343"/>
	</g>
	<g>
		<path class="st29" d="M356.1,200.8c0,17.4,14.4,31.5,32.1,31.5"/>
		<line class="st11" x1="388.3" y1="200.8" x2="388.3" y2="232.2"/>
	</g>
	<g>
		<path class="st29" d="M399.5,280.2c15.2,0,27.5,12.5,27.5,28"/>
		<line class="st11" x1="399.5" y1="308.2" x2="427" y2="308.2"/>
	</g>
	<g>
		<path class="st29" d="M341.4,219.5c-13.4,0-24.3,10.8-24.3,24.2"/>
		<line class="st11" x1="341.4" y1="243.6" x2="317.1" y2="243.6"/>
	</g>
</g>
<g id="Murs">
	<rect x="153.2" y="145.8" class="st6" width="130.9" height="8.1"/>
	<rect x="81" y="145.8" class="st6" width="83.4" height="14.7"/>
	<rect x="157.1" y="153.1" class="st6" width="7.2" height="22.3"/>
	<rect x="152.1" y="296.4" class="st6" width="12.2" height="10.7"/>
	<rect x="282.8" y="153.9" class="st6" width="3.7" height="119.3"/>
	<rect x="263.8" y="271.4" class="st6" width="20.7" height="1.8"/>
	<rect x="279.4" y="311.2" class="st6" width="7.1" height="118.6"/>
	<rect x="353.1" y="311.2" class="st6" width="7.1" height="118.6"/>
	<rect x="281.7" y="345.9" class="st6" width="13.6" height="83.8"/>
	<rect x="341.9" y="242.3" class="st6" width="3.7" height="30.9"/>
	<rect x="395.6" y="197.7" class="st6" width="3.7" height="83.2"/>
	<rect x="395.6" y="306.5" class="st6" width="3.7" height="7.1"/>
	<rect x="341.9" y="189.4" class="st6" width="3.7" height="30.9"/>
	<rect x="284.1" y="187.6" class="st6" width="64.1" height="7.4"/>
	<rect x="284.1" y="247" class="st6" width="61.5" height="7"/>
	<rect x="284.1" y="311.2" class="st6" width="38.4" height="3.5"/>
	<rect x="348.1" y="311.2" class="st6" width="17.1" height="3.5"/>
	<rect x="390.7" y="311.2" class="st6" width="124.2" height="3.5"/>
	<rect x="81" y="296.4" class="st6" width="16.4" height="10.7"/>
	<rect x="81" y="388.6" class="st6" width="13.5" height="52.5"/>
	<rect x="81" y="299.7" class="st6" width="11" height="10.7"/>
	<rect x="81" y="385.5" class="st6" width="11" height="10.7"/>
	<rect x="510.1" y="196.9" class="st6" width="13.2" height="25.8"/>
	<rect x="510.1" y="272" class="st6" width="13.2" height="81.3"/>
	<rect x="512.3" y="199.5" class="st6" width="11" height="26.4"/>
	<rect x="512.3" y="268.9" class="st6" width="11" height="87.5"/>
	<rect x="512.3" y="399.6" class="st6" width="11" height="18.6"/>
	<rect x="510.1" y="402.6" class="st6" width="11" height="15.6"/>
	<rect x="294.3" y="420.1" class="st6" width="60.2" height="7.2"/>
	
		<rect x="297.7" y="207.5" transform="matrix(-5.692540e-02 -0.9984 0.9984 -5.692540e-02 -108.6675 754.7609)" class="st6" width="8.8" height="442.4"/>
	<rect x="283.4" y="145.8" class="st6" width="9.4" height="43.6"/>
	<rect x="345.6" y="191.7" class="st6" width="12.2" height="8.5"/>
	<rect x="387.3" y="191.7" class="st6" width="136" height="8.5"/>
</g>
<g id="Entree">
	<polygon class="st30" points="377.7,195.5 372.2,200.2 366.7,195.5 	"/>
</g>
<g id="Nord">
	<circle class="st31" cx="567.4" cy="153.9" r="11.9"/>
	<line class="st32" x1="574.1" y1="149.4" x2="580.6" y2="145.1"/>
	<text transform="matrix(1 0 0 1 561.0221 159.6802)" class="st6 st33 st34">N</text>
</g>
</svg>
