<?xml version="1.0" encoding="utf-8"?>
<!-- Generator: Adobe Illustrator 19.0.0, SVG Export Plug-In . SVG Version: 6.00 Build 0)  -->
<svg version="1.1" xmlns="http://www.w3.org/2000/svg" xmlns:xlink="http://www.w3.org/1999/xlink" x="0px" y="0px"
	 viewBox="0 0 595.3 595.3" enable-background="new 0 0 595.3 595.3" xml:space="preserve">
<pattern  width="3.8" height="3.4" patternUnits="userSpaceOnUse" id="Nouvelle_nuance_de_motif_7" viewBox="0 -3.4 3.8 3.4" overflow="visible">
	<g>
		<polygon fill="none" points="0,0 3.8,0 3.8,-3.4 0,-3.4 		"/>
		<polygon fill="#FFFFFF" points="3.7,0 0.1,0 0.1,-3.4 3.7,-3.4 		"/>
		<polygon fill="#E3E3E3" points="3.8,0 3.7,0 3.7,-3.4 3.8,-3.4 		"/>
		<polygon fill="#E3E3E3" points="0.1,0 0,0 0,-3.4 0.1,-3.4 		"/>
	</g>
</pattern>
<g id="Jardin">
</g>
<g id="Fond">
	<rect x="192.8" y="24.9" fill="#FFFFFF" width="318.7" height="538.9"/>
	<polyline fill="none" stroke="#707E85" stroke-width="0.3" stroke-miterlimit="10" points="516.6,568.5 516.6,352.4 516.6,345 
		516.6,21.2 166.1,21.2 166.1,345 	"/>
	<polygon fill="#EAF6FE" points="84.8,284.6 84.8,345 177,345 177,553.5 501.1,553.5 501.1,128.5 304.6,130.8 304.6,35.2 
		176.9,35.2 176.9,139.8 177,139.8 177,284.6 	"/>
</g>
<g id="Sol">
	<line fill="none" stroke="#707E85" stroke-width="0.3" stroke-miterlimit="10" x1="228" y1="428.7" x2="270.6" y2="428.7"/>
	<line fill="none" stroke="#707E85" stroke-width="0.3" stroke-miterlimit="10" x1="228" y1="440.2" x2="270.6" y2="440.2"/>
	<line fill="none" stroke="#707E85" stroke-width="0.3" stroke-miterlimit="10" x1="228" y1="451.8" x2="270.6" y2="451.8"/>
	<line fill="none" stroke="#707E85" stroke-width="0.3" stroke-miterlimit="10" x1="228" y1="463.2" x2="270.6" y2="463.2"/>
	<line fill="none" stroke="#707E85" stroke-width="0.3" stroke-miterlimit="10" x1="228" y1="474.4" x2="270.6" y2="474.4"/>
	<line fill="none" stroke="#707E85" stroke-width="0.3" stroke-miterlimit="10" x1="228" y1="485.5" x2="270.6" y2="485.5"/>
	<line fill="none" stroke="#707E85" stroke-width="0.3" stroke-miterlimit="10" x1="228" y1="497.2" x2="270.6" y2="497.2"/>
	<line fill="none" stroke="#707E85" stroke-width="0.3" stroke-miterlimit="10" x1="176" y1="440.2" x2="218.6" y2="440.2"/>
	<line fill="none" stroke="#707E85" stroke-width="0.3" stroke-miterlimit="10" x1="176" y1="428.7" x2="218.6" y2="428.7"/>
	<line fill="none" stroke="#707E85" stroke-width="0.3" stroke-miterlimit="10" x1="176" y1="417.7" x2="218.6" y2="417.7"/>
	<line fill="none" stroke="#707E85" stroke-width="0.3" stroke-miterlimit="10" x1="176" y1="451.8" x2="218.6" y2="451.8"/>
	<line fill="none" stroke="#707E85" stroke-width="0.3" stroke-miterlimit="10" x1="176" y1="463.2" x2="218.6" y2="463.2"/>
	<line fill="none" stroke="#707E85" stroke-width="0.3" stroke-miterlimit="10" x1="176" y1="474.4" x2="218.6" y2="474.4"/>
	<line fill="none" stroke="#707E85" stroke-width="0.3" stroke-miterlimit="10" x1="176" y1="485.5" x2="218.6" y2="485.5"/>
	<line fill="none" stroke="#707E85" stroke-width="0.3" stroke-miterlimit="10" x1="176" y1="497.2" x2="218.6" y2="497.2"/>
	<line fill="none" stroke="#707E85" stroke-width="0.3" stroke-miterlimit="10" x1="177" y1="508.7" x2="270.6" y2="508.7"/>
	<line fill="none" stroke="#707E85" stroke-width="0.3" stroke-miterlimit="10" x1="228" y1="508.7" x2="228" y2="428.7"/>
	<line fill="none" stroke="#707E85" stroke-width="0.3" stroke-miterlimit="10" x1="218.6" y1="508.7" x2="218.6" y2="417.7"/>
	<g>
		<g>
			<polyline fill="none" stroke="#707E85" stroke-width="0.5" stroke-miterlimit="10" points="198.5,489.3 198.5,526.3 249.3,526.3 
				249.3,433.7 			"/>
			<g>
				<polygon fill="#707E85" points="251.3,435.4 250.9,435.7 249.3,433.9 247.6,435.7 247.2,435.4 249.3,433.2 				"/>
			</g>
		</g>
	</g>
	<rect x="299.3" y="288.8" opacity="0.8" fill="#FFFFFF" width="109.5" height="75.8"/>
	<g>
		<pattern  id="SVGID_1_" xlink:href="#Nouvelle_nuance_de_motif_7" patternTransform="matrix(1 0 0 1 -7.626 10.3125)">
		</pattern>
		<rect x="321.6" y="21.2" fill="url(#SVGID_1_)" width="195" height="100.5"/>
	</g>
	<rect x="232.1" y="230.8" opacity="0.8" fill="#FFFFFF" width="51.1" height="104.6"/>
	<g>
		<polygon fill="#EBF7FE" stroke="#707E85" stroke-width="0.3" stroke-miterlimit="10" points="218.6,495 218.6,488.9 172.1,468.2 
			170.2,473.5 		"/>
	</g>
	<g>
		<g>
			<line fill="none" stroke="#707E85" stroke-width="0.5" stroke-miterlimit="10" x1="198.5" y1="422.3" x2="198.5" y2="477.5"/>
			<g>
				<polygon fill="#707E85" points="196.5,475.9 196.8,475.5 198.5,477.3 200.2,475.5 200.5,475.9 198.5,478.1 				"/>
			</g>
		</g>
	</g>
</g>
<g id="Partie_commune">
	<rect x="165.6" y="345" fill="#707E85" width="11.4" height="214.6"/>
	<rect x="159.4" y="345" fill="#707E85" width="11.4" height="11.6"/>
	<rect x="67.5" y="345" fill="#707E85" width="93.8" height="11.6"/>
	<rect x="165.6" y="368.8" fill="#C4CCD1" width="11.4" height="41.9"/>
</g>
<g id="Installations">
	<g>
		<g>
			<rect x="232.1" y="344.3" fill="#FFFFFF" width="51.2" height="25.4"/>
			<path fill="#707E85" d="M283.2,344.4v25.1h-50.9v-25.1H283.2 M283.5,344.1h-51.5v25.7h51.5V344.1L283.5,344.1z"/>
		</g>
		<line fill="none" stroke="#707E85" stroke-width="0.5" stroke-miterlimit="10" x1="276.5" y1="348.6" x2="275.5" y2="365.3"/>
		<line fill="none" stroke="#707E85" stroke-width="0.5" stroke-miterlimit="10" x1="272.7" y1="348.6" x2="273.9" y2="365.3"/>
		<line fill="none" stroke="#707E85" stroke-width="0.5" stroke-miterlimit="10" x1="271.3" y1="348.6" x2="270.3" y2="365.3"/>
		<line fill="none" stroke="#707E85" stroke-width="0.5" stroke-miterlimit="10" x1="267.6" y1="348.6" x2="268.8" y2="365.3"/>
		<line fill="none" stroke="#707E85" stroke-width="0.5" stroke-miterlimit="10" x1="247.9" y1="348.6" x2="246.9" y2="365.3"/>
		<line fill="none" stroke="#707E85" stroke-width="0.5" stroke-miterlimit="10" x1="244.1" y1="348.6" x2="245.3" y2="365.3"/>
		<line fill="none" stroke="#707E85" stroke-width="0.5" stroke-miterlimit="10" x1="242.7" y1="348.6" x2="241.7" y2="365.3"/>
		<line fill="none" stroke="#707E85" stroke-width="0.5" stroke-miterlimit="10" x1="238.9" y1="348.6" x2="240.1" y2="365.3"/>
		<line fill="#EAF6FE" stroke="#707E85" stroke-width="0.3" stroke-miterlimit="10" x1="283.5" y1="367.9" x2="232.2" y2="367.9"/>
		<line fill="#EAF6FE" stroke="#707E85" stroke-width="0.3" stroke-miterlimit="10" x1="257.8" y1="367.9" x2="257.8" y2="369.6"/>
		<polyline fill="none" stroke="#707E85" stroke-width="0.3" stroke-miterlimit="10" points="263.4,369.6 263.4,370.6 261.5,370.6 
			261.5,369.6 		"/>
		<polyline fill="none" stroke="#707E85" stroke-width="0.3" stroke-miterlimit="10" points="254.2,369.6 254.2,370.6 252.2,370.6 
			252.2,369.6 		"/>
		<line fill="none" stroke="#707E85" stroke-width="0.3" stroke-miterlimit="10" x1="283.5" y1="357" x2="232.2" y2="357"/>
	</g>
	<g>
		<g>
			<g opacity="5.000000e-002">
				<path fill="#707E85" d="M417.5,452.9h82c0.6,0,1,0.4,1,1v65c0,0.6-0.4,1-1,1h-82c-0.6,0-1-0.4-1-1v-65
					C416.5,453.3,416.9,452.9,417.5,452.9z"/>
				<path fill="none" stroke="#707E85" stroke-width="0.3" stroke-miterlimit="10" d="M417.5,452.9h82c0.6,0,1,0.4,1,1v65
					c0,0.6-0.4,1-1,1h-82c-0.6,0-1-0.4-1-1v-65C416.5,453.3,416.9,452.9,417.5,452.9z"/>
			</g>
			<g>
				<path fill="#EAF6FE" d="M414.5,449.9h82c0.6,0,1,0.4,1,1v65c0,0.6-0.4,1-1,1h-82c-0.6,0-1-0.4-1-1v-65
					C413.5,450.3,413.9,449.9,414.5,449.9z"/>
				<path fill="none" stroke="#CBD3D7" stroke-width="0.3" stroke-miterlimit="10" d="M414.5,449.9h82c0.6,0,1,0.4,1,1v65
					c0,0.6-0.4,1-1,1h-82c-0.6,0-1-0.4-1-1v-65C413.5,450.3,413.9,449.9,414.5,449.9z"/>
			</g>
		</g>
		<path fill="#EAF6FE" stroke="#CBD3D7" stroke-width="0.3" stroke-miterlimit="10" d="M419,454.4H492c0.6,0,1,0.4,1,1v56
			c0,0.6-0.4,1-1,1H419c-0.6,0-1-0.4-1-1v-56C418,454.8,418.4,454.4,419,454.4z"/>
		<path fill="#EAF6FE" stroke="#CBD3D7" stroke-width="0.3" stroke-miterlimit="10" d="M488.8,458.2c1.5,2.5,1.7,19.9,0.2,22.6
			c-0.1,0.2-8.3,1.1-12.8,0.5c-0.8-0.1-1.8-0.8-2.3-2.1c-1.6-4.5-1-14.7,0.5-19.7c0.5-1.8,2.3-1.6,3-1.8
			C480.8,457.1,488.4,457.4,488.8,458.2z"/>
		<path fill="#EAF6FE" stroke="#CBD3D7" stroke-width="0.3" stroke-miterlimit="10" d="M489.1,485.7c1.9,5,1.3,21.7,0.4,22.6
			c-0.4,0.4-8.4,1.3-12.1,0.5c-0.5-0.1-1.1-0.3-1.3-0.6c-1.5-2.1-2.6-21.6-2.4-21.9c0.2-0.3,1.8-0.2,2.6-0.5
			C478.3,484.9,488.7,484.9,489.1,485.7z"/>
		<g>
			<path fill="#EAF6FE" stroke="#CBD3D7" stroke-width="0.3" stroke-miterlimit="10" d="M462.4,509.5c0,0-2.2-23.1-2.2-26
				c0-3.1,2.2-26,2.2-26c0-2.2-3.7-4-1.5-4h12.2c2.2,0,4,1.8,4,4c0,0-1.1,22.3-1.1,25.8c0,3.5,1.1,26.1,1.1,26.1c0,2.2-1.8,4-4,4
				h-12.2C458.7,513.4,462.4,511.7,462.4,509.5z"/>
			<path fill="#EAF6FE" stroke="#CBD3D7" stroke-width="0.3" stroke-linecap="round" stroke-miterlimit="10" d="M473.9,462.1
				c-0.3-2.7-4.1-8.4-5.2-8.6"/>
			<path fill="#EAF6FE" stroke="#CBD3D7" stroke-width="0.3" stroke-linecap="round" stroke-miterlimit="10" d="M472.7,490.3
				c-0.2-0.5-6-12.6-8.8-11.2c-1.1,0.5-0.4,2.4,0.2,3.3"/>
			<path fill="#EAF6FE" stroke="#CBD3D7" stroke-width="0.3" stroke-linecap="round" stroke-miterlimit="10" d="M475.3,509.9
				c-1.7-1.7-6.4-8.8-10-18.5"/>
		</g>
		<g>
			<g>
				<g opacity="5.000000e-002">
					<path fill="#707E85" d="M500.5,523.8v12c0,0.6-0.4,1-1,1h-10.8c-0.6,0-1-0.4-1-1v-12c0-0.6,0.4-1,1-1h10.8
						C500.1,522.8,500.5,523.3,500.5,523.8z"/>
					<path fill="none" stroke="#707E85" stroke-width="0.3" stroke-miterlimit="10" d="M500.5,523.8v12c0,0.6-0.4,1-1,1h-10.8
						c-0.6,0-1-0.4-1-1v-12c0-0.6,0.4-1,1-1h10.8C500.1,522.8,500.5,523.3,500.5,523.8z"/>
				</g>
				<g>
					<path fill="#EAF6FE" d="M497.5,520.8v12c0,0.6-0.4,1-1,1h-10.8c-0.6,0-1-0.4-1-1v-12c0-0.6,0.4-1,1-1h10.8
						C497.1,519.8,497.5,520.3,497.5,520.8z"/>
					<path fill="none" stroke="#CBD3D7" stroke-width="0.3" stroke-miterlimit="10" d="M497.5,520.8v12c0,0.6-0.4,1-1,1h-10.8
						c-0.6,0-1-0.4-1-1v-12c0-0.6,0.4-1,1-1h10.8C497.1,519.8,497.5,520.3,497.5,520.8z"/>
				</g>
			</g>
			<path fill="#EAF6FE" stroke="#CBD3D7" stroke-width="0.3" stroke-miterlimit="10" d="M488,528.5l2-5.2c0.2-0.5,0.8-0.8,1.3-0.6
				l2.3,0.9c0.5,0.2,0.8,0.8,0.6,1.3l-2,5.2c-0.2,0.5-0.8,0.8-1.3,0.6l-2.3-0.9C488,529.6,487.8,529,488,528.5z"/>
			<circle fill="#EAF6FE" stroke="#CBD3D7" stroke-width="0.3" stroke-miterlimit="10" cx="491.1" cy="526.7" r="0.7"/>
		</g>
		<g>
			<g>
				<g opacity="5.000000e-002">
					<path fill="#707E85" d="M487.8,448.9v-12c0-0.6,0.4-1,1-1h10.8c0.6,0,1,0.4,1,1v12c0,0.6-0.4,1-1,1h-10.8
						C488.2,449.9,487.8,449.5,487.8,448.9z"/>
					<path fill="none" stroke="#707E85" stroke-width="0.3" stroke-miterlimit="10" d="M487.8,448.9v-12c0-0.6,0.4-1,1-1h10.8
						c0.6,0,1,0.4,1,1v12c0,0.6-0.4,1-1,1h-10.8C488.2,449.9,487.8,449.5,487.8,448.9z"/>
				</g>
				<g>
					<path fill="#EAF6FE" d="M484.8,445.9v-12c0-0.6,0.4-1,1-1h10.8c0.6,0,1,0.4,1,1v12c0,0.6-0.4,1-1,1h-10.8
						C485.2,446.9,484.8,446.5,484.8,445.9z"/>
					<path fill="none" stroke="#CBD3D7" stroke-width="0.3" stroke-miterlimit="10" d="M484.8,445.9v-12c0-0.6,0.4-1,1-1h10.8
						c0.6,0,1,0.4,1,1v12c0,0.6-0.4,1-1,1h-10.8C485.2,446.9,484.8,446.5,484.8,445.9z"/>
				</g>
			</g>
			<path fill="#EAF6FE" stroke="#CBD3D7" stroke-width="0.3" stroke-miterlimit="10" d="M490.3,436.8v-0.5c0-0.2,0.1-0.3,0.3-0.3
				h6.9v1.1h-6.9C490.5,437.1,490.3,437,490.3,436.8z"/>
			<path fill="#EAF6FE" stroke="#CBD3D7" stroke-width="0.3" stroke-miterlimit="10" d="M491.4,439.1v-0.5c0-0.2,0.1-0.3,0.3-0.3
				h5.8v1.1h-5.8C491.5,439.4,491.4,439.2,491.4,439.1z"/>
			<path fill="#EAF6FE" stroke="#CBD3D7" stroke-width="0.3" stroke-miterlimit="10" d="M489.6,437.9v-0.5c0-0.2,0.1-0.3,0.3-0.3
				h7.6v1.1h-7.6C489.8,438.3,489.6,438.1,489.6,437.9z"/>
		</g>
	</g>
	<g>
		<g>
			<g opacity="5.000000e-002">
				<path fill="#707E85" d="M280.4,504.8v-74.5c0-0.6,0.4-1,1-1h23c0.6,0,1,0.4,1,1v74.5c0,0.6-0.4,1-1,1h-23
					C280.9,505.8,280.4,505.3,280.4,504.8z"/>
				<path fill="none" stroke="#707E85" stroke-width="0.3" stroke-miterlimit="10" d="M280.4,504.8v-74.5c0-0.6,0.4-1,1-1h23
					c0.6,0,1,0.4,1,1v74.5c0,0.6-0.4,1-1,1h-23C280.9,505.8,280.4,505.3,280.4,504.8z"/>
			</g>
			<g>
				<path fill="#EAF6FE" d="M277.4,501.8v-74.5c0-0.6,0.4-1,1-1h23c0.6,0,1,0.4,1,1v74.5c0,0.6-0.4,1-1,1h-23
					C277.9,502.8,277.4,502.3,277.4,501.8z"/>
				<path fill="none" stroke="#CBD3D7" stroke-width="0.3" stroke-miterlimit="10" d="M277.4,501.8v-74.5c0-0.6,0.4-1,1-1h23
					c0.6,0,1,0.4,1,1v74.5c0,0.6-0.4,1-1,1h-23C277.9,502.8,277.4,502.3,277.4,501.8z"/>
			</g>
		</g>
		<line fill="#EAF6FE" stroke="#CBD3D7" stroke-width="0.3" stroke-miterlimit="10" x1="299" y1="426.3" x2="299" y2="502.8"/>
		<line fill="#EAF6FE" stroke="#CBD3D7" stroke-width="0.3" stroke-miterlimit="10" x1="299" y1="464.5" x2="302.4" y2="464.5"/>
		<polyline fill="none" stroke="#CBD3D7" stroke-width="0.3" stroke-miterlimit="10" points="302.4,456.2 304.2,456.2 304.2,459.1 
			302.4,459.1 		"/>
		<polyline fill="none" stroke="#CBD3D7" stroke-width="0.3" stroke-miterlimit="10" points="302.4,470 304.2,470 304.2,472.9 
			302.4,472.9 		"/>
	</g>
	<g>
		<g>
			<g opacity="5.000000e-002">
				<path fill="#707E85" d="M401,251.1h-82.6c-0.6,0-1-0.4-1-1v-65.4c0-0.6,0.4-1,1-1H401c0.6,0,1,0.4,1,1v65.4
					C402,250.7,401.6,251.1,401,251.1z"/>
				<path fill="none" stroke="#707E85" stroke-width="0.3" stroke-miterlimit="10" d="M401,251.1h-82.6c-0.6,0-1-0.4-1-1v-65.4
					c0-0.6,0.4-1,1-1H401c0.6,0,1,0.4,1,1v65.4C402,250.7,401.6,251.1,401,251.1z"/>
			</g>
			<g>
				<path fill="#EAF6FE" d="M398,248.1h-82.6c-0.6,0-1-0.4-1-1v-65.4c0-0.6,0.4-1,1-1H398c0.6,0,1,0.4,1,1v65.4
					C399,247.7,398.6,248.1,398,248.1z"/>
				<path fill="none" stroke="#CBD3D7" stroke-width="0.3" stroke-miterlimit="10" d="M398,248.1h-82.6c-0.6,0-1-0.4-1-1v-65.4
					c0-0.6,0.4-1,1-1H398c0.6,0,1,0.4,1,1v65.4C399,247.7,398.6,248.1,398,248.1z"/>
			</g>
		</g>
		<path fill="#EAF6FE" stroke="#CBD3D7" stroke-width="0.3" stroke-miterlimit="10" d="M393.5,243.6h-73.5c-0.6,0-1-0.4-1-1v-56.4
			c0-0.6,0.4-1,1-1h73.5c0.6,0,1,0.4,1,1v56.4C394.5,243.2,394,243.6,393.5,243.6z"/>
		<path fill="#EAF6FE" stroke="#CBD3D7" stroke-width="0.3" stroke-miterlimit="10" d="M323.2,239.8c-1.5-2.5-1.7-20.1-0.2-22.8
			c0.1-0.2,8.4-1.1,12.9-0.5c0.8,0.1,1.8,0.8,2.3,2.1c1.6,4.5,1,14.8-0.5,19.8c-0.5,1.8-2.3,1.6-3,1.8
			C331.3,240.8,323.6,240.6,323.2,239.8z"/>
		<path fill="#EAF6FE" stroke="#CBD3D7" stroke-width="0.3" stroke-miterlimit="10" d="M322.9,212c-1.9-5-1.3-21.8-0.4-22.8
			c0.4-0.4,8.5-1.3,12.2-0.5c0.5,0.1,1.1,0.3,1.3,0.6c1.5,2.1,2.6,21.8,2.4,22.1s-1.8,0.2-2.6,0.5
			C333.8,212.9,323.2,212.8,322.9,212z"/>
		<g>
			<path fill="#EAF6FE" stroke="#CBD3D7" stroke-width="0.3" stroke-miterlimit="10" d="M349.8,188.2c0,0,2.2,23.3,2.2,26.1
				c0,3.1-2.2,26.1-2.2,26.1c0,2.2,3.7,4,1.5,4H339c-2.2,0-4-1.8-4-4c0,0,1.2-22.5,1.2-26c0-3.5-1.2-26.3-1.2-26.3c0-2.2,1.8-4,4-4
				h12.3C353.4,184.2,349.8,186,349.8,188.2z"/>
			<path fill="#EAF6FE" stroke="#CBD3D7" stroke-width="0.3" stroke-linecap="round" stroke-miterlimit="10" d="M338.2,235.8
				c0.3,2.8,4.1,8.4,5.2,8.6"/>
			<path fill="#EAF6FE" stroke="#CBD3D7" stroke-width="0.3" stroke-linecap="round" stroke-miterlimit="10" d="M339.4,207.5
				c0.2,0.5,6.1,12.7,8.9,11.3c1.1-0.5,0.4-2.4-0.2-3.4"/>
			<path fill="#EAF6FE" stroke="#CBD3D7" stroke-width="0.3" stroke-linecap="round" stroke-miterlimit="10" d="M336.8,187.7
				c1.7,1.7,6.4,8.8,10.1,18.7"/>
		</g>
		<g>
			<g>
				<g opacity="5.000000e-002">
					<path fill="#707E85" d="M317.4,179.8v-12.1c0-0.6,0.4-1,1-1h10.8c0.6,0,1,0.4,1,1v12.1c0,0.6-0.4,1-1,1h-10.8
						C317.9,180.8,317.4,180.3,317.4,179.8z"/>
					<path fill="none" stroke="#707E85" stroke-width="0.3" stroke-miterlimit="10" d="M317.4,179.8v-12.1c0-0.6,0.4-1,1-1h10.8
						c0.6,0,1,0.4,1,1v12.1c0,0.6-0.4,1-1,1h-10.8C317.9,180.8,317.4,180.3,317.4,179.8z"/>
				</g>
				<g>
					<path fill="#EAF6FE" d="M314.4,176.8v-12.1c0-0.6,0.4-1,1-1h10.8c0.6,0,1,0.4,1,1v12.1c0,0.6-0.4,1-1,1h-10.8
						C314.9,177.8,314.4,177.3,314.4,176.8z"/>
					<path fill="none" stroke="#CBD3D7" stroke-width="0.3" stroke-miterlimit="10" d="M314.4,176.8v-12.1c0-0.6,0.4-1,1-1h10.8
						c0.6,0,1,0.4,1,1v12.1c0,0.6-0.4,1-1,1h-10.8C314.9,177.8,314.4,177.3,314.4,176.8z"/>
				</g>
			</g>
			<path fill="#EAF6FE" stroke="#CBD3D7" stroke-width="0.3" stroke-miterlimit="10" d="M324,169l-2,5.3c-0.2,0.5-0.8,0.8-1.3,0.6
				l-2.3-0.9c-0.5-0.2-0.8-0.8-0.6-1.3l2-5.3c0.2-0.5,0.8-0.8,1.3-0.6l2.3,0.9C324,167.9,324.2,168.5,324,169z"/>
			<circle fill="#EAF6FE" stroke="#CBD3D7" stroke-width="0.3" stroke-miterlimit="10" cx="320.9" cy="170.8" r="0.7"/>
		</g>
		<g>
			<g>
				<g opacity="5.000000e-002">
					<path fill="#707E85" d="M330.3,255.1v12.1c0,0.6-0.4,1-1,1h-10.8c-0.6,0-1-0.4-1-1v-12.1c0-0.6,0.4-1,1-1h10.8
						C329.8,254.1,330.3,254.6,330.3,255.1z"/>
					<path fill="none" stroke="#707E85" stroke-width="0.3" stroke-miterlimit="10" d="M330.3,255.1v12.1c0,0.6-0.4,1-1,1h-10.8
						c-0.6,0-1-0.4-1-1v-12.1c0-0.6,0.4-1,1-1h10.8C329.8,254.1,330.3,254.6,330.3,255.1z"/>
				</g>
				<g>
					<path fill="#EAF6FE" d="M327.3,252.1v12.1c0,0.6-0.4,1-1,1h-10.8c-0.6,0-1-0.4-1-1v-12.1c0-0.6,0.4-1,1-1h10.8
						C326.8,251.1,327.3,251.6,327.3,252.1z"/>
					<path fill="none" stroke="#CBD3D7" stroke-width="0.3" stroke-miterlimit="10" d="M327.3,252.1v12.1c0,0.6-0.4,1-1,1h-10.8
						c-0.6,0-1-0.4-1-1v-12.1c0-0.6,0.4-1,1-1h10.8C326.8,251.1,327.3,251.6,327.3,252.1z"/>
				</g>
			</g>
			<path fill="#EAF6FE" stroke="#CBD3D7" stroke-width="0.3" stroke-miterlimit="10" d="M321.6,261.3v0.5c0,0.2-0.1,0.3-0.3,0.3
				h-6.9V261h6.9C321.5,261,321.6,261.1,321.6,261.3z"/>
			<path fill="#EAF6FE" stroke="#CBD3D7" stroke-width="0.3" stroke-miterlimit="10" d="M320.6,259v0.5c0,0.2-0.1,0.3-0.3,0.3h-5.8
				v-1.1h5.8C320.4,258.7,320.6,258.8,320.6,259z"/>
			<path fill="#EAF6FE" stroke="#CBD3D7" stroke-width="0.3" stroke-miterlimit="10" d="M322.4,260.1v0.5c0,0.2-0.1,0.3-0.3,0.3
				h-7.6v-1.1h7.6C322.2,259.8,322.4,260,322.4,260.1z"/>
		</g>
	</g>
	<g>
		<g>
			<g opacity="5.000000e-002">
				<path fill="#707E85" d="M500.7,166.9v100.3c0,0.6-0.4,1-1,1h-24.3c-0.6,0-1-0.4-1-1V166.9c0-0.6,0.4-1,1-1h24.3
					C500.3,165.9,500.7,166.4,500.7,166.9z"/>
				<path fill="none" stroke="#707E85" stroke-width="0.3" stroke-miterlimit="10" d="M500.7,166.9v100.3c0,0.6-0.4,1-1,1h-24.3
					c-0.6,0-1-0.4-1-1V166.9c0-0.6,0.4-1,1-1h24.3C500.3,165.9,500.7,166.4,500.7,166.9z"/>
			</g>
			<g>
				<path fill="#EAF6FE" d="M497.7,163.9v100.3c0,0.6-0.4,1-1,1h-24.3c-0.6,0-1-0.4-1-1V163.9c0-0.6,0.4-1,1-1h24.3
					C497.3,162.9,497.7,163.4,497.7,163.9z"/>
				<path fill="none" stroke="#CBD3D7" stroke-width="0.3" stroke-miterlimit="10" d="M497.7,163.9v100.3c0,0.6-0.4,1-1,1h-24.3
					c-0.6,0-1-0.4-1-1V163.9c0-0.6,0.4-1,1-1h24.3C497.3,162.9,497.7,163.4,497.7,163.9z"/>
			</g>
		</g>
		<line fill="#EAF6FE" stroke="#CBD3D7" stroke-width="0.3" stroke-miterlimit="10" x1="474.9" y1="265.3" x2="474.9" y2="162.9"/>
		<line fill="#EAF6FE" stroke="#CBD3D7" stroke-width="0.3" stroke-miterlimit="10" x1="474.9" y1="214.1" x2="471.4" y2="214.1"/>
		<polyline fill="none" stroke="#CBD3D7" stroke-width="0.3" stroke-miterlimit="10" points="471.4,225.3 469.4,225.3 469.4,221.4 
			471.4,221.4 		"/>
		<polyline fill="none" stroke="#CBD3D7" stroke-width="0.3" stroke-miterlimit="10" points="471.4,206.8 469.4,206.8 469.4,202.9 
			471.4,202.9 		"/>
	</g>
	<g>
		<path fill="#EAF6FE" stroke="#CBD3D7" stroke-width="0.3" stroke-miterlimit="10" d="M461.3,321.2h2v-18.1h-2
			c-0.8,0-1.5,0.7-1.5,1.5v15.2C459.8,320.5,460.5,321.2,461.3,321.2z"/>
		
			<rect x="463.3" y="303.1" fill="#EAF6FE" stroke="#CBD3D7" stroke-width="0.3" stroke-miterlimit="10" width="8.6" height="18.1"/>
		<line fill="#EAF6FE" stroke="#CBD3D7" stroke-width="0.3" stroke-miterlimit="10" x1="463.3" y1="318.7" x2="471.9" y2="318.7"/>
		<line fill="#EAF6FE" stroke="#CBD3D7" stroke-width="0.3" stroke-miterlimit="10" x1="471.9" y1="305.6" x2="463.3" y2="305.6"/>
		<g>
			<g opacity="5.000000e-002">
				<path fill="#707E85" d="M499.4,337.4H476c-0.6,0-1.1-0.5-1.1-1v-42.5c0-0.6,0.5-1,1.1-1h23.4c0.6,0,1.1,0.5,1.1,1v42.5
					C500.5,337,500,337.4,499.4,337.4z"/>
				<path fill="none" stroke="#707E85" stroke-width="0.3" stroke-miterlimit="10" d="M499.4,337.4H476c-0.6,0-1.1-0.5-1.1-1v-42.5
					c0-0.6,0.5-1,1.1-1h23.4c0.6,0,1.1,0.5,1.1,1v42.5C500.5,337,500,337.4,499.4,337.4z"/>
			</g>
			<g>
				<path fill="#EAF6FE" d="M496.4,334.4H473c-0.6,0-1.1-0.5-1.1-1v-42.5c0-0.6,0.5-1,1.1-1h23.4c0.6,0,1.1,0.5,1.1,1v42.5
					C497.5,334,497,334.4,496.4,334.4z"/>
				<path fill="none" stroke="#CBD3D7" stroke-width="0.3" stroke-miterlimit="10" d="M496.4,334.4H473c-0.6,0-1.1-0.5-1.1-1v-42.5
					c0-0.6,0.5-1,1.1-1h23.4c0.6,0,1.1,0.5,1.1,1v42.5C497.5,334,497,334.4,496.4,334.4z"/>
			</g>
		</g>
	</g>
	<g>
		<path fill="#EAF6FE" stroke="#CBD3D7" stroke-width="0.3" stroke-miterlimit="10" d="M219.3,93.7H217v20.5h2.3
			c0.9,0,1.7-0.7,1.7-1.7V95.4C221,94.5,220.2,93.7,219.3,93.7z"/>
		<rect x="207.3" y="93.7" fill="#EAF6FE" stroke="#CBD3D7" stroke-width="0.3" stroke-miterlimit="10" width="9.7" height="20.5"/>
		<line fill="#EAF6FE" stroke="#CBD3D7" stroke-width="0.3" stroke-miterlimit="10" x1="217" y1="96.5" x2="207.3" y2="96.5"/>
		<line fill="#EAF6FE" stroke="#CBD3D7" stroke-width="0.3" stroke-miterlimit="10" x1="207.3" y1="111.4" x2="217" y2="111.4"/>
		<g>
			<g opacity="5.000000e-002">
				<path fill="#707E85" d="M182.6,77h26.5c0.7,0,1.2,0.5,1.2,1.2v57.5c0,0.6-0.5,1.2-1.2,1.2h-26.5c-0.7,0-1.2-0.5-1.2-1.2V78.2
					C181.4,77.6,181.9,77,182.6,77z"/>
				<path fill="none" stroke="#707E85" stroke-width="0.3" stroke-miterlimit="10" d="M182.6,77h26.5c0.7,0,1.2,0.5,1.2,1.2v57.5
					c0,0.6-0.5,1.2-1.2,1.2h-26.5c-0.7,0-1.2-0.5-1.2-1.2V78.2C181.4,77.6,181.9,77,182.6,77z"/>
			</g>
			<g>
				<path fill="#EAF6FE" d="M179.6,74h26.5c0.7,0,1.2,0.5,1.2,1.2v57.5c0,0.6-0.5,1.2-1.2,1.2h-26.5c-0.7,0-1.2-0.5-1.2-1.2V75.2
					C178.4,74.6,178.9,74,179.6,74z"/>
				<path fill="none" stroke="#CBD3D7" stroke-width="0.3" stroke-miterlimit="10" d="M179.6,74h26.5c0.7,0,1.2,0.5,1.2,1.2v57.5
					c0,0.6-0.5,1.2-1.2,1.2h-26.5c-0.7,0-1.2-0.5-1.2-1.2V75.2C178.4,74.6,178.9,74,179.6,74z"/>
			</g>
		</g>
	</g>
	<g>
		<g>
			<g opacity="5.000000e-002">
				<path fill="#707E85" d="M267.9,133.4v81.8c0,0.6,0.4,1,1,1h35.9c0.6,0,1-0.4,1-1v-81.8c0-0.6-0.4-1-1-1h-35.9
					C268.4,132.4,267.9,132.8,267.9,133.4z"/>
				<path fill="none" stroke="#707E85" stroke-width="0.3" stroke-miterlimit="10" d="M267.9,133.4v81.8c0,0.6,0.4,1,1,1h35.9
					c0.6,0,1-0.4,1-1v-81.8c0-0.6-0.4-1-1-1h-35.9C268.4,132.4,267.9,132.8,267.9,133.4z"/>
			</g>
			<g>
				<path fill="#EAF6FE" d="M264.9,130.4v81.8c0,0.6,0.4,1,1,1h35.9c0.6,0,1-0.4,1-1v-81.8c0-0.6-0.4-1-1-1h-35.9
					C265.4,129.4,264.9,129.8,264.9,130.4z"/>
				<path fill="none" stroke="#CBD3D7" stroke-width="0.3" stroke-miterlimit="10" d="M264.9,130.4v81.8c0,0.6,0.4,1,1,1h35.9
					c0.6,0,1-0.4,1-1v-81.8c0-0.6-0.4-1-1-1h-35.9C265.4,129.4,264.9,129.8,264.9,130.4z"/>
			</g>
		</g>
		<g>
			<g>
				<g opacity="5.000000e-002">
					<path fill="#707E85" d="M251.6,216.2h12c0.6,0,1-0.4,1-1v-10.7c0-0.6-0.4-1-1-1h-12c-0.6,0-1,0.4-1,1v10.7
						C250.6,215.7,251.1,216.2,251.6,216.2z"/>
					<path fill="none" stroke="#707E85" stroke-width="0.3" stroke-miterlimit="10" d="M251.6,216.2h12c0.6,0,1-0.4,1-1v-10.7
						c0-0.6-0.4-1-1-1h-12c-0.6,0-1,0.4-1,1v10.7C250.6,215.7,251.1,216.2,251.6,216.2z"/>
				</g>
				<g>
					<path fill="#EAF6FE" d="M248.6,213.2h12c0.6,0,1-0.4,1-1v-10.7c0-0.6-0.4-1-1-1h-12c-0.6,0-1,0.4-1,1v10.7
						C247.6,212.7,248.1,213.2,248.6,213.2z"/>
					<path fill="none" stroke="#CBD3D7" stroke-width="0.3" stroke-miterlimit="10" d="M248.6,213.2h12c0.6,0,1-0.4,1-1v-10.7
						c0-0.6-0.4-1-1-1h-12c-0.6,0-1,0.4-1,1v10.7C247.6,212.7,248.1,213.2,248.6,213.2z"/>
				</g>
			</g>
			<path fill="#EAF6FE" stroke="#CBD3D7" stroke-width="0.3" stroke-miterlimit="10" d="M256.3,203.7l-5.2,2
				c-0.5,0.2-0.8,0.8-0.6,1.3l0.9,2.3c0.2,0.5,0.8,0.8,1.3,0.6l5.2-2c0.5-0.2,0.8-0.8,0.6-1.3l-0.9-2.3
				C257.4,203.7,256.8,203.5,256.3,203.7z"/>
			<circle fill="#EAF6FE" stroke="#CBD3D7" stroke-width="0.3" stroke-miterlimit="10" cx="254.5" cy="206.8" r="0.7"/>
		</g>
		<path fill="#EAF6FE" stroke="#CBD3D7" stroke-width="0.3" stroke-miterlimit="10" d="M269.4,134.9v72.9c0,0.6,0.4,1,1,1h26.9
			c0.6,0,1-0.4,1-1v-72.9c0-0.6-0.4-1-1-1h-26.9C269.9,133.9,269.4,134.3,269.4,134.9z"/>
		<path fill="#EAF6FE" stroke="#CBD3D7" stroke-width="0.3" stroke-miterlimit="10" d="M273.3,204.8c0.6,0.3,1.1-0.1,2.2-0.1
			c9.3,1.9,19.3-0.5,19.5-0.9c0.2-0.3-0.2-0.3-0.6-2.4c-0.2-2.2,0.4-7.3,0.1-9.1c-0.1-0.5-0.2-0.8-0.5-1c-1.7-1.3-20-0.8-20.2-0.6
			c-0.2,0.2-0.9,0.8-1,1.7C272.4,194.4,272.6,204.6,273.3,204.8z"/>
		<g>
			<g>
				<path fill="#EAF6FE" stroke="#CBD3D7" stroke-width="0.3" stroke-miterlimit="10" d="M295.4,178.2c0,0-8.7-1.2-11.5-1.2
					c-3,0-11.5,1.2-11.5,1.2c-2.2,0-4-3.7-4-1.5v12.2c0,2.2,1.8,4,4,4c0,0,7.9-1.1,11.4-1.1s11.7,1.1,11.7,1.1c2.2,0,4-1.8,4-4
					v-12.2C299.4,174.5,297.6,178.2,295.4,178.2z"/>
			</g>
			<path fill="#EAF6FE" stroke="#CBD3D7" stroke-width="0.3" stroke-linecap="round" stroke-miterlimit="10" d="M273.2,187.5
				c-0.3-1.7,1.7-6.1,4.9-6.9"/>
			<path fill="#EAF6FE" stroke="#CBD3D7" stroke-width="0.3" stroke-linecap="round" stroke-miterlimit="10" d="M282.8,188
				c2.4-2.3,7.9-5.4,11.6-5.1"/>
		</g>
	</g>
	<g>
		<g>
			<g opacity="5.000000e-002">
				<path fill="#707E85" d="M305.8,44v49.3c0,0.6-0.4,1-1,1h-23.1c-0.6,0-1-0.4-1-1V44c0-0.6,0.4-1,1-1h23.1
					C305.4,43,305.8,43.4,305.8,44z"/>
				<path fill="none" stroke="#707E85" stroke-width="0.3" stroke-miterlimit="10" d="M305.8,44v49.3c0,0.6-0.4,1-1,1h-23.1
					c-0.6,0-1-0.4-1-1V44c0-0.6,0.4-1,1-1h23.1C305.4,43,305.8,43.4,305.8,44z"/>
			</g>
			<g>
				<path fill="#EAF6FE" d="M302.8,41v49.3c0,0.6-0.4,1-1,1h-23.1c-0.6,0-1-0.4-1-1V41c0-0.6,0.4-1,1-1h23.1
					C302.4,40,302.8,40.4,302.8,41z"/>
				<path fill="none" stroke="#CBD3D7" stroke-width="0.3" stroke-miterlimit="10" d="M302.8,41v49.3c0,0.6-0.4,1-1,1h-23.1
					c-0.6,0-1-0.4-1-1V41c0-0.6,0.4-1,1-1h23.1C302.4,40,302.8,40.4,302.8,41z"/>
			</g>
		</g>
		<line fill="#EAF6FE" stroke="#CBD3D7" stroke-width="0.3" stroke-miterlimit="10" x1="281.1" y1="91.3" x2="281.1" y2="40"/>
		<line fill="#EAF6FE" stroke="#CBD3D7" stroke-width="0.3" stroke-miterlimit="10" x1="281.1" y1="65.6" x2="277.7" y2="65.6"/>
		<polyline fill="none" stroke="#CBD3D7" stroke-width="0.3" stroke-miterlimit="10" points="277.7,71.2 275.8,71.2 275.8,69.3 
			277.7,69.3 		"/>
		<polyline fill="none" stroke="#CBD3D7" stroke-width="0.3" stroke-miterlimit="10" points="277.7,61.9 275.8,61.9 275.8,60 
			277.7,60 		"/>
	</g>
	<g>
		<g>
			<g opacity="0.2">
				<path fill="#708793" d="M278.1,275.3h8.2v20.2h-8.2c-1.5,0-2.8-1.9-2.8-4.2v-11.8C275.4,277.2,276.6,275.3,278.1,275.3z"/>
				<path fill="none" stroke="#708793" stroke-width="0.3" stroke-miterlimit="10" d="M278.1,275.3h8.2v20.2h-8.2
					c-1.5,0-2.8-1.9-2.8-4.2v-11.8C275.4,277.2,276.6,275.3,278.1,275.3z"/>
			</g>
			<g>
				<path fill="#FFFFFF" d="M275.1,272.3h8.2v20.2h-8.2c-1.5,0-2.8-1.9-2.8-4.2v-11.8C272.4,274.2,273.6,272.3,275.1,272.3z"/>
				<path fill="none" stroke="#707E85" stroke-width="0.3" stroke-miterlimit="10" d="M275.1,272.3h8.2v20.2h-8.2
					c-1.5,0-2.8-1.9-2.8-4.2v-11.8C272.4,274.2,273.6,272.3,275.1,272.3z"/>
			</g>
		</g>
		<path fill="#FFFFFF" stroke="#707E85" stroke-width="0.3" stroke-miterlimit="10" d="M276.1,273.4h3.9c1.4,0,2.6,1.1,2.6,2.6v9
			c0,1.4-1.1,2.6-2.6,2.6h-3.9c-1.4,0-2.6-1.1-2.6-2.6v-9C273.6,274.5,274.7,273.4,276.1,273.4z"/>
		<circle fill="#FFFFFF" stroke="#707E85" stroke-width="0.3" stroke-miterlimit="10" cx="278.4" cy="280.4" r="0.7"/>
		<circle fill="#FFFFFF" stroke="#707E85" stroke-width="0.3" stroke-miterlimit="10" cx="280.9" cy="290" r="0.7"/>
	</g>
	<g>
		<path fill="#FFFFFF" stroke="#707E85" stroke-width="0.3" stroke-miterlimit="10" d="M232.4,334.4v-32.1c0-0.4,0.3-0.7,0.7-0.7
			h49.1c0.4,0,0.7,0.3,0.7,0.7v32.1c0,0.4-0.3,0.7-0.7,0.7h-49.1C232.7,335,232.4,334.7,232.4,334.4z"/>
		<path fill="#FFFFFF" stroke="#707E85" stroke-width="0.3" stroke-miterlimit="10" d="M234.5,331.1v-25.3c0-1.1,0.9-2,2-2h42.2
			c1.1,0,2,0.9,2,2v25.3c0,1.1-0.9,2-2,2h-42.2C235.4,333.1,234.5,332.2,234.5,331.1z"/>
		<path fill="#FFFFFF" stroke="#707E85" stroke-width="0.3" stroke-miterlimit="10" d="M236.3,329.3v-21.8c0-1.1,0.9-2,2-2h38.6
			c1.1,0,2,0.9,2,2v21.8c0,1.1-0.9,2-2,2h-38.6C237.2,331.3,236.3,330.4,236.3,329.3z"/>
		<circle fill="#FFFFFF" stroke="#707E85" stroke-width="0.3" stroke-miterlimit="10" cx="273.7" cy="325.7" r="1.9"/>
	</g>
	<g>
		<g>
			<g opacity="0.2">
				<path fill="#708793" d="M268.2,246.7c0-1.3-0.1-8.6-0.2-9.8c-0.1-1-0.2-2-0.4-3h-14c-0.2,0.8-0.3,1.7-0.4,2.5
					c-0.2,1.4-0.2,9.8-0.2,11.3c0,3.2,2.6,9.9,7.6,9.9C265.7,257.7,268.2,250.4,268.2,246.7z"/>
				<path fill="none" stroke="#708793" stroke-width="0.3" stroke-miterlimit="10" d="M268.2,246.7c0-1.3-0.1-8.6-0.2-9.8
					c-0.1-1-0.2-2-0.4-3h-14c-0.2,0.8-0.3,1.7-0.4,2.5c-0.2,1.4-0.2,9.8-0.2,11.3c0,3.2,2.6,9.9,7.6,9.9
					C265.7,257.7,268.2,250.4,268.2,246.7z"/>
			</g>
			<g>
				<path fill="#FFFFFF" d="M265.2,243.7c0-1.3-0.1-8.6-0.2-9.8c-0.1-1-0.2-2-0.4-3h-14c-0.2,0.8-0.3,1.7-0.4,2.5
					c-0.2,1.4-0.2,9.8-0.2,11.3c0,3.2,2.6,9.9,7.6,9.9C262.7,254.7,265.2,247.4,265.2,243.7z"/>
				<path fill="none" stroke="#707E85" stroke-width="0.3" stroke-miterlimit="10" d="M265.2,243.7c0-1.3-0.1-8.6-0.2-9.8
					c-0.1-1-0.2-2-0.4-3h-14c-0.2,0.8-0.3,1.7-0.4,2.5c-0.2,1.4-0.2,9.8-0.2,11.3c0,3.2,2.6,9.9,7.6,9.9
					C262.7,254.7,265.2,247.4,265.2,243.7z"/>
			</g>
		</g>
		<g>
			<circle fill="#FFFFFF" stroke="#707E85" stroke-width="0.3" stroke-miterlimit="10" cx="261" cy="234.2" r="0.5"/>
			<circle fill="#FFFFFF" stroke="#707E85" stroke-width="0.3" stroke-miterlimit="10" cx="254.2" cy="234.2" r="0.5"/>
		</g>
		<path fill="#FFFFFF" stroke="#707E85" stroke-width="0.3" stroke-miterlimit="10" d="M257.6,252.7c-3.2,0-5.9-4.9-5.9-8.2
			s2.6-5.9,5.9-5.9c3.2,0,5.9,2.6,5.9,5.9S260.8,252.7,257.6,252.7z"/>
		<path fill="#FFFFFF" stroke="#707E85" stroke-width="0.3" stroke-miterlimit="10" d="M259.6,243.2V241c0-0.6-0.9-0.7-2-0.7
			c-1.1,0-2,0.2-2,0.7v2.2c0,1.1,0.9,2,2,2C258.7,245.2,259.6,244.3,259.6,243.2z"/>
		<path fill="none" stroke="#707E85" stroke-width="0.3" stroke-miterlimit="10" d="M265,234.2c-1.9-1.1-4.7-1.9-7.8-1.9
			c-2.7,0-5.2,0.5-7,1.4"/>
	</g>
	<g>
		<g>
			
				<rect x="89.3" y="292.3" fill="#FFFFFF" stroke="#707E85" stroke-width="0.3" stroke-miterlimit="10" width="24.6" height="24.6"/>
		</g>
		<g>
			<circle fill="none" stroke="#707E85" stroke-width="0.6204" stroke-miterlimit="10" cx="101.6" cy="304.6" r="5.7"/>
			<path fill="none" stroke="#707E85" stroke-width="0.6204" stroke-miterlimit="10" d="M105.3,305.1c0-2.2-1.8-4-4-4"/>
		</g>
	</g>
	<g>
		<path fill="#FFFFFF" stroke="#707E85" stroke-width="0.3" stroke-miterlimit="10" d="M391.6,290.8c-10.3,0-13.8,5.9-13.8,8.8V357
			c0,2.9,2.5,5.2,5.6,5.2H400c3.1,0,5.6-2.3,5.6-5.2v-57.4C405.6,296.8,401.9,290.8,391.6,290.8z"/>
		<path fill="#FFFFFF" stroke="#707E85" stroke-width="0.3" stroke-miterlimit="10" d="M391.6,302.7c-8.7,0-11.7,4.8-11.7,7.1v46.4
			c0,2.3,2.1,4.2,4.7,4.2h14.1c2.6,0,4.7-1.9,4.7-4.2v-46.4C403.5,307.5,400.3,302.7,391.6,302.7z"/>
		<ellipse fill="#FFFFFF" stroke="#707E85" stroke-width="0.3" stroke-miterlimit="10" cx="391.7" cy="351.9" rx="1.4" ry="1.4"/>
	</g>
	<g>
		<g>
			<g opacity="0.2">
				<path fill="#708793" d="M318,357.8h-15.7v-33.4H318c2.9,0,5.3,2.4,5.3,5.3v22.9C323.3,355.4,321,357.8,318,357.8z"/>
				<path fill="none" stroke="#708793" stroke-width="0.3" stroke-miterlimit="10" d="M318,357.8h-15.7v-33.4H318
					c2.9,0,5.3,2.4,5.3,5.3v22.9C323.3,355.4,321,357.8,318,357.8z"/>
			</g>
			<g>
				<path fill="#FFFFFF" d="M315,354.8h-15.7v-33.4H315c2.9,0,5.3,2.4,5.3,5.3v22.9C320.3,352.4,318,354.8,315,354.8z"/>
				<path fill="none" stroke="#707E85" stroke-width="0.3" stroke-miterlimit="10" d="M315,354.8h-15.7v-33.4H315
					c2.9,0,5.3,2.4,5.3,5.3v22.9C320.3,352.4,318,354.8,315,354.8z"/>
			</g>
		</g>
		<path fill="#FFFFFF" stroke="#707E85" stroke-width="0.3" stroke-miterlimit="10" d="M315.7,352.4h-8.5c-1.4,0-2.6-1.1-2.6-2.6
			v-23.7c0-1.4,1.1-2.6,2.6-2.6h8.5c1.4,0,2.6,1.1,2.6,2.6v23.7C318.2,351.3,317.1,352.4,315.7,352.4z"/>
		<circle fill="#FFFFFF" stroke="#707E85" stroke-width="0.3" stroke-miterlimit="10" cx="307.3" cy="338" r="1.2"/>
	</g>
	<line fill="none" stroke="#707E85" stroke-width="0.3" stroke-miterlimit="10" x1="375" y1="288.8" x2="375" y2="364.6"/>
	<g>
		<g>
			<g opacity="0.2">
				<path fill="#708793" d="M315.1,303.9c-1.3,0-8.7,0.1-10,0.2c-1,0.1-2.1,0.2-3,0.4v14.2c0.8,0.2,1.7,0.3,2.6,0.4
					c1.4,0.2,10,0.2,11.5,0.2c3.3,0,10.1-2.7,10.1-7.7C326.3,306.5,319,303.9,315.1,303.9z"/>
				<path fill="none" stroke="#708793" stroke-width="0.3" stroke-miterlimit="10" d="M315.1,303.9c-1.3,0-8.7,0.1-10,0.2
					c-1,0.1-2.1,0.2-3,0.4v14.2c0.8,0.2,1.7,0.3,2.6,0.4c1.4,0.2,10,0.2,11.5,0.2c3.3,0,10.1-2.7,10.1-7.7
					C326.3,306.5,319,303.9,315.1,303.9z"/>
			</g>
			<g>
				<path fill="#FFFFFF" d="M312.1,300.9c-1.3,0-8.7,0.1-10,0.2c-1,0.1-2.1,0.2-3,0.4v14.2c0.8,0.2,1.7,0.3,2.6,0.4
					c1.4,0.2,10,0.2,11.5,0.2c3.3,0,10.1-2.7,10.1-7.7C323.3,303.5,316,300.9,312.1,300.9z"/>
				<path fill="none" stroke="#707E85" stroke-width="0.3" stroke-miterlimit="10" d="M312.1,300.9c-1.3,0-8.7,0.1-10,0.2
					c-1,0.1-2.1,0.2-3,0.4v14.2c0.8,0.2,1.7,0.3,2.6,0.4c1.4,0.2,10,0.2,11.5,0.2c3.3,0,10.1-2.7,10.1-7.7
					C323.3,303.5,316,300.9,312.1,300.9z"/>
			</g>
		</g>
		<g>
			<circle fill="#FFFFFF" stroke="#707E85" stroke-width="0.3" stroke-miterlimit="10" cx="302.6" cy="305.3" r="0.5"/>
			<circle fill="#FFFFFF" stroke="#707E85" stroke-width="0.3" stroke-miterlimit="10" cx="302.6" cy="312.1" r="0.5"/>
		</g>
		<path fill="#FFFFFF" stroke="#707E85" stroke-width="0.3" stroke-miterlimit="10" d="M321.3,308.7c0,3.3-5,5.9-8.3,5.9
			s-5.9-2.7-5.9-5.9c0-3.3,2.7-5.9,5.9-5.9S321.3,305.4,321.3,308.7z"/>
		<path fill="#FFFFFF" stroke="#707E85" stroke-width="0.3" stroke-miterlimit="10" d="M311.6,306.7h-2.2c-0.6,0-0.7,0.9-0.7,2
			c0,1.1,0.2,2,0.7,2h2.2c1.1,0,2-0.9,2-2C313.7,307.6,312.8,306.7,311.6,306.7z"/>
		<path fill="none" stroke="#707E85" stroke-width="0.3" stroke-miterlimit="10" d="M302.5,301.2c-1.2,1.9-1.9,4.7-1.9,7.9
			c0,2.8,0.6,5.2,1.4,7.1"/>
	</g>
</g>
<g id="Ouvertures">
	<g>
		<path fill="none" stroke="#707E85" stroke-width="0.3" stroke-miterlimit="10" stroke-dasharray="2,2" d="M344.2,425.6
			c0,20.1-16.6,36.3-37,36.3"/>
		<line fill="none" stroke="#707E85" stroke-width="0.3" stroke-miterlimit="10" x1="307.2" y1="425.6" x2="307.2" y2="461.9"/>
	</g>
	<g>
		<path fill="none" stroke="#707E85" stroke-width="0.3" stroke-miterlimit="10" stroke-dasharray="2,2" d="M233.7,425.6
			c0,17.7,14.6,32,32.7,32"/>
		<line fill="none" stroke="#707E85" stroke-width="0.3" stroke-miterlimit="10" x1="266.4" y1="425.6" x2="266.4" y2="457.6"/>
	</g>
	<g>
		<path fill="none" stroke="#707E85" stroke-width="0.3" stroke-miterlimit="10" stroke-dasharray="2,2" d="M171.3,304.6
			c-19.9,0-36,16.4-36,36.7"/>
		<line fill="none" stroke="#707E85" stroke-width="0.3" stroke-miterlimit="10" x1="171.3" y1="341.3" x2="135.4" y2="341.3"/>
	</g>
	<g>
		<path fill="none" stroke="#707E85" stroke-width="0.3" stroke-miterlimit="10" stroke-dasharray="2,2" d="M365.2,363.3
			c0-19.3-15.9-34.9-35.6-34.9"/>
		<line fill="none" stroke="#707E85" stroke-width="0.3" stroke-miterlimit="10" x1="329.6" y1="363.3" x2="329.6" y2="328.4"/>
	</g>
	<g>
		<path fill="none" stroke="#707E85" stroke-width="0.3" stroke-miterlimit="10" stroke-dasharray="2,2" d="M232.8,265.4
			c17.4,0,31.5,14.5,31.5,32.4"/>
		<line fill="none" stroke="#707E85" stroke-width="0.3" stroke-miterlimit="10" x1="232.8" y1="297.9" x2="264.2" y2="297.9"/>
	</g>
	<g>
		<path fill="none" stroke="#707E85" stroke-width="0.3" stroke-miterlimit="10" stroke-dasharray="2,2" d="M218.2,212.7
			c0-20-16.5-36.2-36.9-36.2"/>
		<line fill="none" stroke="#707E85" stroke-width="0.3" stroke-miterlimit="10" x1="181.3" y1="212.7" x2="181.3" y2="176.5"/>
	</g>
	<g>
		<path fill="none" stroke="#707E85" stroke-width="0.3" stroke-miterlimit="10" stroke-dasharray="2,2" d="M430.8,281.7
			c0-19.3,15.9-35,35.7-35"/>
		<line fill="none" stroke="#707E85" stroke-width="0.3" stroke-miterlimit="10" x1="466.5" y1="281.7" x2="466.5" y2="246.7"/>
	</g>
	<g>
		<g>
			<rect x="345.2" y="121.8" fill="#FFFFFF" width="153.4" height="8.9"/>
			<path fill="#707E85" d="M498.5,122v8.6H345.4V122H498.5 M498.8,121.7H345.1v9.2h153.7V121.7L498.8,121.7z"/>
		</g>
		<g>
			<rect x="422.1" y="121.8" fill="#FFFFFF" width="76.6" height="4.3"/>
			<path fill="#707E85" d="M498.5,122v4h-76.3v-4H498.5 M498.8,121.7H422v4.6h76.9V121.7L498.8,121.7z"/>
		</g>
		<g>
			<rect x="345.2" y="126.8" fill="#FFFFFF" width="75.9" height="3.9"/>
			<path fill="#707E85" d="M421,126.9v3.6h-75.6v-3.6H421 M421.3,126.6h-76.2v4.2h76.2V126.6L421.3,126.6z"/>
		</g>
		<g>
			<g>
				<line fill="none" stroke="#707E85" stroke-width="0.3" stroke-miterlimit="1" x1="449.6" y1="135.1" x2="468.3" y2="135.1"/>
				<g>
					<polygon fill="#707E85" points="467.3,136.3 467.1,136.1 468.2,135.1 467.1,134.1 467.3,133.9 468.6,135.1 					"/>
				</g>
			</g>
		</g>
		<rect x="418.8" y="126.6" fill="#707E85" width="4.8" height="4.2"/>
		<rect x="418.8" y="121.7" fill="#707E85" width="4.8" height="4.6"/>
		<rect x="345.1" y="126.7" fill="#707E85" width="3.6" height="4.1"/>
		<rect x="494.3" y="121.7" fill="#707E85" width="4.5" height="4.6"/>
		<line fill="none" stroke="#707E85" stroke-width="0.1" stroke-miterlimit="1" x1="423.3" y1="124" x2="498.4" y2="124"/>
		<line fill="none" stroke="#707E85" stroke-width="0.1" stroke-miterlimit="1" x1="346.9" y1="128.7" x2="422" y2="128.7"/>
	</g>
	<g>
		<g>
			<rect x="501.6" y="356.4" fill="#FFFFFF" width="2.3" height="63.6"/>
			<path fill="#707E85" d="M503.7,356.6v63.3h-2v-63.3H503.7 M504,356.3h-2.6v63.9h2.6V356.3L504,356.3z"/>
		</g>
		<path fill="none" stroke="#707E85" stroke-width="0.3" stroke-miterlimit="10" stroke-dasharray="2,2" d="M501.4,393.7
			c0,0-17.3-0.3-25.7-10.3l25.7-25.6"/>
		<rect x="501.4" y="391" fill="#707E85" width="2.6" height="5.3"/>
		<g>
			<path fill="none" stroke="#707E85" stroke-width="0.3" stroke-miterlimit="10" stroke-dasharray="2,2" d="M500.5,393.7
				c-14.5,0-23.9,13.5-23.9,23.2"/>
			<line fill="none" stroke="#707E85" stroke-width="0.3" stroke-miterlimit="10" x1="501.4" y1="416.9" x2="476.6" y2="416.9"/>
		</g>
	</g>
	<g>
		<g>
			<rect x="213.4" y="32.8" fill="#FFFFFF" width="63.6" height="2.3"/>
			<path fill="#707E85" d="M276.8,33v2h-63.3v-2H276.8 M277.1,32.7h-63.9v2.6h63.9V32.7L277.1,32.7z"/>
		</g>
		<path fill="none" stroke="#707E85" stroke-width="0.3" stroke-miterlimit="10" stroke-dasharray="2,2" d="M250.6,35.3
			c0,0-0.3,17.3-10.3,25.7l-25.6-25.7"/>
		<rect x="248" y="32.7" fill="#707E85" width="5.3" height="2.6"/>
		<g>
			<path fill="none" stroke="#707E85" stroke-width="0.3" stroke-miterlimit="10" stroke-dasharray="2,2" d="M250.6,36.2
				c0,14.5,13.5,23.9,23.2,23.9"/>
			<line fill="none" stroke="#707E85" stroke-width="0.3" stroke-miterlimit="10" x1="273.8" y1="35.3" x2="273.8" y2="60"/>
		</g>
	</g>
	<g>
		<g>
			<rect x="315" y="553.6" fill="#FFFFFF" width="152.9" height="2.3"/>
			<path fill="#707E85" d="M467.7,553.7v2H315.1v-2H467.7 M468,553.4H314.8v2.6H468V553.4L468,553.4z"/>
		</g>
		<rect x="428.4" y="553.4" fill="#707E85" width="5.4" height="2.6"/>
		<rect x="349.1" y="553.4" fill="#707E85" width="5.4" height="2.6"/>
		<g>
			<path fill="none" stroke="#707E85" stroke-width="0.3" stroke-miterlimit="10" stroke-dasharray="2,2" d="M431.1,552.5
				c0-21.6,18.9-35.6,36.9-35.6"/>
			<line fill="none" stroke="#707E85" stroke-width="0.3" stroke-miterlimit="10" x1="468" y1="553.4" x2="468" y2="516.9"/>
		</g>
		<g>
			<path fill="none" stroke="#707E85" stroke-width="0.3" stroke-miterlimit="10" stroke-dasharray="2,2" d="M351.8,552.5
				c0-21.6-18.9-35.6-36.9-35.6"/>
			<line fill="none" stroke="#707E85" stroke-width="0.3" stroke-miterlimit="10" x1="314.8" y1="553.4" x2="314.8" y2="516.9"/>
		</g>
	</g>
	<g>
		<path fill="none" stroke="#9C9C9C" stroke-width="0.3" stroke-miterlimit="10" stroke-dasharray="2,2" d="M178.3,410.7
			c22.7,0,41.1-18.8,41.1-41.9"/>
		<line fill="none" stroke="#9C9C9C" stroke-width="0.3" stroke-miterlimit="10" x1="178.3" y1="368.8" x2="219.4" y2="368.8"/>
	</g>
</g>
<g id="Étiquettes" display="none">
	<text transform="matrix(1 0 0 1 446.178 537.2456)" display="inline" fill="#3A3A39" font-family="'Lato-Black'" font-size="7px">Chambre 2</text>
	
		<text transform="matrix(1 0 0 1 453.6711 545.6455)" display="inline" fill="#3A3A39" font-family="'Lato-Italic'" font-size="7px">16.30 m</text>
	
		<text transform="matrix(0.583 0 0 0.583 478.2336 543.3145)" display="inline" fill="#3A3A39" font-family="'Lato-Italic'" font-size="7px">2</text>
	<text transform="matrix(1 0 0 1 447.7916 268.6802)" display="inline" fill="#3A3A39" font-family="'Lato-Black'" font-size="7px">Chambre 3</text>
	
		<text transform="matrix(1 0 0 1 455.2848 277.0801)" display="inline" fill="#3A3A39" font-family="'Lato-Italic'" font-size="7px">16.10 m</text>
	
		<text transform="matrix(0.583 0 0 0.583 479.8473 274.749)" display="inline" fill="#3A3A39" font-family="'Lato-Italic'" font-size="7px">2</text>
	<text transform="matrix(1 0 0 1 126.9063 329.2202)" display="inline" fill="#3A3A39" font-family="'Lato-Black'" font-size="7px">Buanderie</text>
	<text transform="matrix(1 0 0 1 136.373 337.6201)" display="inline" fill="#3A3A39" font-family="'Lato-Italic'" font-size="7px">2.80 m</text>
	
		<text transform="matrix(0.583 0 0 0.583 156.875 335.2891)" display="inline" fill="#3A3A39" font-family="'Lato-Italic'" font-size="7px">2</text>
	<text transform="matrix(1 0 0 1 182.264 377.8784)" display="inline"><tspan x="0" y="0" fill="#9C9C9C" font-family="'Lato-Black'" font-size="7px">option  </tspan><tspan x="3.1" y="8.4" fill="#9C9C9C" font-family="'Lato-Black'" font-size="7px">porte</tspan></text>
	<text transform="matrix(1 0 0 1 473.106 107.7524)" display="inline" fill="#3A3A39" font-family="'Lato-Black'" font-size="7px">Loggia </text>
	
		<text transform="matrix(1 0 0 1 473.4663 116.1523)" display="inline" fill="#3A3A39" font-family="'Lato-Italic'" font-size="7px">11.00 m</text>
	
		<text transform="matrix(0.583 0 0 0.583 498.0288 113.8213)" display="inline" fill="#3A3A39" font-family="'Lato-Italic'" font-size="7px">2</text>
	<text transform="matrix(1 0 0 1 252.6404 198.0542)" display="inline" fill="#3A3A39" font-family="'Lato-Black'" font-size="7px">Chambre 1</text>
	
		<text transform="matrix(1 0 0 1 260.1335 206.4541)" display="inline" fill="#3A3A39" font-family="'Lato-Italic'" font-size="7px">12.70 m</text>
	
		<text transform="matrix(0.583 0 0 0.583 284.696 204.123)" display="inline" fill="#3A3A39" font-family="'Lato-Italic'" font-size="7px">2</text>
	<text transform="matrix(1 0 0 1 451.7339 396.3042)" display="inline" fill="#3A3A39" font-family="'Lato-Black'" font-size="7px">Bureau/ </text>
	<text transform="matrix(1 0 0 1 442.9595 404.7041)" display="inline" fill="#3A3A39" font-family="'Lato-Black'" font-size="7px">Dégagement</text>
	<text transform="matrix(1 0 0 1 454.561 413.104)" display="inline" fill="#3A3A39" font-family="'Lato-Italic'" font-size="7px">25.70 m</text>
	
		<text transform="matrix(0.583 0 0 0.583 479.1235 410.7734)" display="inline" fill="#3A3A39" font-family="'Lato-Italic'" font-size="7px">2</text>
</g>
<g id="Murs">
	<g>
		<polygon fill="#707E85" points="313.6,550.6 275,550.6 275,424.6 308.8,424.6 308.8,419.9 264.4,419.9 264.4,424.6 270.8,424.6 
			270.8,550.6 165.6,550.6 165.6,568.5 170.1,568.5 313.6,568.5 317.5,568.5 317.5,553.5 313.6,553.5 		"/>
		<polygon fill="#707E85" points="498.8,284.2 464.9,284.2 464.9,288.8 498.8,288.8 498.8,355 501.5,355 501.5,359 516.6,359 
			516.6,355 516.6,213.6 516.6,121.7 498.8,121.7 		"/>
		<rect x="172.4" y="339.3" fill="#707E85" width="4.5" height="25.3"/>
		<polygon fill="#707E85" points="235,424.6 235,419.9 220.3,419.9 220.3,421.4 220.3,424.6 220.3,506.8 225.1,506.8 225.1,424.6 		
			"/>
		<polygon fill="#707E85" points="501.5,419.9 498.8,419.9 342.6,419.9 342.6,424.6 498.8,424.6 498.8,550.6 471.3,550.6 
			471.3,553.5 467.1,553.5 467.1,568.5 471.3,568.5 508.5,568.5 516.6,568.5 516.6,565.9 516.6,561.9 516.6,553.5 516.6,419.9 
			516.6,416.5 501.5,416.5 		"/>
		<polygon fill="#707E85" points="84.8,347.1 84.8,288.8 166.1,288.8 172.4,288.8 172.4,305.5 176.9,305.5 176.9,288.8 176.9,219 
			183,219 183,214.4 176.9,214.4 176.9,40.9 176.9,38.7 212.8,38.7 212.8,35.2 216.8,35.2 216.8,21.2 212.8,21.2 199.1,21.2 
			166.1,21.2 166.1,24.2 166.1,38.7 166.1,277.5 67.5,277.5 67.5,284.6 67.5,288.8 67.5,347.1 		"/>
		<polygon fill="#707E85" points="227.2,266.3 232.1,266.3 232.1,230.8 283.2,230.8 283.2,335.4 232.1,335.4 232.1,295.7 
			227.2,295.7 227.2,369.8 232.1,369.8 232.1,344.5 283.2,344.5 283.2,364.5 283.2,366 283.2,369.8 330.6,369.8 330.6,364.5 
			299.3,364.5 299.3,288.8 408.8,288.8 408.8,364.5 364.5,364.5 364.5,369.8 408.8,369.8 411.2,369.8 413.6,369.8 413.6,288.8 
			431.4,288.8 431.4,284.2 313.4,284.2 313.4,130.8 345.1,130.8 345.1,121.7 321.6,121.7 321.6,21.2 304.6,21.2 303.9,21.2 
			291.3,21.2 277.8,21.2 273.6,21.2 273.6,35.2 277.8,35.2 277.8,38.7 303.9,38.7 303.9,121.7 303.9,125.4 303.9,130.8 303.9,214.4 
			288.1,214.4 283.2,214.4 216.9,214.4 216.9,219 227.2,219 		"/>
		<polygon fill="#A5B8C4" points="506.7,119.5 508.3,119.5 508.3,30.5 508.3,29.1 506.7,29.1 322.8,29.1 322.8,30.5 506.7,30.5 		
			"/>
	</g>
	<rect x="216.8" y="24" fill="#A5B8C4" width="56.8" height="1.8"/>
	<rect x="317.5" y="563.8" fill="#A5B8C4" width="149.7" height="2.1"/>
	<rect x="511.6" y="359" fill="#A5B8C4" width="2" height="57.5"/>
</g>
<g id="Entree">
</g>
<g id="Nord">
	<circle fill="none" stroke="#707E85" stroke-miterlimit="10" cx="79.4" cy="553.5" r="11.9"/>
	<line fill="none" stroke="#707E85" stroke-width="2" stroke-miterlimit="10" x1="87.1" y1="551" x2="94.5" y2="548.6"/>
	<text transform="matrix(1 0 0 1 73.2374 559.2744)" fill="#707E85" font-family="'Lato-Black'" font-size="16.4252px">N</text>
</g>
</svg>
