<?xml version="1.0" encoding="utf-8"?>
<!-- Generator: Adobe Illustrator 19.0.0, SVG Export Plug-In . SVG Version: 6.00 Build 0)  -->
<svg version="1.1" xmlns="http://www.w3.org/2000/svg" xmlns:xlink="http://www.w3.org/1999/xlink" x="0px" y="0px"
	 viewBox="0 0 595.3 595.3" enable-background="new 0 0 595.3 595.3" xml:space="preserve">
<pattern  width="3.8" height="3.4" patternUnits="userSpaceOnUse" id="Nouvelle_nuance_de_motif_7" viewBox="0 -3.4 3.8 3.4" overflow="visible">
	<g>
		<polygon fill="none" points="0,0 3.8,0 3.8,-3.4 0,-3.4 		"/>
		<polygon fill="#FFFFFF" points="3.7,0 0.1,0 0.1,-3.4 3.7,-3.4 		"/>
		<polygon fill="#E3E3E3" points="3.8,0 3.7,0 3.7,-3.4 3.8,-3.4 		"/>
		<polygon fill="#E3E3E3" points="0.1,0 0,0 0,-3.4 0.1,-3.4 		"/>
	</g>
</pattern>
<g id="Jardin">
</g>
<g id="Fond">
	
		<rect x="63.8" y="150.2" fill="#FFFFFF" stroke="#000000" stroke-width="0.5" stroke-miterlimit="10" width="475.7" height="255.5"/>
	<g>
		<path fill="#707E85" d="M539.5,150.5l0,249.3h0h-0.3v0.3v5.4H345h-0.3v0.3v1.7h-63.3h-0.3v0.3v50.5H146.9H64.1v-76.9V150.5h323.9
			h28.2H539.5 M539.8,150.2H416.2h-28.2H63.8v231.1v77.2h83.1h134.6v-50.8H345v-2h194.4v-5.7h0.3L539.8,150.2L539.8,150.2z"/>
	</g>
	<polygon fill="#EAF6FE" points="282.7,400.8 344.4,400.8 344.4,409 527.2,409 527.2,162.6 152.4,162.6 152.4,311 75.5,311 
		75.5,449.7 282.7,449.7 	"/>
</g>
<g id="Sol">
	<rect x="284.1" y="162.6" opacity="0.8" fill="#FFFFFF" width="72.5" height="117"/>
	<rect x="284.1" y="350" opacity="0.8" fill="#FFFFFF" width="60.3" height="51.6"/>
	<pattern  id="SVGID_1_" xlink:href="#Nouvelle_nuance_de_motif_7" patternTransform="matrix(1 0 0 1 -7.626 10.3125)">
	</pattern>
	<rect x="64.2" y="151.7" fill="url(#SVGID_1_)" width="88.1" height="159.3"/>
</g>
<g id="Installations">
	<g>
		<g>
			<g>
				<path fill="#EAF6FE" stroke="#CBD3D7" stroke-width="0.3" stroke-miterlimit="10" d="M217.3,223.5h-1.7v15.1h1.7
					c0.7,0,1.2-0.5,1.2-1.2v-12.6C218.5,224,218,223.5,217.3,223.5z"/>
				
					<rect x="210.9" y="223.5" fill="#EAF6FE" stroke="#CBD3D7" stroke-width="0.3" stroke-miterlimit="10" width="4.7" height="15.1"/>
				
					<line fill="#EAF6FE" stroke="#CBD3D7" stroke-width="0.3" stroke-miterlimit="10" x1="215.6" y1="225.6" x2="210.9" y2="225.6"/>
				
					<line fill="#EAF6FE" stroke="#CBD3D7" stroke-width="0.3" stroke-miterlimit="10" x1="210.9" y1="236.5" x2="215.6" y2="236.5"/>
			</g>
			<g>
				<path fill="#EAF6FE" stroke="#CBD3D7" stroke-width="0.3" stroke-miterlimit="10" d="M217.3,241.3h-1.7v15.1h1.7
					c0.7,0,1.2-0.5,1.2-1.2v-12.6C218.5,241.9,218,241.3,217.3,241.3z"/>
				
					<rect x="210.9" y="241.3" fill="#EAF6FE" stroke="#CBD3D7" stroke-width="0.3" stroke-miterlimit="10" width="4.7" height="15.1"/>
				
					<line fill="#EAF6FE" stroke="#CBD3D7" stroke-width="0.3" stroke-miterlimit="10" x1="215.6" y1="243.4" x2="210.9" y2="243.4"/>
				
					<line fill="#EAF6FE" stroke="#CBD3D7" stroke-width="0.3" stroke-miterlimit="10" x1="210.9" y1="254.3" x2="215.6" y2="254.3"/>
			</g>
			<g>
				<path fill="#EAF6FE" stroke="#CBD3D7" stroke-width="0.3" stroke-miterlimit="10" d="M217.3,259.1h-1.7v15.1h1.7
					c0.7,0,1.2-0.5,1.2-1.2v-12.6C218.5,259.7,218,259.1,217.3,259.1z"/>
				
					<rect x="210.9" y="259.1" fill="#EAF6FE" stroke="#CBD3D7" stroke-width="0.3" stroke-miterlimit="10" width="4.7" height="15.1"/>
				
					<line fill="#EAF6FE" stroke="#CBD3D7" stroke-width="0.3" stroke-miterlimit="10" x1="215.6" y1="261.2" x2="210.9" y2="261.2"/>
				
					<line fill="#EAF6FE" stroke="#CBD3D7" stroke-width="0.3" stroke-miterlimit="10" x1="210.9" y1="272.1" x2="215.6" y2="272.1"/>
			</g>
		</g>
		<g>
			<path fill="#EAF6FE" stroke="#CBD3D7" stroke-width="0.3" stroke-miterlimit="10" d="M175,274.2h1.7v-15.1H175
				c-0.7,0-1.2,0.5-1.2,1.2V273C173.7,273.6,174.3,274.2,175,274.2z"/>
			
				<rect x="176.7" y="259.1" fill="#EAF6FE" stroke="#CBD3D7" stroke-width="0.3" stroke-miterlimit="10" width="4.7" height="15.1"/>
			<line fill="#EAF6FE" stroke="#CBD3D7" stroke-width="0.3" stroke-miterlimit="10" x1="176.7" y1="272.1" x2="181.4" y2="272.1"/>
			<line fill="#EAF6FE" stroke="#CBD3D7" stroke-width="0.3" stroke-miterlimit="10" x1="181.4" y1="261.2" x2="176.7" y2="261.2"/>
		</g>
		<g>
			<path fill="#EAF6FE" stroke="#CBD3D7" stroke-width="0.3" stroke-miterlimit="10" d="M175,256.4h1.7v-15.1H175
				c-0.7,0-1.2,0.5-1.2,1.2v12.6C173.7,255.8,174.3,256.4,175,256.4z"/>
			
				<rect x="176.7" y="241.3" fill="#EAF6FE" stroke="#CBD3D7" stroke-width="0.3" stroke-miterlimit="10" width="4.7" height="15.1"/>
			<line fill="#EAF6FE" stroke="#CBD3D7" stroke-width="0.3" stroke-miterlimit="10" x1="176.7" y1="254.3" x2="181.4" y2="254.3"/>
			<line fill="#EAF6FE" stroke="#CBD3D7" stroke-width="0.3" stroke-miterlimit="10" x1="181.4" y1="243.4" x2="176.7" y2="243.4"/>
		</g>
		<g>
			<path fill="#EAF6FE" stroke="#CBD3D7" stroke-width="0.3" stroke-miterlimit="10" d="M170.7,234.1l1.6,0.7l5.8-13.9l-1.6-0.7
				c-0.6-0.3-1.3,0-1.6,0.7l-4.9,11.6C169.8,233.1,170.1,233.8,170.7,234.1z"/>
			
				<rect x="174.6" y="222.8" transform="matrix(0.922 0.3873 -0.3873 0.922 103.3587 -52.2202)" fill="#EAF6FE" stroke="#CBD3D7" stroke-width="0.3" stroke-miterlimit="10" width="13.2" height="15.1"/>
			<line fill="#EAF6FE" stroke="#CBD3D7" stroke-width="0.3" stroke-miterlimit="10" x1="173" y1="232.8" x2="185.2" y2="238"/>
			<line fill="#EAF6FE" stroke="#CBD3D7" stroke-width="0.3" stroke-miterlimit="10" x1="189.5" y1="227.9" x2="177.3" y2="222.8"/>
		</g>
		<g>
			<g opacity="5.000000e-002">
				<path fill="#707E85" d="M212.6,283.1h-27c-0.7,0-1.2-0.5-1.2-1.2v-60c0-0.7,0.5-1.2,1.2-1.2h27c0.7,0,1.2,0.5,1.2,1.2v60
					C213.9,282.5,213.3,283.1,212.6,283.1z"/>
				<path fill="none" stroke="#707E85" stroke-width="0.3" stroke-miterlimit="10" d="M212.6,283.1h-27c-0.7,0-1.2-0.5-1.2-1.2v-60
					c0-0.7,0.5-1.2,1.2-1.2h27c0.7,0,1.2,0.5,1.2,1.2v60C213.9,282.5,213.3,283.1,212.6,283.1z"/>
			</g>
			<g>
				<path fill="#EAF6FE" d="M209.6,280.1h-27c-0.7,0-1.2-0.5-1.2-1.2v-60c0-0.7,0.5-1.2,1.2-1.2h27c0.7,0,1.2,0.5,1.2,1.2v60
					C210.9,279.5,210.3,280.1,209.6,280.1z"/>
				<path fill="none" stroke="#CBD3D7" stroke-width="0.3" stroke-miterlimit="10" d="M209.6,280.1h-27c-0.7,0-1.2-0.5-1.2-1.2v-60
					c0-0.7,0.5-1.2,1.2-1.2h27c0.7,0,1.2,0.5,1.2,1.2v60C210.9,279.5,210.3,280.1,209.6,280.1z"/>
			</g>
		</g>
		<path fill="#EAF6FE" stroke="#CBD3D7" stroke-width="0.3" stroke-miterlimit="10" d="M197.7,271.1l-2.7-2c-0.4-0.3-0.5-1-0.2-1.4
			l3.5-4.8c0.3-0.4,1-0.5,1.4-0.2l2.7,2c0.4,0.3,0.5,1,0.2,1.4l-3.5,4.8C198.8,271.4,198.1,271.5,197.7,271.1z"/>
	</g>
	<g>
		<g>
			<g>
				<g opacity="5.000000e-002">
					<path fill="#707E85" d="M202.6,420.7c-2.4-13.2-2.4-26.4,0-39.6c0.1-0.5,0.6-0.9,1.1-0.9h15.6c0.5,0,1,0.4,1.1,0.9
						c2.4,13.2,2.4,26.4,0,39.6c-0.1,0.5-0.6,0.9-1.1,0.9h-15.6C203.2,421.6,202.7,421.2,202.6,420.7z"/>
					<path fill="none" stroke="#707E85" stroke-width="0.3" stroke-miterlimit="10" d="M202.6,420.7c-2.4-13.2-2.4-26.4,0-39.6
						c0.1-0.5,0.6-0.9,1.1-0.9h15.6c0.5,0,1,0.4,1.1,0.9c2.4,13.2,2.4,26.4,0,39.6c-0.1,0.5-0.6,0.9-1.1,0.9h-15.6
						C203.2,421.6,202.7,421.2,202.6,420.7z"/>
				</g>
				<g>
					<path fill="#EAF6FE" d="M199.6,417.7c-2.4-13.2-2.4-26.4,0-39.6c0.1-0.5,0.6-0.9,1.1-0.9h15.6c0.5,0,1,0.4,1.1,0.9
						c2.4,13.2,2.4,26.4,0,39.6c-0.1,0.5-0.6,0.9-1.1,0.9h-15.6C200.2,418.6,199.7,418.2,199.6,417.7z"/>
					<path fill="none" stroke="#CBD3D7" stroke-width="0.3" stroke-miterlimit="10" d="M199.6,417.7c-2.4-13.2-2.4-26.4,0-39.6
						c0.1-0.5,0.6-0.9,1.1-0.9h15.6c0.5,0,1,0.4,1.1,0.9c2.4,13.2,2.4,26.4,0,39.6c-0.1,0.5-0.6,0.9-1.1,0.9h-15.6
						C200.2,418.6,199.7,418.2,199.6,417.7z"/>
				</g>
			</g>
			<path fill="#EAF6FE" stroke="#CBD3D7" stroke-width="0.3" stroke-miterlimit="10" d="M208.4,400.2l-2.3-1.7
				c-0.4-0.3-0.5-1-0.2-1.4l3.2-4.2c0.3-0.4,1-0.5,1.4-0.2l2.3,1.7c0.4,0.3,0.5,1,0.2,1.4l-3.2,4.2
				C209.5,400.4,208.9,400.5,208.4,400.2z"/>
			<path fill="#EAF6FE" stroke="#CBD3D7" stroke-width="0.3" stroke-miterlimit="10" d="M205.9,402.4l-1.3-2.6
				c-0.3-0.5-0.1-1.1,0.4-1.3l4.7-2.4c0.5-0.3,1.1-0.1,1.3,0.4l1.3,2.6c0.3,0.5,0.1,1.1-0.4,1.3l-4.7,2.4
				C206.7,403.1,206.1,402.9,205.9,402.4z"/>
			<circle fill="#EAF6FE" stroke="#CBD3D7" stroke-width="0.3" stroke-miterlimit="10" cx="204.7" cy="410.3" r="4.8"/>
			
				<path fill="#EAF6FE" stroke="#CBD3D7" stroke-width="0.3" stroke-linecap="round" stroke-linejoin="round" stroke-miterlimit="10" d="
				M207.7,409c3.8,2.5-0.4,7-3.9,4.8C204.9,414.7,209.2,410.7,207.7,409z"/>
			<circle fill="#EAF6FE" stroke="#CBD3D7" stroke-width="0.3" stroke-miterlimit="10" cx="208" cy="405.4" r="0.6"/>
			<circle fill="#EAF6FE" stroke="#CBD3D7" stroke-width="0.3" stroke-miterlimit="10" cx="206.6" cy="405.3" r="0.6"/>
			<circle fill="#EAF6FE" stroke="#CBD3D7" stroke-width="0.3" stroke-miterlimit="10" cx="206.5" cy="406.4" r="0.6"/>
			<circle fill="#EAF6FE" stroke="#CBD3D7" stroke-width="0.3" stroke-miterlimit="10" cx="207.6" cy="406.4" r="0.6"/>
			<circle fill="#EAF6FE" stroke="#CBD3D7" stroke-width="0.3" stroke-miterlimit="10" cx="209.1" cy="406.2" r="0.6"/>
			<circle fill="#EAF6FE" stroke="#CBD3D7" stroke-width="0.3" stroke-miterlimit="10" cx="209.5" cy="407.2" r="0.6"/>
			<circle fill="#EAF6FE" stroke="#CBD3D7" stroke-width="0.3" stroke-miterlimit="10" cx="209.3" cy="408.5" r="0.6"/>
			<circle fill="#EAF6FE" stroke="#CBD3D7" stroke-width="0.3" stroke-miterlimit="10" cx="208.4" cy="407.2" r="0.6"/>
			<circle fill="#EAF6FE" stroke="#CBD3D7" stroke-width="0.3" stroke-miterlimit="10" cx="207.1" cy="407.5" r="0.6"/>
			<circle fill="#EAF6FE" stroke="#CBD3D7" stroke-width="0.3" stroke-miterlimit="10" cx="208.1" cy="408.4" r="0.6"/>
			<circle fill="#EAF6FE" stroke="#CBD3D7" stroke-width="0.3" stroke-miterlimit="10" cx="203.5" cy="408" r="1.7"/>
			<circle fill="#EAF6FE" stroke="#CBD3D7" stroke-width="0.3" stroke-miterlimit="10" cx="206.2" cy="408.8" r="1.2"/>
			
				<ellipse transform="matrix(0.2653 0.9642 -0.9642 0.2653 545.5844 104.4841)" fill="#EAF6FE" stroke="#CBD3D7" stroke-width="0.3" stroke-miterlimit="10" cx="204.2" cy="410.2" rx="1" ry="1.5"/>
			
				<path fill="#EAF6FE" stroke="#CBD3D7" stroke-width="0.3" stroke-linecap="round" stroke-linejoin="round" stroke-miterlimit="10" d="
				M207.6,408.8c2.3,4-3.5,6.1-5.7,2.6C202.6,412.6,208.2,411,207.6,408.8z"/>
		</g>
		<g>
			<g>
				
					<path fill="#EAF6FE" stroke="#CBD3D7" stroke-width="0.3" stroke-linecap="round" stroke-linejoin="round" stroke-miterlimit="10" d="
					M207.3,385c0,0,3.1-1.3,4.9-0.2C212.2,384.9,211,386.4,207.3,385z"/>
				
					<path fill="#EAF6FE" stroke="#CBD3D7" stroke-width="0.3" stroke-linecap="round" stroke-linejoin="round" stroke-miterlimit="10" d="
					M207.3,385c0,0,3.2,0.1,4.5,1.9C211.8,386.9,210.1,387.9,207.3,385z"/>
				
					<path fill="#EAF6FE" stroke="#CBD3D7" stroke-width="0.3" stroke-linecap="round" stroke-linejoin="round" stroke-miterlimit="10" d="
					M211.2,381.7c0,0-3.2,0-4,3.3C207.3,385,211.1,384.1,211.2,381.7z"/>
				
					<path fill="#EAF6FE" stroke="#CBD3D7" stroke-width="0.3" stroke-linecap="round" stroke-linejoin="round" stroke-miterlimit="10" d="
					M202.2,381.3c0,0,4,0.7,5,3.7C207.3,385,204,385.4,202.2,381.3z"/>
				
					<path fill="#EAF6FE" stroke="#CBD3D7" stroke-width="0.3" stroke-linecap="round" stroke-linejoin="round" stroke-miterlimit="10" d="
					M208,379.6c0,0,0.7,2.2-0.8,5.4C207.3,385,206.1,382,208,379.6z"/>
				
					<path fill="#EAF6FE" stroke="#CBD3D7" stroke-width="0.3" stroke-linecap="round" stroke-linejoin="round" stroke-miterlimit="10" d="
					M201,384.9c0,0,4.1-1.6,6.3,0.1C207.3,384.9,206.9,386.2,201,384.9z"/>
				
					<path fill="#EAF6FE" stroke="#CBD3D7" stroke-width="0.3" stroke-linecap="round" stroke-linejoin="round" stroke-miterlimit="10" d="
					M210.7,389.1c0,0-1.4-3.4-3.4-4.1C207.3,385,208.2,387.3,210.7,389.1z"/>
				
					<path fill="#EAF6FE" stroke="#CBD3D7" stroke-width="0.3" stroke-linecap="round" stroke-linejoin="round" stroke-miterlimit="10" d="
					M202,388.1c0,0,2-2.8,5.2-3.1C207.3,385,205.6,387.7,202,388.1z"/>
				
					<path fill="#EAF6FE" stroke="#CBD3D7" stroke-width="0.3" stroke-linecap="round" stroke-linejoin="round" stroke-miterlimit="10" d="
					M208.4,390.5c0,0,0.6-3.4-1.1-5.5C207.3,384.9,206.2,387.1,208.4,390.5z"/>
				
					<path fill="#EAF6FE" stroke="#CBD3D7" stroke-width="0.3" stroke-linecap="round" stroke-linejoin="round" stroke-miterlimit="10" d="
					M205.2,379.6c0,0,2.2,1.6,2.1,5.3C207.3,384.9,204.8,382.8,205.2,379.6z"/>
				
					<path fill="#EAF6FE" stroke="#CBD3D7" stroke-width="0.3" stroke-linecap="round" stroke-linejoin="round" stroke-miterlimit="10" d="
					M203.6,389.7c0,0,1.3-4.2,3.8-4.9C207.4,384.8,207.1,387.9,203.6,389.7z"/>
				
					<path fill="#EAF6FE" stroke="#CBD3D7" stroke-width="0.3" stroke-linecap="round" stroke-linejoin="round" stroke-miterlimit="10" d="
					M205.8,390.7c0,0-0.6-3.5,1.5-5.7C207.3,384.9,208.4,387.4,205.8,390.7z"/>
				
					<path fill="#EAF6FE" stroke="#CBD3D7" stroke-width="0.3" stroke-linecap="round" stroke-linejoin="round" stroke-miterlimit="10" d="
					M207.4,384.7c0,0-0.1-2,2.3-4.4C209.7,380.3,209.5,382.4,207.4,384.7z"/>
				
					<path fill="#EAF6FE" stroke="#CBD3D7" stroke-width="0.3" stroke-linecap="round" stroke-linejoin="round" stroke-miterlimit="10" d="
					M204,380.4c0,0,2.7,1.8,3.3,4.3C207.3,384.8,205,384.4,204,380.4z"/>
			</g>
			<g>
				
					<path fill="#EAF6FE" stroke="#CBD3D7" stroke-width="0.3" stroke-linecap="round" stroke-linejoin="round" stroke-miterlimit="10" d="
					M207,385.1c0,0,1.9,0.1,2.7,1.1C209.7,386.2,208.7,386.7,207,385.1z"/>
				
					<path fill="#EAF6FE" stroke="#CBD3D7" stroke-width="0.3" stroke-linecap="round" stroke-linejoin="round" stroke-miterlimit="10" d="
					M209.3,383.1c0,0-1.9,0-2.4,2C207,385.1,209.2,384.5,209.3,383.1z"/>
				
					<path fill="#EAF6FE" stroke="#CBD3D7" stroke-width="0.3" stroke-linecap="round" stroke-linejoin="round" stroke-miterlimit="10" d="
					M204,382.9c0,0,2.4,0.4,3,2.2C207,385.1,205.1,385.3,204,382.9z"/>
				
					<path fill="#EAF6FE" stroke="#CBD3D7" stroke-width="0.3" stroke-linecap="round" stroke-linejoin="round" stroke-miterlimit="10" d="
					M207.5,381.8c0,0,0.4,1.3-0.5,3.2C207,385.1,206.3,383.3,207.5,381.8z"/>
				
					<path fill="#EAF6FE" stroke="#CBD3D7" stroke-width="0.3" stroke-linecap="round" stroke-linejoin="round" stroke-miterlimit="10" d="
					M203.9,386.9c0,0,1.2-1.7,3.1-1.8C207,385.1,206,386.7,203.9,386.9z"/>
				
					<path fill="#EAF6FE" stroke="#CBD3D7" stroke-width="0.3" stroke-linecap="round" stroke-linejoin="round" stroke-miterlimit="10" d="
					M207.7,388.3c0,0,0.3-2-0.6-3.3C207,385,206.3,386.3,207.7,388.3z"/>
				
					<path fill="#EAF6FE" stroke="#CBD3D7" stroke-width="0.3" stroke-linecap="round" stroke-linejoin="round" stroke-miterlimit="10" d="
					M205.8,381.8c0,0,1.3,1,1.3,3.2C207,385,205.5,383.7,205.8,381.8z"/>
				
					<path fill="#EAF6FE" stroke="#CBD3D7" stroke-width="0.3" stroke-linecap="round" stroke-linejoin="round" stroke-miterlimit="10" d="
					M206.1,388.4c0,0-0.3-2.1,0.9-3.4C207,385,207.7,386.5,206.1,388.4z"/>
			</g>
		</g>
	</g>
	<g>
		<g>
			<g opacity="5.000000e-002">
				<path fill="#707E85" d="M171.9,436.7h59.8c0.7,0,1.2,0.4,1.2,1v12.4c0,0.6-0.5,1-1.2,1h-59.8c-0.7,0-1.2-0.4-1.2-1v-12.4
					C170.7,437.1,171.2,436.7,171.9,436.7z"/>
				<path fill="none" stroke="#707E85" stroke-width="0.3" stroke-miterlimit="10" d="M171.9,436.7h59.8c0.7,0,1.2,0.4,1.2,1v12.4
					c0,0.6-0.5,1-1.2,1h-59.8c-0.7,0-1.2-0.4-1.2-1v-12.4C170.7,437.1,171.2,436.7,171.9,436.7z"/>
			</g>
			<g>
				<path fill="#EAF6FE" d="M168.9,433.7h59.8c0.7,0,1.2,0.4,1.2,1v12.4c0,0.6-0.5,1-1.2,1h-59.8c-0.7,0-1.2-0.4-1.2-1v-12.4
					C167.7,434.1,168.2,433.7,168.9,433.7z"/>
				<path fill="none" stroke="#CBD3D7" stroke-width="0.3" stroke-miterlimit="10" d="M168.9,433.7h59.8c0.7,0,1.2,0.4,1.2,1v12.4
					c0,0.6-0.5,1-1.2,1h-59.8c-0.7,0-1.2-0.4-1.2-1v-12.4C167.7,434.1,168.2,433.7,168.9,433.7z"/>
			</g>
		</g>
		<path fill="#EAF6FE" stroke="#CBD3D7" stroke-width="0.3" stroke-miterlimit="10" d="M206.9,440.7v4.8c0,0.6-0.4,1-1,1h-14.2
			c-0.6,0-1-0.4-1-1v-4.8c0-0.6,0.4-1,1-1h14.2C206.5,439.7,206.9,440.2,206.9,440.7z"/>
		<path fill="#EAF6FE" stroke="#CBD3D7" stroke-width="0.2953" stroke-miterlimit="10" d="M205.6,445.9H192c-0.3,0-0.6-0.3-0.6-0.6
			v-4.5c0-0.3,0.3-0.6,0.6-0.6h13.6c0.3,0,0.6,0.3,0.6,0.6v4.5C206.2,445.7,206,445.9,205.6,445.9z"/>
		<rect x="173.8" y="441.7" fill="#EAF6FE" stroke="#CBD3D7" stroke-width="0.3" stroke-miterlimit="10" width="50" height="1.4"/>
	</g>
	<g>
		<g>
			<g opacity="5.000000e-002">
				<path fill="#707E85" d="M281.9,428.6v-57.7c0-3-2.4-5.4-5.4-5.4h-21.7c-0.7,0-1.2,0.5-1.2,1.2v0.2c0,0.7,0.5,1.2,1.2,1.2h0.8
					c-0.8,0-1.4,0.6-1.4,1.4v18.3c0,0.8,0.6,1.4,1.4,1.4c-0.8,0-1.4,0.6-1.4,1.4V409c0,0.8,0.6,1.4,1.4,1.4c-0.8,0-1.4,0.6-1.4,1.4
					V430c0,0.7,0.6,1.3,1.3,1.4h-0.7c-0.7,0-1.2,0.5-1.2,1.2v0.2c0,0.7,0.5,1.2,1.2,1.2h21.7C279.5,434,281.9,431.6,281.9,428.6z"/>
				<path fill="none" stroke="#707E85" stroke-width="0.3" stroke-miterlimit="10" d="M281.9,428.6v-57.7c0-3-2.4-5.4-5.4-5.4h-21.7
					c-0.7,0-1.2,0.5-1.2,1.2v0.2c0,0.7,0.5,1.2,1.2,1.2h0.8c-0.8,0-1.4,0.6-1.4,1.4v18.3c0,0.8,0.6,1.4,1.4,1.4
					c-0.8,0-1.4,0.6-1.4,1.4V409c0,0.8,0.6,1.4,1.4,1.4c-0.8,0-1.4,0.6-1.4,1.4V430c0,0.7,0.6,1.3,1.3,1.4h-0.7
					c-0.7,0-1.2,0.5-1.2,1.2v0.2c0,0.7,0.5,1.2,1.2,1.2h21.7C279.5,434,281.9,431.6,281.9,428.6z"/>
			</g>
			<g>
				<path fill="#EAF6FE" d="M278.9,425.6v-57.7c0-3-2.4-5.4-5.4-5.4h-21.7c-0.7,0-1.2,0.5-1.2,1.2v0.2c0,0.7,0.5,1.2,1.2,1.2h0.8
					c-0.8,0-1.4,0.6-1.4,1.4v18.3c0,0.8,0.6,1.4,1.4,1.4c-0.8,0-1.4,0.6-1.4,1.4V406c0,0.8,0.6,1.4,1.4,1.4c-0.8,0-1.4,0.6-1.4,1.4
					V427c0,0.7,0.6,1.3,1.3,1.4h-0.7c-0.7,0-1.2,0.5-1.2,1.2v0.2c0,0.7,0.5,1.2,1.2,1.2h21.7C276.5,431,278.9,428.6,278.9,425.6z"/>
				<path fill="none" stroke="#CBD3D7" stroke-width="0.3" stroke-miterlimit="10" d="M278.9,425.6v-57.7c0-3-2.4-5.4-5.4-5.4h-21.7
					c-0.7,0-1.2,0.5-1.2,1.2v0.2c0,0.7,0.5,1.2,1.2,1.2h0.8c-0.8,0-1.4,0.6-1.4,1.4v18.3c0,0.8,0.6,1.4,1.4,1.4
					c-0.8,0-1.4,0.6-1.4,1.4V406c0,0.8,0.6,1.4,1.4,1.4c-0.8,0-1.4,0.6-1.4,1.4V427c0,0.7,0.6,1.3,1.3,1.4h-0.7
					c-0.7,0-1.2,0.5-1.2,1.2v0.2c0,0.7,0.5,1.2,1.2,1.2h21.7C276.5,431,278.9,428.6,278.9,425.6z"/>
			</g>
		</g>
		<g>
			<path fill="#EAF6FE" stroke="#CBD3D7" stroke-width="0.3033" stroke-miterlimit="10" d="M278.9,425.6v-57.7c0-3-2.4-5.4-5.4-5.4
				h-21.7c-0.7,0-1.2,0.5-1.2,1.2v0.2c0,0.7,0.5,1.2,1.2,1.2h18.6v63.2h-18.6c-0.7,0-1.2,0.5-1.2,1.2v0.2c0,0.7,0.5,1.2,1.2,1.2
				h21.7C276.5,431,278.9,428.6,278.9,425.6z"/>
			<g>
				<g>
					<path fill="#EAF6FE" stroke="#CBD3D7" stroke-width="0.3" stroke-miterlimit="10" d="M268.3,367c0.6,5.8,0.6,11.7,0,17.5
						c-0.1,1.3,0.8,2.5,2.1,2.6c1,0.1,1.9,0.2,2.9,0.4c1.3,0.2,2.5-0.8,2.6-2.3c0.6-6.3,0.6-12.6,0-18.9c-0.1-1.4-1.3-2.4-2.6-2.3
						c-1,0.1-1.9,0.2-2.9,0.4C269,364.5,268.1,365.7,268.3,367z"/>
					
						<path fill="#EAF6FE" stroke="#CBD3D7" stroke-width="0.3" stroke-linecap="round" stroke-linejoin="round" stroke-miterlimit="10" d="
						M270.2,366.5c0.6,0.1,0.6,18.3,0,18.5"/>
				</g>
			</g>
			<g>
				<g>
					<path fill="#EAF6FE" stroke="#CBD3D7" stroke-width="0.3" stroke-miterlimit="10" d="M268.3,409.1c0.6,5.8,0.6,11.7,0,17.5
						c-0.1,1.3,0.8,2.5,2.1,2.6c1,0.1,1.9,0.2,2.9,0.4c1.3,0.2,2.5-0.8,2.6-2.3c0.6-6.3,0.6-12.6,0-18.9c-0.1-1.4-1.3-2.4-2.6-2.3
						c-1,0.1-1.9,0.2-2.9,0.4C269,406.7,268.1,407.8,268.3,409.1z"/>
					
						<path fill="#EAF6FE" stroke="#CBD3D7" stroke-width="0.3" stroke-linecap="round" stroke-linejoin="round" stroke-miterlimit="10" d="
						M270.2,408.6c0.6,0.1,0.6,18.3,0,18.5"/>
				</g>
			</g>
			<g>
				
					<line fill="#EAF6FE" stroke="#CBD3D7" stroke-width="0.3" stroke-miterlimit="10" x1="271.5" y1="386.2" x2="252.6" y2="386.2"/>
				
					<line fill="#EAF6FE" stroke="#CBD3D7" stroke-width="0.3" stroke-miterlimit="10" x1="252.6" y1="407.3" x2="271.5" y2="407.3"/>
				<g>
					<path fill="#EAF6FE" stroke="#CBD3D7" stroke-width="0.3" stroke-miterlimit="10" d="M268.3,388.1c0.6,5.8,0.6,11.7,0,17.5
						c-0.1,1.3,0.8,2.5,2.1,2.6c1,0.1,1.9,0.2,2.9,0.4c1.3,0.2,2.5-0.8,2.6-2.3c0.6-6.3,0.6-12.6,0-18.9c-0.1-1.4-1.3-2.4-2.6-2.3
						c-1,0.1-1.9,0.2-2.9,0.4C269,385.6,268.1,386.8,268.3,388.1z"/>
					
						<path fill="#EAF6FE" stroke="#CBD3D7" stroke-width="0.3" stroke-linecap="round" stroke-linejoin="round" stroke-miterlimit="10" d="
						M270.2,387.6c0.6,0.1,0.6,18.3,0,18.5"/>
				</g>
			</g>
			<path fill="#EAF6FE" stroke="#CBD3D7" stroke-width="0.3" stroke-miterlimit="10" d="M273.2,366c-0.5,0.8-3.9,3.9-4.1,4.1
				c0,1.6-0.8,4.4-1.4,4.9c-0.5-0.2-0.3-0.4-0.9-0.8c-0.8-0.2-5-1.2-7.2-3.1c1-1.2,1.7-7.1,3.4-8.7c0.4-0.9,0.6-1.7,1.4-2.4
				c0.5,0.2,2.4,2.5,2.6,3.4C268.2,364,272.5,364.8,273.2,366z"/>
			<path fill="#EAF6FE" stroke="#CBD3D7" stroke-width="0.3" stroke-miterlimit="10" d="M274,424.5c-0.6,0.8-7.5,5.8-8,6.1
				c-1.6-0.4-3.9-3.6-4.4-4.5c-1.1-0.3-2.3-1-2.8-1.6c0.4-0.4,1.4-1.3,1.9-1.6c0.3-0.5,3.1-3.8,5.2-4.5c0.5-0.5,1.1-1.1,1.4-1
				c0.6,0.7,0.9,1.7,1,2.2C268.8,420,273.9,423.6,274,424.5z"/>
		</g>
	</g>
	<g>
		<g>
			<rect x="284.5" y="322.1" fill="#FFFFFF" width="59.7" height="20.8"/>
			<path fill="#707E85" d="M344.1,322.3v20.5h-59.4v-20.5H344.1 M344.4,322h-60v21.1h60V322L344.4,322z"/>
		</g>
		<line fill="none" stroke="#707E85" stroke-width="0.5" stroke-miterlimit="10" x1="292.5" y1="339.4" x2="293.7" y2="325.7"/>
		<line fill="none" stroke="#707E85" stroke-width="0.5" stroke-miterlimit="10" x1="296.9" y1="339.4" x2="295.5" y2="325.7"/>
		<line fill="none" stroke="#707E85" stroke-width="0.5" stroke-miterlimit="10" x1="298.5" y1="339.4" x2="299.7" y2="325.7"/>
		<line fill="none" stroke="#707E85" stroke-width="0.5" stroke-miterlimit="10" x1="302.9" y1="339.4" x2="301.5" y2="325.7"/>
		<line fill="none" stroke="#707E85" stroke-width="0.5" stroke-miterlimit="10" x1="325.8" y1="339.4" x2="327" y2="325.7"/>
		<line fill="none" stroke="#707E85" stroke-width="0.5" stroke-miterlimit="10" x1="330.2" y1="339.4" x2="328.8" y2="325.7"/>
		<line fill="none" stroke="#707E85" stroke-width="0.5" stroke-miterlimit="10" x1="331.9" y1="339.4" x2="333" y2="325.7"/>
		<line fill="none" stroke="#707E85" stroke-width="0.5" stroke-miterlimit="10" x1="336.2" y1="339.4" x2="334.8" y2="325.7"/>
		<line fill="#EAF6FE" stroke="#707E85" stroke-width="0.3" stroke-miterlimit="10" x1="284.4" y1="323.5" x2="344.1" y2="323.5"/>
		<line fill="#EAF6FE" stroke="#707E85" stroke-width="0.3" stroke-miterlimit="10" x1="314.2" y1="323.5" x2="314.2" y2="322.1"/>
		<polyline fill="none" stroke="#707E85" stroke-width="0.3" stroke-miterlimit="10" points="307.7,322.1 307.7,321.3 310,321.3 
			310,322.1 		"/>
		<polyline fill="none" stroke="#707E85" stroke-width="0.3" stroke-miterlimit="10" points="318.5,322.1 318.5,321.3 320.8,321.3 
			320.8,322.1 		"/>
		<line fill="none" stroke="#707E85" stroke-width="0.3" stroke-miterlimit="10" x1="284.4" y1="332.5" x2="344.1" y2="332.5"/>
	</g>
	<polygon fill="#FFFFFF" stroke="#707E85" stroke-width="0.3" stroke-miterlimit="10" points="280.9,277 280.9,164.9 271.7,164.9 
		259.9,164.9 194.6,164.9 194.6,185.5 259.9,185.5 259.9,277 	"/>
	<g>
		<rect x="261.2" y="211.7" fill="none" stroke="#707E85" stroke-width="0.3" stroke-miterlimit="10" width="18.7" height="18.7"/>
		<path fill="#FFFFFF" stroke="#707E85" stroke-width="0.3" stroke-miterlimit="10" d="M266.7,221.5c-1.9,0-3.4,1.5-3.4,3.4
			c0,1.9,1.5,3.4,3.4,3.4c1.9,0,3.4-1.5,3.4-3.4C270.1,223.1,268.5,221.5,266.7,221.5"/>
		<path fill="#FFFFFF" stroke="#707E85" stroke-width="0.3" stroke-miterlimit="10" d="M274.6,213.9c-1.9,0-3.4,1.5-3.4,3.4
			c0,1.9,1.5,3.4,3.4,3.4c1.9,0,3.4-1.5,3.4-3.4C278,215.5,276.5,213.9,274.6,213.9"/>
		<path fill="#FFFFFF" stroke="#707E85" stroke-width="0.3" stroke-miterlimit="10" d="M275.2,222.5c-1.5,0-2.8,1.2-2.8,2.8
			c0,1.5,1.2,2.8,2.8,2.8s2.8-1.2,2.8-2.8C278,223.7,276.7,222.5,275.2,222.5"/>
		<path fill="#FFFFFF" stroke="#707E85" stroke-width="0.3" stroke-miterlimit="10" d="M266.2,213.9c-1.5,0-2.8,1.2-2.8,2.8
			c0,1.5,1.2,2.8,2.8,2.8s2.8-1.2,2.8-2.8C269,215.2,267.7,213.9,266.2,213.9"/>
	</g>
	<g>
		<rect x="201" y="166.5" fill="none" stroke="#707E85" stroke-width="0.3" stroke-miterlimit="10" width="35" height="17.4"/>
		<g>
			<path fill="#FFFFFF" stroke="#707E85" stroke-width="0.3" stroke-miterlimit="10" d="M218.1,170.3v9.7c0,1.3,1.1,2.4,2.4,2.4H232
				c1.3,0,2.4-1.1,2.4-2.4v-9.7c0-1.3-1.1-2.4-2.4-2.4h-11.4C219.2,167.9,218.1,169,218.1,170.3z"/>
			<circle fill="#FFFFFF" stroke="#707E85" stroke-width="0.3" stroke-miterlimit="10" cx="226.5" cy="170.7" r="1.1"/>
		</g>
		<g>
			<rect x="203.9" y="179.7" fill="#707E85" width="11.5" height="0.6"/>
			<rect x="203.9" y="177.3" fill="#707E85" width="11.5" height="0.6"/>
			<rect x="203.9" y="174.8" fill="#707E85" width="11.5" height="0.6"/>
			<rect x="203.9" y="172.4" fill="#707E85" width="11.5" height="0.6"/>
			<rect x="203.9" y="170" fill="#707E85" width="11.5" height="0.6"/>
		</g>
	</g>
	<g>
		
			<polyline fill="none" stroke="#000000" stroke-width="0.12" stroke-linecap="square" stroke-linejoin="bevel" stroke-miterlimit="10" points="
			271.8,269.6 271.8,268.6 272.6,268.6 		"/>
		
			<polyline fill="none" stroke="#000000" stroke-width="0.12" stroke-linecap="square" stroke-linejoin="bevel" stroke-miterlimit="10" points="
			266.9,264.7 267.7,264.7 267.7,263.8 		"/>
		
			<line fill="none" stroke="#000000" stroke-width="0.12" stroke-linecap="square" stroke-linejoin="bevel" stroke-miterlimit="10" x1="267.1" y1="264.1" x2="272.4" y2="269.2"/>
		
			<polyline fill="none" stroke="#000000" stroke-width="0.12" stroke-linecap="square" stroke-linejoin="bevel" stroke-miterlimit="10" points="
			272.6,264.7 271.8,264.7 271.8,263.8 		"/>
		
			<polyline fill="none" stroke="#000000" stroke-width="0.12" stroke-linecap="square" stroke-linejoin="bevel" stroke-miterlimit="10" points="
			267.7,269.6 267.7,268.6 266.9,268.6 		"/>
		
			<line fill="none" stroke="#000000" stroke-width="0.12" stroke-linecap="square" stroke-linejoin="bevel" stroke-miterlimit="10" x1="267.1" y1="269.2" x2="272.4" y2="264.1"/>
		
			<polyline fill="none" stroke="#000000" stroke-width="0.12" stroke-linecap="square" stroke-linejoin="bevel" stroke-miterlimit="10" points="
			273.2,267.3 272.6,266.7 273.2,266.1 		"/>
		
			<polyline fill="none" stroke="#000000" stroke-width="0.12" stroke-linecap="square" stroke-linejoin="bevel" stroke-miterlimit="10" points="
			266.3,267.3 266.9,266.7 266.3,266.1 		"/>
		
			<polyline fill="none" stroke="#000000" stroke-width="0.12" stroke-linecap="square" stroke-linejoin="bevel" stroke-miterlimit="10" points="
			270.3,263.2 269.7,263.8 269.1,263.2 		"/>
		
			<polyline fill="none" stroke="#000000" stroke-width="0.12" stroke-linecap="square" stroke-linejoin="bevel" stroke-miterlimit="10" points="
			270.3,270.1 269.7,269.5 269.1,270.1 		"/>
		
			<line fill="none" stroke="#000000" stroke-width="0.12" stroke-linecap="square" stroke-linejoin="bevel" stroke-miterlimit="10" x1="266" y1="266.7" x2="273.5" y2="266.7"/>
		
			<line fill="none" stroke="#000000" stroke-width="0.12" stroke-linecap="square" stroke-linejoin="bevel" stroke-miterlimit="10" x1="269.7" y1="270.3" x2="269.7" y2="263"/>
		<polyline fill="none" stroke="#707E85" stroke-width="0.3" stroke-miterlimit="10" points="271.8,269.6 271.8,268.6 272.6,268.6 
					"/>
		<polyline fill="none" stroke="#707E85" stroke-width="0.3" stroke-miterlimit="10" points="266.9,264.7 267.7,264.7 267.7,263.8 
					"/>
		<line fill="none" stroke="#707E85" stroke-width="0.3" stroke-miterlimit="10" x1="267.1" y1="264.1" x2="272.4" y2="269.2"/>
		<polyline fill="none" stroke="#707E85" stroke-width="0.3" stroke-miterlimit="10" points="272.6,264.7 271.8,264.7 271.8,263.8 
					"/>
		<polyline fill="none" stroke="#707E85" stroke-width="0.3" stroke-miterlimit="10" points="267.7,269.6 267.7,268.6 266.9,268.6 
					"/>
		<line fill="none" stroke="#707E85" stroke-width="0.3" stroke-miterlimit="10" x1="267.1" y1="269.2" x2="272.4" y2="264.1"/>
		<polyline fill="none" stroke="#707E85" stroke-width="0.3" stroke-miterlimit="10" points="273.2,267.3 272.6,266.7 273.2,266.1 
					"/>
		<polyline fill="none" stroke="#707E85" stroke-width="0.3" stroke-miterlimit="10" points="266.3,267.3 266.9,266.7 266.3,266.1 
					"/>
		<polyline fill="none" stroke="#707E85" stroke-width="0.3" stroke-miterlimit="10" points="270.3,263.2 269.7,263.8 269.1,263.2 
					"/>
		<polyline fill="none" stroke="#707E85" stroke-width="0.3" stroke-miterlimit="10" points="270.3,270.1 269.7,269.5 269.1,270.1 
					"/>
		<line fill="none" stroke="#707E85" stroke-width="0.3" stroke-miterlimit="10" x1="266" y1="266.7" x2="273.5" y2="266.7"/>
		<line fill="none" stroke="#707E85" stroke-width="0.3" stroke-miterlimit="10" x1="269.7" y1="270.3" x2="269.7" y2="263"/>
	</g>
	<line fill="none" stroke="#707E85" stroke-width="0.3" stroke-miterlimit="10" x1="259.9" y1="256.4" x2="280.9" y2="256.4"/>
	<line fill="none" stroke="#707E85" stroke-width="0.3" stroke-miterlimit="10" x1="259.9" y1="236.5" x2="280.9" y2="236.5"/>
	<g>
		<path fill="#FFFFFF" stroke="#707E85" stroke-width="0.3" stroke-miterlimit="10" d="M294.2,191.2v-25.4c0-0.5,0.4-0.9,0.9-0.9
			h60.3c0.5,0,0.9,0.4,0.9,0.9v25.4c0,0.5-0.4,0.9-0.9,0.9h-60.3C294.6,192.1,294.2,191.7,294.2,191.2z"/>
		<path fill="#FFFFFF" stroke="#707E85" stroke-width="0.3" stroke-miterlimit="10" d="M354,178.4c0-8.2-4.8-11-7.1-11h-46.5
			c-2.3,0-4.2,2-4.2,4.5v13.3c0,2.5,1.9,4.5,4.2,4.5h46.5C349.2,189.6,354,186.6,354,178.4z"/>
		<path fill="#FFFFFF" stroke="#707E85" stroke-width="0.3" stroke-miterlimit="10" d="M344.4,178.4c0-6.9-3.9-9.3-5.8-9.3H301
			c-1.9,0-3.4,1.7-3.4,3.8v11.2c0,2.1,1.5,3.8,3.4,3.8h37.6C340.5,187.9,344.4,185.4,344.4,178.4z"/>
		<ellipse fill="#FFFFFF" stroke="#707E85" stroke-width="0.3" stroke-miterlimit="10" cx="304.5" cy="178.5" rx="1.1" ry="1.2"/>
	</g>
	<g>
		<g>
			<g opacity="0.2">
				<path fill="#708793" d="M307.9,220.8h-10.5V200h10.5c1.9,0,3.5,1.5,3.5,3.4v14.1C311.4,219.3,309.8,220.8,307.9,220.8z"/>
				<path fill="none" stroke="#708793" stroke-width="0.3" stroke-miterlimit="10" d="M307.9,220.8h-10.5V200h10.5
					c1.9,0,3.5,1.5,3.5,3.4v14.1C311.4,219.3,309.8,220.8,307.9,220.8z"/>
			</g>
			<g>
				<path fill="#FFFFFF" d="M304.9,217.8h-10.5V197h10.5c1.9,0,3.5,1.5,3.5,3.4v14.1C308.4,216.3,306.8,217.8,304.9,217.8z"/>
				<path fill="none" stroke="#707E85" stroke-width="0.3" stroke-miterlimit="10" d="M304.9,217.8h-10.5V197h10.5
					c1.9,0,3.5,1.5,3.5,3.4v14.1C308.4,216.3,306.8,217.8,304.9,217.8z"/>
			</g>
		</g>
		<path fill="#FFFFFF" stroke="#707E85" stroke-width="0.3" stroke-miterlimit="10" d="M304.4,214h-4c-1.4,0-2.6-1.1-2.6-2.6v-8.1
			c0-1.4,1.1-2.6,2.6-2.6h4c1.4,0,2.6,1.1,2.6,2.6v8.1C307,212.8,305.9,214,304.4,214z"/>
		<ellipse fill="#FFFFFF" stroke="#707E85" stroke-width="0.3" stroke-miterlimit="10" cx="299.7" cy="207.3" rx="0.8" ry="0.7"/>
	</g>
	<g>
		<g>
			<g opacity="0.2">
				<path fill="#708793" d="M307.7,224.9c-1.1,0-6.9,0.1-7.9,0.2c-0.8,0.1-1.6,0.2-2.4,0.3v11.3c0.7,0.1,1.3,0.2,2,0.3
					c1.1,0.1,7.9,0.1,9.1,0.1c2.6,0,8-2.1,8-6.1C316.6,227,310.8,224.9,307.7,224.9z"/>
				<path fill="none" stroke="#708793" stroke-width="0.3" stroke-miterlimit="10" d="M307.7,224.9c-1.1,0-6.9,0.1-7.9,0.2
					c-0.8,0.1-1.6,0.2-2.4,0.3v11.3c0.7,0.1,1.3,0.2,2,0.3c1.1,0.1,7.9,0.1,9.1,0.1c2.6,0,8-2.1,8-6.1
					C316.6,227,310.8,224.9,307.7,224.9z"/>
			</g>
			<g>
				<path fill="#FFFFFF" d="M304.7,221.9c-1.1,0-6.9,0.1-7.9,0.2c-0.8,0.1-1.6,0.2-2.4,0.3v11.3c0.7,0.1,1.3,0.2,2,0.3
					c1.1,0.1,7.9,0.1,9.1,0.1c2.6,0,8-2.1,8-6.1C313.6,224,307.8,221.9,304.7,221.9z"/>
				<path fill="none" stroke="#707E85" stroke-width="0.3" stroke-miterlimit="10" d="M304.7,221.9c-1.1,0-6.9,0.1-7.9,0.2
					c-0.8,0.1-1.6,0.2-2.4,0.3v11.3c0.7,0.1,1.3,0.2,2,0.3c1.1,0.1,7.9,0.1,9.1,0.1c2.6,0,8-2.1,8-6.1
					C313.6,224,307.8,221.9,304.7,221.9z"/>
			</g>
		</g>
		<g>
			<circle fill="#FFFFFF" stroke="#707E85" stroke-width="0.3" stroke-miterlimit="10" cx="297.1" cy="225.3" r="0.4"/>
			<circle fill="#FFFFFF" stroke="#707E85" stroke-width="0.3" stroke-miterlimit="10" cx="297.1" cy="230.8" r="0.4"/>
		</g>
		<path fill="#FFFFFF" stroke="#707E85" stroke-width="0.3" stroke-miterlimit="10" d="M312,228.1c0,2.6-4,4.7-6.6,4.7
			s-4.7-2.1-4.7-4.7s2.1-4.7,4.7-4.7S312,225.5,312,228.1z"/>
		<path fill="#FFFFFF" stroke="#707E85" stroke-width="0.3" stroke-miterlimit="10" d="M304.3,226.5h-1.8c-0.5,0-0.5,0.7-0.5,1.6
			s0.2,1.6,0.5,1.6h1.8c0.9,0,1.6-0.7,1.6-1.6S305.2,226.5,304.3,226.5z"/>
		<path fill="none" stroke="#707E85" stroke-width="0.3" stroke-miterlimit="10" d="M297.1,222.1c-0.9,1.5-1.5,3.8-1.5,6.3
			c0,2.2,0.4,4.2,1.2,5.7"/>
	</g>
	<g>
		<g>
			<g opacity="0.2">
				<path fill="#708793" d="M296.7,393.5c0,1.1,0.1,6.9,0.2,7.9c0.1,0.8,0.2,1.6,0.3,2.4h11.3c0.1-0.7,0.2-1.3,0.3-2
					c0.1-1.1,0.1-7.9,0.1-9.1c0-2.6-2.1-8-6.1-8C298.7,384.6,296.7,390.4,296.7,393.5z"/>
				<path fill="none" stroke="#708793" stroke-width="0.3" stroke-miterlimit="10" d="M296.7,393.5c0,1.1,0.1,6.9,0.2,7.9
					c0.1,0.8,0.2,1.6,0.3,2.4h11.3c0.1-0.7,0.2-1.3,0.3-2c0.1-1.1,0.1-7.9,0.1-9.1c0-2.6-2.1-8-6.1-8
					C298.7,384.6,296.7,390.4,296.7,393.5z"/>
			</g>
			<g>
				<path fill="#FFFFFF" d="M293.7,390.5c0,1.1,0.1,6.9,0.2,7.9c0.1,0.8,0.2,1.6,0.3,2.4h11.3c0.1-0.7,0.2-1.3,0.3-2
					c0.1-1.1,0.1-7.9,0.1-9.1c0-2.6-2.1-8-6.1-8C295.7,381.6,293.7,387.4,293.7,390.5z"/>
				<path fill="none" stroke="#707E85" stroke-width="0.3" stroke-miterlimit="10" d="M293.7,390.5c0,1.1,0.1,6.9,0.2,7.9
					c0.1,0.8,0.2,1.6,0.3,2.4h11.3c0.1-0.7,0.2-1.3,0.3-2c0.1-1.1,0.1-7.9,0.1-9.1c0-2.6-2.1-8-6.1-8
					C295.7,381.6,293.7,387.4,293.7,390.5z"/>
			</g>
		</g>
		<g>
			<circle fill="#FFFFFF" stroke="#707E85" stroke-width="0.3" stroke-miterlimit="10" cx="297.1" cy="398.1" r="0.4"/>
			<circle fill="#FFFFFF" stroke="#707E85" stroke-width="0.3" stroke-miterlimit="10" cx="302.6" cy="398.1" r="0.4"/>
		</g>
		<path fill="#FFFFFF" stroke="#707E85" stroke-width="0.3" stroke-miterlimit="10" d="M299.8,383.2c2.6,0,4.7,4,4.7,6.6
			s-2.1,4.7-4.7,4.7s-4.7-2.1-4.7-4.7S297.2,383.2,299.8,383.2z"/>
		<path fill="#FFFFFF" stroke="#707E85" stroke-width="0.3" stroke-miterlimit="10" d="M298.2,390.9v1.8c0,0.5,0.7,0.5,1.6,0.5
			s1.6-0.2,1.6-0.5v-1.8c0-0.9-0.7-1.6-1.6-1.6S298.2,390,298.2,390.9z"/>
		<path fill="none" stroke="#707E85" stroke-width="0.3" stroke-miterlimit="10" d="M293.8,398.1c1.5,0.9,3.8,1.5,6.3,1.5
			c2.2,0,4.2-0.4,5.7-1.2"/>
	</g>
	<g>
		<g>
			
				<rect x="288.1" y="252.3" fill="#FFFFFF" stroke="#707E85" stroke-width="0.3" stroke-miterlimit="10" width="20.4" height="20.4"/>
		</g>
		<g>
			<circle fill="none" stroke="#707E85" stroke-width="0.6204" stroke-miterlimit="10" cx="298.3" cy="262.5" r="4.8"/>
			<path fill="none" stroke="#707E85" stroke-width="0.6204" stroke-miterlimit="10" d="M301.4,263c0-1.8-1.5-3.3-3.3-3.3"/>
		</g>
	</g>
	<g>
		<g>
			<g opacity="5.000000e-002">
				<path fill="#707E85" d="M485,208.1v68.3c0,0.6-0.4,1-1,1h-54.1c-0.6,0-1-0.4-1-1v-68.3c0-0.6,0.4-1,1-1H484
					C484.5,207.1,485,207.6,485,208.1z"/>
				<path fill="none" stroke="#707E85" stroke-width="0.3" stroke-miterlimit="10" d="M485,208.1v68.3c0,0.6-0.4,1-1,1h-54.1
					c-0.6,0-1-0.4-1-1v-68.3c0-0.6,0.4-1,1-1H484C484.5,207.1,485,207.6,485,208.1z"/>
			</g>
			<g>
				<path fill="#EAF6FE" d="M482,205.1v68.3c0,0.6-0.4,1-1,1h-54.1c-0.6,0-1-0.4-1-1v-68.3c0-0.6,0.4-1,1-1H481
					C481.5,204.1,482,204.6,482,205.1z"/>
				<path fill="none" stroke="#CBD3D7" stroke-width="0.3" stroke-miterlimit="10" d="M482,205.1v68.3c0,0.6-0.4,1-1,1h-54.1
					c-0.6,0-1-0.4-1-1v-68.3c0-0.6,0.4-1,1-1H481C481.5,204.1,482,204.6,482,205.1z"/>
			</g>
		</g>
		<path fill="#EAF6FE" stroke="#CBD3D7" stroke-width="0.3" stroke-miterlimit="10" d="M478.2,208.9v60.8c0,0.6-0.4,1-1,1h-46.6
			c-0.6,0-1-0.4-1-1v-60.8c0-0.6,0.4-1,1-1h46.6C477.7,207.9,478.2,208.3,478.2,208.9z"/>
		<path fill="#EAF6FE" stroke="#CBD3D7" stroke-width="0.3" stroke-miterlimit="10" d="M475,267.2c-2.1,1.2-16.7,1.4-18.9,0.2
			c-0.2-0.1-0.9-7-0.4-10.7c0.1-0.6,0.7-1.5,1.8-1.9c3.7-1.3,12.3-0.8,16.5,0.4c1.5,0.4,1.4,1.9,1.5,2.5
			C475.9,260.5,475.7,266.9,475,267.2z"/>
		<path fill="#EAF6FE" stroke="#CBD3D7" stroke-width="0.3" stroke-miterlimit="10" d="M451.9,267.4c-4.2,1.6-18.2,1.1-18.9,0.3
			c-0.3-0.3-1.1-7-0.4-10.2c0.1-0.5,0.3-0.9,0.5-1.1c1.8-1.2,18.1-2.2,18.4-2c0.3,0.2,0.1,1.5,0.5,2.2
			C452.7,258.4,452.6,267.2,451.9,267.4z"/>
		<g>
			<path fill="#EAF6FE" stroke="#CBD3D7" stroke-width="0.3" stroke-miterlimit="10" d="M432.1,245.1c0,0,19.3-1.8,21.7-1.8
				c2.6,0,21.7,1.8,21.7,1.8c1.8,0,3.3-3.1,3.3-1.2v10.2c0,1.8-1.5,3.3-3.3,3.3c0,0-18.7-1-21.6-1s-21.9,1-21.9,1
				c-1.8,0-3.3-1.5-3.3-3.3v-10.2C428.7,242,430.2,245.1,432.1,245.1z"/>
			<path fill="#EAF6FE" stroke="#CBD3D7" stroke-width="0.3" stroke-linecap="round" stroke-miterlimit="10" d="M471.7,254.7
				c2.3-0.3,7-3.4,7.2-4.3"/>
			<path fill="#EAF6FE" stroke="#CBD3D7" stroke-width="0.3" stroke-linecap="round" stroke-miterlimit="10" d="M448.1,253.7
				c0.4-0.2,10.5-5,9.4-7.4c-0.5-0.9-2-0.3-2.8,0.2"/>
			<path fill="#EAF6FE" stroke="#CBD3D7" stroke-width="0.3" stroke-linecap="round" stroke-miterlimit="10" d="M431.7,255.9
				c1.4-1.4,7.4-5.3,15.5-8.4"/>
		</g>
		<g>
			<g>
				<g opacity="5.000000e-002">
					<path fill="#707E85" d="M425.4,277.5h-9.8c-0.6,0-1-0.4-1-1v-8.7c0-0.6,0.4-1,1-1h9.8c0.6,0,1,0.4,1,1v8.7
						C426.4,277,426,277.5,425.4,277.5z"/>
					<path fill="none" stroke="#707E85" stroke-width="0.3" stroke-miterlimit="10" d="M425.4,277.5h-9.8c-0.6,0-1-0.4-1-1v-8.7
						c0-0.6,0.4-1,1-1h9.8c0.6,0,1,0.4,1,1v8.7C426.4,277,426,277.5,425.4,277.5z"/>
				</g>
				<g>
					<path fill="#EAF6FE" d="M422.4,274.5h-9.8c-0.6,0-1-0.4-1-1v-8.7c0-0.6,0.4-1,1-1h9.8c0.6,0,1,0.4,1,1v8.7
						C423.4,274,423,274.5,422.4,274.5z"/>
					<path fill="none" stroke="#CBD3D7" stroke-width="0.3" stroke-miterlimit="10" d="M422.4,274.5h-9.8c-0.6,0-1-0.4-1-1v-8.7
						c0-0.6,0.4-1,1-1h9.8c0.6,0,1,0.4,1,1v8.7C423.4,274,423,274.5,422.4,274.5z"/>
				</g>
			</g>
			<path fill="#EAF6FE" stroke="#CBD3D7" stroke-width="0.3" stroke-miterlimit="10" d="M416.3,266.6l4.1,1.6
				c0.5,0.2,0.8,0.8,0.6,1.3l-0.6,1.6c-0.2,0.5-0.8,0.8-1.3,0.6l-4.1-1.6c-0.5-0.2-0.8-0.8-0.6-1.3l0.6-1.6
				C415.2,266.6,415.8,266.4,416.3,266.6z"/>
			<circle fill="#EAF6FE" stroke="#CBD3D7" stroke-width="0.3" stroke-miterlimit="10" cx="417.6" cy="269.1" r="0.6"/>
		</g>
		<g>
			<g>
				<g opacity="5.000000e-002">
					<path fill="#707E85" d="M488.4,266.8h9.8c0.6,0,1,0.4,1,1v8.7c0,0.6-0.4,1-1,1h-9.8c-0.6,0-1-0.4-1-1v-8.7
						C487.4,267.3,487.9,266.8,488.4,266.8z"/>
					<path fill="none" stroke="#707E85" stroke-width="0.3" stroke-miterlimit="10" d="M488.4,266.8h9.8c0.6,0,1,0.4,1,1v8.7
						c0,0.6-0.4,1-1,1h-9.8c-0.6,0-1-0.4-1-1v-8.7C487.4,267.3,487.9,266.8,488.4,266.8z"/>
				</g>
				<g>
					<path fill="#EAF6FE" d="M485.4,263.8h9.8c0.6,0,1,0.4,1,1v8.7c0,0.6-0.4,1-1,1h-9.8c-0.6,0-1-0.4-1-1v-8.7
						C484.4,264.3,484.9,263.8,485.4,263.8z"/>
					<path fill="none" stroke="#CBD3D7" stroke-width="0.3" stroke-miterlimit="10" d="M485.4,263.8h9.8c0.6,0,1,0.4,1,1v8.7
						c0,0.6-0.4,1-1,1h-9.8c-0.6,0-1-0.4-1-1v-8.7C484.4,264.3,484.9,263.8,485.4,263.8z"/>
				</g>
			</g>
			<path fill="#EAF6FE" stroke="#CBD3D7" stroke-width="0.3" stroke-miterlimit="10" d="M492.9,268.5h0.4c0.1,0,0.3,0.1,0.3,0.3v5.7
				h-0.9v-5.7C492.6,268.6,492.7,268.5,492.9,268.5z"/>
			<path fill="#EAF6FE" stroke="#CBD3D7" stroke-width="0.3" stroke-miterlimit="10" d="M491,269.4h0.4c0.1,0,0.3,0.1,0.3,0.3v4.9
				h-0.9v-4.9C490.7,269.5,490.9,269.4,491,269.4z"/>
			<path fill="#EAF6FE" stroke="#CBD3D7" stroke-width="0.3" stroke-miterlimit="10" d="M491.9,267.9h0.4c0.1,0,0.3,0.1,0.3,0.3v6.3
				h-0.9v-6.3C491.7,268,491.8,267.9,491.9,267.9z"/>
		</g>
	</g>
	<g>
		<g>
			<g opacity="5.000000e-002">
				<path fill="#707E85" d="M365,225.3v-54.8c0-0.6,0.4-1,1-1h18.5c0.6,0,1,0.4,1,1v54.8c0,0.6-0.4,1-1,1H366
					C365.5,226.3,365,225.8,365,225.3z"/>
				<path fill="none" stroke="#707E85" stroke-width="0.3" stroke-miterlimit="10" d="M365,225.3v-54.8c0-0.6,0.4-1,1-1h18.5
					c0.6,0,1,0.4,1,1v54.8c0,0.6-0.4,1-1,1H366C365.5,226.3,365,225.8,365,225.3z"/>
			</g>
			<g>
				<path fill="#EAF6FE" d="M362,222.3v-54.8c0-0.6,0.4-1,1-1h18.5c0.6,0,1,0.4,1,1v54.8c0,0.6-0.4,1-1,1H363
					C362.5,223.3,362,222.8,362,222.3z"/>
				<path fill="none" stroke="#CBD3D7" stroke-width="0.3" stroke-miterlimit="10" d="M362,222.3v-54.8c0-0.6,0.4-1,1-1h18.5
					c0.6,0,1,0.4,1,1v54.8c0,0.6-0.4,1-1,1H363C362.5,223.3,362,222.8,362,222.3z"/>
			</g>
		</g>
		<line fill="#EAF6FE" stroke="#CBD3D7" stroke-width="0.3" stroke-miterlimit="10" x1="379.7" y1="166.5" x2="379.7" y2="223.3"/>
		<line fill="#EAF6FE" stroke="#CBD3D7" stroke-width="0.3" stroke-miterlimit="10" x1="379.7" y1="194.9" x2="382.5" y2="194.9"/>
		<polyline fill="none" stroke="#CBD3D7" stroke-width="0.3" stroke-miterlimit="10" points="382.5,188.7 384,188.7 384,190.8 
			382.5,190.8 		"/>
		<polyline fill="none" stroke="#CBD3D7" stroke-width="0.3" stroke-miterlimit="10" points="382.5,198.9 384,198.9 384,201.1 
			382.5,201.1 		"/>
	</g>
	<g>
		<g>
			<g opacity="5.000000e-002">
				<path fill="#707E85" d="M437.8,333v67.8c0,0.6-0.4,1-1,1h-29.6c-0.6,0-1-0.4-1-1V333c0-0.6,0.4-1,1-1h29.6
					C437.4,332,437.8,332.5,437.8,333z"/>
				<path fill="none" stroke="#707E85" stroke-width="0.3" stroke-miterlimit="10" d="M437.8,333v67.8c0,0.6-0.4,1-1,1h-29.6
					c-0.6,0-1-0.4-1-1V333c0-0.6,0.4-1,1-1h29.6C437.4,332,437.8,332.5,437.8,333z"/>
			</g>
			<g>
				<path fill="#EAF6FE" d="M434.8,330v67.8c0,0.6-0.4,1-1,1h-29.6c-0.6,0-1-0.4-1-1V330c0-0.6,0.4-1,1-1h29.6
					C434.4,329,434.8,329.5,434.8,330z"/>
				<path fill="none" stroke="#CBD3D7" stroke-width="0.3" stroke-miterlimit="10" d="M434.8,330v67.8c0,0.6-0.4,1-1,1h-29.6
					c-0.6,0-1-0.4-1-1V330c0-0.6,0.4-1,1-1h29.6C434.4,329,434.8,329.5,434.8,330z"/>
			</g>
		</g>
		<g>
			<g>
				<g opacity="5.000000e-002">
					<path fill="#707E85" d="M451.2,401.8h-9.7c-0.6,0-1-0.4-1-1v-8.6c0-0.6,0.4-1,1-1h9.7c0.6,0,1,0.4,1,1v8.6
						C452.2,401.4,451.8,401.8,451.2,401.8z"/>
					<path fill="none" stroke="#707E85" stroke-width="0.3" stroke-miterlimit="10" d="M451.2,401.8h-9.7c-0.6,0-1-0.4-1-1v-8.6
						c0-0.6,0.4-1,1-1h9.7c0.6,0,1,0.4,1,1v8.6C452.2,401.4,451.8,401.8,451.2,401.8z"/>
				</g>
				<g>
					<path fill="#EAF6FE" d="M448.2,398.8h-9.7c-0.6,0-1-0.4-1-1v-8.6c0-0.6,0.4-1,1-1h9.7c0.6,0,1,0.4,1,1v8.6
						C449.2,398.4,448.8,398.8,448.2,398.8z"/>
					<path fill="none" stroke="#CBD3D7" stroke-width="0.3" stroke-miterlimit="10" d="M448.2,398.8h-9.7c-0.6,0-1-0.4-1-1v-8.6
						c0-0.6,0.4-1,1-1h9.7c0.6,0,1,0.4,1,1v8.6C449.2,398.4,448.8,398.8,448.2,398.8z"/>
				</g>
			</g>
			<path fill="#EAF6FE" stroke="#CBD3D7" stroke-width="0.3" stroke-miterlimit="10" d="M442.1,391l4,1.5c0.5,0.2,0.8,0.8,0.6,1.3
				l-0.6,1.6c-0.2,0.5-0.8,0.8-1.3,0.6l-4-1.5c-0.5-0.2-0.8-0.8-0.6-1.3l0.6-1.6C441.1,391,441.6,390.8,442.1,391z"/>
			<circle fill="#EAF6FE" stroke="#CBD3D7" stroke-width="0.3" stroke-miterlimit="10" cx="443.5" cy="393.5" r="0.6"/>
		</g>
		<path fill="#EAF6FE" stroke="#CBD3D7" stroke-width="0.3" stroke-miterlimit="10" d="M431.1,333.7v60.3c0,0.6-0.4,1-1,1H408
			c-0.6,0-1-0.4-1-1v-60.3c0-0.6,0.4-1,1-1h22.1C430.6,332.7,431.1,333.2,431.1,333.7z"/>
		<path fill="#EAF6FE" stroke="#CBD3D7" stroke-width="0.3" stroke-miterlimit="10" d="M427.9,391.9c-0.5,0.2-1-0.1-1.8-0.1
			c-7.7,1.6-16.1-0.4-16.3-0.7c-0.2-0.3,0.2-0.2,0.5-2c0.1-1.9-0.3-6.1-0.1-7.6c0.1-0.4,0.2-0.7,0.4-0.8c1.5-1.1,16.7-0.7,16.9-0.5
			c0.2,0.2,0.7,0.7,0.8,1.4C428.6,383.2,428.4,391.6,427.9,391.9z"/>
		<g>
			<g>
				<path fill="#EAF6FE" stroke="#CBD3D7" stroke-width="0.3" stroke-miterlimit="10" d="M409.4,369.7c0,0,7.2-1,9.6-1
					c2.5,0,9.6,1,9.6,1c1.8,0,3.3-3,3.3-1.2v10.1c0,1.8-1.5,3.3-3.3,3.3c0,0-6.6-1-9.5-1s-9.7,1-9.7,1c-1.8,0-3.3-1.5-3.3-3.3v-10.1
					C406.1,366.6,407.6,369.7,409.4,369.7z"/>
			</g>
			<path fill="#EAF6FE" stroke="#CBD3D7" stroke-width="0.3" stroke-linecap="round" stroke-miterlimit="10" d="M428,377.5
				c0.2-1.4-1.4-5.1-4-5.7"/>
			<path fill="#EAF6FE" stroke="#CBD3D7" stroke-width="0.3" stroke-linecap="round" stroke-miterlimit="10" d="M420,377.9
				c-2-1.9-6.6-4.5-9.7-4.2"/>
		</g>
	</g>
	<g>
		<path fill="#EAF6FE" stroke="#CBD3D7" stroke-width="0.3" stroke-miterlimit="10" d="M492.2,366.9v1.8h16v-1.8
			c0-0.7-0.6-1.3-1.3-1.3h-13.4C492.8,365.6,492.2,366.1,492.2,366.9z"/>
		<rect x="492.2" y="368.7" fill="#EAF6FE" stroke="#CBD3D7" stroke-width="0.3" stroke-miterlimit="10" width="16" height="7.6"/>
		<line fill="#EAF6FE" stroke="#CBD3D7" stroke-width="0.3" stroke-miterlimit="10" x1="494.4" y1="368.7" x2="494.4" y2="376.3"/>
		<line fill="#EAF6FE" stroke="#CBD3D7" stroke-width="0.3" stroke-miterlimit="10" x1="506" y1="376.3" x2="506" y2="368.7"/>
		<g>
			<g opacity="5.000000e-002">
				<path fill="#707E85" d="M479.9,400.9v-20.7c0-0.5,0.4-0.9,0.9-0.9h44.9c0.5,0,0.9,0.4,0.9,0.9v20.7c0,0.5-0.4,0.9-0.9,0.9h-44.9
					C480.3,401.8,479.9,401.4,479.9,400.9z"/>
				<path fill="none" stroke="#707E85" stroke-width="0.3" stroke-miterlimit="10" d="M479.9,400.9v-20.7c0-0.5,0.4-0.9,0.9-0.9
					h44.9c0.5,0,0.9,0.4,0.9,0.9v20.7c0,0.5-0.4,0.9-0.9,0.9h-44.9C480.3,401.8,479.9,401.4,479.9,400.9z"/>
			</g>
			<g>
				<path fill="#EAF6FE" d="M476.9,397.9v-20.7c0-0.5,0.4-0.9,0.9-0.9h44.9c0.5,0,0.9,0.4,0.9,0.9v20.7c0,0.5-0.4,0.9-0.9,0.9h-44.9
					C477.3,398.8,476.9,398.4,476.9,397.9z"/>
				<path fill="none" stroke="#CBD3D7" stroke-width="0.3" stroke-miterlimit="10" d="M476.9,397.9v-20.7c0-0.5,0.4-0.9,0.9-0.9
					h44.9c0.5,0,0.9,0.4,0.9,0.9v20.7c0,0.5-0.4,0.9-0.9,0.9h-44.9C477.3,398.8,476.9,398.4,476.9,397.9z"/>
			</g>
		</g>
	</g>
	<g>
		<g>
			<g opacity="5.000000e-002">
				<path fill="#707E85" d="M485.1,283.6h40.5c0.6,0,1,0.4,1,1v18.9c0,0.6-0.4,1-1,1h-40.5c-0.6,0-1-0.4-1-1v-18.9
					C484.1,284,484.5,283.6,485.1,283.6z"/>
				<path fill="none" stroke="#707E85" stroke-width="0.3" stroke-miterlimit="10" d="M485.1,283.6h40.5c0.6,0,1,0.4,1,1v18.9
					c0,0.6-0.4,1-1,1h-40.5c-0.6,0-1-0.4-1-1v-18.9C484.1,284,484.5,283.6,485.1,283.6z"/>
			</g>
			<g>
				<path fill="#EAF6FE" d="M482.1,280.6h40.5c0.6,0,1,0.4,1,1v18.9c0,0.6-0.4,1-1,1h-40.5c-0.6,0-1-0.4-1-1v-18.9
					C481.1,281,481.5,280.6,482.1,280.6z"/>
				<path fill="none" stroke="#CBD3D7" stroke-width="0.3" stroke-miterlimit="10" d="M482.1,280.6h40.5c0.6,0,1,0.4,1,1v18.9
					c0,0.6-0.4,1-1,1h-40.5c-0.6,0-1-0.4-1-1v-18.9C481.1,281,481.5,280.6,482.1,280.6z"/>
			</g>
		</g>
		<line fill="#EAF6FE" stroke="#CBD3D7" stroke-width="0.3" stroke-miterlimit="10" x1="523.6" y1="298.6" x2="481.1" y2="298.6"/>
		<line fill="#EAF6FE" stroke="#CBD3D7" stroke-width="0.3" stroke-miterlimit="10" x1="502.3" y1="298.6" x2="502.3" y2="301.4"/>
		<polyline fill="none" stroke="#CBD3D7" stroke-width="0.3" stroke-miterlimit="10" points="507,301.4 507,303 505.4,303 
			505.4,301.4 		"/>
		<polyline fill="none" stroke="#CBD3D7" stroke-width="0.3" stroke-miterlimit="10" points="499.3,301.4 499.3,303 497.7,303 
			497.7,301.4 		"/>
	</g>
	<g>
		<g>
			<g opacity="5.000000e-002">
				<path fill="#707E85" d="M243.9,355.7c0,0.7,0.6,1.3,1.3,1.3h0.2c0.7,0,1.3-0.6,1.3-1.3v-23.1c0-3.2-2.6-5.8-5.8-5.8h-39.1
					c-3.2,0-5.8,2.6-5.8,5.8v23.1c0,0.7,0.6,1.3,1.3,1.3h0.2c0.7,0,1.3-0.6,1.3-1.3v-0.8c0,0.8,0.7,1.5,1.5,1.5h19.6
					c0.8,0,1.5-0.7,1.5-1.5c0,0.8,0.7,1.5,1.5,1.5h19.6c0.8,0,1.5-0.7,1.5-1.5V355.7z"/>
				<path fill="none" stroke="#707E85" stroke-width="0.3" stroke-miterlimit="10" d="M243.9,355.7c0,0.7,0.6,1.3,1.3,1.3h0.2
					c0.7,0,1.3-0.6,1.3-1.3v-23.1c0-3.2-2.6-5.8-5.8-5.8h-39.1c-3.2,0-5.8,2.6-5.8,5.8v23.1c0,0.7,0.6,1.3,1.3,1.3h0.2
					c0.7,0,1.3-0.6,1.3-1.3v-0.8c0,0.8,0.7,1.5,1.5,1.5h19.6c0.8,0,1.5-0.7,1.5-1.5c0,0.8,0.7,1.5,1.5,1.5h19.6
					c0.8,0,1.5-0.7,1.5-1.5V355.7z"/>
			</g>
			<g>
				<path fill="#EAF6FE" d="M240.9,352.7c0,0.7,0.6,1.3,1.3,1.3h0.2c0.7,0,1.3-0.6,1.3-1.3v-23.1c0-3.2-2.6-5.8-5.8-5.8h-39.1
					c-3.2,0-5.8,2.6-5.8,5.8v23.1c0,0.7,0.6,1.3,1.3,1.3h0.2c0.7,0,1.3-0.6,1.3-1.3v-0.8c0,0.8,0.7,1.5,1.5,1.5h19.6
					c0.8,0,1.5-0.7,1.5-1.5c0,0.8,0.7,1.5,1.5,1.5h19.6c0.8,0,1.5-0.7,1.5-1.5V352.7z"/>
				<path fill="none" stroke="#CBD3D7" stroke-width="0.3" stroke-miterlimit="10" d="M240.9,352.7c0,0.7,0.6,1.3,1.3,1.3h0.2
					c0.7,0,1.3-0.6,1.3-1.3v-23.1c0-3.2-2.6-5.8-5.8-5.8h-39.1c-3.2,0-5.8,2.6-5.8,5.8v23.1c0,0.7,0.6,1.3,1.3,1.3h0.2
					c0.7,0,1.3-0.6,1.3-1.3v-0.8c0,0.8,0.7,1.5,1.5,1.5h19.6c0.8,0,1.5-0.7,1.5-1.5c0,0.8,0.7,1.5,1.5,1.5h19.6
					c0.8,0,1.5-0.7,1.5-1.5V352.7z"/>
			</g>
		</g>
		<g>
			<path fill="#EAF6FE" stroke="#CBD3D7" stroke-width="0.3033" stroke-miterlimit="10" d="M238,323.8h-39.1c-3.2,0-5.8,2.6-5.8,5.8
				v23.1c0,0.7,0.6,1.3,1.3,1.3h0.2c0.7,0,1.3-0.6,1.3-1.3v-19.9h45v19.9c0,0.7,0.6,1.3,1.3,1.3h0.2c0.7,0,1.3-0.6,1.3-1.3v-23.1
				C243.7,326.4,241.1,323.8,238,323.8z"/>
			<g>
				<g>
					<path fill="#EAF6FE" stroke="#CBD3D7" stroke-width="0.3" stroke-miterlimit="10" d="M197.8,335.2c6.2-0.6,12.5-0.6,18.7,0
						c1.4,0.1,2.6-0.8,2.8-2.2c0.1-1,0.3-2,0.4-3.1c0.2-1.4-0.9-2.7-2.4-2.8c-6.7-0.7-13.5-0.7-20.2,0c-1.5,0.1-2.6,1.4-2.4,2.8
						c0.1,1,0.3,2,0.4,3.1C195.2,334.4,196.4,335.3,197.8,335.2z"/>
					
						<path fill="#EAF6FE" stroke="#CBD3D7" stroke-width="0.3" stroke-linecap="round" stroke-linejoin="round" stroke-miterlimit="10" d="
						M197.3,333.1c0.2-0.7,19.6-0.7,19.7,0"/>
				</g>
			</g>
			<g>
				
					<line fill="#EAF6FE" stroke="#CBD3D7" stroke-width="0.3" stroke-miterlimit="10" x1="218.4" y1="331.8" x2="218.4" y2="351.9"/>
				<g>
					<path fill="#EAF6FE" stroke="#CBD3D7" stroke-width="0.3" stroke-miterlimit="10" d="M220.3,335.2c6.2-0.6,12.5-0.6,18.7,0
						c1.4,0.1,2.6-0.8,2.8-2.2c0.1-1,0.3-2,0.4-3.1c0.2-1.4-0.9-2.7-2.4-2.8c-6.7-0.7-13.5-0.7-20.2,0c-1.5,0.1-2.6,1.4-2.4,2.8
						c0.1,1,0.3,2,0.4,3.1C217.7,334.4,218.9,335.3,220.3,335.2z"/>
					
						<path fill="#EAF6FE" stroke="#CBD3D7" stroke-width="0.3" stroke-linecap="round" stroke-linejoin="round" stroke-miterlimit="10" d="
						M219.8,333.1c0.2-0.7,19.6-0.7,19.7,0"/>
				</g>
			</g>
			<g>
				<g>
					<path fill="#EAF6FE" stroke="#CBD3D7" stroke-width="0.3" stroke-miterlimit="10" d="M220.3,335.2c6.2-0.6,12.5-0.6,18.7,0
						c1.4,0.1,2.6-0.8,2.8-2.2c0.1-1,0.3-2,0.4-3.1c0.2-1.4-0.9-2.7-2.4-2.8c-6.7-0.7-13.5-0.7-20.2,0c-1.5,0.1-2.6,1.4-2.4,2.8
						c0.1,1,0.3,2,0.4,3.1C217.7,334.4,218.9,335.3,220.3,335.2z"/>
					
						<path fill="#EAF6FE" stroke="#CBD3D7" stroke-width="0.3" stroke-linecap="round" stroke-linejoin="round" stroke-miterlimit="10" d="
						M219.8,333.1c0.2-0.7,19.6-0.7,19.7,0"/>
				</g>
			</g>
			<path fill="#EAF6FE" stroke="#CBD3D7" stroke-width="0.3" stroke-miterlimit="10" d="M196.8,329.9c0.9,0.5,4.1,4.1,4.4,4.4
				c1.7,0,4.7,0.9,5.2,1.5c-0.3,0.5-0.4,0.3-0.8,1c-0.2,0.8-1.3,5.3-3.3,7.7c-1.2-1.1-7.6-1.8-9.3-3.7c-1-0.4-1.8-0.7-2.6-1.5
				c0.2-0.6,2.7-2.6,3.6-2.8C194.6,335.3,195.5,330.7,196.8,329.9z"/>
			<path fill="#EAF6FE" stroke="#CBD3D7" stroke-width="0.3" stroke-miterlimit="10" d="M236.7,329c0.9,0.6,6.2,8,6.5,8.5
				c-0.4,1.7-3.8,4.2-4.8,4.7c-0.4,1.2-1,2.4-1.7,3c-0.5-0.4-1.4-1.4-1.7-2c-0.5-0.3-4-3.3-4.8-5.5c-0.5-0.6-1.1-1.1-1.1-1.5
				c0.8-0.6,1.8-1,2.3-1C232,334.6,235.8,329.1,236.7,329z"/>
		</g>
	</g>
	<g>
		<g>
			<g opacity="0.2">
				<path fill="#708793" d="M296.6,373.7h-9.2v-14.9h9.2c1.7,0,3.1,1.4,3.1,3.1v8.7C299.7,372.3,298.3,373.7,296.6,373.7z"/>
				<path fill="none" stroke="#708793" stroke-width="0.3" stroke-miterlimit="10" d="M296.6,373.7h-9.2v-14.9h9.2
					c1.7,0,3.1,1.4,3.1,3.1v8.7C299.7,372.3,298.3,373.7,296.6,373.7z"/>
			</g>
			<g>
				<path fill="#FFFFFF" d="M293.6,370.7h-9.2v-14.9h9.2c1.7,0,3.1,1.4,3.1,3.1v8.7C296.7,369.3,295.3,370.7,293.6,370.7z"/>
				<path fill="none" stroke="#707E85" stroke-width="0.3" stroke-miterlimit="10" d="M293.6,370.7h-9.2v-14.9h9.2
					c1.7,0,3.1,1.4,3.1,3.1v8.7C296.7,369.3,295.3,370.7,293.6,370.7z"/>
			</g>
		</g>
		<path fill="#FFFFFF" stroke="#707E85" stroke-width="0.3" stroke-miterlimit="10" d="M292.9,369.3H290c-1.4,0-2.6-1.1-2.6-2.6
			v-7.1c0-1.4,1.1-2.6,2.6-2.6h2.9c1.4,0,2.6,1.1,2.6,2.6v7.1C295.5,368.2,294.3,369.3,292.9,369.3z"/>
		<circle fill="#FFFFFF" stroke="#707E85" stroke-width="0.3" stroke-miterlimit="10" cx="289.1" cy="363.2" r="0.7"/>
	</g>
</g>
<g id="Ouvertures">
	<g>
		<g>
			<rect x="145.9" y="165" fill="#FFFFFF" width="7.4" height="135.1"/>
			<path fill="#707E85" d="M153.1,165.2V300H146V165.2H153.1 M153.4,164.9h-7.7v135.4h7.7V164.9L153.4,164.9z"/>
		</g>
		<g>
			<rect x="145.9" y="165" fill="#FFFFFF" width="3.5" height="67.4"/>
			<path fill="#707E85" d="M149.3,165.2v67.1H146v-67.1H149.3 M149.6,164.9h-3.8v67.7h3.8V164.9L149.6,164.9z"/>
		</g>
		<g>
			<rect x="150" y="233.3" fill="#FFFFFF" width="3.2" height="66.8"/>
			<path fill="#707E85" d="M153.1,233.5V300h-2.9v-66.5H153.1 M153.4,233.2h-3.5v67.1h3.5V233.2L153.4,233.2z"/>
		</g>
		<g>
			<g>
				<line fill="none" stroke="#707E85" stroke-width="0.3" stroke-miterlimit="1" x1="157" y1="208.2" x2="157" y2="191.8"/>
				<g>
					<polygon fill="#707E85" points="158.2,192.8 158,193 157,191.9 156,193 155.7,192.8 157,191.5 					"/>
				</g>
			</g>
		</g>
		<rect x="149.9" y="231.1" fill="#707E85" width="3.5" height="4.3"/>
		<rect x="145.7" y="231.1" fill="#707E85" width="3.8" height="4.3"/>
		<rect x="149.9" y="297.1" fill="#707E85" width="3.5" height="3.2"/>
		<rect x="145.7" y="164.9" fill="#707E85" width="3.8" height="4"/>
		<line fill="none" stroke="#707E85" stroke-width="0.1" stroke-miterlimit="1" x1="147.7" y1="231.4" x2="147.7" y2="165.2"/>
		<line fill="none" stroke="#707E85" stroke-width="0.1" stroke-miterlimit="1" x1="151.6" y1="298.7" x2="151.6" y2="232.5"/>
	</g>
	<g>
		<rect x="159.3" y="160.4" fill="#707E85" width="1.5" height="2"/>
		<g>
			<rect x="160" y="160.6" fill="#FFFFFF" width="31.2" height="1.7"/>
			<path fill="#707E85" d="M191.1,160.7v1.4h-30.9v-1.4H191.1 M191.4,160.4h-31.5v2h31.5V160.4L191.4,160.4z"/>
		</g>
		<rect x="189.7" y="160.4" fill="#707E85" width="3.4" height="2"/>
		<rect x="160.6" y="160.4" fill="#707E85" width="3.4" height="2"/>
		<g>
			<path fill="none" stroke="#707E85" stroke-width="0.3" stroke-miterlimit="10" stroke-dasharray="2,2" d="M191.8,162.5
				c0,17.8-12.9,30.7-30.7,30.7"/>
			<line fill="none" stroke="#707E85" stroke-width="0.3" stroke-miterlimit="10" x1="161.1" y1="162.5" x2="161.1" y2="193.1"/>
		</g>
	</g>
	<g>
		<rect x="354.4" y="150.2" fill="#707E85" width="1.5" height="2"/>
		<g>
			<rect x="306.5" y="150.4" fill="#FFFFFF" width="48.7" height="1.7"/>
			<path fill="#707E85" d="M355.1,150.5v1.4h-48.4v-1.4H355.1 M355.4,150.2h-49v2h49V150.2L355.4,150.2z"/>
		</g>
		<rect x="304.1" y="150.2" fill="#707E85" width="4.7" height="2"/>
		<rect x="351.7" y="150.2" fill="#707E85" width="4.9" height="2"/>
	</g>
	<g>
		<rect x="138.7" y="310.3" fill="#707E85" width="1.7" height="2"/>
		<g>
			<rect x="82.7" y="310.4" fill="#FFFFFF" width="57" height="1.7"/>
			<path fill="#707E85" d="M139.6,310.6v1.4H82.8v-1.4H139.6 M139.9,310.3H82.5v2h57.3V310.3L139.9,310.3z"/>
		</g>
		<rect x="79.9" y="310.3" fill="#707E85" width="5.5" height="2"/>
		<rect x="135.5" y="310.3" fill="#707E85" width="5.7" height="2"/>
	</g>
	<g>
		<path fill="none" stroke="#707E85" stroke-width="0.3" stroke-miterlimit="10" stroke-dasharray="2,2" d="M402.4,313.6
			c16.2,0,29.3-13.4,29.3-29.9"/>
		<line fill="none" stroke="#707E85" stroke-width="0.3" stroke-miterlimit="10" x1="402.4" y1="283.7" x2="431.7" y2="283.7"/>
	</g>
	<g>
		<path fill="none" stroke="#707E85" stroke-width="0.3" stroke-miterlimit="10" stroke-dasharray="2,2" d="M394.1,275.8
			c0-16.2-13.4-29.3-29.9-29.3"/>
		<line fill="none" stroke="#707E85" stroke-width="0.3" stroke-miterlimit="10" x1="364.2" y1="275.8" x2="364.2" y2="246.5"/>
	</g>
	<g>
		<path fill="none" stroke="#707E85" stroke-width="0.3" stroke-miterlimit="10" stroke-dasharray="2,2" d="M323.4,278.5
			c0-16.2,13.4-29.3,29.9-29.3"/>
		<line fill="none" stroke="#707E85" stroke-width="0.3" stroke-miterlimit="10" x1="353.2" y1="278.5" x2="353.2" y2="249.2"/>
	</g>
	<g>
		<path fill="none" stroke="#707E85" stroke-width="0.3" stroke-miterlimit="10" stroke-dasharray="2,2" d="M360.3,398.9
			c0-18.3,15.1-33.1,33.8-33.1"/>
		<line fill="none" stroke="#707E85" stroke-width="0.3" stroke-miterlimit="10" x1="394.1" y1="398.9" x2="394.1" y2="365.8"/>
	</g>
	<g>
		<g>
			<rect x="527.3" y="324.8" fill="#FFFFFF" width="2" height="47.9"/>
			<path fill="#707E85" d="M529.2,325v47.6h-1.7V325H529.2 M529.5,324.7h-2.3v48.2h2.3V324.7L529.5,324.7z"/>
		</g>
		<path fill="none" stroke="#707E85" stroke-width="0.3" stroke-miterlimit="10" stroke-dasharray="2,2" d="M527.2,344.6
			c0,0-11.8-0.5-20.7,8.5l20.7,19.2"/>
		<rect x="527.2" y="343.6" fill="#707E85" width="2.3" height="2.6"/>
		<g>
			<path fill="none" stroke="#707E85" stroke-width="0.3" stroke-miterlimit="10" stroke-dasharray="2,2" d="M527.2,344.6
				c-11,0-19.9-8.8-19.9-19.6"/>
			<line fill="none" stroke="#707E85" stroke-width="0.3" stroke-miterlimit="10" x1="527.2" y1="324.9" x2="507.3" y2="324.9"/>
		</g>
	</g>
	<g>
		<g>
			<rect x="73.4" y="315.6" fill="#FFFFFF" width="2" height="80.9"/>
			<path fill="#707E85" d="M75.2,315.8v80.6h-1.7v-80.6H75.2 M75.5,315.5h-2.3v81.2h2.3V315.5L75.5,315.5z"/>
		</g>
		<path fill="none" stroke="#707E85" stroke-width="0.3" stroke-miterlimit="10" stroke-dasharray="2,2" d="M75.5,368.6
			c0,0,5.9-0.4,14-1.7l-14-52.7"/>
		<rect x="73.2" y="367.3" fill="#707E85" width="2.3" height="2.6"/>
		<rect x="73.2" y="313.5" fill="#707E85" width="2.3" height="2.6"/>
		<rect x="73.2" y="395.7" fill="#707E85" width="2.3" height="2.6"/>
		<g>
			<path fill="none" stroke="#707E85" stroke-width="0.3" stroke-miterlimit="10" stroke-dasharray="2,2" d="M75.5,368.6
				c15.9,0,29.1,12.9,29.1,28.8"/>
			<line fill="none" stroke="#707E85" stroke-width="0.3" stroke-miterlimit="10" x1="75.5" y1="397.4" x2="104.6" y2="397.4"/>
		</g>
	</g>
	<g>
		<g>
			<rect x="527.3" y="189.1" fill="#FFFFFF" width="2" height="47.9"/>
			<path fill="#707E85" d="M529.2,189.3v47.6h-1.7v-47.6H529.2 M529.5,189h-2.3v48.2h2.3V189L529.5,189z"/>
		</g>
		<path fill="none" stroke="#707E85" stroke-width="0.3" stroke-miterlimit="10" stroke-dasharray="2,2" d="M527.2,217.2
			c0,0-11.8,0.5-20.7-8.5l20.7-19.2"/>
		<rect x="527.2" y="215.6" fill="#707E85" width="2.3" height="2.6"/>
		<g>
			<path fill="none" stroke="#707E85" stroke-width="0.3" stroke-miterlimit="10" stroke-dasharray="2,2" d="M527.2,217.2
				c-11,0-19.9,8.8-19.9,19.6"/>
			<line fill="none" stroke="#707E85" stroke-width="0.3" stroke-miterlimit="10" x1="527.2" y1="236.9" x2="507.3" y2="236.9"/>
		</g>
	</g>
	<g>
		<path fill="none" stroke="#707E85" stroke-width="0.3" stroke-miterlimit="10" stroke-dasharray="2,2" d="M343,379.5
			c-14.1,0-25.5-11.6-25.5-26"/>
		<line fill="none" stroke="#707E85" stroke-width="0.3" stroke-miterlimit="10" x1="343" y1="353.5" x2="317.5" y2="353.5"/>
	</g>
</g>
<g id="Étiquettes" display="none">
	<text transform="matrix(1 0 0 1 226.7509 433.6587)" display="inline" fill="#3A3A39" font-family="'Lato-Black'" font-size="7px">Espace Jour</text>
	
		<text transform="matrix(1 0 0 1 237.1483 442.0586)" display="inline" fill="#3A3A39" font-family="'Lato-Italic'" font-size="7px">39.70 m</text>
	
		<text transform="matrix(0.583 0 0 0.583 261.7108 439.7275)" display="inline" fill="#3A3A39" font-family="'Lato-Italic'" font-size="7px">2</text>
	<text transform="matrix(1 0 0 1 109.8126 292.9009)" display="inline" fill="#3A3A39" font-family="'Lato-Black'" font-size="7px">Loggia</text>
	<text transform="matrix(1 0 0 1 110.173 301.3008)" display="inline" fill="#3A3A39" font-family="'Lato-Italic'" font-size="7px">10.90 m</text>
	
		<text transform="matrix(0.583 0 0 0.583 134.7355 298.9697)" display="inline" fill="#3A3A39" font-family="'Lato-Italic'" font-size="7px">2</text>
	<text transform="matrix(1 0 0 1 475.2307 386.2192)" display="inline" fill="#3A3A39" font-family="'Lato-Black'" font-size="7px">Chambre 2</text>
	
		<text transform="matrix(1 0 0 1 482.7238 394.6191)" display="inline" fill="#3A3A39" font-family="'Lato-Italic'" font-size="7px">12.70 m</text>
	
		<text transform="matrix(0.583 0 0 0.583 507.2863 392.2881)" display="inline" fill="#3A3A39" font-family="'Lato-Italic'" font-size="7px">2</text>
	<text transform="matrix(1 0 0 1 477.5297 259.6509)" display="inline" fill="#3A3A39" font-family="'Lato-Black'" font-size="7px">Chambre 1</text>
	
		<text transform="matrix(1 0 0 1 485.0229 268.0508)" display="inline" fill="#3A3A39" font-family="'Lato-Italic'" font-size="7px">15.70 m</text>
	
		<text transform="matrix(0.583 0 0 0.583 509.5854 265.7197)" display="inline" fill="#3A3A39" font-family="'Lato-Italic'" font-size="7px">2</text>
	<text transform="matrix(1 0 0 1 304.4392 309.2515)" display="inline" fill="#3A3A39" font-family="'Lato-Black'" font-size="7px">Dégagement</text>
	<text transform="matrix(1 0 0 1 318.071 317.6514)" display="inline" fill="#3A3A39" font-family="'Lato-Italic'" font-size="7px">8.94 m</text>
	
		<text transform="matrix(0.583 0 0 0.583 338.573 315.3203)" display="inline" fill="#3A3A39" font-family="'Lato-Italic'" font-size="7px">2</text>
</g>
<g id="Murs">
	<rect x="398" y="312.7" fill="#707E85" width="3.5" height="88.1"/>
	<rect x="398" y="276.8" fill="#707E85" width="3.5" height="8"/>
	<rect x="356.5" y="162.6" fill="#707E85" width="3.5" height="117"/>
	<rect x="280.9" y="159.8" fill="#707E85" width="3.5" height="118.7"/>
	<rect x="282.7" y="159.8" fill="#707E85" width="11.7" height="84.1"/>
	<rect x="280.9" y="321.9" fill="#707E85" width="3.5" height="129.8"/>
	<rect x="344.4" y="321.9" fill="#707E85" width="3.5" height="32.8"/>
	<rect x="283.3" y="343.1" fill="#707E85" width="61.7" height="6.9"/>
	<rect x="344.4" y="379" fill="#707E85" width="3.5" height="32.8"/>
	<rect x="351.3" y="276.1" fill="#707E85" width="13.9" height="3.5"/>
	<rect x="392.8" y="276.1" fill="#707E85" width="136.7" height="3.5"/>
	<rect x="259.9" y="276.1" fill="#707E85" width="63.7" height="3.5"/>
	<rect x="525" y="150.2" fill="#707E85" width="14.8" height="36.5"/>
	<rect x="527.2" y="153.5" fill="#707E85" width="12.6" height="36.5"/>
	<rect x="527.2" y="236.7" fill="#707E85" width="12.6" height="89.3"/>
	<rect x="527.2" y="372.5" fill="#707E85" width="12.6" height="43.4"/>
	<rect x="525" y="239.6" fill="#707E85" width="12.6" height="83.1"/>
	<rect x="525" y="375.9" fill="#707E85" width="12.6" height="40"/>
	<rect x="419.2" y="150.2" fill="#707E85" width="108" height="14.7"/>
	<rect x="415.9" y="150.2" fill="#707E85" width="68.8" height="12.3"/>
	<rect x="356.5" y="150.2" fill="#707E85" width="80.5" height="12.3"/>
	<rect x="356.5" y="152.6" fill="#707E85" width="69.2" height="12.3"/>
	<rect x="291.2" y="150.2" fill="#707E85" width="13" height="12.3"/>
	<rect x="194.6" y="150.2" fill="#707E85" width="109.5" height="14.7"/>
	<rect x="191.2" y="150.2" fill="#707E85" width="18.1" height="12"/>
	<rect x="145.7" y="150.2" fill="#707E85" width="16.6" height="12"/>
	<rect x="145.7" y="153" fill="#707E85" width="13.3" height="12"/>
	<rect x="140.3" y="300.3" fill="#707E85" width="13.1" height="12"/>
	<rect x="63.8" y="300.3" fill="#707E85" width="17.7" height="12"/>
	<rect x="63.8" y="399.5" fill="#707E85" width="14.5" height="59"/>
	<rect x="71.2" y="449.7" fill="#707E85" width="212.9" height="8.9"/>
	<rect x="63.8" y="306.3" fill="#707E85" width="11.7" height="9.2"/>
	<rect x="63.8" y="396.4" fill="#707E85" width="11.7" height="61.8"/>
	<rect x="283.3" y="400.8" fill="#707E85" width="61.7" height="11"/>
	<line fill="none" stroke="#A5B8C4" stroke-miterlimit="10" x1="67.2" y1="315.5" x2="67.2" y2="396.4"/>
	<line fill="none" stroke="#A5B8C4" stroke-miterlimit="10" x1="162.3" y1="153" x2="191.2" y2="153"/>
	<polyline fill="none" stroke="#A5B8C4" stroke-miterlimit="10" points="143.7,157 71.2,157 71.2,298.7 	"/>
	<line fill="none" stroke="#A5B8C4" stroke-miterlimit="10" x1="536.2" y1="189.9" x2="536.2" y2="236.7"/>
	<line fill="none" stroke="#A5B8C4" stroke-miterlimit="10" x1="536.2" y1="326" x2="536.2" y2="372.3"/>
	<g>
		<polygon fill="#707E85" points="392.6,400.8 454.3,400.8 525.3,400.8 539.4,400.8 539.4,411.7 539.4,415.7 525.3,415.7 
			525.3,409.5 424.7,409.5 419,409.5 392.6,409.5 		"/>
	</g>
	<rect x="347.8" y="400.7" fill="#707E85" width="12.5" height="8.4"/>
	<rect x="281.4" y="403" fill="#707E85" width="7.6" height="55.6"/>
</g>
<g id="Entree">
	<polygon fill="#3A3A39" points="370.9,404.4 376.3,399.6 381.8,404.4 	"/>
</g>
<g id="Nord">
	<circle fill="none" stroke="#707E85" stroke-miterlimit="10" cx="527.7" cy="446.5" r="11.9"/>
	<line fill="none" stroke="#707E85" stroke-width="2" stroke-miterlimit="10" x1="534.4" y1="441.9" x2="540.9" y2="437.7"/>
	<text transform="matrix(1 0 0 1 521.5171 452.4678)" fill="#707E85" font-family="'Lato-Black'" font-size="16.4252px">N</text>
</g>
</svg>
