<?xml version="1.0" encoding="utf-8"?>
<!-- Generator: Adobe Illustrator 19.0.0, SVG Export Plug-In . SVG Version: 6.00 Build 0)  -->
<svg version="1.1" xmlns="http://www.w3.org/2000/svg" xmlns:xlink="http://www.w3.org/1999/xlink" x="0px" y="0px"
	 viewBox="0 0 595.3 595.3" enable-background="new 0 0 595.3 595.3" xml:space="preserve">
<pattern  width="3.8" height="3.4" patternUnits="userSpaceOnUse" id="Nouvelle_nuance_de_motif_7" viewBox="0 -3.4 3.8 3.4" overflow="visible">
	<g>
		<polygon fill="none" points="0,0 3.8,0 3.8,-3.4 0,-3.4 		"/>
		<polygon fill="#FFFFFF" points="3.7,0 0.1,0 0.1,-3.4 3.7,-3.4 		"/>
		<polygon fill="#E3E3E3" points="3.8,0 3.7,0 3.7,-3.4 3.8,-3.4 		"/>
		<polygon fill="#E3E3E3" points="0.1,0 0,0 0,-3.4 0.1,-3.4 		"/>
	</g>
</pattern>
<g id="Fond">
	<polygon fill="#FFFFFF" points="447.6,128.2 430.3,434.3 431.8,565 235.7,504.1 186,41.6 282.2,36.5 	"/>
	<polygon fill="#EAF6FE" points="421.7,551.8 421.7,419.5 428.3,311.9 436.4,130 356.2,130 356.2,125.4 280.3,125.4 280.4,46.6 
		168.8,53.5 168.8,301.1 182.5,301.9 183.2,551.8 	"/>
</g>
<g id="Sols">
	<rect x="178.4" y="242.9" opacity="0.8" fill="#FFFFFF" width="47.5" height="51.5"/>
	<rect x="199.8" y="472.5" opacity="0.8" fill="#FFFFFF" width="71.4" height="76.8"/>
	<pattern  id="SVGID_1_" xlink:href="#Nouvelle_nuance_de_motif_7" patternTransform="matrix(1 0 0 1 -7.626 10.3125)">
	</pattern>
	<polygon fill="url(#SVGID_1_)" stroke="#717E86" stroke-width="0.3" stroke-miterlimit="10" points="282.1,121.4 282.2,36.5 
		452.6,27.9 447.8,121.3 	"/>
</g>
<g id="Installations">
	<polyline fill="#FFFFFF" stroke="#717E86" stroke-width="0.3" stroke-miterlimit="10" points="296,362.7 295.9,406.9 418.1,406.9 
		416.9,427.3 295.9,427.3 274.6,406.9 274.6,362.7 	"/>
	<g>
		<g>
			<g>
				<g opacity="5.000000e-002">
					<path fill="#717E86" d="M323.1,551.2h-9.3c-0.6,0-1-0.4-1-1V542c0-0.6,0.4-1,1-1h9.3c0.6,0,1,0.4,1,1v8.2
						C324.1,550.8,323.7,551.2,323.1,551.2z"/>
					<path fill="none" stroke="#717E86" stroke-width="0.3" stroke-miterlimit="10" d="M323.1,551.2h-9.3c-0.6,0-1-0.4-1-1V542
						c0-0.6,0.4-1,1-1h9.3c0.6,0,1,0.4,1,1v8.2C324.1,550.8,323.7,551.2,323.1,551.2z"/>
				</g>
				<g>
					<path fill="#EAF6FE" d="M320.1,548.2h-9.3c-0.6,0-1-0.4-1-1V539c0-0.6,0.4-1,1-1h9.3c0.6,0,1,0.4,1,1v8.2
						C321.1,547.8,320.7,548.2,320.1,548.2z"/>
					<path fill="none" stroke="#CCD3D8" stroke-width="0.3" stroke-miterlimit="10" d="M320.1,548.2h-9.3c-0.6,0-1-0.4-1-1V539
						c0-0.6,0.4-1,1-1h9.3c0.6,0,1,0.4,1,1v8.2C321.1,547.8,320.7,548.2,320.1,548.2z"/>
				</g>
			</g>
			<path fill="#EAF6FE" stroke="#CCD3D8" stroke-width="0.3" stroke-miterlimit="10" d="M314.3,540.7l3.8,1.5
				c0.5,0.2,0.8,0.8,0.6,1.3l-0.6,1.5c-0.2,0.5-0.8,0.8-1.3,0.6l-3.8-1.5c-0.5-0.2-0.8-0.8-0.6-1.3l0.6-1.5
				C313.3,540.7,313.8,540.5,314.3,540.7z"/>
			<circle fill="#EAF6FE" stroke="#CCD3D8" stroke-width="0.3" stroke-miterlimit="10" cx="315.6" cy="543.1" r="0.5"/>
		</g>
		<g>
			<g opacity="5.000000e-002">
				<path fill="#717E86" d="M310.2,484.9v65.3c0,0.6-0.4,1-1,1h-28.4c-0.6,0-1-0.4-1-1v-65.3c0-0.6,0.4-1,1-1h28.4
					C309.8,483.9,310.2,484.4,310.2,484.9z"/>
				<path fill="none" stroke="#717E86" stroke-width="0.3" stroke-miterlimit="10" d="M310.2,484.9v65.3c0,0.6-0.4,1-1,1h-28.4
					c-0.6,0-1-0.4-1-1v-65.3c0-0.6,0.4-1,1-1h28.4C309.8,483.9,310.2,484.4,310.2,484.9z"/>
			</g>
			<g>
				<path fill="#EAF6FE" d="M307.2,481.9v65.3c0,0.6-0.4,1-1,1h-28.4c-0.6,0-1-0.4-1-1v-65.3c0-0.6,0.4-1,1-1h28.4
					C306.8,480.9,307.2,481.4,307.2,481.9z"/>
				<path fill="none" stroke="#CCD3D8" stroke-width="0.3" stroke-miterlimit="10" d="M307.2,481.9v65.3c0,0.6-0.4,1-1,1h-28.4
					c-0.6,0-1-0.4-1-1v-65.3c0-0.6,0.4-1,1-1h28.4C306.8,480.9,307.2,481.4,307.2,481.9z"/>
			</g>
		</g>
		<path fill="#EAF6FE" stroke="#CCD3D8" stroke-width="0.3" stroke-miterlimit="10" d="M303.7,485.5v58.1c0,0.6-0.4,1-1,1h-21.2
			c-0.6,0-1-0.4-1-1v-58.1c0-0.6,0.4-1,1-1h21.2C303.2,484.5,303.7,485,303.7,485.5z"/>
		<path fill="#EAF6FE" stroke="#CCD3D8" stroke-width="0.3" stroke-miterlimit="10" d="M300.6,541.5c-0.5,0.2-0.9-0.1-1.8-0.1
			c-7.5,1.6-15.5-0.4-15.7-0.7c-0.2-0.3,0.2-0.2,0.5-1.9c0.1-1.8-0.3-5.8-0.1-7.3c0.1-0.4,0.2-0.6,0.4-0.8
			c1.4-1.1,16.1-0.7,16.3-0.5c0.2,0.2,0.7,0.7,0.8,1.3C301.2,533.2,301.1,541.3,300.6,541.5z"/>
		<g>
			<g>
				<path fill="#EAF6FE" stroke="#CCD3D8" stroke-width="0.3" stroke-miterlimit="10" d="M282.8,520.1c0,0,7-0.9,9.3-0.9
					c2.4,0,9.3,0.9,9.3,0.9c1.8,0,3.2-2.9,3.2-1.2v9.8c0,1.8-1.4,3.2-3.2,3.2c0,0-6.4-0.9-9.1-0.9c-2.8,0-9.4,0.9-9.4,0.9
					c-1.8,0-3.2-1.4-3.2-3.2v-9.8C279.6,517.2,281,520.1,282.8,520.1z"/>
			</g>
			<path fill="#EAF6FE" stroke="#CCD3D8" stroke-width="0.3" stroke-linecap="round" stroke-miterlimit="10" d="M300.6,527.6
				c0.2-1.4-1.3-4.9-3.9-5.5"/>
			<path fill="#EAF6FE" stroke="#CCD3D8" stroke-width="0.3" stroke-linecap="round" stroke-miterlimit="10" d="M292.9,528.1
				c-1.9-1.9-6.4-4.3-9.3-4.1"/>
		</g>
	</g>
	<g>
		<g>
			<g opacity="5.000000e-002">
				<path fill="#717E86" d="M378.4,435.8H418c0.6,0,1,0.4,1,1v17.9c0,0.6-0.4,1-1,1h-39.6c-0.6,0-1-0.4-1-1v-17.9
					C377.4,436.3,377.9,435.8,378.4,435.8z"/>
				<path fill="none" stroke="#717E86" stroke-width="0.3" stroke-miterlimit="10" d="M378.4,435.8H418c0.6,0,1,0.4,1,1v17.9
					c0,0.6-0.4,1-1,1h-39.6c-0.6,0-1-0.4-1-1v-17.9C377.4,436.3,377.9,435.8,378.4,435.8z"/>
			</g>
			<g>
				<path fill="#EAF6FE" d="M375.4,432.8H415c0.6,0,1,0.4,1,1v17.9c0,0.6-0.4,1-1,1h-39.6c-0.6,0-1-0.4-1-1v-17.9
					C374.4,433.3,374.9,432.8,375.4,432.8z"/>
				<path fill="none" stroke="#CCD3D8" stroke-width="0.3" stroke-miterlimit="10" d="M375.4,432.8H415c0.6,0,1,0.4,1,1v17.9
					c0,0.6-0.4,1-1,1h-39.6c-0.6,0-1-0.4-1-1v-17.9C374.4,433.3,374.9,432.8,375.4,432.8z"/>
			</g>
		</g>
		<line fill="#EAF6FE" stroke="#CCD3D8" stroke-width="0.3" stroke-miterlimit="10" x1="416" y1="450.1" x2="374.4" y2="450.1"/>
		<line fill="#EAF6FE" stroke="#CCD3D8" stroke-width="0.3" stroke-miterlimit="10" x1="395.2" y1="450.1" x2="395.2" y2="452.7"/>
		<polyline fill="none" stroke="#CCD3D8" stroke-width="0.3" stroke-miterlimit="10" points="399.8,452.7 399.8,454.2 398.2,454.2 
			398.2,452.7 		"/>
		<polyline fill="none" stroke="#CCD3D8" stroke-width="0.3" stroke-miterlimit="10" points="392.3,452.7 392.3,454.2 390.7,454.2 
			390.7,452.7 		"/>
	</g>
	<g>
		<g>
			<g>
				<g opacity="5.000000e-002">
					<path fill="#717E86" d="M183.4,169.5v9.6c0,0.6-0.4,1-1,1h-8.6c-0.6,0-1-0.4-1-1v-9.6c0-0.6,0.4-1,1-1h8.6
						C182.9,168.5,183.4,169,183.4,169.5z"/>
					<path fill="none" stroke="#717E86" stroke-width="0.3" stroke-miterlimit="10" d="M183.4,169.5v9.6c0,0.6-0.4,1-1,1h-8.6
						c-0.6,0-1-0.4-1-1v-9.6c0-0.6,0.4-1,1-1h8.6C182.9,168.5,183.4,169,183.4,169.5z"/>
				</g>
				<g>
					<path fill="#EAF6FE" d="M180.4,166.5v9.6c0,0.6-0.4,1-1,1h-8.6c-0.6,0-1-0.4-1-1v-9.6c0-0.6,0.4-1,1-1h8.6
						C179.9,165.5,180.4,166,180.4,166.5z"/>
					<path fill="none" stroke="#CCD3D8" stroke-width="0.3" stroke-miterlimit="10" d="M180.4,166.5v9.6c0,0.6-0.4,1-1,1h-8.6
						c-0.6,0-1-0.4-1-1v-9.6c0-0.6,0.4-1,1-1h8.6C179.9,165.5,180.4,166,180.4,166.5z"/>
				</g>
			</g>
			<path fill="#EAF6FE" stroke="#CCD3D8" stroke-width="0.3" stroke-miterlimit="10" d="M175.8,173.9v0.4c0,0.1-0.1,0.3-0.3,0.3
				h-5.7v-0.9h5.7C175.7,173.6,175.8,173.8,175.8,173.9z"/>
			<path fill="#EAF6FE" stroke="#CCD3D8" stroke-width="0.3" stroke-miterlimit="10" d="M174.9,172v0.4c0,0.1-0.1,0.3-0.3,0.3h-4.8
				v-0.9h4.8C174.8,171.8,174.9,171.9,174.9,172z"/>
			<path fill="#EAF6FE" stroke="#CCD3D8" stroke-width="0.3" stroke-miterlimit="10" d="M176.4,173v0.4c0,0.1-0.1,0.3-0.3,0.3h-6.3
				v-0.9h6.3C176.2,172.7,176.4,172.8,176.4,173z"/>
		</g>
		<g>
			<g opacity="5.000000e-002">
				<path fill="#717E86" d="M241.4,166.1h-67.6c-0.6,0-1-0.4-1-1v-53.5c0-0.6,0.4-1,1-1h67.6c0.6,0,1,0.4,1,1v53.5
					C242.4,165.6,241.9,166.1,241.4,166.1z"/>
				<path fill="none" stroke="#717E86" stroke-width="0.3" stroke-miterlimit="10" d="M241.4,166.1h-67.6c-0.6,0-1-0.4-1-1v-53.5
					c0-0.6,0.4-1,1-1h67.6c0.6,0,1,0.4,1,1v53.5C242.4,165.6,241.9,166.1,241.4,166.1z"/>
			</g>
			<g>
				<path fill="#EAF6FE" d="M238.4,163.1h-67.6c-0.6,0-1-0.4-1-1v-53.5c0-0.6,0.4-1,1-1h67.6c0.6,0,1,0.4,1,1v53.5
					C239.4,162.6,238.9,163.1,238.4,163.1z"/>
				<path fill="none" stroke="#CCD3D8" stroke-width="0.3" stroke-miterlimit="10" d="M238.4,163.1h-67.6c-0.6,0-1-0.4-1-1v-53.5
					c0-0.6,0.4-1,1-1h67.6c0.6,0,1,0.4,1,1v53.5C239.4,162.6,238.9,163.1,238.4,163.1z"/>
			</g>
		</g>
		<path fill="#EAF6FE" stroke="#CCD3D8" stroke-width="0.3" stroke-miterlimit="10" d="M234.7,159.4h-60.1c-0.6,0-1-0.4-1-1v-46.1
			c0-0.6,0.4-1,1-1h60.1c0.6,0,1,0.4,1,1v46.1C235.7,158.9,235.2,159.4,234.7,159.4z"/>
		<path fill="#EAF6FE" stroke="#CCD3D8" stroke-width="0.3" stroke-miterlimit="10" d="M177,156.2c-1.2-2-1.4-16.5-0.1-18.7
			c0.1-0.2,6.9-0.9,10.6-0.4c0.6,0.1,1.5,0.7,1.9,1.8c1.3,3.7,0.8,12.2-0.4,16.3c-0.4,1.5-1.9,1.4-2.5,1.5
			C183.7,157.1,177.4,156.9,177,156.2z"/>
		<path fill="#EAF6FE" stroke="#CCD3D8" stroke-width="0.3" stroke-miterlimit="10" d="M176.8,133.4c-1.6-4.1-1.1-18-0.3-18.7
			c0.3-0.3,7-1.1,10-0.4c0.4,0.1,0.9,0.3,1.1,0.5c1.2,1.7,2.1,17.9,2,18.1c-0.2,0.2-1.5,0.1-2.2,0.4
			C185.8,134.1,177.1,134.1,176.8,133.4z"/>
		<g>
			<path fill="#EAF6FE" stroke="#CCD3D8" stroke-width="0.3" stroke-miterlimit="10" d="M198.9,113.8c0,0,1.8,19.1,1.8,21.5
				c0,2.5-1.8,21.5-1.8,21.5c0,1.8,3,3.3,1.2,3.3H190c-1.8,0-3.3-1.5-3.3-3.3c0,0,1-18.5,1-21.3c0-2.9-1-21.6-1-21.6
				c0-1.8,1.5-3.3,3.3-3.3h10.1C201.9,110.5,198.9,112,198.9,113.8z"/>
			<path fill="#EAF6FE" stroke="#CCD3D8" stroke-width="0.3" stroke-linecap="round" stroke-miterlimit="10" d="M189.4,152.9
				c0.3,2.3,3.4,6.9,4.3,7.1"/>
			<path fill="#EAF6FE" stroke="#CCD3D8" stroke-width="0.3" stroke-linecap="round" stroke-miterlimit="10" d="M190.4,129.6
				c0.2,0.4,5,10.4,7.3,9.3c0.9-0.4,0.3-2-0.2-2.8"/>
			<path fill="#EAF6FE" stroke="#CCD3D8" stroke-width="0.3" stroke-linecap="round" stroke-miterlimit="10" d="M188.2,113.4
				c1.4,1.4,5.3,7.3,8.3,15.3"/>
		</g>
		<g>
			<g>
				<g opacity="5.000000e-002">
					<path fill="#717E86" d="M172.8,107.2v-9.6c0-0.6,0.4-1,1-1h8.6c0.6,0,1,0.4,1,1v9.6c0,0.6-0.4,1-1,1h-8.6
						C173.3,108.2,172.8,107.8,172.8,107.2z"/>
					<path fill="none" stroke="#717E86" stroke-width="0.3" stroke-miterlimit="10" d="M172.8,107.2v-9.6c0-0.6,0.4-1,1-1h8.6
						c0.6,0,1,0.4,1,1v9.6c0,0.6-0.4,1-1,1h-8.6C173.3,108.2,172.8,107.8,172.8,107.2z"/>
				</g>
				<g>
					<path fill="#EAF6FE" d="M169.8,104.2v-9.6c0-0.6,0.4-1,1-1h8.6c0.6,0,1,0.4,1,1v9.6c0,0.6-0.4,1-1,1h-8.6
						C170.3,105.2,169.8,104.8,169.8,104.2z"/>
					<path fill="none" stroke="#CCD3D8" stroke-width="0.3" stroke-miterlimit="10" d="M169.8,104.2v-9.6c0-0.6,0.4-1,1-1h8.6
						c0.6,0,1,0.4,1,1v9.6c0,0.6-0.4,1-1,1h-8.6C170.3,105.2,169.8,104.8,169.8,104.2z"/>
				</g>
			</g>
			<path fill="#EAF6FE" stroke="#CCD3D8" stroke-width="0.3" stroke-miterlimit="10" d="M177.7,98.2l-1.5,4
				c-0.2,0.5-0.8,0.8-1.3,0.6l-1.6-0.6c-0.5-0.2-0.8-0.8-0.6-1.3l1.5-4c0.2-0.5,0.8-0.8,1.3-0.6l1.6,0.6
				C177.6,97.1,177.9,97.6,177.7,98.2z"/>
			<circle fill="#EAF6FE" stroke="#CCD3D8" stroke-width="0.3" stroke-miterlimit="10" cx="175.2" cy="99.5" r="0.6"/>
		</g>
	</g>
	<g>
		<g>
			<g opacity="5.000000e-002">
				<path fill="#717E86" d="M234.4,240.7h-60.6c-0.6,0-1-0.4-1-1v-16.3c0-0.6,0.4-1,1-1h60.6c0.6,0,1,0.4,1,1v16.3
					C235.4,240.2,235,240.7,234.4,240.7z"/>
				<path fill="none" stroke="#717E86" stroke-width="0.3" stroke-miterlimit="10" d="M234.4,240.7h-60.6c-0.6,0-1-0.4-1-1v-16.3
					c0-0.6,0.4-1,1-1h60.6c0.6,0,1,0.4,1,1v16.3C235.4,240.2,235,240.7,234.4,240.7z"/>
			</g>
			<g>
				<path fill="#EAF6FE" d="M231.4,237.7h-60.6c-0.6,0-1-0.4-1-1v-16.3c0-0.6,0.4-1,1-1h60.6c0.6,0,1,0.4,1,1v16.3
					C232.4,237.2,232,237.7,231.4,237.7z"/>
				<path fill="none" stroke="#CCD3D8" stroke-width="0.3" stroke-miterlimit="10" d="M231.4,237.7h-60.6c-0.6,0-1-0.4-1-1v-16.3
					c0-0.6,0.4-1,1-1h60.6c0.6,0,1,0.4,1,1v16.3C232.4,237.2,232,237.7,231.4,237.7z"/>
			</g>
		</g>
		<line fill="#EAF6FE" stroke="#CCD3D8" stroke-width="0.3" stroke-miterlimit="10" x1="169.8" y1="221.9" x2="232.4" y2="221.9"/>
		<line fill="#EAF6FE" stroke="#CCD3D8" stroke-width="0.3" stroke-miterlimit="10" x1="201.1" y1="221.9" x2="201.1" y2="219.4"/>
		<polyline fill="none" stroke="#CCD3D8" stroke-width="0.3" stroke-miterlimit="10" points="194.3,219.4 194.3,218.1 196.7,218.1 
			196.7,219.4 		"/>
		<polyline fill="none" stroke="#CCD3D8" stroke-width="0.3" stroke-miterlimit="10" points="205.6,219.4 205.6,218.1 208,218.1 
			208,219.4 		"/>
	</g>
	<g>
		<rect x="374.9" y="407.7" fill="none" stroke="#717E86" stroke-width="0.3" stroke-miterlimit="10" width="37.6" height="18.7"/>
		<g>
			<path fill="#FFFFFF" stroke="#717E86" stroke-width="0.3" stroke-miterlimit="10" d="M394,422.5v-10.8c0-1.3-1.1-2.4-2.4-2.4H379
				c-1.3,0-2.4,1.1-2.4,2.4v10.8c0,1.3,1.1,2.4,2.4,2.4h12.6C392.9,424.9,394,423.8,394,422.5z"/>
			<circle fill="#FFFFFF" stroke="#717E86" stroke-width="0.3" stroke-miterlimit="10" cx="385" cy="421.8" r="1.2"/>
		</g>
		<g>
			<rect x="396.9" y="411.5" fill="#717E86" width="12.3" height="0.7"/>
			<rect x="396.9" y="414.1" fill="#717E86" width="12.3" height="0.7"/>
			<rect x="396.9" y="416.7" fill="#717E86" width="12.3" height="0.7"/>
			<rect x="396.9" y="419.3" fill="#717E86" width="12.3" height="0.7"/>
			<rect x="396.9" y="422" fill="#717E86" width="12.3" height="0.7"/>
		</g>
	</g>
	<g>
		<rect x="314.1" y="407.7" fill="none" stroke="#717E86" stroke-width="0.3" stroke-miterlimit="10" width="19.5" height="18.7"/>
		<path fill="#FFFFFF" stroke="#717E86" stroke-width="0.3" stroke-miterlimit="10" d="M319.8,417.6c-2,0-3.5,1.5-3.5,3.4
			c0,1.9,1.6,3.4,3.5,3.4c2,0,3.5-1.5,3.5-3.4C323.3,419.1,321.7,417.6,319.8,417.6"/>
		<path fill="#FFFFFF" stroke="#717E86" stroke-width="0.3" stroke-miterlimit="10" d="M328,410c-2,0-3.5,1.5-3.5,3.4
			c0,1.9,1.6,3.4,3.5,3.4c2,0,3.5-1.5,3.5-3.4C331.5,411.5,330,410,328,410"/>
		<path fill="#FFFFFF" stroke="#717E86" stroke-width="0.3" stroke-miterlimit="10" d="M328.7,418.5c-1.6,0-2.9,1.2-2.9,2.8
			c0,1.5,1.3,2.8,2.9,2.8c1.6,0,2.9-1.2,2.9-2.8C331.5,419.7,330.3,418.5,328.7,418.5"/>
		<path fill="#FFFFFF" stroke="#717E86" stroke-width="0.3" stroke-miterlimit="10" d="M319.3,410c-1.6,0-2.9,1.2-2.9,2.8
			s1.3,2.8,2.9,2.8c1.6,0,2.9-1.2,2.9-2.8S320.9,410,319.3,410"/>
	</g>
	<g>
		
			<polyline fill="none" stroke="#000000" stroke-width="0.12" stroke-linecap="square" stroke-linejoin="bevel" stroke-miterlimit="10" points="
			288.5,378.6 288.5,377.2 289.8,377.2 		"/>
		
			<polyline fill="none" stroke="#000000" stroke-width="0.12" stroke-linecap="square" stroke-linejoin="bevel" stroke-miterlimit="10" points="
			281.3,371.3 282.5,371.3 282.5,370.1 		"/>
		
			<line fill="none" stroke="#000000" stroke-width="0.12" stroke-linecap="square" stroke-linejoin="bevel" stroke-miterlimit="10" x1="281.6" y1="370.4" x2="289.4" y2="378.1"/>
		
			<polyline fill="none" stroke="#000000" stroke-width="0.12" stroke-linecap="square" stroke-linejoin="bevel" stroke-miterlimit="10" points="
			289.8,371.3 288.5,371.3 288.5,370.1 		"/>
		
			<polyline fill="none" stroke="#000000" stroke-width="0.12" stroke-linecap="square" stroke-linejoin="bevel" stroke-miterlimit="10" points="
			282.5,378.6 282.5,377.2 281.3,377.2 		"/>
		
			<line fill="none" stroke="#000000" stroke-width="0.12" stroke-linecap="square" stroke-linejoin="bevel" stroke-miterlimit="10" x1="281.6" y1="378.1" x2="289.4" y2="370.4"/>
		
			<polyline fill="none" stroke="#000000" stroke-width="0.12" stroke-linecap="square" stroke-linejoin="bevel" stroke-miterlimit="10" points="
			290.7,375.2 289.8,374.3 290.7,373.5 		"/>
		
			<polyline fill="none" stroke="#000000" stroke-width="0.12" stroke-linecap="square" stroke-linejoin="bevel" stroke-miterlimit="10" points="
			280.4,375.2 281.3,374.3 280.4,373.5 		"/>
		
			<polyline fill="none" stroke="#000000" stroke-width="0.12" stroke-linecap="square" stroke-linejoin="bevel" stroke-miterlimit="10" points="
			286.4,369.2 285.5,370.1 284.6,369.2 		"/>
		
			<polyline fill="none" stroke="#000000" stroke-width="0.12" stroke-linecap="square" stroke-linejoin="bevel" stroke-miterlimit="10" points="
			286.4,379.3 285.5,378.4 284.6,379.3 		"/>
		
			<line fill="none" stroke="#000000" stroke-width="0.12" stroke-linecap="square" stroke-linejoin="bevel" stroke-miterlimit="10" x1="280" y1="374.3" x2="291" y2="374.3"/>
		
			<line fill="none" stroke="#000000" stroke-width="0.12" stroke-linecap="square" stroke-linejoin="bevel" stroke-miterlimit="10" x1="285.5" y1="379.7" x2="285.5" y2="368.8"/>
		<polyline fill="none" stroke="#717E86" stroke-width="0.3" stroke-miterlimit="10" points="288.5,378.6 288.5,377.2 289.8,377.2 
					"/>
		<polyline fill="none" stroke="#717E86" stroke-width="0.3" stroke-miterlimit="10" points="281.3,371.3 282.5,371.3 282.5,370.1 
					"/>
		<line fill="none" stroke="#717E86" stroke-width="0.3" stroke-miterlimit="10" x1="281.6" y1="370.4" x2="289.4" y2="378.1"/>
		<polyline fill="none" stroke="#717E86" stroke-width="0.3" stroke-miterlimit="10" points="289.8,371.3 288.5,371.3 288.5,370.1 
					"/>
		<polyline fill="none" stroke="#717E86" stroke-width="0.3" stroke-miterlimit="10" points="282.5,378.6 282.5,377.2 281.3,377.2 
					"/>
		<line fill="none" stroke="#717E86" stroke-width="0.3" stroke-miterlimit="10" x1="281.6" y1="378.1" x2="289.4" y2="370.4"/>
		<polyline fill="none" stroke="#717E86" stroke-width="0.3" stroke-miterlimit="10" points="290.7,375.2 289.8,374.3 290.7,373.5 
					"/>
		<polyline fill="none" stroke="#717E86" stroke-width="0.3" stroke-miterlimit="10" points="280.4,375.2 281.3,374.3 280.4,373.5 
					"/>
		<polyline fill="none" stroke="#717E86" stroke-width="0.3" stroke-miterlimit="10" points="286.4,369.2 285.5,370.1 284.6,369.2 
					"/>
		<polyline fill="none" stroke="#717E86" stroke-width="0.3" stroke-miterlimit="10" points="286.4,379.3 285.5,378.4 284.6,379.3 
					"/>
		<line fill="none" stroke="#717E86" stroke-width="0.3" stroke-miterlimit="10" x1="280" y1="374.3" x2="291" y2="374.3"/>
		<line fill="none" stroke="#717E86" stroke-width="0.3" stroke-miterlimit="10" x1="285.5" y1="379.7" x2="285.5" y2="368.8"/>
	</g>
	<g>
		<path fill="#FFFFFF" stroke="#717E86" stroke-width="0.3" stroke-miterlimit="10" d="M205.9,548.3v-24.2c0-0.5,0.4-0.9,0.9-0.9h57
			c0.5,0,0.9,0.4,0.9,0.9v24.2c0,0.5-0.4,0.9-0.9,0.9h-57C206.3,549.2,205.9,548.8,205.9,548.3z"/>
		<path fill="#FFFFFF" stroke="#717E86" stroke-width="0.3" stroke-miterlimit="10" d="M262.4,536.1c0-7.8-4.5-10.5-6.8-10.5h-44
			c-2.2,0-4,1.9-4,4.3v12.7c0,2.4,1.8,4.3,4,4.3h44C257.9,546.8,262.4,544,262.4,536.1z"/>
		<path fill="#FFFFFF" stroke="#717E86" stroke-width="0.3" stroke-miterlimit="10" d="M253.3,536.1c0-6.6-3.7-8.9-5.5-8.9h-35.6
			c-1.8,0-3.2,1.6-3.2,3.6v10.7c0,2,1.4,3.6,3.2,3.6h35.6C249.6,545.2,253.3,542.8,253.3,536.1z"/>
		<ellipse fill="#FFFFFF" stroke="#717E86" stroke-width="0.3" stroke-miterlimit="10" cx="215.6" cy="536.2" rx="1" ry="1.1"/>
	</g>
	<g>
		<g>
			<g opacity="0.2">
				<path fill="#738793" d="M215.1,522.9h-12.6v-20.4h12.6c2.3,0,4.2,1.9,4.2,4.2v11.9C219.3,521.1,217.4,522.9,215.1,522.9z"/>
				<path fill="none" stroke="#738793" stroke-width="0.3" stroke-miterlimit="10" d="M215.1,522.9h-12.6v-20.4h12.6
					c2.3,0,4.2,1.9,4.2,4.2v11.9C219.3,521.1,217.4,522.9,215.1,522.9z"/>
			</g>
			<g>
				<path fill="#FFFFFF" d="M212.1,519.9h-12.6v-20.4h12.6c2.3,0,4.2,1.9,4.2,4.2v11.9C216.3,518.1,214.4,519.9,212.1,519.9z"/>
				<path fill="none" stroke="#717E86" stroke-width="0.3" stroke-miterlimit="10" d="M212.1,519.9h-12.6v-20.4h12.6
					c2.3,0,4.2,1.9,4.2,4.2v11.9C216.3,518.1,214.4,519.9,212.1,519.9z"/>
			</g>
		</g>
		<path fill="#FFFFFF" stroke="#717E86" stroke-width="0.3" stroke-miterlimit="10" d="M212.1,518h-5.8c-1.4,0-2.6-1.1-2.6-2.6
			v-11.6c0-1.4,1.1-2.6,2.6-2.6h5.8c1.4,0,2.6,1.1,2.6,2.6v11.6C214.6,516.9,213.5,518,212.1,518z"/>
		<circle fill="#FFFFFF" stroke="#717E86" stroke-width="0.3" stroke-miterlimit="10" cx="205.9" cy="509.7" r="0.9"/>
	</g>
	<g>
		<g>
			<g opacity="0.2">
				<path fill="#738793" d="M214,484.5c-1.2,0-7.6,0.1-8.7,0.2c-0.9,0.1-1.8,0.2-2.6,0.4v12.4c0.7,0.1,1.5,0.2,2.2,0.3
					c1.2,0.1,8.7,0.2,10,0.2c2.9,0,8.8-2.3,8.8-6.7C223.7,486.7,217.3,484.5,214,484.5z"/>
				<path fill="none" stroke="#738793" stroke-width="0.3" stroke-miterlimit="10" d="M214,484.5c-1.2,0-7.6,0.1-8.7,0.2
					c-0.9,0.1-1.8,0.2-2.6,0.4v12.4c0.7,0.1,1.5,0.2,2.2,0.3c1.2,0.1,8.7,0.2,10,0.2c2.9,0,8.8-2.3,8.8-6.7
					C223.7,486.7,217.3,484.5,214,484.5z"/>
			</g>
			<g>
				<path fill="#FFFFFF" d="M211,481.5c-1.2,0-7.6,0.1-8.7,0.2c-0.9,0.1-1.8,0.2-2.6,0.4v12.4c0.7,0.1,1.5,0.2,2.2,0.3
					c1.2,0.1,8.7,0.2,10,0.2c2.9,0,8.8-2.3,8.8-6.7C220.7,483.7,214.3,481.5,211,481.5z"/>
				<path fill="none" stroke="#717E86" stroke-width="0.3" stroke-miterlimit="10" d="M211,481.5c-1.2,0-7.6,0.1-8.7,0.2
					c-0.9,0.1-1.8,0.2-2.6,0.4v12.4c0.7,0.1,1.5,0.2,2.2,0.3c1.2,0.1,8.7,0.2,10,0.2c2.9,0,8.8-2.3,8.8-6.7
					C220.7,483.7,214.3,481.5,211,481.5z"/>
			</g>
		</g>
		<g>
			<circle fill="#FFFFFF" stroke="#717E86" stroke-width="0.3" stroke-miterlimit="10" cx="202.6" cy="485.2" r="0.4"/>
			<circle fill="#FFFFFF" stroke="#717E86" stroke-width="0.3" stroke-miterlimit="10" cx="202.6" cy="491.2" r="0.4"/>
		</g>
		<path fill="#FFFFFF" stroke="#717E86" stroke-width="0.3" stroke-miterlimit="10" d="M219,488.2c0,2.9-4.4,5.2-7.2,5.2
			c-2.9,0-5.2-2.3-5.2-5.2c0-2.9,2.3-5.2,5.2-5.2C214.6,483,219,485.4,219,488.2z"/>
		<path fill="#FFFFFF" stroke="#717E86" stroke-width="0.3" stroke-miterlimit="10" d="M210.6,486.5h-1.9c-0.5,0-0.6,0.8-0.6,1.8
			c0,1,0.2,1.8,0.6,1.8h1.9c1,0,1.8-0.8,1.8-1.8C212.3,487.3,211.5,486.5,210.6,486.5z"/>
		<path fill="none" stroke="#717E86" stroke-width="0.3" stroke-miterlimit="10" d="M202.6,481.7c-1,1.7-1.7,4.1-1.7,6.9
			c0,2.4,0.5,4.6,1.3,6.2"/>
	</g>
	<g>
		<g>
			<g opacity="0.2">
				<path fill="#738793" d="M191.7,275.6c-1.1,0-7,0.1-8,0.2c-0.8,0.1-1.6,0.2-2.4,0.3v11.4c0.7,0.1,1.4,0.2,2.1,0.3
					c1.1,0.1,8,0.2,9.2,0.2c2.6,0,8.1-2.1,8.1-6.1C200.6,277.7,194.8,275.6,191.7,275.6z"/>
				<path fill="none" stroke="#738793" stroke-width="0.3" stroke-miterlimit="10" d="M191.7,275.6c-1.1,0-7,0.1-8,0.2
					c-0.8,0.1-1.6,0.2-2.4,0.3v11.4c0.7,0.1,1.4,0.2,2.1,0.3c1.1,0.1,8,0.2,9.2,0.2c2.6,0,8.1-2.1,8.1-6.1
					C200.6,277.7,194.8,275.6,191.7,275.6z"/>
			</g>
			<g>
				<path fill="#FFFFFF" d="M188.7,272.6c-1.1,0-7,0.1-8,0.2c-0.8,0.1-1.6,0.2-2.4,0.3v11.4c0.7,0.1,1.4,0.2,2.1,0.3
					c1.1,0.1,8,0.2,9.2,0.2c2.6,0,8.1-2.1,8.1-6.1C197.6,274.7,191.8,272.6,188.7,272.6z"/>
				<path fill="none" stroke="#717E86" stroke-width="0.3" stroke-miterlimit="10" d="M188.7,272.6c-1.1,0-7,0.1-8,0.2
					c-0.8,0.1-1.6,0.2-2.4,0.3v11.4c0.7,0.1,1.4,0.2,2.1,0.3c1.1,0.1,8,0.2,9.2,0.2c2.6,0,8.1-2.1,8.1-6.1
					C197.6,274.7,191.8,272.6,188.7,272.6z"/>
			</g>
		</g>
		<g>
			<circle fill="#FFFFFF" stroke="#717E86" stroke-width="0.3" stroke-miterlimit="10" cx="181" cy="276.1" r="0.4"/>
			<circle fill="#FFFFFF" stroke="#717E86" stroke-width="0.3" stroke-miterlimit="10" cx="181" cy="281.6" r="0.4"/>
		</g>
		<path fill="#FFFFFF" stroke="#717E86" stroke-width="0.3" stroke-miterlimit="10" d="M196,278.8c0,2.6-4,4.8-6.6,4.8
			c-2.6,0-4.8-2.1-4.8-4.8c0-2.6,2.1-4.8,4.8-4.8C192,274.1,196,276.2,196,278.8z"/>
		<path fill="#FFFFFF" stroke="#717E86" stroke-width="0.3" stroke-miterlimit="10" d="M188.3,277.2h-1.8c-0.5,0-0.5,0.7-0.5,1.6
			c0,0.9,0.2,1.6,0.5,1.6h1.8c0.9,0,1.6-0.7,1.6-1.6C189.9,278,189.2,277.2,188.3,277.2z"/>
		<path fill="none" stroke="#717E86" stroke-width="0.3" stroke-miterlimit="10" d="M181,272.8c-0.9,1.5-1.5,3.8-1.5,6.3
			c0,2.2,0.4,4.2,1.2,5.7"/>
	</g>
	<g>
		<g>
			<g opacity="0.2">
				<path fill="#738793" d="M190.1,267h-8.9v-14.4h8.9c1.6,0,3,1.3,3,3v8.4C193.1,265.7,191.7,267,190.1,267z"/>
				<path fill="none" stroke="#738793" stroke-width="0.3" stroke-miterlimit="10" d="M190.1,267h-8.9v-14.4h8.9c1.6,0,3,1.3,3,3
					v8.4C193.1,265.7,191.7,267,190.1,267z"/>
			</g>
			<g>
				<path fill="#FFFFFF" d="M187.1,264h-8.9v-14.4h8.9c1.6,0,3,1.3,3,3v8.4C190.1,262.7,188.7,264,187.1,264z"/>
				<path fill="none" stroke="#717E86" stroke-width="0.3" stroke-miterlimit="10" d="M187.1,264h-8.9v-14.4h8.9c1.6,0,3,1.3,3,3
					v8.4C190.1,262.7,188.7,264,187.1,264z"/>
			</g>
		</g>
		<path fill="#FFFFFF" stroke="#717E86" stroke-width="0.3" stroke-miterlimit="10" d="M186.3,262.7h-2.6c-1.4,0-2.6-1.1-2.6-2.6
			v-6.7c0-1.4,1.1-2.6,2.6-2.6h2.6c1.4,0,2.6,1.1,2.6,2.6v6.7C188.9,261.5,187.7,262.7,186.3,262.7z"/>
		<circle fill="#FFFFFF" stroke="#717E86" stroke-width="0.3" stroke-miterlimit="10" cx="182.7" cy="256.8" r="0.7"/>
	</g>
	<g>
		<g>
			<g opacity="5.000000e-002">
				<path fill="#717E86" d="M283.4,184.8v57c0,2.9,2.4,5.3,5.3,5.3h21.4c0.7,0,1.2-0.5,1.2-1.2v-0.2c0-0.7-0.5-1.2-1.2-1.2h-0.8
					c0.8,0,1.4-0.6,1.4-1.4v-18.1c0-0.8-0.6-1.4-1.4-1.4c0.8,0,1.4-0.6,1.4-1.4v-18.1c0-0.8-0.6-1.4-1.4-1.4c0.8,0,1.4-0.6,1.4-1.4
					v-18.1c0-0.7-0.6-1.3-1.3-1.3h0.7c0.7,0,1.2-0.5,1.2-1.2v-0.2c0-0.7-0.5-1.2-1.2-1.2h-21.4C285.8,179.5,283.4,181.9,283.4,184.8
					z"/>
				<path fill="none" stroke="#717E86" stroke-width="0.3" stroke-miterlimit="10" d="M283.4,184.8v57c0,2.9,2.4,5.3,5.3,5.3h21.4
					c0.7,0,1.2-0.5,1.2-1.2v-0.2c0-0.7-0.5-1.2-1.2-1.2h-0.8c0.8,0,1.4-0.6,1.4-1.4v-18.1c0-0.8-0.6-1.4-1.4-1.4
					c0.8,0,1.4-0.6,1.4-1.4v-18.1c0-0.8-0.6-1.4-1.4-1.4c0.8,0,1.4-0.6,1.4-1.4v-18.1c0-0.7-0.6-1.3-1.3-1.3h0.7
					c0.7,0,1.2-0.5,1.2-1.2v-0.2c0-0.7-0.5-1.2-1.2-1.2h-21.4C285.8,179.5,283.4,181.9,283.4,184.8z"/>
			</g>
			<g>
				<path fill="#EAF6FE" d="M280.4,181.8v57c0,2.9,2.4,5.3,5.3,5.3h21.4c0.7,0,1.2-0.5,1.2-1.2v-0.2c0-0.7-0.5-1.2-1.2-1.2h-0.8
					c0.8,0,1.4-0.6,1.4-1.4v-18.1c0-0.8-0.6-1.4-1.4-1.4c0.8,0,1.4-0.6,1.4-1.4v-18.1c0-0.8-0.6-1.4-1.4-1.4c0.8,0,1.4-0.6,1.4-1.4
					v-18.1c0-0.7-0.6-1.3-1.3-1.3h0.7c0.7,0,1.2-0.5,1.2-1.2v-0.2c0-0.7-0.5-1.2-1.2-1.2h-21.4C282.8,176.5,280.4,178.9,280.4,181.8
					z"/>
				<path fill="none" stroke="#CCD3D8" stroke-width="0.3" stroke-miterlimit="10" d="M280.4,181.8v57c0,2.9,2.4,5.3,5.3,5.3h21.4
					c0.7,0,1.2-0.5,1.2-1.2v-0.2c0-0.7-0.5-1.2-1.2-1.2h-0.8c0.8,0,1.4-0.6,1.4-1.4v-18.1c0-0.8-0.6-1.4-1.4-1.4
					c0.8,0,1.4-0.6,1.4-1.4v-18.1c0-0.8-0.6-1.4-1.4-1.4c0.8,0,1.4-0.6,1.4-1.4v-18.1c0-0.7-0.6-1.3-1.3-1.3h0.7
					c0.7,0,1.2-0.5,1.2-1.2v-0.2c0-0.7-0.5-1.2-1.2-1.2h-21.4C282.8,176.5,280.4,178.9,280.4,181.8z"/>
			</g>
		</g>
		<g>
			<path fill="#EAF6FE" stroke="#CCD3D8" stroke-width="0.3033" stroke-miterlimit="10" d="M280.4,181.8v57c0,2.9,2.4,5.3,5.3,5.3
				h21.4c0.7,0,1.2-0.5,1.2-1.2v-0.2c0-0.7-0.5-1.2-1.2-1.2h-18.4v-62.5h18.4c0.7,0,1.2-0.5,1.2-1.2v-0.2c0-0.7-0.5-1.2-1.2-1.2
				h-21.4C282.8,176.5,280.4,178.9,280.4,181.8z"/>
			<g>
				<path fill="#EAF6FE" stroke="#CCD3D8" stroke-width="0.3" stroke-miterlimit="10" d="M307.8,240.4v-18.4c0-0.7-0.5-1.2-1.2-1.2
					h-19c-0.7,0-1.2,0.5-1.2,1.2v18.4c0,0.7,0.5,1.2,1.2,1.2h19C307.2,241.6,307.8,241,307.8,240.4z"/>
				<g>
					<path fill="#EAF6FE" stroke="#CCD3D8" stroke-width="0.3" stroke-miterlimit="10" d="M290.9,239.8c-0.6-5.7-0.6-11.5,0-17.3
						c0.1-1.3-0.8-2.4-2.1-2.6c-0.9-0.1-1.9-0.2-2.8-0.4c-1.3-0.2-2.5,0.8-2.6,2.2c-0.6,6.2-0.6,12.5,0,18.7
						c0.1,1.4,1.3,2.4,2.6,2.2c0.9-0.1,1.9-0.2,2.8-0.4C290.1,242.2,291,241.1,290.9,239.8z"/>
					
						<path fill="#EAF6FE" stroke="#CCD3D8" stroke-width="0.3" stroke-linecap="round" stroke-linejoin="round" stroke-miterlimit="10" d="
						M289,240.3c-0.6-0.1-0.6-18.1,0-18.2"/>
				</g>
			</g>
			<g>
				<path fill="#EAF6FE" stroke="#CCD3D8" stroke-width="0.3" stroke-miterlimit="10" d="M307.8,198.7v-18.4c0-0.7-0.5-1.2-1.2-1.2
					h-19c-0.7,0-1.2,0.5-1.2,1.2v18.4c0,0.7,0.5,1.2,1.2,1.2h19C307.2,199.9,307.8,199.4,307.8,198.7z"/>
				<g>
					<path fill="#EAF6FE" stroke="#CCD3D8" stroke-width="0.3" stroke-miterlimit="10" d="M290.9,198.1c-0.6-5.7-0.6-11.5,0-17.3
						c0.1-1.3-0.8-2.4-2.1-2.6c-0.9-0.1-1.9-0.2-2.8-0.4c-1.3-0.2-2.5,0.8-2.6,2.2c-0.6,6.2-0.6,12.5,0,18.7
						c0.1,1.4,1.3,2.4,2.6,2.2c0.9-0.1,1.9-0.2,2.8-0.4C290.1,200.6,291,199.4,290.9,198.1z"/>
					
						<path fill="#EAF6FE" stroke="#CCD3D8" stroke-width="0.3" stroke-linecap="round" stroke-linejoin="round" stroke-miterlimit="10" d="
						M289,198.6c-0.6-0.1-0.6-18.1,0-18.2"/>
				</g>
			</g>
			<g>
				<path fill="#EAF6FE" stroke="#CCD3D8" stroke-width="0.3" stroke-miterlimit="10" d="M307.8,219.6v-18.4c0-0.7-0.5-1.2-1.2-1.2
					h-19c-0.7,0-1.2,0.5-1.2,1.2v18.4c0,0.7,0.5,1.2,1.2,1.2h19C307.2,220.7,307.8,220.2,307.8,219.6z"/>
				<g>
					<path fill="#EAF6FE" stroke="#CCD3D8" stroke-width="0.3" stroke-miterlimit="10" d="M290.9,219c-0.6-5.7-0.6-11.5,0-17.3
						c0.1-1.3-0.8-2.4-2.1-2.6c-0.9-0.1-1.9-0.2-2.8-0.4c-1.3-0.2-2.5,0.8-2.6,2.2c-0.6,6.2-0.6,12.5,0,18.7
						c0.1,1.4,1.3,2.4,2.6,2.2c0.9-0.1,1.9-0.2,2.8-0.4C290.1,221.4,291,220.2,290.9,219z"/>
					
						<path fill="#EAF6FE" stroke="#CCD3D8" stroke-width="0.3" stroke-linecap="round" stroke-linejoin="round" stroke-miterlimit="10" d="
						M289,219.5c-0.6-0.1-0.6-18.1,0-18.2"/>
				</g>
			</g>
			<path fill="#EAF6FE" stroke="#CCD3D8" stroke-width="0.3" stroke-miterlimit="10" d="M286,240.7c0.5-0.8,3.8-3.8,4.1-4
				c0-1.6,0.8-4.4,1.4-4.8c0.4,0.2,0.3,0.4,0.9,0.8c0.8,0.2,4.9,1.2,7.1,3c-1,1.1-1.7,7-3.4,8.6c-0.4,0.9-0.6,1.7-1.4,2.4
				c-0.5-0.2-2.4-2.5-2.6-3.4C291,242.7,286.8,241.9,286,240.7z"/>
			<path fill="#EAF6FE" stroke="#CCD3D8" stroke-width="0.3" stroke-miterlimit="10" d="M285.2,183c0.6-0.8,7.4-5.7,7.9-6
				c1.6,0.4,3.8,3.5,4.4,4.5c1.1,0.3,2.2,1,2.8,1.6c-0.4,0.4-1.3,1.3-1.9,1.6c-0.3,0.5-3,3.7-5.1,4.4c-0.5,0.5-1,1.1-1.4,1
				c-0.6-0.7-0.9-1.6-1-2.1C290.4,187.4,285.3,183.8,285.2,183z"/>
		</g>
	</g>
	<g>
		<g>
			<g opacity="5.000000e-002">
				<path fill="#717E86" d="M364,170.1c0,0.7,0.5,1.2,1.2,1.2h0.2c0.7,0,1.2-0.5,1.2-1.2v-21.2c0-2.9-2.4-5.3-5.3-5.3H346
					c-2.9,0-5.3,2.4-5.3,5.3v21.2c0,0.7,0.5,1.2,1.2,1.2h0.2c0.7,0,1.2-0.5,1.2-1.2l0-0.8c0,0.7,0.6,1.3,1.3,1.3h17.9
					c0.7,0,1.3-0.6,1.3-1.3L364,170.1z"/>
				
					<path fill="none" stroke="#717E86" stroke-width="0.3" stroke-linecap="round" stroke-linejoin="round" stroke-miterlimit="10" d="
					M364,170.1c0,0.7,0.5,1.2,1.2,1.2h0.2c0.7,0,1.2-0.5,1.2-1.2v-21.2c0-2.9-2.4-5.3-5.3-5.3H346c-2.9,0-5.3,2.4-5.3,5.3v21.2
					c0,0.7,0.5,1.2,1.2,1.2h0.2c0.7,0,1.2-0.5,1.2-1.2l0-0.8c0,0.7,0.6,1.3,1.3,1.3h17.9c0.7,0,1.3-0.6,1.3-1.3L364,170.1z"/>
			</g>
			<g>
				<path fill="#EAF6FE" d="M361,167.1c0,0.7,0.5,1.2,1.2,1.2h0.2c0.7,0,1.2-0.5,1.2-1.2v-21.2c0-2.9-2.4-5.3-5.3-5.3H343
					c-2.9,0-5.3,2.4-5.3,5.3v21.2c0,0.7,0.5,1.2,1.2,1.2h0.2c0.7,0,1.2-0.5,1.2-1.2l0-0.8c0,0.7,0.6,1.3,1.3,1.3h17.9
					c0.7,0,1.3-0.6,1.3-1.3L361,167.1z"/>
				
					<path fill="none" stroke="#CCD3D8" stroke-width="0.3" stroke-linecap="round" stroke-linejoin="round" stroke-miterlimit="10" d="
					M361,167.1c0,0.7,0.5,1.2,1.2,1.2h0.2c0.7,0,1.2-0.5,1.2-1.2v-21.2c0-2.9-2.4-5.3-5.3-5.3H343c-2.9,0-5.3,2.4-5.3,5.3v21.2
					c0,0.7,0.5,1.2,1.2,1.2h0.2c0.7,0,1.2-0.5,1.2-1.2l0-0.8c0,0.7,0.6,1.3,1.3,1.3h17.9c0.7,0,1.3-0.6,1.3-1.3L361,167.1z"/>
			</g>
		</g>
		<g>
			<path fill="#EAF6FE" stroke="#CCD3D8" stroke-width="0.3033" stroke-miterlimit="10" d="M358.3,140.7H343c-2.9,0-5.3,2.4-5.3,5.3
				v21.2c0,0.7,0.5,1.2,1.2,1.2h0.2c0.7,0,1.2-0.5,1.2-1.2v-18.2H361v18.2c0,0.7,0.5,1.2,1.2,1.2h0.2c0.7,0,1.2-0.5,1.2-1.2v-21.2
				C363.5,143,361.2,140.7,358.3,140.7z"/>
			<path fill="#EAF6FE" stroke="#CCD3D8" stroke-width="0.3" stroke-miterlimit="10" d="M341.5,167.7h18.2c0.7,0,1.2-0.5,1.2-1.2
				v-18.8c0-0.7-0.5-1.2-1.2-1.2h-18.2c-0.7,0-1.2,0.5-1.2,1.2v18.8C340.4,167.2,340.9,167.7,341.5,167.7z"/>
			<g>
				<path fill="#EAF6FE" stroke="#CCD3D8" stroke-width="0.3" stroke-miterlimit="10" d="M342.1,151.1c5.7-0.6,11.4-0.6,17.1,0
					c1.3,0.1,2.4-0.8,2.6-2c0.1-0.9,0.2-1.9,0.3-2.8c0.2-1.3-0.8-2.4-2.2-2.6c-6.2-0.6-12.4-0.6-18.5,0c-1.4,0.1-2.4,1.3-2.2,2.6
					c0.1,0.9,0.2,1.9,0.3,2.8C339.7,150.3,340.9,151.2,342.1,151.1z"/>
				
					<path fill="#EAF6FE" stroke="#CCD3D8" stroke-width="0.3" stroke-linecap="round" stroke-linejoin="round" stroke-miterlimit="10" d="
					M341.6,149.1c0.1-0.6,17.9-0.6,18,0"/>
			</g>
		</g>
	</g>
	<g>
		<g>
			<g opacity="5.000000e-002">
				<path fill="#717E86" d="M343.3,258.4c0-0.7-0.5-1.2-1.2-1.2H342c-0.7,0-1.2,0.5-1.2,1.2v21.2c0,2.9,2.4,5.3,5.3,5.3h15.2
					c2.9,0,5.3-2.4,5.3-5.3v-21.2c0-0.7-0.5-1.2-1.2-1.2h-0.2c-0.7,0-1.2,0.5-1.2,1.2l0,0.8c0-0.7-0.6-1.3-1.3-1.3h-17.9
					c-0.7,0-1.3,0.6-1.3,1.3L343.3,258.4z"/>
				
					<path fill="none" stroke="#717E86" stroke-width="0.3" stroke-linecap="round" stroke-linejoin="round" stroke-miterlimit="10" d="
					M343.3,258.4c0-0.7-0.5-1.2-1.2-1.2H342c-0.7,0-1.2,0.5-1.2,1.2v21.2c0,2.9,2.4,5.3,5.3,5.3h15.2c2.9,0,5.3-2.4,5.3-5.3v-21.2
					c0-0.7-0.5-1.2-1.2-1.2h-0.2c-0.7,0-1.2,0.5-1.2,1.2l0,0.8c0-0.7-0.6-1.3-1.3-1.3h-17.9c-0.7,0-1.3,0.6-1.3,1.3L343.3,258.4z"/>
			</g>
			<g>
				<path fill="#EAF6FE" d="M340.3,255.4c0-0.7-0.5-1.2-1.2-1.2H339c-0.7,0-1.2,0.5-1.2,1.2v21.2c0,2.9,2.4,5.3,5.3,5.3h15.2
					c2.9,0,5.3-2.4,5.3-5.3v-21.2c0-0.7-0.5-1.2-1.2-1.2h-0.2c-0.7,0-1.2,0.5-1.2,1.2l0,0.8c0-0.7-0.6-1.3-1.3-1.3h-17.9
					c-0.7,0-1.3,0.6-1.3,1.3L340.3,255.4z"/>
				
					<path fill="none" stroke="#CCD3D8" stroke-width="0.3" stroke-linecap="round" stroke-linejoin="round" stroke-miterlimit="10" d="
					M340.3,255.4c0-0.7-0.5-1.2-1.2-1.2H339c-0.7,0-1.2,0.5-1.2,1.2v21.2c0,2.9,2.4,5.3,5.3,5.3h15.2c2.9,0,5.3-2.4,5.3-5.3v-21.2
					c0-0.7-0.5-1.2-1.2-1.2h-0.2c-0.7,0-1.2,0.5-1.2,1.2l0,0.8c0-0.7-0.6-1.3-1.3-1.3h-17.9c-0.7,0-1.3,0.6-1.3,1.3L340.3,255.4z"/>
			</g>
		</g>
		<g>
			<path fill="#EAF6FE" stroke="#CCD3D8" stroke-width="0.3033" stroke-miterlimit="10" d="M343,281.8h15.2c2.9,0,5.3-2.4,5.3-5.3
				v-21.2c0-0.7-0.5-1.2-1.2-1.2h-0.2c-0.7,0-1.2,0.5-1.2,1.2v18.2h-20.6v-18.2c0-0.7-0.5-1.2-1.2-1.2H339c-0.7,0-1.2,0.5-1.2,1.2
				v21.2C337.8,279.5,340.1,281.8,343,281.8z"/>
			<path fill="#EAF6FE" stroke="#CCD3D8" stroke-width="0.3" stroke-miterlimit="10" d="M359.8,254.8h-18.2c-0.7,0-1.2,0.5-1.2,1.2
				v18.8c0,0.7,0.5,1.2,1.2,1.2h18.2c0.7,0,1.2-0.5,1.2-1.2V256C360.9,255.3,360.4,254.8,359.8,254.8z"/>
			<g>
				<path fill="#EAF6FE" stroke="#CCD3D8" stroke-width="0.3" stroke-miterlimit="10" d="M359.2,271.5c-5.7,0.6-11.4,0.6-17.1,0
					c-1.3-0.1-2.4,0.8-2.6,2c-0.1,0.9-0.2,1.9-0.3,2.8c-0.2,1.3,0.8,2.4,2.2,2.6c6.2,0.6,12.4,0.6,18.5,0c1.4-0.1,2.4-1.3,2.2-2.6
					c-0.1-0.9-0.2-1.9-0.3-2.8C361.6,272.2,360.4,271.3,359.2,271.5z"/>
				
					<path fill="#EAF6FE" stroke="#CCD3D8" stroke-width="0.3" stroke-linecap="round" stroke-linejoin="round" stroke-miterlimit="10" d="
					M359.7,273.4c-0.1,0.6-17.9,0.6-18,0"/>
			</g>
		</g>
	</g>
	<g>
		<g>
			<g>
				<path fill="#EAF6FE" stroke="#CCD3D8" stroke-width="0.3" stroke-miterlimit="10" d="M338.1,309.3v1.7H353v-1.7
					c0-0.7-0.5-1.2-1.2-1.2h-12.5C338.6,308.1,338.1,308.6,338.1,309.3z"/>
				
					<rect x="338.1" y="311" fill="#EAF6FE" stroke="#CCD3D8" stroke-width="0.3" stroke-miterlimit="10" width="14.9" height="4.7"/>
				<line fill="#EAF6FE" stroke="#CCD3D8" stroke-width="0.3" stroke-miterlimit="10" x1="340.1" y1="311" x2="340.1" y2="315.6"/>
				<line fill="#EAF6FE" stroke="#CCD3D8" stroke-width="0.3" stroke-miterlimit="10" x1="351" y1="315.6" x2="351" y2="311"/>
			</g>
			<g>
				<path fill="#EAF6FE" stroke="#CCD3D8" stroke-width="0.3" stroke-miterlimit="10" d="M355.7,309.3v1.7h14.9v-1.7
					c0-0.7-0.5-1.2-1.2-1.2H357C356.3,308.1,355.7,308.6,355.7,309.3z"/>
				
					<rect x="355.7" y="311" fill="#EAF6FE" stroke="#CCD3D8" stroke-width="0.3" stroke-miterlimit="10" width="14.9" height="4.7"/>
				<line fill="#EAF6FE" stroke="#CCD3D8" stroke-width="0.3" stroke-miterlimit="10" x1="357.8" y1="311" x2="357.8" y2="315.6"/>
				<line fill="#EAF6FE" stroke="#CCD3D8" stroke-width="0.3" stroke-miterlimit="10" x1="368.6" y1="315.6" x2="368.6" y2="311"/>
			</g>
			<g>
				<path fill="#EAF6FE" stroke="#CCD3D8" stroke-width="0.3" stroke-miterlimit="10" d="M373.4,309.3v1.7h14.9v-1.7
					c0-0.7-0.5-1.2-1.2-1.2h-12.5C373.9,308.1,373.4,308.6,373.4,309.3z"/>
				
					<rect x="373.4" y="311" fill="#EAF6FE" stroke="#CCD3D8" stroke-width="0.3" stroke-miterlimit="10" width="14.9" height="4.7"/>
				<line fill="#EAF6FE" stroke="#CCD3D8" stroke-width="0.3" stroke-miterlimit="10" x1="375.4" y1="311" x2="375.4" y2="315.6"/>
				<line fill="#EAF6FE" stroke="#CCD3D8" stroke-width="0.3" stroke-miterlimit="10" x1="386.3" y1="315.6" x2="386.3" y2="311"/>
			</g>
		</g>
		<g>
			<path fill="#EAF6FE" stroke="#CCD3D8" stroke-width="0.3" stroke-miterlimit="10" d="M388.3,351.2v-1.7h-14.9v1.7
				c0,0.7,0.5,1.2,1.2,1.2h12.5C387.8,352.4,388.3,351.9,388.3,351.2z"/>
			
				<rect x="373.4" y="344.8" fill="#EAF6FE" stroke="#CCD3D8" stroke-width="0.3" stroke-miterlimit="10" width="14.9" height="4.7"/>
			<line fill="#EAF6FE" stroke="#CCD3D8" stroke-width="0.3" stroke-miterlimit="10" x1="386.3" y1="349.5" x2="386.3" y2="344.8"/>
			<line fill="#EAF6FE" stroke="#CCD3D8" stroke-width="0.3" stroke-miterlimit="10" x1="375.4" y1="344.8" x2="375.4" y2="349.5"/>
		</g>
		<g>
			<path fill="#EAF6FE" stroke="#CCD3D8" stroke-width="0.3" stroke-miterlimit="10" d="M370.7,351.2v-1.7h-14.9v1.7
				c0,0.7,0.5,1.2,1.2,1.2h12.5C370.1,352.4,370.7,351.9,370.7,351.2z"/>
			
				<rect x="355.7" y="344.8" fill="#EAF6FE" stroke="#CCD3D8" stroke-width="0.3" stroke-miterlimit="10" width="14.9" height="4.7"/>
			<line fill="#EAF6FE" stroke="#CCD3D8" stroke-width="0.3" stroke-miterlimit="10" x1="368.6" y1="349.5" x2="368.6" y2="344.8"/>
			<line fill="#EAF6FE" stroke="#CCD3D8" stroke-width="0.3" stroke-miterlimit="10" x1="357.8" y1="344.8" x2="357.8" y2="349.5"/>
		</g>
		<g>
			<path fill="#EAF6FE" stroke="#CCD3D8" stroke-width="0.3" stroke-miterlimit="10" d="M348.6,355.5l0.7-1.6l-13.8-5.8l-0.7,1.6
				c-0.3,0.6,0,1.3,0.6,1.6l11.5,4.8C347.6,356.4,348.3,356.1,348.6,355.5z"/>
			
				<rect x="338.3" y="337.5" transform="matrix(0.3873 -0.922 0.922 0.3873 -106.7286 529.3509)" fill="#EAF6FE" stroke="#CCD3D8" stroke-width="0.3" stroke-miterlimit="10" width="13.1" height="14.9"/>
			<line fill="#EAF6FE" stroke="#CCD3D8" stroke-width="0.3" stroke-miterlimit="10" x1="347.3" y1="353.1" x2="352.4" y2="341"/>
			<line fill="#EAF6FE" stroke="#CCD3D8" stroke-width="0.3" stroke-miterlimit="10" x1="342.4" y1="336.8" x2="337.4" y2="348.9"/>
		</g>
		<g>
			<g opacity="5.000000e-002">
				<path fill="#717E86" d="M397.2,319.8v26.8c0,0.7-0.5,1.2-1.2,1.2h-59.5c-0.7,0-1.2-0.5-1.2-1.2v-26.8c0-0.7,0.5-1.2,1.2-1.2
					h59.5C396.6,318.6,397.2,319.2,397.2,319.8z"/>
				<path fill="none" stroke="#717E86" stroke-width="0.3" stroke-miterlimit="10" d="M397.2,319.8v26.8c0,0.7-0.5,1.2-1.2,1.2
					h-59.5c-0.7,0-1.2-0.5-1.2-1.2v-26.8c0-0.7,0.5-1.2,1.2-1.2h59.5C396.6,318.6,397.2,319.2,397.2,319.8z"/>
			</g>
			<g>
				<path fill="#EAF6FE" d="M394.2,316.8v26.8c0,0.7-0.5,1.2-1.2,1.2h-59.5c-0.7,0-1.2-0.5-1.2-1.2v-26.8c0-0.7,0.5-1.2,1.2-1.2
					h59.5C393.6,315.6,394.2,316.2,394.2,316.8z"/>
				<path fill="none" stroke="#CCD3D8" stroke-width="0.3" stroke-miterlimit="10" d="M394.2,316.8v26.8c0,0.7-0.5,1.2-1.2,1.2
					h-59.5c-0.7,0-1.2-0.5-1.2-1.2v-26.8c0-0.7,0.5-1.2,1.2-1.2h59.5C393.6,315.6,394.2,316.2,394.2,316.8z"/>
			</g>
		</g>
		<path fill="#EAF6FE" stroke="#CCD3D8" stroke-width="0.3" stroke-miterlimit="10" d="M385.3,328.7l-1.9,2.7
			c-0.3,0.4-1,0.5-1.4,0.2l-4.8-3.5c-0.4-0.3-0.5-1-0.2-1.4l1.9-2.7c0.3-0.4,1-0.5,1.4-0.2l4.8,3.5
			C385.5,327.6,385.6,328.2,385.3,328.7z"/>
	</g>
	<g>
		<g>
			<g>
				<g opacity="5.000000e-002">
					<path fill="#717E86" d="M331.1,232.7c-2.5-13.7-2.5-27.3,0-41c0.1-0.6,0.6-1,1.1-1h16.2c0.6,0,1,0.4,1.1,1
						c2.5,13.7,2.5,27.3,0,41c-0.1,0.6-0.6,1-1.1,1h-16.2C331.7,233.7,331.2,233.3,331.1,232.7z"/>
					<path fill="none" stroke="#717E86" stroke-width="0.3" stroke-miterlimit="10" d="M331.1,232.7c-2.5-13.7-2.5-27.3,0-41
						c0.1-0.6,0.6-1,1.1-1h16.2c0.6,0,1,0.4,1.1,1c2.5,13.7,2.5,27.3,0,41c-0.1,0.6-0.6,1-1.1,1h-16.2
						C331.7,233.7,331.2,233.3,331.1,232.7z"/>
				</g>
				<g>
					<path fill="#EAF6FE" d="M328.1,229.7c-2.5-13.7-2.5-27.3,0-41c0.1-0.6,0.6-1,1.1-1h16.2c0.6,0,1,0.4,1.1,1
						c2.5,13.7,2.5,27.3,0,41c-0.1,0.6-0.6,1-1.1,1h-16.2C328.7,230.7,328.2,230.3,328.1,229.7z"/>
					<path fill="none" stroke="#CCD3D8" stroke-width="0.3" stroke-miterlimit="10" d="M328.1,229.7c-2.5-13.7-2.5-27.3,0-41
						c0.1-0.6,0.6-1,1.1-1h16.2c0.6,0,1,0.4,1.1,1c2.5,13.7,2.5,27.3,0,41c-0.1,0.6-0.6,1-1.1,1h-16.2
						C328.7,230.7,328.2,230.3,328.1,229.7z"/>
				</g>
			</g>
			<path fill="#EAF6FE" stroke="#CCD3D8" stroke-width="0.3" stroke-miterlimit="10" d="M337.2,211.6l-2.4-1.9
				c-0.4-0.3-0.5-1-0.2-1.4l3.4-4.4c0.3-0.4,1-0.5,1.4-0.2l2.4,1.9c0.4,0.3,0.5,1,0.2,1.4l-3.4,4.4
				C338.3,211.9,337.6,212,337.2,211.6z"/>
			<path fill="#EAF6FE" stroke="#CCD3D8" stroke-width="0.3" stroke-miterlimit="10" d="M334.5,214l-1.4-2.7
				c-0.3-0.5-0.1-1.1,0.4-1.3l4.9-2.5c0.5-0.3,1.1-0.1,1.3,0.4l1.4,2.7c0.3,0.5,0.1,1.1-0.4,1.3l-4.9,2.5
				C335.4,214.7,334.8,214.5,334.5,214z"/>
			<circle fill="#EAF6FE" stroke="#CCD3D8" stroke-width="0.3" stroke-miterlimit="10" cx="333.4" cy="222.1" r="5"/>
			
				<path fill="#EAF6FE" stroke="#CCD3D8" stroke-width="0.3" stroke-linecap="round" stroke-linejoin="round" stroke-miterlimit="10" d="
				M336.4,220.8c4,2.6-0.4,7.2-4.1,5C333.5,226.6,337.9,222.5,336.4,220.8z"/>
			<circle fill="#EAF6FE" stroke="#CCD3D8" stroke-width="0.3" stroke-miterlimit="10" cx="336.7" cy="217" r="0.7"/>
			<circle fill="#EAF6FE" stroke="#CCD3D8" stroke-width="0.3" stroke-miterlimit="10" cx="335.3" cy="216.9" r="0.7"/>
			<circle fill="#EAF6FE" stroke="#CCD3D8" stroke-width="0.3" stroke-miterlimit="10" cx="335.1" cy="218.1" r="0.7"/>
			<circle fill="#EAF6FE" stroke="#CCD3D8" stroke-width="0.3" stroke-miterlimit="10" cx="336.3" cy="218.1" r="0.7"/>
			<circle fill="#EAF6FE" stroke="#CCD3D8" stroke-width="0.3" stroke-miterlimit="10" cx="337.9" cy="217.9" r="0.7"/>
			<circle fill="#EAF6FE" stroke="#CCD3D8" stroke-width="0.3" stroke-miterlimit="10" cx="338.3" cy="218.9" r="0.7"/>
			<circle fill="#EAF6FE" stroke="#CCD3D8" stroke-width="0.3" stroke-miterlimit="10" cx="338.1" cy="220.2" r="0.7"/>
			<circle fill="#EAF6FE" stroke="#CCD3D8" stroke-width="0.3" stroke-miterlimit="10" cx="337.1" cy="218.9" r="0.7"/>
			<circle fill="#EAF6FE" stroke="#CCD3D8" stroke-width="0.3" stroke-miterlimit="10" cx="335.8" cy="219.2" r="0.7"/>
			<circle fill="#EAF6FE" stroke="#CCD3D8" stroke-width="0.3" stroke-miterlimit="10" cx="336.9" cy="220.1" r="0.7"/>
			<circle fill="#EAF6FE" stroke="#CCD3D8" stroke-width="0.3" stroke-miterlimit="10" cx="332.1" cy="219.8" r="1.8"/>
			<circle fill="#EAF6FE" stroke="#CCD3D8" stroke-width="0.3" stroke-miterlimit="10" cx="334.9" cy="220.6" r="1.3"/>
			
				<ellipse transform="matrix(0.2653 0.9642 -0.9642 0.2653 458.6189 -157.7613)" fill="#EAF6FE" stroke="#CCD3D8" stroke-width="0.3" stroke-miterlimit="10" cx="332.8" cy="222" rx="1" ry="1.6"/>
			
				<path fill="#EAF6FE" stroke="#CCD3D8" stroke-width="0.3" stroke-linecap="round" stroke-linejoin="round" stroke-miterlimit="10" d="
				M336.3,220.6c2.4,4.1-3.6,6.3-5.9,2.7C331.1,224.5,337,222.8,336.3,220.6z"/>
		</g>
		<g>
			<g>
				
					<path fill="#EAF6FE" stroke="#CCD3D8" stroke-width="0.3" stroke-linecap="round" stroke-linejoin="round" stroke-miterlimit="10" d="
					M336,195.9c0,0,3.2-1.4,5.1-0.2C341.1,195.7,339.9,197.3,336,195.9z"/>
				
					<path fill="#EAF6FE" stroke="#CCD3D8" stroke-width="0.3" stroke-linecap="round" stroke-linejoin="round" stroke-miterlimit="10" d="
					M336,195.9c0,0,3.3,0.1,4.7,2C340.7,197.9,338.9,198.8,336,195.9z"/>
				
					<path fill="#EAF6FE" stroke="#CCD3D8" stroke-width="0.3" stroke-linecap="round" stroke-linejoin="round" stroke-miterlimit="10" d="
					M340.1,192.5c0,0-3.4,0-4.1,3.5C336,195.9,339.9,195,340.1,192.5z"/>
				
					<path fill="#EAF6FE" stroke="#CCD3D8" stroke-width="0.3" stroke-linecap="round" stroke-linejoin="round" stroke-miterlimit="10" d="
					M330.7,192.1c0,0,4.2,0.8,5.2,3.8C336,195.9,332.6,196.3,330.7,192.1z"/>
				
					<path fill="#EAF6FE" stroke="#CCD3D8" stroke-width="0.3" stroke-linecap="round" stroke-linejoin="round" stroke-miterlimit="10" d="
					M336.8,190.3c0,0,0.7,2.3-0.8,5.6C336,195.9,334.8,192.8,336.8,190.3z"/>
				
					<path fill="#EAF6FE" stroke="#CCD3D8" stroke-width="0.3" stroke-linecap="round" stroke-linejoin="round" stroke-miterlimit="10" d="
					M329.5,195.7c0,0,4.2-1.7,6.6,0.1C336,195.8,335.6,197.1,329.5,195.7z"/>
				
					<path fill="#EAF6FE" stroke="#CCD3D8" stroke-width="0.3" stroke-linecap="round" stroke-linejoin="round" stroke-miterlimit="10" d="
					M339.5,200.2c0,0-1.4-3.6-3.5-4.2C336,195.9,336.9,198.3,339.5,200.2z"/>
				
					<path fill="#EAF6FE" stroke="#CCD3D8" stroke-width="0.3" stroke-linecap="round" stroke-linejoin="round" stroke-miterlimit="10" d="
					M330.5,199.1c0,0,2.1-2.9,5.4-3.2C336,195.9,334.3,198.7,330.5,199.1z"/>
				
					<path fill="#EAF6FE" stroke="#CCD3D8" stroke-width="0.3" stroke-linecap="round" stroke-linejoin="round" stroke-miterlimit="10" d="
					M337.1,201.6c0,0,0.6-3.6-1.1-5.7C336,195.8,334.8,198.1,337.1,201.6z"/>
				
					<path fill="#EAF6FE" stroke="#CCD3D8" stroke-width="0.3" stroke-linecap="round" stroke-linejoin="round" stroke-miterlimit="10" d="
					M333.8,190.3c0,0,2.3,1.7,2.2,5.5C336,195.8,333.4,193.6,333.8,190.3z"/>
				
					<path fill="#EAF6FE" stroke="#CCD3D8" stroke-width="0.3" stroke-linecap="round" stroke-linejoin="round" stroke-miterlimit="10" d="
					M332.2,200.8c0,0,1.3-4.3,3.9-5.1C336.1,195.7,335.8,198.9,332.2,200.8z"/>
				
					<path fill="#EAF6FE" stroke="#CCD3D8" stroke-width="0.3" stroke-linecap="round" stroke-linejoin="round" stroke-miterlimit="10" d="
					M334.5,201.8c0,0-0.6-3.6,1.6-5.9C336,195.8,337.1,198.4,334.5,201.8z"/>
				
					<path fill="#EAF6FE" stroke="#CCD3D8" stroke-width="0.3" stroke-linecap="round" stroke-linejoin="round" stroke-miterlimit="10" d="
					M336.1,195.6c0,0-0.1-2.1,2.4-4.6C338.4,191,338.3,193.2,336.1,195.6z"/>
				
					<path fill="#EAF6FE" stroke="#CCD3D8" stroke-width="0.3" stroke-linecap="round" stroke-linejoin="round" stroke-miterlimit="10" d="
					M332.5,191.1c0,0,2.8,1.9,3.4,4.5C336,195.6,333.6,195.3,332.5,191.1z"/>
			</g>
			<g>
				
					<path fill="#EAF6FE" stroke="#CCD3D8" stroke-width="0.3" stroke-linecap="round" stroke-linejoin="round" stroke-miterlimit="10" d="
					M335.7,196c0,0,2,0.1,2.8,1.2C338.5,197.1,337.4,197.7,335.7,196z"/>
				
					<path fill="#EAF6FE" stroke="#CCD3D8" stroke-width="0.3" stroke-linecap="round" stroke-linejoin="round" stroke-miterlimit="10" d="
					M338.1,193.9c0,0-2,0-2.4,2.1C335.7,196,338,195.4,338.1,193.9z"/>
				
					<path fill="#EAF6FE" stroke="#CCD3D8" stroke-width="0.3" stroke-linecap="round" stroke-linejoin="round" stroke-miterlimit="10" d="
					M332.6,193.7c0,0,2.5,0.4,3.1,2.3C335.7,196,333.7,196.2,332.6,193.7z"/>
				
					<path fill="#EAF6FE" stroke="#CCD3D8" stroke-width="0.3" stroke-linecap="round" stroke-linejoin="round" stroke-miterlimit="10" d="
					M336.2,192.6c0,0,0.4,1.4-0.5,3.3C335.7,196,335,194.1,336.2,192.6z"/>
				
					<path fill="#EAF6FE" stroke="#CCD3D8" stroke-width="0.3" stroke-linecap="round" stroke-linejoin="round" stroke-miterlimit="10" d="
					M332.5,197.9c0,0,1.3-1.7,3.2-1.9C335.7,196,334.7,197.6,332.5,197.9z"/>
				
					<path fill="#EAF6FE" stroke="#CCD3D8" stroke-width="0.3" stroke-linecap="round" stroke-linejoin="round" stroke-miterlimit="10" d="
					M336.4,199.3c0,0,0.3-2.1-0.7-3.4C335.7,195.9,335,197.3,336.4,199.3z"/>
				
					<path fill="#EAF6FE" stroke="#CCD3D8" stroke-width="0.3" stroke-linecap="round" stroke-linejoin="round" stroke-miterlimit="10" d="
					M334.4,192.6c0,0,1.4,1,1.3,3.3C335.7,195.9,334.2,194.6,334.4,192.6z"/>
				
					<path fill="#EAF6FE" stroke="#CCD3D8" stroke-width="0.3" stroke-linecap="round" stroke-linejoin="round" stroke-miterlimit="10" d="
					M334.8,199.4c0,0-0.3-2.2,0.9-3.5C335.7,195.9,336.4,197.4,334.8,199.4z"/>
			</g>
		</g>
	</g>
	<g>
		<g>
			<g opacity="5.000000e-002">
				<path fill="#717E86" d="M413.8,253.5l2.4-49.1c0-0.6,0.5-1,1-0.9l12.4,0.6c0.6,0,1,0.5,0.9,1l-2.4,49.1c0,0.6-0.5,1-1,0.9
					l-12.4-0.6C414.2,254.5,413.8,254.1,413.8,253.5z"/>
				<path fill="none" stroke="#717E86" stroke-width="0.3" stroke-miterlimit="10" d="M413.8,253.5l2.4-49.1c0-0.6,0.5-1,1-0.9
					l12.4,0.6c0.6,0,1,0.5,0.9,1l-2.4,49.1c0,0.6-0.5,1-1,0.9l-12.4-0.6C414.2,254.5,413.8,254.1,413.8,253.5z"/>
			</g>
			<g>
				<path fill="#EAF6FE" d="M410.8,250.5l2.4-49.1c0-0.6,0.5-1,1-0.9l12.4,0.6c0.6,0,1,0.5,0.9,1l-2.4,49.1c0,0.6-0.5,1-1,0.9
					l-12.4-0.6C411.2,251.5,410.8,251.1,410.8,250.5z"/>
				<path fill="none" stroke="#CCD3D8" stroke-width="0.3" stroke-miterlimit="10" d="M410.8,250.5l2.4-49.1c0-0.6,0.5-1,1-0.9
					l12.4,0.6c0.6,0,1,0.5,0.9,1l-2.4,49.1c0,0.6-0.5,1-1,0.9l-12.4-0.6C411.2,251.5,410.8,251.1,410.8,250.5z"/>
			</g>
		</g>
		<path fill="#EAF6FE" stroke="#CCD3D8" stroke-width="0.3" stroke-miterlimit="10" d="M419.4,219.7l4.7,0.2c0.6,0,1,0.5,0.9,1
			l-0.6,11.3c0,0.6-0.5,1-1,0.9l-4.7-0.2c-0.6,0-1-0.5-0.9-1l0.6-11.3C418.4,220.1,418.9,219.6,419.4,219.7z"/>
		<path fill="#EAF6FE" stroke="#CCD3D8" stroke-width="0.2953" stroke-miterlimit="10" d="M424.6,221.1l-0.5,11
			c0,0.3-0.3,0.6-0.6,0.6l-4.5-0.2c-0.3,0-0.6-0.3-0.6-0.6l0.5-11c0-0.3,0.3-0.6,0.6-0.6l4.5,0.2
			C424.3,220.5,424.6,220.8,424.6,221.1z"/>
		
			<rect x="420" y="205.9" transform="matrix(-0.9988 -4.968010e-002 4.968010e-002 -0.9988 829.7294 473.4578)" fill="#EAF6FE" stroke="#CCD3D8" stroke-width="0.3" stroke-miterlimit="10" width="1.4" height="41"/>
	</g>
	<g>
		<g>
			<g>
				<path fill="#EAF6FE" stroke="#CCD3D8" stroke-width="0.3" stroke-miterlimit="10" d="M368.3,514.6v1.9h17.1v-1.9
					c0-0.8-0.6-1.4-1.4-1.4h-14.3C368.9,513.2,368.3,513.8,368.3,514.6z"/>
				
					<rect x="368.3" y="516.5" fill="#EAF6FE" stroke="#CCD3D8" stroke-width="0.3" stroke-miterlimit="10" width="17.1" height="8.1"/>
				
					<line fill="#EAF6FE" stroke="#CCD3D8" stroke-width="0.3" stroke-miterlimit="10" x1="370.6" y1="516.5" x2="370.6" y2="524.6"/>
				<line fill="#EAF6FE" stroke="#CCD3D8" stroke-width="0.3" stroke-miterlimit="10" x1="383" y1="524.6" x2="383" y2="516.5"/>
			</g>
		</g>
		<g>
			<g>
				<g opacity="5.000000e-002">
					<path fill="#717E86" d="M354.9,550.7v-22.1c0-0.6,0.4-1,1-1h47.9c0.5,0,1,0.4,1,1v22.1c0,0.6-0.4,1-1,1h-47.9
						C355.3,551.7,354.9,551.3,354.9,550.7z"/>
					<path fill="none" stroke="#717E86" stroke-width="0.3" stroke-miterlimit="10" d="M354.9,550.7v-22.1c0-0.6,0.4-1,1-1h47.9
						c0.5,0,1,0.4,1,1v22.1c0,0.6-0.4,1-1,1h-47.9C355.3,551.7,354.9,551.3,354.9,550.7z"/>
				</g>
				<g>
					<path fill="#EAF6FE" d="M351.9,547.7v-22.1c0-0.6,0.4-1,1-1h47.9c0.5,0,1,0.4,1,1v22.1c0,0.6-0.4,1-1,1h-47.9
						C352.3,548.7,351.9,548.3,351.9,547.7z"/>
					<path fill="none" stroke="#CCD3D8" stroke-width="0.3" stroke-miterlimit="10" d="M351.9,547.7v-22.1c0-0.6,0.4-1,1-1h47.9
						c0.5,0,1,0.4,1,1v22.1c0,0.6-0.4,1-1,1h-47.9C352.3,548.7,351.9,548.3,351.9,547.7z"/>
				</g>
			</g>
		</g>
	</g>
	<line fill="none" stroke="#717E86" stroke-width="0.3" stroke-miterlimit="10" x1="296" y1="385.9" x2="274.6" y2="385.9"/>
	<line fill="none" stroke="#717E86" stroke-width="0.3" stroke-miterlimit="10" x1="199.7" y1="522.9" x2="271.1" y2="522.9"/>
	<g>
		<g>
			<rect x="197.9" y="362.8" fill="#FFFFFF" width="20.1" height="54.1"/>
			<path fill="#717E86" d="M217.9,363v53.8h-19.8V363H217.9 M218.2,362.7h-20.4V417h20.4V362.7L218.2,362.7z"/>
		</g>
		<line fill="none" stroke="#717E86" stroke-width="0.5" stroke-miterlimit="10" x1="201.4" y1="370" x2="214.7" y2="371.1"/>
		<line fill="none" stroke="#717E86" stroke-width="0.5" stroke-miterlimit="10" x1="201.4" y1="374" x2="214.7" y2="372.7"/>
		<line fill="none" stroke="#717E86" stroke-width="0.5" stroke-miterlimit="10" x1="201.4" y1="375.5" x2="214.7" y2="376.6"/>
		<line fill="none" stroke="#717E86" stroke-width="0.5" stroke-miterlimit="10" x1="201.4" y1="379.5" x2="214.7" y2="378.2"/>
		<line fill="none" stroke="#717E86" stroke-width="0.5" stroke-miterlimit="10" x1="201.4" y1="400.3" x2="214.7" y2="401.3"/>
		<line fill="none" stroke="#717E86" stroke-width="0.5" stroke-miterlimit="10" x1="201.4" y1="404.2" x2="214.7" y2="402.9"/>
		<line fill="none" stroke="#717E86" stroke-width="0.5" stroke-miterlimit="10" x1="201.4" y1="405.7" x2="214.7" y2="406.8"/>
		<line fill="none" stroke="#717E86" stroke-width="0.5" stroke-miterlimit="10" x1="201.4" y1="409.7" x2="214.7" y2="408.4"/>
		<line fill="#EAF6FE" stroke="#717E86" stroke-width="0.3" stroke-miterlimit="10" x1="216.7" y1="362.7" x2="216.7" y2="416.8"/>
		<line fill="#EAF6FE" stroke="#717E86" stroke-width="0.3" stroke-miterlimit="10" x1="216.7" y1="389.7" x2="218.1" y2="389.7"/>
		<polyline fill="none" stroke="#717E86" stroke-width="0.3" stroke-miterlimit="10" points="218.1,383.8 218.9,383.8 218.9,385.9 
			218.1,385.9 		"/>
		<polyline fill="none" stroke="#717E86" stroke-width="0.3" stroke-miterlimit="10" points="218.1,393.6 218.9,393.6 218.9,395.6 
			218.1,395.6 		"/>
		<line fill="none" stroke="#717E86" stroke-width="0.3" stroke-miterlimit="10" x1="208" y1="362.7" x2="208" y2="416.8"/>
	</g>
	<g>
		<g>
			<rect x="191" y="421.4" fill="#FFFFFF" width="27" height="47.6"/>
			<path fill="#717E86" d="M217.8,421.5v47.3h-26.7v-47.3H217.8 M218.1,421.2h-27.3v47.9h27.3V421.2L218.1,421.2z"/>
		</g>
		<line fill="#EAF6FE" stroke="#717E86" stroke-width="0.3" stroke-miterlimit="10" x1="216.6" y1="421.2" x2="216.6" y2="468.9"/>
		<line fill="#EAF6FE" stroke="#717E86" stroke-width="0.3" stroke-miterlimit="10" x1="216.6" y1="445.1" x2="218" y2="445.1"/>
		<polyline fill="none" stroke="#717E86" stroke-width="0.3" stroke-miterlimit="10" points="218,439.9 218.7,439.9 218.7,441.7 
			218,441.7 		"/>
		<polyline fill="none" stroke="#717E86" stroke-width="0.3" stroke-miterlimit="10" points="218,448.5 218.7,448.5 218.7,450.3 
			218,450.3 		"/>
	</g>
	<g>
		<g>
			
				<rect x="194.5" y="425.6" fill="#FFFFFF" stroke="#717E86" stroke-width="0.3" stroke-miterlimit="10" width="19.6" height="19.6"/>
		</g>
		<g>
			<circle fill="none" stroke="#717E86" stroke-width="0.6204" stroke-miterlimit="10" cx="204.3" cy="435.4" r="4.6"/>
			<path fill="none" stroke="#717E86" stroke-width="0.6204" stroke-miterlimit="10" d="M207.2,435.9c0-1.8-1.4-3.2-3.2-3.2"/>
		</g>
	</g>
	<g>
		
			<rect x="194.5" y="445.4" fill="#FFFFFF" stroke="#717E86" stroke-width="0.3" stroke-miterlimit="10" width="19.6" height="19.6"/>
		<circle fill="none" stroke="#717E86" stroke-width="0.6204" stroke-miterlimit="10" cx="204.3" cy="455.2" r="4.6"/>
		<path fill="none" stroke="#717E86" stroke-width="0.5" stroke-linecap="round" stroke-miterlimit="10" d="M202.3,456.8
			c0,0,1-0.5,1.3-0.5c0.3,0,0.9,0.5,1.3,0.5s1.3-0.5,1.3-0.5"/>
		<path fill="none" stroke="#717E86" stroke-width="0.5" stroke-linecap="round" stroke-miterlimit="10" d="M202.3,455.4
			c0,0,1-0.5,1.3-0.5c0.3,0,0.9,0.5,1.3,0.5s1.3-0.5,1.3-0.5"/>
		<path fill="none" stroke="#717E86" stroke-width="0.5" stroke-linecap="round" stroke-miterlimit="10" d="M202.3,454
			c0,0,1-0.5,1.3-0.5c0.3,0,0.9,0.5,1.3,0.5s1.3-0.5,1.3-0.5"/>
	</g>
</g>
<g id="Ouvertures">
	<g>
		<path fill="none" stroke="#717E86" stroke-width="0.3" stroke-miterlimit="10" stroke-dasharray="2,2" d="M191.9,340
			c17.5,0,31.7-14.4,31.7-32.3"/>
		<line fill="none" stroke="#717E86" stroke-width="0.3" stroke-miterlimit="10" x1="191.9" y1="307.7" x2="223.6" y2="307.7"/>
	</g>
	<g>
		<path fill="none" stroke="#717E86" stroke-width="0.3" stroke-miterlimit="10" stroke-dasharray="2,2" d="M276.9,464.7
			c16.4,0,29.8-13.6,29.8-30.4"/>
		<line fill="none" stroke="#717E86" stroke-width="0.3" stroke-miterlimit="10" x1="276.9" y1="434.4" x2="306.6" y2="434.4"/>
	</g>
	<g>
		<path fill="none" stroke="#717E86" stroke-width="0.3" stroke-miterlimit="10" stroke-dasharray="2,2" d="M237.7,474.3
			c0,16.4,13.6,29.8,30.4,29.8"/>
		<line fill="none" stroke="#717E86" stroke-width="0.3" stroke-miterlimit="10" x1="268.1" y1="474.3" x2="268.1" y2="504.1"/>
	</g>
	<g>
		<path fill="none" stroke="#717E86" stroke-width="0.3" stroke-miterlimit="10" stroke-dasharray="2,2" d="M238.3,237.8
			c0-15.8,13.1-28.6,29.2-28.6"/>
		<line fill="none" stroke="#717E86" stroke-width="0.3" stroke-miterlimit="10" x1="267.5" y1="237.8" x2="267.5" y2="209.2"/>
	</g>
	<g>
		<path fill="none" stroke="#717E86" stroke-width="0.3" stroke-miterlimit="10" stroke-dasharray="2,2" d="M225.2,264.7
			c-14.2,0-25.7,11.7-25.7,26.2"/>
		<line fill="none" stroke="#717E86" stroke-width="0.3" stroke-miterlimit="10" x1="225.2" y1="290.9" x2="199.5" y2="290.9"/>
	</g>
	<g>
		<polygon fill="#717E86" points="187.7,52 187.8,54.7 186,54.8 185.8,52.1 		"/>
		<polygon fill="#717E86" points="262.3,48.1 262.4,50.8 258.6,50.9 258.2,47.2 		"/>
		<g>
			<polygon fill="#FFFFFF" points="187.9,52.1 258.7,48.3 258.8,50.7 188,54.6 			"/>
			<path fill="#717E86" d="M258.5,48.4l0.1,2.1l-70.5,3.8l-0.1-2.1L258.5,48.4 M258.8,48.1L187.7,52l0.1,2.7l71.1-3.9L258.8,48.1
				L258.8,48.1z"/>
		</g>
		<polyline fill="none" stroke="#717E86" stroke-width="0.3" stroke-miterlimit="10" stroke-dasharray="2,2" points="234,52.2 
			233.7,64.1 188.5,54.7 		"/>
		<polygon fill="#717E86" points="235.1,49.4 235.3,52.2 232,52.3 231.8,49.6 		"/>
		<g>
			<path fill="none" stroke="#717E86" stroke-width="0.3" stroke-miterlimit="10" stroke-dasharray="2,2" d="M234,52.2
				c0.7,13.1,12.2,23.1,25.8,22.3"/>
			<line fill="none" stroke="#717E86" stroke-width="0.3" stroke-miterlimit="10" x1="258.6" y1="50.9" x2="259.8" y2="74.6"/>
		</g>
	</g>
	<g>
		<polygon fill="#717E86" points="428.6,329.3 425.9,329.1 425.8,331.2 428.5,331.4 		"/>
		<g>
			<polygon fill="#FFFFFF" points="422.2,400.8 426,331.4 428.4,331.5 424.6,400.9 			"/>
			<path fill="#717E86" d="M426.1,331.5l2.1,0.1l-3.8,69.1l-2.1-0.1L426.1,331.5 M425.8,331.2l-3.8,69.7l2.7,0.1l3.8-69.7
				L425.8,331.2L425.8,331.2z"/>
		</g>
		<polyline fill="none" stroke="#717E86" stroke-width="0.3" stroke-miterlimit="10" stroke-dasharray="2,2" points="424.5,355.6 
			412.8,355.9 422,400.3 		"/>
		<polygon fill="#717E86" points="427.3,354.6 424.6,354.4 424.4,357.7 427.1,357.8 		"/>
		<g>
			<path fill="none" stroke="#717E86" stroke-width="0.3" stroke-miterlimit="10" stroke-dasharray="2,2" d="M424.5,355.6
				c-12.9-0.7-22.7-12-22-25.3"/>
			<line fill="none" stroke="#717E86" stroke-width="0.3" stroke-miterlimit="10" x1="425.8" y1="331.6" x2="402.5" y2="330.4"/>
		</g>
	</g>
	<g>
		<polygon fill="#717E86" points="437.9,136.1 435.5,135.9 435.6,134.1 438.1,134.3 		"/>
		<g>
			<polygon fill="#FFFFFF" points="432.7,184.4 435.6,136.1 437.8,136.3 434.9,184.6 			"/>
			<path fill="#717E86" d="M435.8,136.2l1.9,0.1l-2.9,48.1l-1.9-0.1L435.8,136.2 M435.5,135.9l-2.9,48.7l2.5,0.2l2.9-48.7
				L435.5,135.9L435.5,135.9z"/>
		</g>
		<polyline fill="none" stroke="#717E86" stroke-width="0.3" stroke-miterlimit="10" stroke-dasharray="2,2" points="432.8,180.9 
			422.5,179.2 435.6,137.7 		"/>
		<polygon fill="#717E86" points="435,184.9 432.6,184.7 432.8,180.9 435.3,181.1 		"/>
	</g>
	<g>
		<polygon fill="#717E86" points="422.3,541.1 419.6,541.1 419.6,542.9 422.3,542.9 		"/>
		<polygon fill="#717E86" points="422,469.8 419.3,469.8 419.3,471.9 422,471.9 		"/>
		<g>
			<polygon fill="#FFFFFF" points="419.4,472.1 421.8,472 422.1,540.9 419.7,541 			"/>
			<path fill="#717E86" d="M421.7,472.2l0.3,68.6l-2.1,0l-0.3-68.6L421.7,472.2 M422,471.9l-2.7,0l0.3,69.2l2.7,0L422,471.9
				L422,471.9z"/>
		</g>
		<polyline fill="none" stroke="#717E86" stroke-width="0.3" stroke-miterlimit="10" stroke-dasharray="2,2" points="419.4,496.1 
			407.8,497.1 419.6,540.5 		"/>
		<polygon fill="#717E86" points="422.1,494.9 419.4,494.9 419.4,498.1 422.1,498.1 		"/>
		<g>
			<path fill="none" stroke="#717E86" stroke-width="0.3" stroke-miterlimit="10" stroke-dasharray="2,2" d="M419.4,496.1
				c-12.8,0.1-23.2-10.5-23.2-23.7"/>
			<line fill="none" stroke="#717E86" stroke-width="0.3" stroke-miterlimit="10" x1="419.3" y1="472.3" x2="396.2" y2="472.4"/>
		</g>
	</g>
	<g>
		<g>
			<rect x="282.2" y="121.5" fill="#FFFFFF" width="147.9" height="8.5"/>
			<path fill="#717E86" d="M430,121.7v8.2H282.4v-8.2H430 M430.3,121.4H282.1v8.8h148.2V121.4L430.3,121.4z"/>
		</g>
		<g>
			<rect x="282.2" y="121.5" fill="#FFFFFF" width="73.8" height="4.1"/>
			<path fill="#717E86" d="M355.9,121.7v3.8h-73.5v-3.8H355.9 M356.2,121.4h-74.1v4.4h74.1V121.4L356.2,121.4z"/>
		</g>
		<g>
			<rect x="357" y="126.3" fill="#FFFFFF" width="73.1" height="3.7"/>
			<path fill="#717E86" d="M430,126.4v3.4h-72.8v-3.4H430 M430.3,126.1h-73.4v4h73.4V126.1L430.3,126.1z"/>
		</g>
		<g>
			<g>
				<line fill="none" stroke="#717E86" stroke-width="0.3" stroke-miterlimit="1" x1="329.5" y1="134.3" x2="311.5" y2="134.3"/>
				<g>
					<polygon fill="#717E86" points="312.5,133.1 312.7,133.3 311.6,134.3 312.7,135.3 312.5,135.5 311.2,134.3 					"/>
				</g>
			</g>
		</g>
		<rect x="354.5" y="126.1" fill="#717E86" width="4.7" height="4"/>
		<rect x="354.5" y="121.4" fill="#717E86" width="4.7" height="4.4"/>
		<rect x="426.8" y="126.2" fill="#717E86" width="3.5" height="4"/>
		<rect x="282.1" y="121.4" fill="#717E86" width="4.3" height="4.4"/>
		<line fill="none" stroke="#717E86" stroke-width="0.1" stroke-miterlimit="1" x1="354.9" y1="123.7" x2="282.4" y2="123.7"/>
		<line fill="none" stroke="#717E86" stroke-width="0.1" stroke-miterlimit="1" x1="428.5" y1="128.2" x2="356.1" y2="128.2"/>
	</g>
</g>
<g id="Étiquettes" display="none">
	<text transform="matrix(1 0 0 1 367.3611 531.896)" display="inline" fill="#3C3C3B" font-family="'Lato-Black'" font-size="7px">Chambre 2</text>
	
		<text transform="matrix(1 0 0 1 374.8542 540.2959)" display="inline" fill="#3C3C3B" font-family="'Lato-Italic'" font-size="7px">14.10 m</text>
	
		<text transform="matrix(0.583 0 0 0.583 399.4167 537.9648)" display="inline" fill="#3C3C3B" font-family="'Lato-Italic'" font-size="7px">2</text>
	<text transform="matrix(1 0 0 1 218.4385 222.8364)" display="inline" fill="#3C3C3B" font-family="'Lato-Black'" font-size="7px">Chambre 1</text>
	
		<text transform="matrix(1 0 0 1 225.9316 231.2363)" display="inline" fill="#3C3C3B" font-family="'Lato-Italic'" font-size="7px">15.60 m</text>
	
		<text transform="matrix(0.583 0 0 0.583 250.4941 228.9053)" display="inline" fill="#3C3C3B" font-family="'Lato-Italic'" font-size="7px">2</text>
	<text transform="matrix(1 0 0 1 366.8374 389.7319)" display="inline" fill="#3C3C3B" font-family="'Lato-Black'" font-size="7px">Espace Jour </text>
	
		<text transform="matrix(1 0 0 1 377.2349 398.1318)" display="inline" fill="#3C3C3B" font-family="'Lato-Italic'" font-size="7px">37.20 m</text>
	
		<text transform="matrix(0.583 0 0 0.583 401.7974 395.8008)" display="inline" fill="#3C3C3B" font-family="'Lato-Italic'" font-size="7px">2</text>
	<text transform="matrix(1 0 0 1 404.5414 102.8003)" display="inline" fill="#3C3C3B" font-family="'Lato-Black'" font-size="7px">LOGGIA </text>
	
		<text transform="matrix(1 0 0 1 404.9017 111.2002)" display="inline" fill="#3C3C3B" font-family="'Lato-Italic'" font-size="7px">12.40 m</text>
	
		<text transform="matrix(0.583 0 0 0.583 429.4642 108.8691)" display="inline" fill="#3C3C3B" font-family="'Lato-Italic'" font-size="7px">2</text>
	<text transform="matrix(1 0 0 1 200.1365 336.8276)" display="inline" fill="#3C3C3B" font-family="'Lato-Black'" font-size="7px">dégagement </text>
	<text transform="matrix(1 0 0 1 200.2556 345.2275)" display="inline" fill="#3C3C3B" font-family="'Lato-Black'" font-size="7px">&amp; Buanderie</text>
	<text transform="matrix(1 0 0 1 211.738 353.6274)" display="inline" fill="#3C3C3B" font-family="'Lato-Italic'" font-size="7px">13.50 m</text>
	
		<text transform="matrix(0.583 0 0 0.583 236.3005 351.2969)" display="inline" fill="#3C3C3B" font-family="'Lato-Italic'" font-size="7px">2</text>
</g>
<g id="Murs">
	<polygon fill="#717E86" points="444.6,181.5 437.1,332.3 425.8,331.3 426,328.6 422.7,328.2 429.8,184 434.9,184.4 435.3,180.8 	
		"/>
	<rect x="267.2" y="287.7" fill="#717E86" width="8.2" height="15"/>
	<polygon fill="#717E86" points="282.2,36.5 282.2,125.8 282.1,130.2 279.7,130.2 267.2,130.2 267.2,52.7 261.8,53.1 261.5,48 
		258.3,47.9 257.7,37.9 	"/>
	<polygon fill="#717E86" points="275.4,290.2 275.4,45.4 271.3,45.4 271.3,238.7 267.2,238.7 267.2,242.7 271.3,242.7 271.3,290.2 	
		"/>
	<path fill="#717E86" d="M431.8,430.7l2.3-30.5l-12.4-0.5l-0.2,2.7l-3.4-0.3l-1.2,25.1h-121v-20.4h-21.3v-44.3H296V359h-24.9v76.5
		h4.1v-4l141.8,0.1v37h2.3v3h12.5V430.7z"/>
	<polygon fill="#717E86" points="448.3,115.8 446.9,138.2 435.6,137.7 435.6,134.1 432.4,133.9 432.6,130.2 430.2,130.2 
		430.1,115.8 	"/>
	<polygon fill="#717E86" points="452.6,27.9 432.1,29 432.1,36.7 452.2,35.9 	"/>
	<path fill="#717E86" d="M431.8,565v-25l-12.5,0.1v3.2l-2.3,0v5.9H275.4v-84.1h-4.3v4h-3.8v3.4h3.8v76.7h-71.4v-76.4h37.6v-3.8
		h-38.6h-7.9v-47.8h27.3V417H198v-54.3l20.2-0.1v-3.9l-27.3,0.1v-16.5l0-2.9h-1.5h-6.7l0.3,122.6h-5.8v6.6v1l1.4,0.2h3v88.5h159.6
		v7.3L431.8,565z"/>
	<polygon fill="#717E86" points="191,307.7 191,305.3 191,298.4 230,298.4 230,290.8 226.4,290.8 226.4,294.4 178.4,294.4 
		178.4,242.9 225.9,242.9 225.9,264.3 230,264.3 230,242.7 237.5,242.7 237.5,238.9 177.3,238.9 168.9,238.9 168.9,57.8 187.4,56.3 
		187.4,55 189.9,54.6 189.8,41.4 176,42.3 160,41.4 160,302.9 182.6,302.9 182.6,307.7 189,307.7 	"/>
	<polyline fill="none" stroke="#717E86" stroke-width="0.3" stroke-miterlimit="10" points="182.7,307.7 182.6,302.9 160,302.9 
		160,41.4 173.8,42.2 452.6,27.9 431.8,438.7 431.8,565 341.3,565.7 341.3,558.4 181.6,558.4 181.6,469.9 183,462.2 182.7,339.5 	
		"/>
	
		<rect x="408.5" y="74.9" transform="matrix(-5.233596e-002 0.9986 -0.9986 -5.233596e-002 545.9934 -366.7688)" fill="#A5B9C4" width="77" height="1.6"/>
	
		<rect x="421.1" y="158.9" transform="matrix(-5.233596e-002 0.9986 -0.9986 -5.233596e-002 624.7296 -273.4405)" fill="#A5B9C4" width="42" height="1.6"/>
	
		<rect x="283" y="35.7" transform="matrix(-0.9986 5.233596e-002 -5.233596e-002 -0.9986 715.8796 54.1974)" fill="#A5B9C4" width="148.5" height="1.5"/>
</g>
<g id="Entree">
	<polygon fill="#3C3C3B" points="187.2,318.3 191.9,323.8 187.2,329.3 	"/>
</g>
<g id="Nord">
	<circle fill="none" stroke="#717E86" stroke-miterlimit="10" cx="456.6" cy="548.2" r="11.9"/>
	<line fill="none" stroke="#717E86" stroke-width="2" stroke-miterlimit="10" x1="464.2" y1="545.8" x2="471.6" y2="543.4"/>
	<text transform="matrix(1 0 0 1 450.3689 554.0146)" fill="#717E86" font-family="'Lato-Black'" font-size="16.4252px">N</text>
</g>
</svg>
