<?xml version="1.0" encoding="utf-8"?>
<!-- Generator: Adobe Illustrator 19.0.0, SVG Export Plug-In . SVG Version: 6.00 Build 0)  -->
<svg version="1.1" xmlns="http://www.w3.org/2000/svg" xmlns:xlink="http://www.w3.org/1999/xlink" x="0px" y="0px"
	 viewBox="0 0 595.3 595.3" enable-background="new 0 0 595.3 595.3" xml:space="preserve">
<pattern  width="3.8" height="3.4" patternUnits="userSpaceOnUse" id="Nouvelle_nuance_de_motif_7" viewBox="0 -3.4 3.8 3.4" overflow="visible">
	<g>
		<polygon fill="none" points="0,0 3.8,0 3.8,-3.4 0,-3.4 		"/>
		<polygon fill="#FFFFFF" points="3.7,0 0.1,0 0.1,-3.4 3.7,-3.4 		"/>
		<polygon fill="#E3E3E3" points="3.8,0 3.7,0 3.7,-3.4 3.8,-3.4 		"/>
		<polygon fill="#E3E3E3" points="0.1,0 0,0 0,-3.4 0.1,-3.4 		"/>
	</g>
</pattern>
<g id="Jardin">
	<polygon fill="#DBEBD0" points="481.5,86.9 84.6,86.9 84.6,22.9 477.4,22.9 	"/>
	<polygon fill="#DBEBD0" points="506.6,503.3 188.6,503.3 188.6,567.6 510.5,567.6 	"/>
	<path fill="#ABBBA1" d="M444.1,41.6c-0.1-0.1-0.2,0-0.2-0.3c0-0.3,0.2-0.4,0.1-0.6c-0.2-0.4-0.6-0.6-0.8-1.1
		c-0.1-0.2-0.1-0.4-0.1-0.6c0-0.1,0-0.3-0.1-0.4c0-0.1-0.2,0-0.2-0.2c-0.1-0.3,0.2-0.5,0-0.7c-0.1-0.2-0.4-0.1-0.6-0.1
		c-0.3,0-0.6-0.1-0.7-0.4c-0.1-0.3,0-0.8-0.4-0.7c0-0.2,0.1-0.6,0-0.7c-0.2-0.2-0.4-0.1-0.6-0.2c-0.2-0.2,0.1-0.8-0.3-0.8
		c-0.2,0-0.4,0.3-0.6,0.2c-0.2-0.1-0.1-0.1-0.1-0.3c-0.1-0.4-0.3-0.8-0.7-0.8c-0.3,0-0.5,0.2-0.7,0.2c-0.2,0-0.3-0.2-0.5-0.3
		c-0.5-0.1-1,0.2-1.4-0.1c-0.2-0.1-0.2-0.4-0.4-0.5c-0.2-0.1-0.5,0.1-0.7,0.1c-0.3,0.1-0.5,0.2-0.8,0.3c-0.3,0.1-0.3-0.1-0.4-0.3
		c-0.3-0.2-0.4-0.2-0.7,0c-0.1,0.1-0.3,0.1-0.4,0.2c-0.1,0-0.1,0.2-0.2,0.2c-0.3,0.1-0.3-0.2-0.5-0.3c-0.3-0.1-0.6,0.1-0.9,0.2
		c-0.2,0.1-0.3,0.5-0.4,0.6c-0.1,0-0.3-0.1-0.4-0.1c-0.2,0-0.1,0-0.2,0.1c-0.1,0.1,0,0.1-0.2,0.2c-0.2,0.1-0.4-0.1-0.6,0.1
		c-0.1,0.2,0,0.4,0,0.6c-0.1,0.5-0.7,0.5-1.1,0.6c0,0-0.2,0.4-0.2,0.4c-0.1,0.1-0.3,0.1-0.5,0.1c0,0.1,0.1,0.6,0,0.7
		c-0.2,0.2-0.6-0.1-0.8,0.1c-0.2,0.2,0.1,0.6,0,0.8c-0.1,0.2-0.5,0.1-0.8,0.1c-0.1,0.4,0.3,0.7,0.3,1.1c-0.2,0-0.7,0.1-0.7,0.4
		c0,0.2,0.4,0.5,0.2,0.8c-0.1,0.2-0.4,0.1-0.5,0.3c-0.2,0.2-0.1,0.5-0.1,0.7c0,0.2-0.1,0.5,0,0.7c0,0.2,0.3,0.2,0.3,0.4
		c0,0.2-0.2,0.3-0.2,0.6c0,0.2,0.1,0.3,0.1,0.5c0,0.1-0.1,0.2-0.1,0.4c0,0.1,0.2,0.4,0.2,0.5c0.1,0.1,0.4,0.1,0.5,0.2
		c0.1,0.2-0.2,0.4-0.2,0.6c0,0.2,0.1,0.2,0.1,0.4c0.1,0.2,0,0.3,0.1,0.5c0.2,0.2,0.4,0.1,0.5,0.4c0.1,0.3,0,0.3,0.2,0.6
		c0.1,0.1,0.2,0.1,0.2,0.2c0,0.1-0.1,0.2-0.1,0.3c0,0.3,0.2,0.9,0.4,1c0.3,0.1,0.5-0.2,0.5,0.3c0,0.2-0.1,0.6,0.1,0.8
		c0.1,0.1,0.3,0,0.5,0c0,0.2,0.1,0.3,0.1,0.5c0.4,0.1,0.3-0.3,0.6,0.2c0.3,0.5,0.8,0.2,1.2,0.3c0.2,0.1,0.3,0.4,0.4,0.6
		c0.1,0,0.3,0,0.4,0c0.3,0,0.2,0.1,0.4,0.3c0.3,0.2,0.5-0.1,0.9,0.1c0.2,0.1,0.3,0.2,0.5,0.3c0.1,0,0.3,0,0.4,0
		c0.5,0,0.7,0.4,1.2,0.3c0.2,0,0.3-0.2,0.4-0.3c0.1-0.1,0.2-0.1,0.4-0.1c0.2,0.1,0.3,0.3,0.5,0.4c0.3,0,0.2-0.2,0.3-0.3
		c0.2-0.1,0.4-0.1,0.5-0.1c0.3,0.1,0.3,0.1,0.6,0c0.2-0.2,0.6-0.2,0.8-0.4c0.2-0.2,0.2-0.5,0.5-0.4c0.2,0,0.4,0.3,0.5,0.2
		c0.2-0.1,0.1-0.3,0.1-0.5c0.2,0,0.3,0,0.5,0c0.3-0.1,0.2,0,0.3-0.2c0.1-0.2,0.1-0.2,0.3-0.3c0.2-0.1,0.3,0,0.5-0.2
		c0.4-0.4,0.8-0.7,0.9-1.3c0.1-0.5,0.6-0.3,0.8-0.5c0.3-0.2,0.1-0.7,0.3-0.9c0.2-0.2,0.6-0.3,0.7-0.5c0.1-0.3-0.1-0.5-0.1-0.8
		c0-0.3,0.3-0.3,0.3-0.6c0-0.2-0.1-0.4-0.1-0.6c0-0.2,0.1-0.5,0.1-0.7c0.1-0.2,0.2-0.3,0.3-0.4c0.1-0.1,0.1-0.4,0.1-0.5
		c-0.3-0.1-0.3-0.3-0.2-0.5c0,0,0.1-0.1,0.1-0.1C444.2,42.1,444.4,41.9,444.1,41.6z"/>
	<path fill="#ABBBA1" d="M470,45.2c-0.1-0.1-0.2,0-0.2-0.3c0-0.3,0.2-0.4,0.1-0.6c-0.2-0.4-0.6-0.6-0.8-1.1
		c-0.1-0.2-0.1-0.4-0.1-0.6c0-0.1,0-0.3-0.1-0.4c0-0.1-0.2,0-0.2-0.2c-0.1-0.3,0.2-0.5,0-0.7c-0.1-0.2-0.4-0.1-0.6-0.1
		c-0.3,0-0.6-0.1-0.7-0.4c-0.1-0.3,0-0.8-0.4-0.7c0-0.2,0.1-0.6,0-0.7c-0.2-0.2-0.4-0.1-0.6-0.2c-0.2-0.2,0.1-0.8-0.3-0.8
		c-0.2,0-0.4,0.3-0.6,0.2c-0.2-0.1-0.1-0.1-0.1-0.3c-0.1-0.4-0.3-0.8-0.7-0.8c-0.3,0-0.5,0.2-0.7,0.2c-0.2,0-0.3-0.2-0.5-0.3
		c-0.5-0.1-1,0.2-1.4-0.1c-0.2-0.1-0.2-0.4-0.4-0.5c-0.2-0.1-0.5,0.1-0.7,0.1c-0.3,0.1-0.5,0.2-0.8,0.3c-0.3,0.1-0.3-0.1-0.4-0.3
		c-0.3-0.2-0.4-0.2-0.7,0c-0.1,0.1-0.3,0.1-0.4,0.2c-0.1,0-0.1,0.2-0.2,0.2c-0.3,0.1-0.3-0.2-0.5-0.3c-0.3-0.1-0.6,0.1-0.9,0.2
		c-0.2,0.1-0.3,0.5-0.4,0.6c-0.1,0-0.3-0.1-0.4-0.1c-0.2,0-0.1,0-0.2,0.1c-0.1,0.1,0,0.1-0.2,0.2c-0.2,0.1-0.4-0.1-0.6,0.1
		c-0.1,0.2,0,0.4,0,0.6c-0.1,0.5-0.7,0.5-1.1,0.6c0,0-0.2,0.4-0.2,0.4c-0.1,0.1-0.3,0.1-0.5,0.1c0,0.1,0.1,0.6,0,0.7
		c-0.2,0.2-0.6-0.1-0.8,0.1c-0.2,0.2,0.1,0.6,0,0.8c-0.1,0.2-0.5,0.1-0.8,0.1c-0.1,0.4,0.3,0.7,0.3,1.1c-0.2,0-0.7,0.1-0.7,0.4
		c0,0.2,0.4,0.5,0.2,0.8c-0.1,0.2-0.4,0.1-0.5,0.3c-0.2,0.2-0.1,0.5-0.1,0.7c0,0.2-0.1,0.5,0,0.7c0,0.2,0.3,0.2,0.3,0.4
		c0,0.2-0.2,0.3-0.2,0.6c0,0.2,0.1,0.3,0.1,0.5c0,0.1-0.1,0.2-0.1,0.4c0,0.1,0.2,0.4,0.2,0.5c0.1,0.1,0.4,0.1,0.5,0.2
		c0.1,0.2-0.2,0.4-0.2,0.6c0,0.2,0.1,0.2,0.1,0.4c0.1,0.2,0,0.3,0.1,0.5c0.2,0.2,0.4,0.1,0.5,0.4c0.1,0.3,0,0.3,0.2,0.6
		c0.1,0.1,0.2,0.1,0.2,0.2c0,0.1-0.1,0.2-0.1,0.3c0,0.3,0.2,0.9,0.4,1c0.3,0.1,0.5-0.2,0.5,0.3c0,0.2-0.1,0.6,0.1,0.8
		c0.1,0.1,0.3,0,0.5,0c0,0.2,0.1,0.3,0.1,0.5c0.4,0.1,0.3-0.3,0.6,0.2c0.3,0.5,0.8,0.2,1.2,0.3c0.2,0.1,0.3,0.4,0.4,0.6
		c0.1,0,0.3,0,0.4,0c0.3,0,0.2,0.1,0.4,0.3c0.3,0.2,0.5-0.1,0.9,0.1c0.2,0.1,0.3,0.2,0.5,0.3c0.1,0,0.3,0,0.4,0
		c0.5,0,0.7,0.4,1.2,0.3c0.2,0,0.3-0.2,0.4-0.3c0.1-0.1,0.2-0.1,0.4-0.1c0.2,0.1,0.3,0.3,0.5,0.4c0.3,0,0.2-0.2,0.3-0.3
		c0.2-0.1,0.4-0.1,0.5-0.1c0.3,0.1,0.3,0.1,0.6,0c0.2-0.2,0.6-0.2,0.8-0.4c0.2-0.2,0.2-0.5,0.5-0.4c0.2,0,0.4,0.3,0.5,0.2
		c0.2-0.1,0.1-0.3,0.1-0.5c0.2,0,0.3,0,0.5,0c0.3-0.1,0.2,0,0.3-0.2c0.1-0.2,0.1-0.2,0.3-0.3c0.2-0.1,0.3,0,0.5-0.2
		c0.4-0.4,0.8-0.7,0.9-1.3c0.1-0.5,0.6-0.3,0.8-0.5c0.3-0.2,0.1-0.7,0.3-0.9c0.2-0.2,0.6-0.3,0.7-0.5c0.1-0.3-0.1-0.5-0.1-0.8
		c0-0.3,0.3-0.3,0.3-0.6c0-0.2-0.1-0.4-0.1-0.6c0-0.2,0.1-0.5,0.1-0.7c0.1-0.2,0.2-0.3,0.3-0.4c0.1-0.1,0.1-0.4,0.1-0.5
		c-0.3-0.1-0.3-0.3-0.2-0.5c0,0,0.1-0.1,0.1-0.1C470.1,45.7,470.3,45.5,470,45.2z"/>
	<path fill="#ABBBA1" d="M213.5,540.1c-0.1-0.1-0.2,0-0.2-0.3c0-0.3,0.2-0.4,0.1-0.6c-0.2-0.4-0.6-0.6-0.8-1.1
		c-0.1-0.2-0.1-0.4-0.1-0.6c0-0.1,0-0.3-0.1-0.4c0-0.1-0.2,0-0.2-0.2c-0.1-0.3,0.2-0.5,0-0.7c-0.1-0.2-0.4-0.1-0.6-0.1
		c-0.3,0-0.6-0.1-0.7-0.4c-0.1-0.3,0-0.8-0.4-0.7c0-0.2,0.1-0.6,0-0.7c-0.2-0.2-0.4-0.1-0.6-0.2c-0.2-0.2,0.1-0.8-0.3-0.8
		c-0.2,0-0.4,0.3-0.6,0.2c-0.2-0.1-0.1-0.1-0.1-0.3c-0.1-0.4-0.3-0.8-0.7-0.8c-0.3,0-0.5,0.2-0.7,0.2c-0.2,0-0.3-0.2-0.5-0.3
		c-0.5-0.1-1,0.2-1.4-0.1c-0.2-0.1-0.2-0.4-0.4-0.5c-0.2-0.1-0.5,0.1-0.7,0.1c-0.3,0.1-0.5,0.2-0.8,0.3c-0.3,0.1-0.3-0.1-0.4-0.3
		c-0.3-0.2-0.4-0.2-0.7,0c-0.1,0.1-0.3,0.1-0.4,0.2c-0.1,0-0.1,0.2-0.2,0.2c-0.3,0.1-0.3-0.2-0.5-0.3c-0.3-0.1-0.6,0.1-0.9,0.2
		c-0.2,0.1-0.3,0.5-0.4,0.6c-0.1,0-0.3-0.1-0.4-0.1c-0.2,0-0.1,0-0.2,0.1c-0.1,0.1,0,0.1-0.2,0.2c-0.2,0.1-0.4-0.1-0.6,0.1
		c-0.1,0.2,0,0.4,0,0.6c-0.1,0.5-0.7,0.5-1.1,0.6c0,0-0.2,0.4-0.2,0.4c-0.1,0.1-0.3,0.1-0.5,0.1c0,0.1,0.1,0.6,0,0.7
		c-0.2,0.2-0.6-0.1-0.8,0.1c-0.2,0.2,0.1,0.6,0,0.8c-0.1,0.2-0.5,0.1-0.8,0.1c-0.1,0.4,0.3,0.7,0.3,1.1c-0.2,0-0.7,0.1-0.7,0.4
		c0,0.2,0.4,0.5,0.2,0.8c-0.1,0.2-0.4,0.1-0.5,0.3c-0.2,0.2-0.1,0.5-0.1,0.7c0,0.2-0.1,0.5,0,0.7c0,0.2,0.3,0.2,0.3,0.4
		c0,0.2-0.2,0.3-0.2,0.6c0,0.2,0.1,0.3,0.1,0.5c0,0.1-0.1,0.2-0.1,0.4c0,0.1,0.2,0.4,0.2,0.5c0.1,0.1,0.4,0.1,0.5,0.2
		c0.1,0.2-0.2,0.4-0.2,0.6c0,0.2,0.1,0.2,0.1,0.4c0.1,0.2,0,0.3,0.1,0.5c0.2,0.2,0.4,0.1,0.5,0.4c0.1,0.3,0,0.3,0.2,0.6
		c0.1,0.1,0.2,0.1,0.2,0.2c0,0.1-0.1,0.2-0.1,0.3c0,0.3,0.2,0.9,0.4,1c0.3,0.1,0.5-0.2,0.5,0.3c0,0.2-0.1,0.6,0.1,0.8
		c0.1,0.1,0.3,0,0.5,0c0,0.2,0.1,0.3,0.1,0.5c0.4,0.1,0.3-0.3,0.6,0.2c0.3,0.5,0.8,0.2,1.2,0.3c0.2,0.1,0.3,0.4,0.4,0.6
		c0.1,0,0.3,0,0.4,0c0.3,0,0.2,0.1,0.4,0.3c0.3,0.2,0.5-0.1,0.9,0.1c0.2,0.1,0.3,0.2,0.5,0.3c0.1,0,0.3,0,0.4,0
		c0.5,0,0.7,0.4,1.2,0.3c0.2,0,0.3-0.2,0.4-0.3c0.1-0.1,0.2-0.1,0.4-0.1c0.2,0.1,0.3,0.3,0.5,0.4c0.3,0,0.2-0.2,0.3-0.3
		c0.2-0.1,0.4-0.1,0.5-0.1c0.3,0.1,0.3,0.1,0.6,0c0.2-0.2,0.6-0.2,0.8-0.4c0.2-0.2,0.2-0.5,0.5-0.4c0.2,0,0.4,0.3,0.5,0.2
		c0.2-0.1,0.1-0.3,0.1-0.5c0.2,0,0.3,0,0.5,0c0.3-0.1,0.2,0,0.3-0.2c0.1-0.2,0.1-0.2,0.3-0.3c0.2-0.1,0.3,0,0.5-0.2
		c0.4-0.4,0.8-0.7,0.9-1.3c0.1-0.5,0.6-0.3,0.8-0.5c0.3-0.2,0.1-0.7,0.3-0.9c0.2-0.2,0.6-0.3,0.7-0.5c0.1-0.3-0.1-0.5-0.1-0.8
		c0-0.3,0.3-0.3,0.3-0.6c0-0.2-0.1-0.4-0.1-0.6c0-0.2,0.1-0.5,0.1-0.7c0.1-0.2,0.2-0.3,0.3-0.4c0.1-0.1,0.1-0.4,0.1-0.5
		c-0.3-0.1-0.3-0.3-0.2-0.5c0,0,0.1-0.1,0.1-0.1C213.6,540.5,213.8,540.4,213.5,540.1z"/>
	<path fill="#ABBBA1" d="M239.4,543.7c-0.1-0.1-0.2,0-0.2-0.3c0-0.3,0.2-0.4,0.1-0.6c-0.2-0.4-0.6-0.6-0.8-1.1
		c-0.1-0.2-0.1-0.4-0.1-0.6c0-0.1,0-0.3-0.1-0.4c0-0.1-0.2,0-0.2-0.2c-0.1-0.3,0.2-0.5,0-0.7c-0.1-0.2-0.4-0.1-0.6-0.1
		c-0.3,0-0.6-0.1-0.7-0.4c-0.1-0.3,0-0.8-0.4-0.7c0-0.2,0.1-0.6,0-0.7c-0.2-0.2-0.4-0.1-0.6-0.2c-0.2-0.2,0.1-0.8-0.3-0.8
		c-0.2,0-0.4,0.3-0.6,0.2c-0.2-0.1-0.1-0.1-0.1-0.3c-0.1-0.4-0.3-0.8-0.7-0.8c-0.3,0-0.5,0.2-0.7,0.2c-0.2,0-0.3-0.2-0.5-0.3
		c-0.5-0.1-1,0.2-1.4-0.1c-0.2-0.1-0.2-0.4-0.4-0.5c-0.2-0.1-0.5,0.1-0.7,0.1c-0.3,0.1-0.5,0.2-0.8,0.3c-0.3,0.1-0.3-0.1-0.4-0.3
		c-0.3-0.2-0.4-0.2-0.7,0c-0.1,0.1-0.3,0.1-0.4,0.2c-0.1,0-0.1,0.2-0.2,0.2c-0.3,0.1-0.3-0.2-0.5-0.3c-0.3-0.1-0.6,0.1-0.9,0.2
		c-0.2,0.1-0.3,0.5-0.4,0.6c-0.1,0-0.3-0.1-0.4-0.1c-0.2,0-0.1,0-0.2,0.1c-0.1,0.1,0,0.1-0.2,0.2c-0.2,0.1-0.4-0.1-0.6,0.1
		c-0.1,0.2,0,0.4,0,0.6c-0.1,0.5-0.7,0.5-1.1,0.6c0,0-0.2,0.4-0.2,0.4c-0.1,0.1-0.3,0.1-0.5,0.1c0,0.1,0.1,0.6,0,0.7
		c-0.2,0.2-0.6-0.1-0.8,0.1c-0.2,0.2,0.1,0.6,0,0.8c-0.1,0.2-0.5,0.1-0.8,0.1c-0.1,0.4,0.3,0.7,0.3,1.1c-0.2,0-0.7,0.1-0.7,0.4
		c0,0.2,0.4,0.5,0.2,0.8c-0.1,0.2-0.4,0.1-0.5,0.3c-0.2,0.2-0.1,0.5-0.1,0.7c0,0.2-0.1,0.5,0,0.7c0,0.2,0.3,0.2,0.3,0.4
		c0,0.2-0.2,0.3-0.2,0.6c0,0.2,0.1,0.3,0.1,0.5c0,0.1-0.1,0.2-0.1,0.4c0,0.1,0.2,0.4,0.2,0.5c0.1,0.1,0.4,0.1,0.5,0.2
		c0.1,0.2-0.2,0.4-0.2,0.6c0,0.2,0.1,0.2,0.1,0.4c0.1,0.2,0,0.3,0.1,0.5c0.2,0.2,0.4,0.1,0.5,0.4c0.1,0.3,0,0.3,0.2,0.6
		c0.1,0.1,0.2,0.1,0.2,0.2c0,0.1-0.1,0.2-0.1,0.3c0,0.3,0.2,0.9,0.4,1c0.3,0.1,0.5-0.2,0.5,0.3c0,0.2-0.1,0.6,0.1,0.8
		c0.1,0.1,0.3,0,0.5,0c0,0.2,0.1,0.3,0.1,0.5c0.4,0.1,0.3-0.3,0.6,0.2c0.3,0.5,0.8,0.2,1.2,0.3c0.2,0.1,0.3,0.4,0.4,0.6
		c0.1,0,0.3,0,0.4,0c0.3,0,0.2,0.1,0.4,0.3c0.3,0.2,0.5-0.1,0.9,0.1c0.2,0.1,0.3,0.2,0.5,0.3c0.1,0,0.3,0,0.4,0
		c0.5,0,0.7,0.4,1.2,0.3c0.2,0,0.3-0.2,0.4-0.3c0.1-0.1,0.2-0.1,0.4-0.1c0.2,0.1,0.3,0.3,0.5,0.4c0.3,0,0.2-0.2,0.3-0.3
		c0.2-0.1,0.4-0.1,0.5-0.1c0.3,0.1,0.3,0.1,0.6,0c0.2-0.2,0.6-0.2,0.8-0.4c0.2-0.2,0.2-0.5,0.5-0.4c0.2,0,0.4,0.3,0.5,0.2
		c0.2-0.1,0.1-0.3,0.1-0.5c0.2,0,0.3,0,0.5,0c0.3-0.1,0.2,0,0.3-0.2c0.1-0.2,0.1-0.2,0.3-0.3c0.2-0.1,0.3,0,0.5-0.2
		c0.4-0.4,0.8-0.7,0.9-1.3c0.1-0.5,0.6-0.3,0.8-0.5c0.3-0.2,0.1-0.7,0.3-0.9c0.2-0.2,0.6-0.3,0.7-0.5c0.1-0.3-0.1-0.5-0.1-0.8
		c0-0.3,0.3-0.3,0.3-0.6c0-0.2-0.1-0.4-0.1-0.6c0-0.2,0.1-0.5,0.1-0.7c0.1-0.2,0.2-0.3,0.3-0.4c0.1-0.1,0.1-0.4,0.1-0.5
		c-0.3-0.1-0.3-0.3-0.2-0.5c0,0,0.1-0.1,0.1-0.1C239.5,544.1,239.7,544,239.4,543.7z"/>
</g>
<g id="Fond">
	<polygon fill="#FFFFFF" stroke="#707E85" stroke-width="0.3" stroke-miterlimit="10" points="505.3,503.3 511.7,503.3 514.5,502.9 
		489,86.5 484.8,86.7 77.4,86.6 77.4,289.8 152.4,289.8 152.4,333.6 233.1,341.8 243.2,503.2 	"/>
	<polygon fill="#EAF6FE" points="233.4,492.3 233.1,341.8 158.6,341.8 158.6,274.3 82.8,274.3 82.8,175 82.8,171.8 82.8,97.5 
		231.6,97.5 231.6,169.8 373.6,169.8 373.6,97.5 486.1,97.5 486.1,168.3 487.4,168.3 506.6,492.3 	"/>
</g>
<g id="Sol">
	<rect x="85.6" y="215.8" opacity="0.8" fill="#FFFFFF" width="70.9" height="57.5"/>
	<rect x="425.9" y="233.1" opacity="0.8" fill="#FFFFFF" width="57.5" height="119.5"/>
	<pattern  id="SVGID_1_" xlink:href="#Nouvelle_nuance_de_motif_7" patternTransform="matrix(1 0 0 1 -7.626 10.3125)">
	</pattern>
	
		<rect x="232.6" y="86.9" fill="url(#SVGID_1_)" stroke="#707E85" stroke-width="0.3" stroke-miterlimit="10" width="137.6" height="76.4"/>
</g>
<g id="Installations">
	<g>
		<rect x="235.1" y="169.9" fill="#FFFFFF" width="19" height="115.9"/>
		<path fill="#707E85" d="M253.9,170.1v115.6h-18.7V170.1H253.9 M254.2,169.8h-19.3v116.2h19.3V169.8L254.2,169.8z"/>
	</g>
	<g>
		<rect x="236.3" y="231.1" fill="none" stroke="#707E85" stroke-width="0.3" stroke-miterlimit="10" width="16" height="32.2"/>
		<g>
			<path fill="#FFFFFF" stroke="#707E85" stroke-width="0.3" stroke-miterlimit="10" d="M240.1,247.5h8.5c1.3,0,2.4-1.1,2.4-2.4V235
				c0-1.3-1.1-2.4-2.4-2.4h-8.5c-1.3,0-2.4,1.1-2.4,2.4v10.1C237.6,246.4,238.7,247.5,240.1,247.5z"/>
			<circle fill="#FFFFFF" stroke="#707E85" stroke-width="0.3" stroke-miterlimit="10" cx="240.3" cy="239.8" r="1"/>
		</g>
		<g>
			<rect x="248.5" y="250" fill="#707E85" width="0.6" height="10.6"/>
			<rect x="246.3" y="250" fill="#707E85" width="0.6" height="10.6"/>
			<rect x="244.1" y="250" fill="#707E85" width="0.6" height="10.6"/>
			<rect x="241.8" y="250" fill="#707E85" width="0.6" height="10.6"/>
			<rect x="239.6" y="250" fill="#707E85" width="0.6" height="10.6"/>
		</g>
	</g>
	<g>
		<rect x="236.3" y="187" fill="none" stroke="#707E85" stroke-width="0.3" stroke-miterlimit="10" width="16" height="16"/>
		<path fill="#FFFFFF" stroke="#707E85" stroke-width="0.3" stroke-miterlimit="10" d="M241,194.6c-1.6,0-2.9-1.3-2.9-2.9
			c0-1.6,1.3-2.9,2.9-2.9c1.6,0,2.9,1.3,2.9,2.9C243.9,193.3,242.6,194.6,241,194.6"/>
		<path fill="#FFFFFF" stroke="#707E85" stroke-width="0.3" stroke-miterlimit="10" d="M247.8,201.1c-1.6,0-2.9-1.3-2.9-2.9
			c0-1.6,1.3-2.9,2.9-2.9c1.6,0,2.9,1.3,2.9,2.9C250.7,199.8,249.4,201.1,247.8,201.1"/>
		<path fill="#FFFFFF" stroke="#707E85" stroke-width="0.3" stroke-miterlimit="10" d="M248.3,193.8c-1.3,0-2.4-1.1-2.4-2.4
			c0-1.3,1.1-2.4,2.4-2.4c1.3,0,2.4,1.1,2.4,2.4C250.7,192.7,249.7,193.8,248.3,193.8"/>
		<path fill="#FFFFFF" stroke="#707E85" stroke-width="0.3" stroke-miterlimit="10" d="M240.6,201.1c-1.3,0-2.4-1.1-2.4-2.4
			c0-1.3,1.1-2.4,2.4-2.4c1.3,0,2.4,1.1,2.4,2.4C243,200,241.9,201.1,240.6,201.1"/>
	</g>
	<g>
		<g>
			<g opacity="5.000000e-002">
				<path fill="#707E85" d="M152.4,123.1H90.9c-0.6,0-1,0.4-1,1v48.7c0,0.6,0.4,1,1,1h61.6c0.6,0,1-0.4,1-1v-48.7
					C153.4,123.6,153,123.1,152.4,123.1z"/>
				<path fill="none" stroke="#707E85" stroke-width="0.3" stroke-miterlimit="10" d="M152.4,123.1H90.9c-0.6,0-1,0.4-1,1v48.7
					c0,0.6,0.4,1,1,1h61.6c0.6,0,1-0.4,1-1v-48.7C153.4,123.6,153,123.1,152.4,123.1z"/>
			</g>
			<g>
				<path fill="#EAF6FE" d="M149.4,120.1H87.9c-0.6,0-1,0.4-1,1v48.7c0,0.6,0.4,1,1,1h61.6c0.6,0,1-0.4,1-1v-48.7
					C150.4,120.6,150,120.1,149.4,120.1z"/>
				<path fill="none" stroke="#CBD3D7" stroke-width="0.3" stroke-miterlimit="10" d="M149.4,120.1H87.9c-0.6,0-1,0.4-1,1v48.7
					c0,0.6,0.4,1,1,1h61.6c0.6,0,1-0.4,1-1v-48.7C150.4,120.6,150,120.1,149.4,120.1z"/>
			</g>
		</g>
		<path fill="#EAF6FE" stroke="#CBD3D7" stroke-width="0.3" stroke-miterlimit="10" d="M146.1,123.5H91.3c-0.6,0-1,0.4-1,1v41.9
			c0,0.6,0.4,1,1,1h54.8c0.6,0,1-0.4,1-1v-41.9C147.1,123.9,146.6,123.5,146.1,123.5z"/>
		<path fill="#EAF6FE" stroke="#CBD3D7" stroke-width="0.3" stroke-miterlimit="10" d="M93.4,126.4c-1.1,1.9-1.3,15.1-0.1,17.1
			c0.1,0.1,6.3,0.8,9.7,0.4c0.6-0.1,1.4-0.6,1.7-1.6c1.2-3.4,0.7-11.2-0.4-14.9c-0.4-1.4-1.7-1.2-2.2-1.3
			C99.5,125.6,93.8,125.8,93.4,126.4z"/>
		<path fill="#EAF6FE" stroke="#CBD3D7" stroke-width="0.3" stroke-miterlimit="10" d="M93.3,147.2c-1.4,3.8-1,16.4-0.3,17.1
			c0.3,0.3,6.4,1,9.2,0.4c0.4-0.1,0.8-0.3,1-0.5c1.1-1.6,2-16.4,1.8-16.6c-0.2-0.2-1.4-0.1-2-0.4C101.4,146.6,93.5,146.6,93.3,147.2
			z"/>
		<g>
			<path fill="#EAF6FE" stroke="#CBD3D7" stroke-width="0.3" stroke-miterlimit="10" d="M113.4,165.2c0,0,1.6-17.5,1.6-19.6
				c0-2.3-1.6-19.6-1.6-19.6c0-1.7,2.8-3,1.1-3h-9.2c-1.7,0-3,1.3-3,3c0,0,0.9,16.9,0.9,19.5c0,2.6-0.9,19.8-0.9,19.8
				c0,1.7,1.3,3,3,3h9.2C116.2,168.2,113.4,166.8,113.4,165.2z"/>
			<path fill="#EAF6FE" stroke="#CBD3D7" stroke-width="0.3" stroke-linecap="round" stroke-miterlimit="10" d="M104.7,129.4
				c0.3-2.1,3.1-6.3,3.9-6.5"/>
			<path fill="#EAF6FE" stroke="#CBD3D7" stroke-width="0.3" stroke-linecap="round" stroke-miterlimit="10" d="M105.6,150.7
				c0.1-0.4,4.5-9.5,6.7-8.5c0.8,0.4,0.3,1.8-0.1,2.5"/>
			<path fill="#EAF6FE" stroke="#CBD3D7" stroke-width="0.3" stroke-linecap="round" stroke-miterlimit="10" d="M103.7,165.5
				c1.3-1.3,4.8-6.6,7.6-14"/>
		</g>
		<g>
			<g>
				<g opacity="5.000000e-002">
					<path fill="#707E85" d="M89.9,177v8.6c0,0.6,0.4,1,1,1h7.6c0.6,0,1-0.4,1-1V177c0-0.6-0.4-1-1-1h-7.6
						C90.3,176,89.9,176.5,89.9,177z"/>
					<path fill="none" stroke="#707E85" stroke-width="0.3" stroke-miterlimit="10" d="M89.9,177v8.6c0,0.6,0.4,1,1,1h7.6
						c0.6,0,1-0.4,1-1V177c0-0.6-0.4-1-1-1h-7.6C90.3,176,89.9,176.5,89.9,177z"/>
				</g>
				<g>
					<path fill="#EAF6FE" d="M86.9,174v8.6c0,0.6,0.4,1,1,1h7.6c0.6,0,1-0.4,1-1V174c0-0.6-0.4-1-1-1h-7.6
						C87.3,173,86.9,173.5,86.9,174z"/>
					<path fill="none" stroke="#CBD3D7" stroke-width="0.3" stroke-miterlimit="10" d="M86.9,174v8.6c0,0.6,0.4,1,1,1h7.6
						c0.6,0,1-0.4,1-1V174c0-0.6-0.4-1-1-1h-7.6C87.3,173,86.9,173.5,86.9,174z"/>
				</g>
			</g>
			<path fill="#EAF6FE" stroke="#CBD3D7" stroke-width="0.3" stroke-miterlimit="10" d="M94,179.4l-1.3-3.5
				c-0.2-0.5-0.8-0.8-1.3-0.6l-1.3,0.5c-0.5,0.2-0.8,0.8-0.6,1.3l1.3,3.5c0.2,0.5,0.8,0.8,1.3,0.6l1.3-0.5
				C93.9,180.5,94.2,179.9,94,179.4z"/>
			<circle fill="#EAF6FE" stroke="#CBD3D7" stroke-width="0.3" stroke-miterlimit="10" cx="91.7" cy="178.2" r="0.5"/>
		</g>
		<g>
			<g>
				<g opacity="5.000000e-002">
					<path fill="#707E85" d="M99.5,119.9v-8.6c0-0.6-0.4-1-1-1h-7.6c-0.6,0-1,0.4-1,1v8.6c0,0.6,0.4,1,1,1h7.6
						C99.1,120.9,99.5,120.4,99.5,119.9z"/>
					<path fill="none" stroke="#707E85" stroke-width="0.3" stroke-miterlimit="10" d="M99.5,119.9v-8.6c0-0.6-0.4-1-1-1h-7.6
						c-0.6,0-1,0.4-1,1v8.6c0,0.6,0.4,1,1,1h7.6C99.1,120.9,99.5,120.4,99.5,119.9z"/>
				</g>
				<g>
					<path fill="#EAF6FE" d="M96.5,116.9v-8.6c0-0.6-0.4-1-1-1h-7.6c-0.6,0-1,0.4-1,1v8.6c0,0.6,0.4,1,1,1h7.6
						C96.1,117.9,96.5,117.4,96.5,116.9z"/>
					<path fill="none" stroke="#CBD3D7" stroke-width="0.3" stroke-miterlimit="10" d="M96.5,116.9v-8.6c0-0.6-0.4-1-1-1h-7.6
						c-0.6,0-1,0.4-1,1v8.6c0,0.6,0.4,1,1,1h7.6C96.1,117.9,96.5,117.4,96.5,116.9z"/>
				</g>
			</g>
			<path fill="#EAF6FE" stroke="#CBD3D7" stroke-width="0.3" stroke-miterlimit="10" d="M92.3,110.2v-0.4c0-0.1-0.1-0.2-0.2-0.2
				h-5.2v0.8h5.2C92.2,110.5,92.3,110.4,92.3,110.2z"/>
			<path fill="#EAF6FE" stroke="#CBD3D7" stroke-width="0.3" stroke-miterlimit="10" d="M91.5,111.9v-0.4c0-0.1-0.1-0.2-0.2-0.2
				h-4.4v0.8h4.4C91.4,112.2,91.5,112.1,91.5,111.9z"/>
			<path fill="#EAF6FE" stroke="#CBD3D7" stroke-width="0.3" stroke-miterlimit="10" d="M92.8,111.1v-0.4c0-0.1-0.1-0.2-0.2-0.2
				h-5.7v0.8h5.7C92.7,111.3,92.8,111.2,92.8,111.1z"/>
		</g>
	</g>
	<g>
		<g>
			<g opacity="5.000000e-002">
				<path fill="#707E85" d="M90.9,214h56.2c0.6,0,1-0.4,1-1v-15.6c0-0.6-0.4-1-1-1H90.9c-0.6,0-1,0.4-1,1V213
					C89.9,213.6,90.3,214,90.9,214z"/>
				<path fill="none" stroke="#707E85" stroke-width="0.3" stroke-miterlimit="10" d="M90.9,214h56.2c0.6,0,1-0.4,1-1v-15.6
					c0-0.6-0.4-1-1-1H90.9c-0.6,0-1,0.4-1,1V213C89.9,213.6,90.3,214,90.9,214z"/>
			</g>
			<g>
				<path fill="#EAF6FE" d="M87.9,211h56.2c0.6,0,1-0.4,1-1v-15.6c0-0.6-0.4-1-1-1H87.9c-0.6,0-1,0.4-1,1V210
					C86.9,210.6,87.3,211,87.9,211z"/>
				<path fill="none" stroke="#CBD3D7" stroke-width="0.3" stroke-miterlimit="10" d="M87.9,211h56.2c0.6,0,1-0.4,1-1v-15.6
					c0-0.6-0.4-1-1-1H87.9c-0.6,0-1,0.4-1,1V210C86.9,210.6,87.3,211,87.9,211z"/>
			</g>
		</g>
		<line fill="#EAF6FE" stroke="#CBD3D7" stroke-width="0.3" stroke-miterlimit="10" x1="145.1" y1="195.7" x2="86.9" y2="195.7"/>
		<line fill="#EAF6FE" stroke="#CBD3D7" stroke-width="0.3" stroke-miterlimit="10" x1="116" y1="195.7" x2="116" y2="193.4"/>
		<polyline fill="none" stroke="#CBD3D7" stroke-width="0.3" stroke-miterlimit="10" points="122.3,193.4 122.3,192.1 120.1,192.1 
			120.1,193.4 		"/>
		<polyline fill="none" stroke="#CBD3D7" stroke-width="0.3" stroke-miterlimit="10" points="111.8,193.4 111.8,192.1 109.6,192.1 
			109.6,193.4 		"/>
	</g>
	<g>
		<g>
			<g opacity="0.2">
				<path fill="#708793" d="M149.1,266.5c0,1-0.1,6.5-0.2,7.5c-0.1,0.8-0.2,1.5-0.3,2.3h-10.7c-0.1-0.6-0.2-1.3-0.3-1.9
					c-0.1-1.1-0.1-7.5-0.1-8.6c0-2.5,2-7.6,5.8-7.6C147.1,258.1,149.1,263.6,149.1,266.5z"/>
				<path fill="none" stroke="#708793" stroke-width="0.3" stroke-miterlimit="10" d="M149.1,266.5c0,1-0.1,6.5-0.2,7.5
					c-0.1,0.8-0.2,1.5-0.3,2.3h-10.7c-0.1-0.6-0.2-1.3-0.3-1.9c-0.1-1.1-0.1-7.5-0.1-8.6c0-2.5,2-7.6,5.8-7.6
					C147.1,258.1,149.1,263.6,149.1,266.5z"/>
			</g>
			<g>
				<path fill="#FFFFFF" d="M146.1,263.5c0,1-0.1,6.5-0.2,7.5c-0.1,0.8-0.2,1.5-0.3,2.3h-10.7c-0.1-0.6-0.2-1.3-0.3-1.9
					c-0.1-1.1-0.1-7.5-0.1-8.6c0-2.5,2-7.6,5.8-7.6C144.1,255.1,146.1,260.6,146.1,263.5z"/>
				<path fill="none" stroke="#707E85" stroke-width="0.3" stroke-miterlimit="10" d="M146.1,263.5c0,1-0.1,6.5-0.2,7.5
					c-0.1,0.8-0.2,1.5-0.3,2.3h-10.7c-0.1-0.6-0.2-1.3-0.3-1.9c-0.1-1.1-0.1-7.5-0.1-8.6c0-2.5,2-7.6,5.8-7.6
					C144.1,255.1,146.1,260.6,146.1,263.5z"/>
			</g>
		</g>
		<g>
			<circle fill="#FFFFFF" stroke="#707E85" stroke-width="0.3" stroke-miterlimit="10" cx="142.8" cy="270.7" r="0.4"/>
			<circle fill="#FFFFFF" stroke="#707E85" stroke-width="0.3" stroke-miterlimit="10" cx="137.7" cy="270.7" r="0.4"/>
		</g>
		<path fill="#FFFFFF" stroke="#707E85" stroke-width="0.3" stroke-miterlimit="10" d="M140.3,256.6c-2.5,0-4.5,3.7-4.5,6.2
			s2,4.5,4.5,4.5c2.5,0,4.5-2,4.5-4.5S142.7,256.6,140.3,256.6z"/>
		<path fill="#FFFFFF" stroke="#707E85" stroke-width="0.3" stroke-miterlimit="10" d="M141.8,263.9v1.7c0,0.5-0.7,0.5-1.5,0.5
			s-1.5-0.1-1.5-0.5v-1.7c0-0.8,0.7-1.5,1.5-1.5S141.8,263,141.8,263.9z"/>
		<path fill="none" stroke="#707E85" stroke-width="0.3" stroke-miterlimit="10" d="M145.9,270.7c-1.4,0.9-3.6,1.4-5.9,1.4
			c-2.1,0-3.9-0.4-5.3-1.1"/>
	</g>
	<g>
		<path fill="#FFFFFF" stroke="#707E85" stroke-width="0.3" stroke-miterlimit="10" d="M114.6,272.6V248c0-0.4-0.3-0.7-0.7-0.7H86.3
			c-0.4,0-0.7,0.3-0.7,0.7v24.7c0,0.4,0.3,0.7,0.7,0.7h27.7C114.3,273.3,114.6,273,114.6,272.6z"/>
		<path fill="#FFFFFF" stroke="#707E85" stroke-width="0.3" stroke-miterlimit="10" d="M112.8,269.6v-18.4c0-1.1-0.9-2-2-2H89.5
			c-1.1,0-2,0.9-2,2v18.4c0,1.1,0.9,2,2,2h21.3C111.9,271.6,112.8,270.7,112.8,269.6z"/>
		<path fill="#FFFFFF" stroke="#707E85" stroke-width="0.3" stroke-miterlimit="10" d="M111.2,268.1v-15.3c0-1.1-0.9-2-2-2H91
			c-1.1,0-2,0.9-2,2v15.3c0,1.1,0.9,2,2,2h18.2C110.3,270.1,111.2,269.2,111.2,268.1z"/>
		<circle fill="#FFFFFF" stroke="#707E85" stroke-width="0.3" stroke-miterlimit="10" cx="93.5" cy="265.3" r="1.7"/>
	</g>
	<g>
		<g>
			<g opacity="0.2">
				<path fill="#708793" d="M100.6,224.2h-12v19.5h12c2.2,0,4-1.8,4-4v-11.4C104.6,226,102.8,224.2,100.6,224.2z"/>
				<path fill="none" stroke="#708793" stroke-width="0.3" stroke-miterlimit="10" d="M100.6,224.2h-12v19.5h12c2.2,0,4-1.8,4-4
					v-11.4C104.6,226,102.8,224.2,100.6,224.2z"/>
			</g>
			<g>
				<path fill="#FFFFFF" d="M97.6,221.2h-12v19.5h12c2.2,0,4-1.8,4-4v-11.4C101.6,223,99.8,221.2,97.6,221.2z"/>
				<path fill="none" stroke="#707E85" stroke-width="0.3" stroke-miterlimit="10" d="M97.6,221.2h-12v19.5h12c2.2,0,4-1.8,4-4
					v-11.4C101.6,223,99.8,221.2,97.6,221.2z"/>
			</g>
		</g>
		<path fill="#FFFFFF" stroke="#707E85" stroke-width="0.3" stroke-miterlimit="10" d="M97.5,223h-5.4c-1.4,0-2.6,1.1-2.6,2.6v10.9
			c0,1.4,1.1,2.6,2.6,2.6h5.4c1.4,0,2.6-1.1,2.6-2.6v-10.9C100,224.1,98.9,223,97.5,223z"/>
		<circle fill="#FFFFFF" stroke="#707E85" stroke-width="0.3" stroke-miterlimit="10" cx="91.6" cy="231" r="0.9"/>
	</g>
	<line fill="none" stroke="#707E85" stroke-width="0.3" stroke-miterlimit="10" x1="234.9" y1="267.3" x2="254.2" y2="267.3"/>
	<g>
		
			<polyline fill="none" stroke="#000000" stroke-width="0.12" stroke-linecap="square" stroke-linejoin="bevel" stroke-miterlimit="10" points="
			247.6,279.4 246.6,279.4 246.6,280.3 		"/>
		
			<polyline fill="none" stroke="#000000" stroke-width="0.12" stroke-linecap="square" stroke-linejoin="bevel" stroke-miterlimit="10" points="
			242.7,274.5 242.7,275.3 241.8,275.3 		"/>
		
			<line fill="none" stroke="#000000" stroke-width="0.12" stroke-linecap="square" stroke-linejoin="bevel" stroke-miterlimit="10" x1="242.1" y1="274.8" x2="247.2" y2="280"/>
		
			<polyline fill="none" stroke="#000000" stroke-width="0.12" stroke-linecap="square" stroke-linejoin="bevel" stroke-miterlimit="10" points="
			242.7,280.3 242.7,279.4 241.8,279.4 		"/>
		
			<polyline fill="none" stroke="#000000" stroke-width="0.12" stroke-linecap="square" stroke-linejoin="bevel" stroke-miterlimit="10" points="
			247.6,275.3 246.6,275.3 246.6,274.5 		"/>
		
			<line fill="none" stroke="#000000" stroke-width="0.12" stroke-linecap="square" stroke-linejoin="bevel" stroke-miterlimit="10" x1="247.2" y1="274.8" x2="242.1" y2="280"/>
		
			<polyline fill="none" stroke="#000000" stroke-width="0.12" stroke-linecap="square" stroke-linejoin="bevel" stroke-miterlimit="10" points="
			245.3,280.9 244.7,280.3 244.1,280.9 		"/>
		
			<polyline fill="none" stroke="#000000" stroke-width="0.12" stroke-linecap="square" stroke-linejoin="bevel" stroke-miterlimit="10" points="
			245.3,273.9 244.7,274.5 244.1,273.9 		"/>
		
			<polyline fill="none" stroke="#000000" stroke-width="0.12" stroke-linecap="square" stroke-linejoin="bevel" stroke-miterlimit="10" points="
			241.2,278 241.8,277.4 241.2,276.8 		"/>
		
			<polyline fill="none" stroke="#000000" stroke-width="0.12" stroke-linecap="square" stroke-linejoin="bevel" stroke-miterlimit="10" points="
			248,278 247.4,277.4 248,276.8 		"/>
		
			<line fill="none" stroke="#000000" stroke-width="0.12" stroke-linecap="square" stroke-linejoin="bevel" stroke-miterlimit="10" x1="244.7" y1="273.7" x2="244.7" y2="281.1"/>
		
			<line fill="none" stroke="#000000" stroke-width="0.12" stroke-linecap="square" stroke-linejoin="bevel" stroke-miterlimit="10" x1="248.3" y1="277.4" x2="241" y2="277.4"/>
		<polyline fill="none" stroke="#707E85" stroke-width="0.3" stroke-miterlimit="10" points="247.6,279.4 246.6,279.4 246.6,280.3 
					"/>
		<polyline fill="none" stroke="#707E85" stroke-width="0.3" stroke-miterlimit="10" points="242.7,274.5 242.7,275.3 241.8,275.3 
					"/>
		<line fill="none" stroke="#707E85" stroke-width="0.3" stroke-miterlimit="10" x1="242.1" y1="274.8" x2="247.2" y2="280"/>
		<polyline fill="none" stroke="#707E85" stroke-width="0.3" stroke-miterlimit="10" points="242.7,280.3 242.7,279.4 241.8,279.4 
					"/>
		<polyline fill="none" stroke="#707E85" stroke-width="0.3" stroke-miterlimit="10" points="247.6,275.3 246.6,275.3 246.6,274.5 
					"/>
		<line fill="none" stroke="#707E85" stroke-width="0.3" stroke-miterlimit="10" x1="247.2" y1="274.8" x2="242.1" y2="280"/>
		<polyline fill="none" stroke="#707E85" stroke-width="0.3" stroke-miterlimit="10" points="245.3,280.9 244.7,280.3 244.1,280.9 
					"/>
		<polyline fill="none" stroke="#707E85" stroke-width="0.3" stroke-miterlimit="10" points="245.3,273.9 244.7,274.5 244.1,273.9 
					"/>
		<polyline fill="none" stroke="#707E85" stroke-width="0.3" stroke-miterlimit="10" points="241.2,278 241.8,277.4 241.2,276.8 		
			"/>
		<polyline fill="none" stroke="#707E85" stroke-width="0.3" stroke-miterlimit="10" points="248,278 247.4,277.4 248,276.8 		"/>
		<line fill="none" stroke="#707E85" stroke-width="0.3" stroke-miterlimit="10" x1="244.7" y1="273.7" x2="244.7" y2="281.1"/>
		<line fill="none" stroke="#707E85" stroke-width="0.3" stroke-miterlimit="10" x1="248.3" y1="277.4" x2="241" y2="277.4"/>
	</g>
	<g>
		<g>
			<g opacity="5.000000e-002">
				<path fill="#707E85" d="M254,429.6v-55.7c0-0.6-0.4-1.1-1-1.1h-12.4c-0.6,0-1,0.5-1,1.1v55.7c0,0.6,0.4,1.1,1,1.1H253
					C253.6,430.7,254,430.2,254,429.6z"/>
				<path fill="none" stroke="#707E85" stroke-width="0.3" stroke-miterlimit="10" d="M254,429.6v-55.7c0-0.6-0.4-1.1-1-1.1h-12.4
					c-0.6,0-1,0.5-1,1.1v55.7c0,0.6,0.4,1.1,1,1.1H253C253.6,430.7,254,430.2,254,429.6z"/>
			</g>
			<g>
				<path fill="#EAF6FE" d="M251,426.6v-55.7c0-0.6-0.4-1.1-1-1.1h-12.4c-0.6,0-1,0.5-1,1.1v55.7c0,0.6,0.4,1.1,1,1.1H250
					C250.6,427.7,251,427.2,251,426.6z"/>
				<path fill="none" stroke="#CBD3D7" stroke-width="0.3" stroke-miterlimit="10" d="M251,426.6v-55.7c0-0.6-0.4-1.1-1-1.1h-12.4
					c-0.6,0-1,0.5-1,1.1v55.7c0,0.6,0.4,1.1,1,1.1H250C250.6,427.7,251,427.2,251,426.6z"/>
			</g>
		</g>
		<path fill="#EAF6FE" stroke="#CBD3D7" stroke-width="0.3" stroke-miterlimit="10" d="M244,391.2h-4.8c-0.6,0-1,0.4-1,1v13.1
			c0,0.6,0.4,1,1,1h4.8c0.6,0,1-0.4,1-1v-13.1C245,391.6,244.5,391.2,244,391.2z"/>
		<path fill="#EAF6FE" stroke="#CBD3D7" stroke-width="0.2953" stroke-miterlimit="10" d="M238.8,392.5v12.6c0,0.3,0.3,0.6,0.6,0.6
			h4.5c0.3,0,0.6-0.3,0.6-0.6v-12.6c0-0.3-0.3-0.6-0.6-0.6h-4.5C239,391.9,238.8,392.1,238.8,392.5z"/>
		
			<rect x="241.6" y="375.5" fill="#EAF6FE" stroke="#CBD3D7" stroke-width="0.3" stroke-miterlimit="10" width="1.4" height="46.5"/>
	</g>
	<g>
		<g>
			<g opacity="5.000000e-002">
				<path fill="#707E85" d="M378.7,374.6v54.3c0,2.8-2.3,5.1-5.1,5.1h-20.4c-0.6,0-1.1-0.5-1.1-1.1v-0.2c0-0.6,0.5-1.1,1.1-1.1h0.7
					c-0.7,0-1.3-0.6-1.3-1.3v-17.2c0-0.7,0.6-1.3,1.3-1.3c-0.7,0-1.3-0.6-1.3-1.3v-17.2c0-0.7,0.6-1.3,1.3-1.3
					c-0.7,0-1.3-0.6-1.3-1.3v-17.2c0-0.7,0.5-1.2,1.2-1.3h-0.6c-0.6,0-1.1-0.5-1.1-1.1v-0.2c0-0.6,0.5-1.1,1.1-1.1h20.4
					C376.4,369.5,378.7,371.8,378.7,374.6z"/>
				<path fill="none" stroke="#707E85" stroke-width="0.3" stroke-miterlimit="10" d="M378.7,374.6v54.3c0,2.8-2.3,5.1-5.1,5.1
					h-20.4c-0.6,0-1.1-0.5-1.1-1.1v-0.2c0-0.6,0.5-1.1,1.1-1.1h0.7c-0.7,0-1.3-0.6-1.3-1.3v-17.2c0-0.7,0.6-1.3,1.3-1.3
					c-0.7,0-1.3-0.6-1.3-1.3v-17.2c0-0.7,0.6-1.3,1.3-1.3c-0.7,0-1.3-0.6-1.3-1.3v-17.2c0-0.7,0.5-1.2,1.2-1.3h-0.6
					c-0.6,0-1.1-0.5-1.1-1.1v-0.2c0-0.6,0.5-1.1,1.1-1.1h20.4C376.4,369.5,378.7,371.8,378.7,374.6z"/>
			</g>
			<g>
				<path fill="#EAF6FE" d="M375.7,371.6v54.3c0,2.8-2.3,5.1-5.1,5.1h-20.4c-0.6,0-1.1-0.5-1.1-1.1v-0.2c0-0.6,0.5-1.1,1.1-1.1h0.7
					c-0.7,0-1.3-0.6-1.3-1.3v-17.2c0-0.7,0.6-1.3,1.3-1.3c-0.7,0-1.3-0.6-1.3-1.3v-17.2c0-0.7,0.6-1.3,1.3-1.3
					c-0.7,0-1.3-0.6-1.3-1.3v-17.2c0-0.7,0.5-1.2,1.2-1.3h-0.6c-0.6,0-1.1-0.5-1.1-1.1v-0.2c0-0.6,0.5-1.1,1.1-1.1h20.4
					C373.4,366.5,375.7,368.8,375.7,371.6z"/>
				<path fill="none" stroke="#CBD3D7" stroke-width="0.3" stroke-miterlimit="10" d="M375.7,371.6v54.3c0,2.8-2.3,5.1-5.1,5.1
					h-20.4c-0.6,0-1.1-0.5-1.1-1.1v-0.2c0-0.6,0.5-1.1,1.1-1.1h0.7c-0.7,0-1.3-0.6-1.3-1.3v-17.2c0-0.7,0.6-1.3,1.3-1.3
					c-0.7,0-1.3-0.6-1.3-1.3v-17.2c0-0.7,0.6-1.3,1.3-1.3c-0.7,0-1.3-0.6-1.3-1.3v-17.2c0-0.7,0.5-1.2,1.2-1.3h-0.6
					c-0.6,0-1.1-0.5-1.1-1.1v-0.2c0-0.6,0.5-1.1,1.1-1.1h20.4C373.4,366.5,375.7,368.8,375.7,371.6z"/>
			</g>
		</g>
		<g>
			<path fill="#EAF6FE" stroke="#CBD3D7" stroke-width="0.3033" stroke-miterlimit="10" d="M375.7,371.6v54.3c0,2.8-2.3,5.1-5.1,5.1
				h-20.4c-0.6,0-1.1-0.5-1.1-1.1v-0.2c0-0.6,0.5-1.1,1.1-1.1h17.5V369h-17.5c-0.6,0-1.1-0.5-1.1-1.1v-0.2c0-0.6,0.5-1.1,1.1-1.1
				h20.4C373.4,366.5,375.7,368.8,375.7,371.6z"/>
			<g>
				<g>
					<path fill="#EAF6FE" stroke="#CBD3D7" stroke-width="0.3" stroke-miterlimit="10" d="M365.7,426.8c0.5-5.5,0.5-11,0-16.4
						c-0.1-1.2,0.7-2.3,2-2.5c0.9-0.1,1.8-0.2,2.7-0.3c1.2-0.2,2.3,0.8,2.5,2.1c0.6,5.9,0.6,11.9,0,17.8c-0.1,1.3-1.3,2.3-2.5,2.1
						c-0.9-0.1-1.8-0.2-2.7-0.3C366.4,429.1,365.6,428,365.7,426.8z"/>
					
						<path fill="#EAF6FE" stroke="#CBD3D7" stroke-width="0.3" stroke-linecap="round" stroke-linejoin="round" stroke-miterlimit="10" d="
						M367.5,427.2c0.6-0.1,0.6-17.2,0-17.4"/>
				</g>
			</g>
			<g>
				<g>
					<path fill="#EAF6FE" stroke="#CBD3D7" stroke-width="0.3" stroke-miterlimit="10" d="M365.7,387.1c0.5-5.5,0.5-11,0-16.4
						c-0.1-1.2,0.7-2.3,2-2.5c0.9-0.1,1.8-0.2,2.7-0.3c1.2-0.2,2.3,0.8,2.5,2.1c0.6,5.9,0.6,11.9,0,17.8c-0.1,1.3-1.3,2.3-2.5,2.1
						c-0.9-0.1-1.8-0.2-2.7-0.3C366.4,389.4,365.6,388.3,365.7,387.1z"/>
					
						<path fill="#EAF6FE" stroke="#CBD3D7" stroke-width="0.3" stroke-linecap="round" stroke-linejoin="round" stroke-miterlimit="10" d="
						M367.5,387.6c0.6-0.1,0.6-17.2,0-17.4"/>
				</g>
			</g>
			<g>
				
					<line fill="#EAF6FE" stroke="#CBD3D7" stroke-width="0.3" stroke-miterlimit="10" x1="368.7" y1="408.6" x2="350.9" y2="408.6"/>
				
					<line fill="#EAF6FE" stroke="#CBD3D7" stroke-width="0.3" stroke-miterlimit="10" x1="350.9" y1="388.8" x2="368.7" y2="388.8"/>
				<g>
					<path fill="#EAF6FE" stroke="#CBD3D7" stroke-width="0.3" stroke-miterlimit="10" d="M365.7,406.9c0.5-5.5,0.5-11,0-16.4
						c-0.1-1.2,0.7-2.3,2-2.5c0.9-0.1,1.8-0.2,2.7-0.3c1.2-0.2,2.3,0.8,2.5,2.1c0.6,5.9,0.6,11.9,0,17.8c-0.1,1.3-1.3,2.3-2.5,2.1
						c-0.9-0.1-1.8-0.2-2.7-0.3C366.4,409.3,365.6,408.1,365.7,406.9z"/>
					
						<path fill="#EAF6FE" stroke="#CBD3D7" stroke-width="0.3" stroke-linecap="round" stroke-linejoin="round" stroke-miterlimit="10" d="
						M367.5,407.4c0.6-0.1,0.6-17.2,0-17.4"/>
				</g>
			</g>
			<path fill="#EAF6FE" stroke="#CBD3D7" stroke-width="0.3" stroke-miterlimit="10" d="M370.4,427.6c-0.5-0.8-3.6-3.6-3.9-3.8
				c0-1.5-0.8-4.2-1.3-4.6c-0.4,0.2-0.3,0.4-0.9,0.7c-0.7,0.2-4.7,1.2-6.7,2.9c1,1.1,1.6,6.7,3.2,8.2c0.4,0.9,0.6,1.6,1.3,2.3
				c0.5-0.2,2.3-2.3,2.5-3.2C365.6,429.6,369.6,428.8,370.4,427.6z"/>
			<path fill="#EAF6FE" stroke="#CBD3D7" stroke-width="0.3" stroke-miterlimit="10" d="M371.1,372.7c-0.6-0.8-7-5.5-7.5-5.8
				c-1.5,0.4-3.7,3.4-4.2,4.2c-1,0.3-2.1,0.9-2.6,1.5c0.4,0.4,1.3,1.2,1.8,1.5c0.3,0.5,2.9,3.6,4.9,4.2c0.5,0.4,1,1,1.3,1
				c0.5-0.7,0.9-1.6,0.9-2C366.2,376.8,371,373.5,371.1,372.7z"/>
		</g>
	</g>
	<g>
		<g>
			<g opacity="5.000000e-002">
				<path fill="#707E85" d="M320.6,438.7c0-0.6,0.5-1.2,1.2-1.2h0.2c0.6,0,1.2,0.5,1.2,1.2v20.7c0,2.8-2.3,5.1-5.1,5.1h-35
					c-2.8,0-5.1-2.3-5.1-5.1v-20.7c0-0.6,0.5-1.2,1.2-1.2h0.2c0.6,0,1.2,0.5,1.2,1.2v0.7c0-0.7,0.6-1.3,1.3-1.3h17.5
					c0.7,0,1.3,0.6,1.3,1.3c0-0.7,0.6-1.3,1.3-1.3h17.5c0.7,0,1.3,0.6,1.3,1.3V438.7z"/>
				<path fill="none" stroke="#707E85" stroke-width="0.3" stroke-miterlimit="10" d="M320.6,438.7c0-0.6,0.5-1.2,1.2-1.2h0.2
					c0.6,0,1.2,0.5,1.2,1.2v20.7c0,2.8-2.3,5.1-5.1,5.1h-35c-2.8,0-5.1-2.3-5.1-5.1v-20.7c0-0.6,0.5-1.2,1.2-1.2h0.2
					c0.6,0,1.2,0.5,1.2,1.2v0.7c0-0.7,0.6-1.3,1.3-1.3h17.5c0.7,0,1.3,0.6,1.3,1.3c0-0.7,0.6-1.3,1.3-1.3h17.5
					c0.7,0,1.3,0.6,1.3,1.3V438.7z"/>
			</g>
			<g>
				<path fill="#EAF6FE" d="M317.6,435.7c0-0.6,0.5-1.2,1.2-1.2h0.2c0.6,0,1.2,0.5,1.2,1.2v20.7c0,2.8-2.3,5.1-5.1,5.1h-35
					c-2.8,0-5.1-2.3-5.1-5.1v-20.7c0-0.6,0.5-1.2,1.2-1.2h0.2c0.6,0,1.2,0.5,1.2,1.2v0.7c0-0.7,0.6-1.3,1.3-1.3h17.5
					c0.7,0,1.3,0.6,1.3,1.3c0-0.7,0.6-1.3,1.3-1.3h17.5c0.7,0,1.3,0.6,1.3,1.3V435.7z"/>
				<path fill="none" stroke="#CBD3D7" stroke-width="0.3" stroke-miterlimit="10" d="M317.6,435.7c0-0.6,0.5-1.2,1.2-1.2h0.2
					c0.6,0,1.2,0.5,1.2,1.2v20.7c0,2.8-2.3,5.1-5.1,5.1h-35c-2.8,0-5.1-2.3-5.1-5.1v-20.7c0-0.6,0.5-1.2,1.2-1.2h0.2
					c0.6,0,1.2,0.5,1.2,1.2v0.7c0-0.7,0.6-1.3,1.3-1.3h17.5c0.7,0,1.3,0.6,1.3,1.3c0-0.7,0.6-1.3,1.3-1.3h17.5
					c0.7,0,1.3,0.6,1.3,1.3V435.7z"/>
			</g>
		</g>
		<g>
			<path fill="#EAF6FE" stroke="#CBD3D7" stroke-width="0.3033" stroke-miterlimit="10" d="M315,461.5h-35c-2.8,0-5.1-2.3-5.1-5.1
				v-20.7c0-0.6,0.5-1.2,1.2-1.2h0.2c0.6,0,1.2,0.5,1.2,1.2v17.8h40.3v-17.8c0-0.6,0.5-1.2,1.2-1.2h0.2c0.6,0,1.2,0.5,1.2,1.2v20.7
				C320.1,459.2,317.8,461.5,315,461.5z"/>
			<g>
				<g>
					<path fill="#EAF6FE" stroke="#CBD3D7" stroke-width="0.3" stroke-miterlimit="10" d="M279.1,451.4c5.6,0.5,11.1,0.5,16.7,0
						c1.2-0.1,2.4,0.8,2.5,2c0.1,0.9,0.2,1.8,0.3,2.7c0.2,1.2-0.8,2.4-2.2,2.5c-6,0.6-12.1,0.6-18.1,0c-1.4-0.1-2.3-1.3-2.2-2.5
						c0.1-0.9,0.2-1.8,0.3-2.7C276.7,452.1,277.8,451.2,279.1,451.4z"/>
					
						<path fill="#EAF6FE" stroke="#CBD3D7" stroke-width="0.3" stroke-linecap="round" stroke-linejoin="round" stroke-miterlimit="10" d="
						M278.6,453.2c0.1,0.6,17.5,0.6,17.6,0"/>
				</g>
			</g>
			<g>
				
					<line fill="#EAF6FE" stroke="#CBD3D7" stroke-width="0.3" stroke-miterlimit="10" x1="297.5" y1="454.4" x2="297.5" y2="436.4"/>
				<g>
					<path fill="#EAF6FE" stroke="#CBD3D7" stroke-width="0.3" stroke-miterlimit="10" d="M299.2,451.4c5.6,0.5,11.1,0.5,16.7,0
						c1.2-0.1,2.4,0.8,2.5,2c0.1,0.9,0.2,1.8,0.3,2.7c0.2,1.2-0.8,2.4-2.2,2.5c-6,0.6-12.1,0.6-18.1,0c-1.4-0.1-2.3-1.3-2.2-2.5
						c0.1-0.9,0.2-1.8,0.3-2.7C296.8,452.1,298,451.2,299.2,451.4z"/>
					
						<path fill="#EAF6FE" stroke="#CBD3D7" stroke-width="0.3" stroke-linecap="round" stroke-linejoin="round" stroke-miterlimit="10" d="
						M298.7,453.2c0.1,0.6,17.5,0.6,17.6,0"/>
				</g>
			</g>
			<g>
				<g>
					<path fill="#EAF6FE" stroke="#CBD3D7" stroke-width="0.3" stroke-miterlimit="10" d="M299.2,451.4c5.6,0.5,11.1,0.5,16.7,0
						c1.2-0.1,2.4,0.8,2.5,2c0.1,0.9,0.2,1.8,0.3,2.7c0.2,1.2-0.8,2.4-2.2,2.5c-6,0.6-12.1,0.6-18.1,0c-1.4-0.1-2.3-1.3-2.2-2.5
						c0.1-0.9,0.2-1.8,0.3-2.7C296.8,452.1,298,451.2,299.2,451.4z"/>
					
						<path fill="#EAF6FE" stroke="#CBD3D7" stroke-width="0.3" stroke-linecap="round" stroke-linejoin="round" stroke-miterlimit="10" d="
						M298.7,453.2c0.1,0.6,17.5,0.6,17.6,0"/>
				</g>
			</g>
			<path fill="#EAF6FE" stroke="#CBD3D7" stroke-width="0.3" stroke-miterlimit="10" d="M278.1,456.1c0.8-0.5,3.7-3.7,3.9-3.9
				c1.5,0,4.2-0.8,4.6-1.4c-0.2-0.4-0.4-0.3-0.7-0.9c-0.2-0.8-1.2-4.8-2.9-6.8c-1.1,1-6.8,1.6-8.3,3.3c-0.9,0.4-1.6,0.6-2.3,1.3
				c0.2,0.5,2.4,2.3,3.3,2.5C276.2,451.3,277,455.4,278.1,456.1z"/>
			<path fill="#EAF6FE" stroke="#CBD3D7" stroke-width="0.3" stroke-miterlimit="10" d="M313.8,456.9c0.8-0.6,5.5-7.1,5.8-7.6
				c-0.4-1.5-3.4-3.7-4.3-4.2c-0.3-1-0.9-2.2-1.6-2.7c-0.4,0.4-1.2,1.3-1.5,1.8c-0.5,0.3-3.6,2.9-4.3,5c-0.4,0.5-1,1-1,1.3
				c0.7,0.6,1.6,0.9,2.1,0.9C309.6,451.9,313,456.8,313.8,456.9z"/>
		</g>
	</g>
	<g>
		<g>
			<g opacity="5.000000e-002">
				<path fill="#707E85" d="M303.1,365.9c0,0.6-0.5,1.1-1.1,1.1h-0.2c-0.6,0-1.1-0.5-1.1-1.1v-20.1c0-2.8,2.2-5,5-5h14.4
					c2.8,0,5,2.2,5,5v20.1c0,0.6-0.5,1.1-1.1,1.1h-0.2c-0.6,0-1.1-0.5-1.1-1.1l0-0.7c0,0.7-0.6,1.3-1.3,1.3h-17
					c-0.7,0-1.3-0.6-1.3-1.3L303.1,365.9z"/>
				
					<path fill="none" stroke="#707E85" stroke-width="0.3" stroke-linecap="round" stroke-linejoin="round" stroke-miterlimit="10" d="
					M303.1,365.9c0,0.6-0.5,1.1-1.1,1.1h-0.2c-0.6,0-1.1-0.5-1.1-1.1v-20.1c0-2.8,2.2-5,5-5h14.4c2.8,0,5,2.2,5,5v20.1
					c0,0.6-0.5,1.1-1.1,1.1h-0.2c-0.6,0-1.1-0.5-1.1-1.1l0-0.7c0,0.7-0.6,1.3-1.3,1.3h-17c-0.7,0-1.3-0.6-1.3-1.3L303.1,365.9z"/>
			</g>
			<g>
				<path fill="#EAF6FE" d="M300.1,362.9c0,0.6-0.5,1.1-1.1,1.1h-0.2c-0.6,0-1.1-0.5-1.1-1.1v-20.1c0-2.8,2.2-5,5-5h14.4
					c2.8,0,5,2.2,5,5v20.1c0,0.6-0.5,1.1-1.1,1.1h-0.2c-0.6,0-1.1-0.5-1.1-1.1l0-0.7c0,0.7-0.6,1.3-1.3,1.3h-17
					c-0.7,0-1.3-0.6-1.3-1.3L300.1,362.9z"/>
				
					<path fill="none" stroke="#CBD3D7" stroke-width="0.3" stroke-linecap="round" stroke-linejoin="round" stroke-miterlimit="10" d="
					M300.1,362.9c0,0.6-0.5,1.1-1.1,1.1h-0.2c-0.6,0-1.1-0.5-1.1-1.1v-20.1c0-2.8,2.2-5,5-5h14.4c2.8,0,5,2.2,5,5v20.1
					c0,0.6-0.5,1.1-1.1,1.1h-0.2c-0.6,0-1.1-0.5-1.1-1.1l0-0.7c0,0.7-0.6,1.3-1.3,1.3h-17c-0.7,0-1.3-0.6-1.3-1.3L300.1,362.9z"/>
			</g>
		</g>
		<g>
			<path fill="#EAF6FE" stroke="#CBD3D7" stroke-width="0.3033" stroke-miterlimit="10" d="M302.7,337.8h14.4c2.8,0,5,2.2,5,5v20.1
				c0,0.6-0.5,1.1-1.1,1.1h-0.2c-0.6,0-1.1-0.5-1.1-1.1v-17.3h-19.6v17.3c0,0.6-0.5,1.1-1.1,1.1h-0.2c-0.6,0-1.1-0.5-1.1-1.1v-20.1
				C297.7,340.1,299.9,337.8,302.7,337.8z"/>
			<g>
				<path fill="#EAF6FE" stroke="#CBD3D7" stroke-width="0.3" stroke-miterlimit="10" d="M318,347.7c-5.4-0.5-10.8-0.5-16.2,0
					c-1.2,0.1-2.3-0.7-2.5-1.9c-0.1-0.9-0.2-1.8-0.3-2.7c-0.2-1.2,0.8-2.3,2.1-2.4c5.8-0.6,11.7-0.6,17.6,0c1.3,0.1,2.3,1.2,2.1,2.4
					c-0.1,0.9-0.2,1.8-0.3,2.7C320.3,347,319.2,347.8,318,347.7z"/>
				
					<path fill="#EAF6FE" stroke="#CBD3D7" stroke-width="0.3" stroke-linecap="round" stroke-linejoin="round" stroke-miterlimit="10" d="
					M318.5,345.9c-0.1-0.6-17-0.6-17.1,0"/>
			</g>
		</g>
	</g>
	<g>
		<g>
			<g>
				<g opacity="5.000000e-002">
					<path fill="#707E85" d="M330.3,386.2c-6.7-1.2-16.6-1.2-23.3,0c-0.7,0.1-1.2,0.8-1.2,1.5v21.1c0,0.7,0.5,1.4,1.2,1.5
						c6.7,1.2,16.6,1.2,23.3,0c0.7-0.1,1.2-0.8,1.2-1.5v-21.1C331.6,387,331.1,386.4,330.3,386.2z"/>
					<path fill="none" stroke="#707E85" stroke-width="0.3" stroke-miterlimit="10" d="M330.3,386.2c-6.7-1.2-16.6-1.2-23.3,0
						c-0.7,0.1-1.2,0.8-1.2,1.5v21.1c0,0.7,0.5,1.4,1.2,1.5c6.7,1.2,16.6,1.2,23.3,0c0.7-0.1,1.2-0.8,1.2-1.5v-21.1
						C331.6,387,331.1,386.4,330.3,386.2z"/>
				</g>
				<g>
					<path fill="#EAF6FE" d="M327.3,383.2c-6.7-1.2-16.6-1.2-23.3,0c-0.7,0.1-1.2,0.8-1.2,1.5v21.1c0,0.7,0.5,1.4,1.2,1.5
						c6.7,1.2,16.6,1.2,23.3,0c0.7-0.1,1.2-0.8,1.2-1.5v-21.1C328.6,384,328.1,383.4,327.3,383.2z"/>
					<path fill="none" stroke="#CBD3D7" stroke-width="0.3" stroke-miterlimit="10" d="M327.3,383.2c-6.7-1.2-16.6-1.2-23.3,0
						c-0.7,0.1-1.2,0.8-1.2,1.5v21.1c0,0.7,0.5,1.4,1.2,1.5c6.7,1.2,16.6,1.2,23.3,0c0.7-0.1,1.2-0.8,1.2-1.5v-21.1
						C328.6,384,328.1,383.4,327.3,383.2z"/>
				</g>
			</g>
		</g>
		<g>
			<g>
				
					<path fill="#EAF6FE" stroke="#CBD3D7" stroke-width="0.3" stroke-linecap="round" stroke-linejoin="round" stroke-miterlimit="10" d="
					M315.9,396.1c0,0-1.8,4.2-0.2,6.7C315.6,402.8,317.7,401.2,315.9,396.1z"/>
				
					<path fill="#EAF6FE" stroke="#CBD3D7" stroke-width="0.3" stroke-linecap="round" stroke-linejoin="round" stroke-miterlimit="10" d="
					M315.9,396.1c0,0,0.1,4.4,2.6,6.2C318.5,402.3,319.7,399.9,315.9,396.1z"/>
				
					<path fill="#EAF6FE" stroke="#CBD3D7" stroke-width="0.3" stroke-linecap="round" stroke-linejoin="round" stroke-miterlimit="10" d="
					M311.3,401.5c0,0,0-4.4,4.5-5.4C315.9,396.1,314.6,401.3,311.3,401.5z"/>
				
					<path fill="#EAF6FE" stroke="#CBD3D7" stroke-width="0.3" stroke-linecap="round" stroke-linejoin="round" stroke-miterlimit="10" d="
					M310.8,389.3c0,0,1,5.4,5,6.8C315.9,396.1,316.4,391.7,310.8,389.3z"/>
				
					<path fill="#EAF6FE" stroke="#CBD3D7" stroke-width="0.3" stroke-linecap="round" stroke-linejoin="round" stroke-miterlimit="10" d="
					M308.5,397.2c0,0,3,0.9,7.4-1.1C315.9,396.1,311.8,394.6,308.5,397.2z"/>
				
					<path fill="#EAF6FE" stroke="#CBD3D7" stroke-width="0.3" stroke-linecap="round" stroke-linejoin="round" stroke-miterlimit="10" d="
					M315.6,387.6c0,0-2.2,5.5,0.1,8.6C315.7,396.2,317.4,395.7,315.6,387.6z"/>
				
					<path fill="#EAF6FE" stroke="#CBD3D7" stroke-width="0.3" stroke-linecap="round" stroke-linejoin="round" stroke-miterlimit="10" d="
					M321.4,400.7c0,0-4.7-1.9-5.5-4.6C315.9,396.1,319,397.4,321.4,400.7z"/>
				
					<path fill="#EAF6FE" stroke="#CBD3D7" stroke-width="0.3" stroke-linecap="round" stroke-linejoin="round" stroke-miterlimit="10" d="
					M320,389c0,0-3.8,2.8-4.2,7.1C315.9,396.1,319.5,393.9,320,389z"/>
				
					<path fill="#EAF6FE" stroke="#CBD3D7" stroke-width="0.3" stroke-linecap="round" stroke-linejoin="round" stroke-miterlimit="10" d="
					M323.2,397.7c0,0-4.6,0.8-7.5-1.5C315.7,396.2,318.7,394.6,323.2,397.7z"/>
				
					<path fill="#EAF6FE" stroke="#CBD3D7" stroke-width="0.3" stroke-linecap="round" stroke-linejoin="round" stroke-miterlimit="10" d="
					M308.5,393.4c0,0,2.2,3,7.2,2.9C315.7,396.2,312.8,392.8,308.5,393.4z"/>
				
					<path fill="#EAF6FE" stroke="#CBD3D7" stroke-width="0.3" stroke-linecap="round" stroke-linejoin="round" stroke-miterlimit="10" d="
					M322.2,391.2c0,0-5.6,1.7-6.6,5.1C315.6,396.3,319.7,396,322.2,391.2z"/>
				
					<path fill="#EAF6FE" stroke="#CBD3D7" stroke-width="0.3" stroke-linecap="round" stroke-linejoin="round" stroke-miterlimit="10" d="
					M323.5,394.2c0,0-4.7-0.8-7.8,2C315.7,396.2,319,397.7,323.5,394.2z"/>
				
					<path fill="#EAF6FE" stroke="#CBD3D7" stroke-width="0.3" stroke-linecap="round" stroke-linejoin="round" stroke-miterlimit="10" d="
					M315.4,396.3c0,0-2.7-0.2-6,3.1C309.4,399.4,312.3,399.2,315.4,396.3z"/>
				
					<path fill="#EAF6FE" stroke="#CBD3D7" stroke-width="0.3" stroke-linecap="round" stroke-linejoin="round" stroke-miterlimit="10" d="
					M309.6,391.7c0,0,2.5,3.6,5.9,4.5C315.5,396.1,315.1,393.1,309.6,391.7z"/>
			</g>
			<g>
				
					<path fill="#EAF6FE" stroke="#CBD3D7" stroke-width="0.3" stroke-linecap="round" stroke-linejoin="round" stroke-miterlimit="10" d="
					M315.9,395.8c0,0,0.1,2.6,1.5,3.7C317.5,399.4,318.2,398,315.9,395.8z"/>
				
					<path fill="#EAF6FE" stroke="#CBD3D7" stroke-width="0.3" stroke-linecap="round" stroke-linejoin="round" stroke-miterlimit="10" d="
					M313.2,398.9c0,0,0-2.6,2.7-3.2C315.9,395.8,315.2,398.8,313.2,398.9z"/>
				
					<path fill="#EAF6FE" stroke="#CBD3D7" stroke-width="0.3" stroke-linecap="round" stroke-linejoin="round" stroke-miterlimit="10" d="
					M312.9,391.7c0,0,0.6,3.2,3,4C315.9,395.8,316.2,393.2,312.9,391.7z"/>
				
					<path fill="#EAF6FE" stroke="#CBD3D7" stroke-width="0.3" stroke-linecap="round" stroke-linejoin="round" stroke-miterlimit="10" d="
					M311.5,396.4c0,0,1.8,0.6,4.4-0.6C315.9,395.8,313.5,394.8,311.5,396.4z"/>
				
					<path fill="#EAF6FE" stroke="#CBD3D7" stroke-width="0.3" stroke-linecap="round" stroke-linejoin="round" stroke-miterlimit="10" d="
					M318.4,391.5c0,0-2.3,1.6-2.5,4.2C315.9,395.8,318.1,394.4,318.4,391.5z"/>
				
					<path fill="#EAF6FE" stroke="#CBD3D7" stroke-width="0.3" stroke-linecap="round" stroke-linejoin="round" stroke-miterlimit="10" d="
					M320.3,396.7c0,0-2.8,0.5-4.5-0.9C315.8,395.8,317.6,394.9,320.3,396.7z"/>
				
					<path fill="#EAF6FE" stroke="#CBD3D7" stroke-width="0.3" stroke-linecap="round" stroke-linejoin="round" stroke-miterlimit="10" d="
					M311.5,394.1c0,0,1.3,1.8,4.3,1.7C315.8,395.8,314.1,393.8,311.5,394.1z"/>
				
					<path fill="#EAF6FE" stroke="#CBD3D7" stroke-width="0.3" stroke-linecap="round" stroke-linejoin="round" stroke-miterlimit="10" d="
					M320.4,394.6c0,0-2.8-0.5-4.6,1.2C315.8,395.8,317.8,396.7,320.4,394.6z"/>
			</g>
		</g>
	</g>
	<g>
		<g>
			<g opacity="5.000000e-002">
				<path fill="#707E85" d="M442.6,466.1l62.2-3.8c0.6,0,1-0.5,0.9-1.1l-3-49.2c0-0.6-0.5-1-1.1-0.9l-62.2,3.8c-0.6,0-1,0.5-0.9,1.1
					l3,49.2C441.6,465.7,442.1,466.2,442.6,466.1z"/>
				<path fill="none" stroke="#707E85" stroke-width="0.3" stroke-miterlimit="10" d="M442.6,466.1l62.2-3.8c0.6,0,1-0.5,0.9-1.1
					l-3-49.2c0-0.6-0.5-1-1.1-0.9l-62.2,3.8c-0.6,0-1,0.5-0.9,1.1l3,49.2C441.6,465.7,442.1,466.2,442.6,466.1z"/>
			</g>
			<g>
				<path fill="#EAF6FE" d="M439.6,463.1l62.2-3.8c0.6,0,1-0.5,0.9-1.1l-3-49.2c0-0.6-0.5-1-1.1-0.9l-62.2,3.8c-0.6,0-1,0.5-0.9,1.1
					l3,49.2C438.6,462.7,439.1,463.2,439.6,463.1z"/>
				<path fill="none" stroke="#CBD3D7" stroke-width="0.3" stroke-miterlimit="10" d="M439.6,463.1l62.2-3.8c0.6,0,1-0.5,0.9-1.1
					l-3-49.2c0-0.6-0.5-1-1.1-0.9l-62.2,3.8c-0.6,0-1,0.5-0.9,1.1l3,49.2C438.6,462.7,439.1,463.2,439.6,463.1z"/>
			</g>
		</g>
		<path fill="#EAF6FE" stroke="#CBD3D7" stroke-width="0.3" stroke-miterlimit="10" d="M442.8,459.5l55.3-3.4c0.6,0,1-0.5,0.9-1.1
			l-2.6-42.3c0-0.6-0.5-1-1.1-0.9l-55.3,3.4c-0.6,0-1,0.5-0.9,1.1l2.6,42.3C441.8,459.1,442.3,459.5,442.8,459.5z"/>
		<path fill="#EAF6FE" stroke="#CBD3D7" stroke-width="0.3" stroke-miterlimit="10" d="M495.8,453.3c1-2,0.4-15.3-0.9-17.3
			c-0.1-0.1-6.4-0.5-9.8,0.2c-0.6,0.1-1.4,0.7-1.6,1.7c-1,3.5,0,11.3,1.3,15c0.5,1.3,1.8,1.1,2.3,1.2
			C489.7,454.5,495.5,453.9,495.8,453.3z"/>
		<path fill="#EAF6FE" stroke="#CBD3D7" stroke-width="0.3" stroke-miterlimit="10" d="M494.7,432.3c1.2-3.9,0-16.6-0.8-17.3
			c-0.3-0.3-6.5-0.6-9.3,0.2c-0.4,0.1-0.8,0.3-0.9,0.5c-1,1.7-1,16.6-0.8,16.9c0.2,0.2,1.4,0,2,0.3
			C486.5,433.5,494.5,432.9,494.7,432.3z"/>
		<g>
			<path fill="#EAF6FE" stroke="#CBD3D7" stroke-width="0.3" stroke-miterlimit="10" d="M473.2,415.4c0,0-0.6,17.7-0.4,19.9
				c0.1,2.3,2.9,19.7,2.9,19.7c0.1,1.7-2.6,3.2-0.9,3.1l9.3-0.6c1.7-0.1,2.9-1.5,2.8-3.2c0,0-1.9-17-2.1-19.6
				c-0.2-2.6-0.3-20-0.3-20c-0.1-1.7-1.5-2.9-3.2-2.8l-9.3,0.6C470.2,412.5,473.1,413.7,473.2,415.4z"/>
			<path fill="#EAF6FE" stroke="#CBD3D7" stroke-width="0.3" stroke-linecap="round" stroke-miterlimit="10" d="M484.2,451
				c-0.1,2.1-2.7,6.6-3.5,6.8"/>
			<path fill="#EAF6FE" stroke="#CBD3D7" stroke-width="0.3" stroke-linecap="round" stroke-miterlimit="10" d="M482,429.6
				c-0.1,0.4-4,9.9-6.2,8.9c-0.9-0.4-0.4-1.8,0-2.6"/>
			<path fill="#EAF6FE" stroke="#CBD3D7" stroke-width="0.3" stroke-linecap="round" stroke-miterlimit="10" d="M483,414.5
				c-1.2,1.4-4.4,7-6.8,14.6"/>
		</g>
		<g>
			<g>
				<g opacity="5.000000e-002">
					<path fill="#707E85" d="M502.5,407.9l-0.5-8.7c0-0.6-0.5-1-1.1-0.9l-7.7,0.5c-0.6,0-1,0.5-0.9,1.1l0.5,8.7c0,0.6,0.5,1,1.1,0.9
						l7.7-0.5C502.1,408.9,502.5,408.4,502.5,407.9z"/>
					<path fill="none" stroke="#707E85" stroke-width="0.3" stroke-miterlimit="10" d="M502.5,407.9l-0.5-8.7c0-0.6-0.5-1-1.1-0.9
						l-7.7,0.5c-0.6,0-1,0.5-0.9,1.1l0.5,8.7c0,0.6,0.5,1,1.1,0.9l7.7-0.5C502.1,408.9,502.5,408.4,502.5,407.9z"/>
				</g>
				<g>
					<path fill="#EAF6FE" d="M499.5,404.9l-0.5-8.7c0-0.6-0.5-1-1.1-0.9l-7.7,0.5c-0.6,0-1,0.5-0.9,1.1l0.5,8.7c0,0.6,0.5,1,1.1,0.9
						l7.7-0.5C499.1,405.9,499.5,405.4,499.5,404.9z"/>
					<path fill="none" stroke="#CBD3D7" stroke-width="0.3" stroke-miterlimit="10" d="M499.5,404.9l-0.5-8.7c0-0.6-0.5-1-1.1-0.9
						l-7.7,0.5c-0.6,0-1,0.5-0.9,1.1l0.5,8.7c0,0.6,0.5,1,1.1,0.9l7.7-0.5C499.1,405.9,499.5,405.4,499.5,404.9z"/>
				</g>
			</g>
			<path fill="#EAF6FE" stroke="#CBD3D7" stroke-width="0.3" stroke-miterlimit="10" d="M491.9,399.9l1.6,3.5
				c0.2,0.5,0.8,0.7,1.3,0.5l1.3-0.6c0.5-0.2,0.7-0.8,0.5-1.3l-1.6-3.5c-0.2-0.5-0.8-0.7-1.3-0.5l-1.3,0.6
				C491.9,398.8,491.7,399.4,491.9,399.9z"/>
			<circle fill="#EAF6FE" stroke="#CBD3D7" stroke-width="0.3" stroke-miterlimit="10" cx="494.3" cy="400.9" r="0.5"/>
		</g>
		<g>
			<g>
				<g opacity="5.000000e-002">
					<path fill="#707E85" d="M496.2,466.1l0.5,8.7c0,0.6,0.5,1,1.1,0.9l7.7-0.5c0.6,0,1-0.5,0.9-1.1l-0.5-8.7c0-0.6-0.5-1-1.1-0.9
						l-7.7,0.5C496.6,465.1,496.2,465.6,496.2,466.1z"/>
					<path fill="none" stroke="#707E85" stroke-width="0.3" stroke-miterlimit="10" d="M496.2,466.1l0.5,8.7c0,0.6,0.5,1,1.1,0.9
						l7.7-0.5c0.6,0,1-0.5,0.9-1.1l-0.5-8.7c0-0.6-0.5-1-1.1-0.9l-7.7,0.5C496.6,465.1,496.2,465.6,496.2,466.1z"/>
				</g>
				<g>
					<path fill="#EAF6FE" d="M493.2,463.1l0.5,8.7c0,0.6,0.5,1,1.1,0.9l7.7-0.5c0.6,0,1-0.5,0.9-1.1l-0.5-8.7c0-0.6-0.5-1-1.1-0.9
						l-7.7,0.5C493.6,462.1,493.2,462.6,493.2,463.1z"/>
					<path fill="none" stroke="#CBD3D7" stroke-width="0.3" stroke-miterlimit="10" d="M493.2,463.1l0.5,8.7c0,0.6,0.5,1,1.1,0.9
						l7.7-0.5c0.6,0,1-0.5,0.9-1.1l-0.5-8.7c0-0.6-0.5-1-1.1-0.9l-7.7,0.5C493.6,462.1,493.2,462.6,493.2,463.1z"/>
				</g>
			</g>
			<path fill="#EAF6FE" stroke="#CBD3D7" stroke-width="0.3" stroke-miterlimit="10" d="M497.9,469.6l0,0.4c0,0.1,0.1,0.2,0.3,0.2
				l5.2-0.3l-0.1-0.9l-5.2,0.3C498,469.3,497.9,469.4,497.9,469.6z"/>
			<path fill="#EAF6FE" stroke="#CBD3D7" stroke-width="0.3" stroke-miterlimit="10" d="M498.6,467.8l0,0.4c0,0.1,0.1,0.2,0.3,0.2
				l4.4-0.3l-0.1-0.9l-4.4,0.3C498.7,467.6,498.6,467.7,498.6,467.8z"/>
			<path fill="#EAF6FE" stroke="#CBD3D7" stroke-width="0.3" stroke-miterlimit="10" d="M497.3,468.7l0,0.4c0,0.1,0.1,0.2,0.3,0.2
				l5.8-0.4l-0.1-0.9l-5.8,0.4C497.4,468.5,497.3,468.6,497.3,468.7z"/>
		</g>
	</g>
	<g>
		<g>
			<g opacity="5.000000e-002">
				<path fill="#707E85" d="M498.3,359.8h-54.3c-0.6,0-1,0.4-1,1v17.5c0,0.6,0.4,1,1,1h54.3c0.6,0,1-0.4,1-1v-17.5
					C499.3,360.3,498.8,359.8,498.3,359.8z"/>
				<path fill="none" stroke="#707E85" stroke-width="0.3" stroke-miterlimit="10" d="M498.3,359.8h-54.3c-0.6,0-1,0.4-1,1v17.5
					c0,0.6,0.4,1,1,1h54.3c0.6,0,1-0.4,1-1v-17.5C499.3,360.3,498.8,359.8,498.3,359.8z"/>
			</g>
			<g>
				<path fill="#EAF6FE" d="M495.3,356.8h-54.3c-0.6,0-1,0.4-1,1v17.5c0,0.6,0.4,1,1,1h54.3c0.6,0,1-0.4,1-1v-17.5
					C496.3,357.3,495.8,356.8,495.3,356.8z"/>
				<path fill="none" stroke="#CBD3D7" stroke-width="0.3" stroke-miterlimit="10" d="M495.3,356.8h-54.3c-0.6,0-1,0.4-1,1v17.5
					c0,0.6,0.4,1,1,1h54.3c0.6,0,1-0.4,1-1v-17.5C496.3,357.3,495.8,356.8,495.3,356.8z"/>
			</g>
		</g>
		<line fill="#EAF6FE" stroke="#CBD3D7" stroke-width="0.3" stroke-miterlimit="10" x1="439.9" y1="373.7" x2="496.3" y2="373.7"/>
		<line fill="#EAF6FE" stroke="#CBD3D7" stroke-width="0.3" stroke-miterlimit="10" x1="468.1" y1="373.7" x2="468.1" y2="376.4"/>
		<polyline fill="none" stroke="#CBD3D7" stroke-width="0.3" stroke-miterlimit="10" points="462,376.4 462,377.8 464.1,377.8 
			464.1,376.4 		"/>
		<polyline fill="none" stroke="#CBD3D7" stroke-width="0.3" stroke-miterlimit="10" points="472.1,376.4 472.1,377.8 474.3,377.8 
			474.3,376.4 		"/>
	</g>
	<g>
		<path fill="#FFFFFF" stroke="#707E85" stroke-width="0.3" stroke-miterlimit="10" d="M427.4,339.5c0-8,4.5-10.7,6.7-10.7H478
			c2.2,0,4,1.9,4,4.3V346c0,2.4-1.8,4.3-4,4.3h-43.9C431.9,350.3,427.4,347.4,427.4,339.5z"/>
		<path fill="#FFFFFF" stroke="#707E85" stroke-width="0.3" stroke-miterlimit="10" d="M436.5,339.5c0-6.7,3.7-9.1,5.4-9.1h35.5
			c1.8,0,3.2,1.6,3.2,3.7V345c0,2-1.4,3.7-3.2,3.7h-35.5C440.1,348.7,436.5,346.2,436.5,339.5z"/>
		<ellipse fill="#FFFFFF" stroke="#707E85" stroke-width="0.3" stroke-miterlimit="10" cx="474.1" cy="339.5" rx="1" ry="1.1"/>
	</g>
	<line fill="none" stroke="#707E85" stroke-width="0.3" stroke-miterlimit="10" x1="425.9" y1="327" x2="483.4" y2="327"/>
	<g>
		<g>
			<g opacity="0.2">
				<path fill="#708793" d="M474.6,325h11.9v-32.3h-11.9c-2.2,0-4,1.8-4,4V321C470.6,323.2,472.4,325,474.6,325z"/>
				<path fill="none" stroke="#708793" stroke-width="0.3" stroke-miterlimit="10" d="M474.6,325h11.9v-32.3h-11.9c-2.2,0-4,1.8-4,4
					V321C470.6,323.2,472.4,325,474.6,325z"/>
			</g>
			<g>
				<path fill="#FFFFFF" d="M471.6,322h11.9v-32.3h-11.9c-2.2,0-4,1.8-4,4V318C467.6,320.2,469.4,322,471.6,322z"/>
				<path fill="none" stroke="#707E85" stroke-width="0.3" stroke-miterlimit="10" d="M471.6,322h11.9v-32.3h-11.9c-2.2,0-4,1.8-4,4
					V318C467.6,320.2,469.4,322,471.6,322z"/>
			</g>
		</g>
		<path fill="#FFFFFF" stroke="#707E85" stroke-width="0.3" stroke-miterlimit="10" d="M471.8,317.2h5.2c1.4,0,2.6-1.1,2.6-2.6
			v-17.7c0-1.4-1.1-2.6-2.6-2.6h-5.2c-1.4,0-2.6,1.1-2.6,2.6v17.7C469.2,316,470.3,317.2,471.8,317.2z"/>
		<circle fill="#FFFFFF" stroke="#707E85" stroke-width="0.3" stroke-miterlimit="10" cx="477.5" cy="305.8" r="0.9"/>
	</g>
	<g>
		<g>
			<g opacity="0.2">
				<path fill="#708793" d="M476.9,276.3c1,0,6.5,0.1,7.5,0.2c0.8,0.1,1.5,0.2,2.3,0.3v10.7c-0.6,0.1-1.3,0.2-1.9,0.3
					c-1,0.1-7.5,0.1-8.6,0.1c-2.4,0-7.6-2-7.6-5.7C468.5,278.3,474,276.3,476.9,276.3z"/>
				<path fill="none" stroke="#708793" stroke-width="0.3" stroke-miterlimit="10" d="M476.9,276.3c1,0,6.5,0.1,7.5,0.2
					c0.8,0.1,1.5,0.2,2.3,0.3v10.7c-0.6,0.1-1.3,0.2-1.9,0.3c-1,0.1-7.5,0.1-8.6,0.1c-2.4,0-7.6-2-7.6-5.7
					C468.5,278.3,474,276.3,476.9,276.3z"/>
			</g>
			<g>
				<path fill="#FFFFFF" d="M473.9,273.3c1,0,6.5,0.1,7.5,0.2c0.8,0.1,1.5,0.2,2.3,0.3v10.7c-0.6,0.1-1.3,0.2-1.9,0.3
					c-1,0.1-7.5,0.1-8.6,0.1c-2.4,0-7.6-2-7.6-5.7C465.5,275.3,471,273.3,473.9,273.3z"/>
				<path fill="none" stroke="#707E85" stroke-width="0.3" stroke-miterlimit="10" d="M473.9,273.3c1,0,6.5,0.1,7.5,0.2
					c0.8,0.1,1.5,0.2,2.3,0.3v10.7c-0.6,0.1-1.3,0.2-1.9,0.3c-1,0.1-7.5,0.1-8.6,0.1c-2.4,0-7.6-2-7.6-5.7
					C465.5,275.3,471,273.3,473.9,273.3z"/>
			</g>
		</g>
		<g>
			<circle fill="#FFFFFF" stroke="#707E85" stroke-width="0.3" stroke-miterlimit="10" cx="481" cy="276.6" r="0.4"/>
			<circle fill="#FFFFFF" stroke="#707E85" stroke-width="0.3" stroke-miterlimit="10" cx="481" cy="281.7" r="0.4"/>
		</g>
		<path fill="#FFFFFF" stroke="#707E85" stroke-width="0.3" stroke-miterlimit="10" d="M467,279.1c0,2.5,3.7,4.4,6.2,4.4
			s4.4-2,4.4-4.4s-2-4.4-4.4-4.4S467,276.7,467,279.1z"/>
		<path fill="#FFFFFF" stroke="#707E85" stroke-width="0.3" stroke-miterlimit="10" d="M474.2,277.6h1.6c0.5,0,0.5,0.7,0.5,1.5
			s-0.1,1.5-0.5,1.5h-1.6c-0.8,0-1.5-0.7-1.5-1.5S473.4,277.6,474.2,277.6z"/>
		<path fill="none" stroke="#707E85" stroke-width="0.3" stroke-miterlimit="10" d="M481.1,273.5c0.9,1.4,1.4,3.5,1.4,5.9
			c0,2.1-0.4,3.9-1.1,5.3"/>
	</g>
	<g>
		<g>
			
				<rect x="428.8" y="236.3" fill="#FFFFFF" stroke="#707E85" stroke-width="0.3" stroke-miterlimit="10" width="18.7" height="18.7"/>
		</g>
		<g>
			<circle fill="none" stroke="#707E85" stroke-width="0.6204" stroke-miterlimit="10" cx="438.1" cy="245.7" r="4.4"/>
			<path fill="none" stroke="#707E85" stroke-width="0.6204" stroke-miterlimit="10" d="M441,245.3c0,1.7-1.4,3-3,3"/>
		</g>
	</g>
	<g>
		<g>
			<g opacity="5.000000e-002">
				<path fill="#707E85" d="M426.2,201.9h62.3c0.6,0,1,0.4,1,1V230c0,0.6-0.4,1-1,1h-62.3c-0.6,0-1-0.4-1-1v-27.1
					C425.2,202.4,425.6,201.9,426.2,201.9z"/>
				<path fill="none" stroke="#707E85" stroke-width="0.3" stroke-miterlimit="10" d="M426.2,201.9h62.3c0.6,0,1,0.4,1,1V230
					c0,0.6-0.4,1-1,1h-62.3c-0.6,0-1-0.4-1-1v-27.1C425.2,202.4,425.6,201.9,426.2,201.9z"/>
			</g>
			<g>
				<path fill="#EAF6FE" d="M423.2,198.9h62.3c0.6,0,1,0.4,1,1V227c0,0.6-0.4,1-1,1h-62.3c-0.6,0-1-0.4-1-1v-27.1
					C422.2,199.4,422.6,198.9,423.2,198.9z"/>
				<path fill="none" stroke="#CBD3D7" stroke-width="0.3" stroke-miterlimit="10" d="M423.2,198.9h62.3c0.6,0,1,0.4,1,1V227
					c0,0.6-0.4,1-1,1h-62.3c-0.6,0-1-0.4-1-1v-27.1C422.2,199.4,422.6,198.9,423.2,198.9z"/>
			</g>
		</g>
		<g>
			<g>
				<g opacity="5.000000e-002">
					<path fill="#707E85" d="M489.5,189.7v8.8c0,0.6-0.4,1-1,1h-7.8c-0.6,0-1-0.4-1-1v-8.8c0-0.6,0.4-1,1-1h7.8
						C489.1,188.7,489.5,189.1,489.5,189.7z"/>
					<path fill="none" stroke="#707E85" stroke-width="0.3" stroke-miterlimit="10" d="M489.5,189.7v8.8c0,0.6-0.4,1-1,1h-7.8
						c-0.6,0-1-0.4-1-1v-8.8c0-0.6,0.4-1,1-1h7.8C489.1,188.7,489.5,189.1,489.5,189.7z"/>
				</g>
				<g>
					<path fill="#EAF6FE" d="M486.5,186.7v8.8c0,0.6-0.4,1-1,1h-7.8c-0.6,0-1-0.4-1-1v-8.8c0-0.6,0.4-1,1-1h7.8
						C486.1,185.7,486.5,186.1,486.5,186.7z"/>
					<path fill="none" stroke="#CBD3D7" stroke-width="0.3" stroke-miterlimit="10" d="M486.5,186.7v8.8c0,0.6-0.4,1-1,1h-7.8
						c-0.6,0-1-0.4-1-1v-8.8c0-0.6,0.4-1,1-1h7.8C486.1,185.7,486.5,186.1,486.5,186.7z"/>
				</g>
			</g>
			<path fill="#EAF6FE" stroke="#CBD3D7" stroke-width="0.3" stroke-miterlimit="10" d="M479.3,192.1l1.4-3.6
				c0.2-0.5,0.8-0.8,1.3-0.6l1.3,0.5c0.5,0.2,0.8,0.8,0.6,1.3l-1.4,3.6c-0.2,0.5-0.8,0.8-1.3,0.6l-1.3-0.5
				C479.4,193.2,479.1,192.6,479.3,192.1z"/>
			<circle fill="#EAF6FE" stroke="#CBD3D7" stroke-width="0.3" stroke-miterlimit="10" cx="481.6" cy="190.9" r="0.5"/>
		</g>
		<path fill="#EAF6FE" stroke="#CBD3D7" stroke-width="0.3" stroke-miterlimit="10" d="M426.6,202.4h55.5c0.6,0,1,0.4,1,1v20.2
			c0,0.6-0.4,1-1,1h-55.5c-0.6,0-1-0.4-1-1v-20.2C425.6,202.8,426.1,202.4,426.6,202.4z"/>
		<path fill="#EAF6FE" stroke="#CBD3D7" stroke-width="0.3" stroke-miterlimit="10" d="M480.1,205.3c0.2,0.5-0.1,0.9-0.1,1.7
			c1.5,7.1-0.4,14.8-0.7,15c-0.3,0.2-0.2-0.2-1.8-0.5c-1.7-0.1-5.6,0.3-7,0.1c-0.4-0.1-0.6-0.2-0.7-0.3c-1-1.3-0.6-15.4-0.5-15.5
			c0.1-0.2,0.6-0.7,1.3-0.8C472.1,204.7,479.9,204.8,480.1,205.3z"/>
		<g>
			<g>
				<path fill="#EAF6FE" stroke="#CBD3D7" stroke-width="0.3" stroke-miterlimit="10" d="M459.7,222.3c0,0-0.9-6.7-0.9-8.9
					c0-2.3,0.9-8.9,0.9-8.9c0-1.7-2.8-3-1.1-3h9.3c1.7,0,3,1.4,3,3c0,0-0.9,6.1-0.9,8.7c0,2.7,0.9,9,0.9,9c0,1.7-1.4,3-3,3h-9.3
					C456.9,225.4,459.7,224,459.7,222.3z"/>
			</g>
			<path fill="#EAF6FE" stroke="#CBD3D7" stroke-width="0.3" stroke-linecap="round" stroke-miterlimit="10" d="M466.8,205.3
				c-1.3-0.2-4.7,1.3-5.3,3.7"/>
			<path fill="#EAF6FE" stroke="#CBD3D7" stroke-width="0.3" stroke-linecap="round" stroke-miterlimit="10" d="M467.2,212.6
				c-1.8,1.8-4.1,6.1-3.9,8.9"/>
		</g>
	</g>
	<g>
		<g>
			<path fill="#EAF6FE" stroke="#CBD3D7" stroke-width="0.3" stroke-miterlimit="10" d="M451.5,145l1.8-0.1l1,15.7l-1.8,0.1
				c-0.7,0-1.3-0.5-1.4-1.2l-0.8-13.2C450.2,145.6,450.8,145,451.5,145z"/>
			
				<rect x="453.7" y="144.6" transform="matrix(0.9981 -6.104854e-002 6.104854e-002 0.9981 -8.4565 28.213)" fill="#EAF6FE" stroke="#CBD3D7" stroke-width="0.3" stroke-miterlimit="10" width="7.5" height="15.8"/>
			<line fill="#EAF6FE" stroke="#CBD3D7" stroke-width="0.3" stroke-miterlimit="10" x1="453.4" y1="147" x2="460.9" y2="146.6"/>
			<line fill="#EAF6FE" stroke="#CBD3D7" stroke-width="0.3" stroke-miterlimit="10" x1="461.6" y1="158" x2="454.1" y2="158.4"/>
		</g>
	</g>
	<g>
		<g opacity="5.000000e-002">
			<path fill="#707E85" d="M484.1,131l-20.4,1.2c-0.5,0-0.9,0.5-0.9,1l2.7,44.2c0,0.5,0.5,0.9,1,0.8l20.4-1.2c0.5,0,0.9-0.5,0.9-1
				l-2.7-44.2C485.1,131.3,484.6,130.9,484.1,131z"/>
			<path fill="none" stroke="#707E85" stroke-width="0.3" stroke-miterlimit="10" d="M484.1,131l-20.4,1.2c-0.5,0-0.9,0.5-0.9,1
				l2.7,44.2c0,0.5,0.5,0.9,1,0.8l20.4-1.2c0.5,0,0.9-0.5,0.9-1l-2.7-44.2C485.1,131.3,484.6,130.9,484.1,131z"/>
		</g>
		<g>
			<path fill="#EAF6FE" d="M481.1,128l-20.4,1.2c-0.5,0-0.9,0.5-0.9,1l2.7,44.2c0,0.5,0.5,0.9,1,0.8l20.4-1.2c0.5,0,0.9-0.5,0.9-1
				l-2.7-44.2C482.1,128.3,481.6,127.9,481.1,128z"/>
			<path fill="none" stroke="#CBD3D7" stroke-width="0.3" stroke-miterlimit="10" d="M481.1,128l-20.4,1.2c-0.5,0-0.9,0.5-0.9,1
				l2.7,44.2c0,0.5,0.5,0.9,1,0.8l20.4-1.2c0.5,0,0.9-0.5,0.9-1l-2.7-44.2C482.1,128.3,481.6,127.9,481.1,128z"/>
		</g>
	</g>
	<g>
		<g>
			<g opacity="5.000000e-002">
				<path fill="#707E85" d="M388.1,105.8v36.6c0,0.6,0.4,1,1,1h16c0.6,0,1-0.4,1-1v-36.6c0-0.6-0.4-1-1-1h-16
					C388.6,104.8,388.1,105.2,388.1,105.8z"/>
				<path fill="none" stroke="#707E85" stroke-width="0.3" stroke-miterlimit="10" d="M388.1,105.8v36.6c0,0.6,0.4,1,1,1h16
					c0.6,0,1-0.4,1-1v-36.6c0-0.6-0.4-1-1-1h-16C388.6,104.8,388.1,105.2,388.1,105.8z"/>
			</g>
			<g>
				<path fill="#EAF6FE" d="M385.1,102.8v36.6c0,0.6,0.4,1,1,1h16c0.6,0,1-0.4,1-1v-36.6c0-0.6-0.4-1-1-1h-16
					C385.6,101.8,385.1,102.2,385.1,102.8z"/>
				<path fill="none" stroke="#CBD3D7" stroke-width="0.3" stroke-miterlimit="10" d="M385.1,102.8v36.6c0,0.6,0.4,1,1,1h16
					c0.6,0,1-0.4,1-1v-36.6c0-0.6-0.4-1-1-1h-16C385.6,101.8,385.1,102.2,385.1,102.8z"/>
			</g>
		</g>
		<line fill="#EAF6FE" stroke="#CBD3D7" stroke-width="0.3" stroke-miterlimit="10" x1="400.7" y1="140.3" x2="400.7" y2="101.8"/>
		<line fill="#EAF6FE" stroke="#CBD3D7" stroke-width="0.3" stroke-miterlimit="10" x1="400.7" y1="121.1" x2="403.1" y2="121.1"/>
		<polyline fill="none" stroke="#CBD3D7" stroke-width="0.3" stroke-miterlimit="10" points="403.1,125.3 404.4,125.3 404.4,123.8 
			403.1,123.8 		"/>
		<polyline fill="none" stroke="#CBD3D7" stroke-width="0.3" stroke-miterlimit="10" points="403.1,118.3 404.4,118.3 404.4,116.8 
			403.1,116.8 		"/>
	</g>
	<g>
		<g>
			<rect x="160.5" y="284.8" fill="#FFFFFF" width="18.9" height="48.7"/>
			<path fill="#707E85" d="M179.2,285v48.4h-18.6V285H179.2 M179.5,284.7h-19.2v49h19.2V284.7L179.5,284.7z"/>
		</g>
		<line fill="none" stroke="#707E85" stroke-width="0.5" stroke-miterlimit="10" x1="163.7" y1="327" x2="176.1" y2="326"/>
		<line fill="none" stroke="#707E85" stroke-width="0.5" stroke-miterlimit="10" x1="163.7" y1="323.4" x2="176.1" y2="324.6"/>
		<line fill="none" stroke="#707E85" stroke-width="0.5" stroke-miterlimit="10" x1="163.7" y1="322.1" x2="176.1" y2="321.1"/>
		<line fill="none" stroke="#707E85" stroke-width="0.5" stroke-miterlimit="10" x1="163.7" y1="318.5" x2="176.1" y2="319.7"/>
		<line fill="none" stroke="#707E85" stroke-width="0.5" stroke-miterlimit="10" x1="163.7" y1="299.8" x2="176.1" y2="298.8"/>
		<line fill="none" stroke="#707E85" stroke-width="0.5" stroke-miterlimit="10" x1="163.7" y1="296.2" x2="176.1" y2="297.4"/>
		<line fill="none" stroke="#707E85" stroke-width="0.5" stroke-miterlimit="10" x1="163.7" y1="294.9" x2="176.1" y2="293.9"/>
		<line fill="none" stroke="#707E85" stroke-width="0.5" stroke-miterlimit="10" x1="163.7" y1="291.3" x2="176.1" y2="292.5"/>
		<line fill="#EAF6FE" stroke="#707E85" stroke-width="0.3" stroke-miterlimit="10" x1="178.1" y1="333.6" x2="178.1" y2="284.9"/>
		<line fill="#EAF6FE" stroke="#707E85" stroke-width="0.3" stroke-miterlimit="10" x1="178.1" y1="309.3" x2="179.4" y2="309.3"/>
		<polyline fill="none" stroke="#707E85" stroke-width="0.3" stroke-miterlimit="10" points="179.4,314.6 180.1,314.6 180.1,312.8 
			179.4,312.8 		"/>
		<polyline fill="none" stroke="#707E85" stroke-width="0.3" stroke-miterlimit="10" points="179.4,305.8 180.1,305.8 180.1,304 
			179.4,304 		"/>
		<line fill="none" stroke="#707E85" stroke-width="0.3" stroke-miterlimit="10" x1="169.9" y1="333.6" x2="169.9" y2="284.9"/>
	</g>
	<g>
		<g>
			<g>
				<path fill="#EAF6FE" stroke="#CBD3D7" stroke-width="0.3" stroke-miterlimit="10" d="M311.4,235.2v-1.6h14v1.6
					c0,0.6-0.5,1.1-1.1,1.1h-11.7C311.9,236.4,311.4,235.9,311.4,235.2z"/>
				
					<rect x="311.4" y="229.3" fill="#EAF6FE" stroke="#CBD3D7" stroke-width="0.3" stroke-miterlimit="10" width="14" height="4.4"/>
				
					<line fill="#EAF6FE" stroke="#CBD3D7" stroke-width="0.3" stroke-miterlimit="10" x1="313.4" y1="233.7" x2="313.4" y2="229.3"/>
				
					<line fill="#EAF6FE" stroke="#CBD3D7" stroke-width="0.3" stroke-miterlimit="10" x1="323.5" y1="229.3" x2="323.5" y2="233.7"/>
			</g>
			<g>
				<path fill="#EAF6FE" stroke="#CBD3D7" stroke-width="0.3" stroke-miterlimit="10" d="M328,235.2v-1.6h14v1.6
					c0,0.6-0.5,1.1-1.1,1.1h-11.7C328.5,236.4,328,235.9,328,235.2z"/>
				<rect x="328" y="229.3" fill="#EAF6FE" stroke="#CBD3D7" stroke-width="0.3" stroke-miterlimit="10" width="14" height="4.4"/>
				
					<line fill="#EAF6FE" stroke="#CBD3D7" stroke-width="0.3" stroke-miterlimit="10" x1="329.9" y1="233.7" x2="329.9" y2="229.3"/>
				<line fill="#EAF6FE" stroke="#CBD3D7" stroke-width="0.3" stroke-miterlimit="10" x1="340" y1="229.3" x2="340" y2="233.7"/>
			</g>
			<g>
				<path fill="#EAF6FE" stroke="#CBD3D7" stroke-width="0.3" stroke-miterlimit="10" d="M344.5,235.2v-1.6h14v1.6
					c0,0.6-0.5,1.1-1.1,1.1h-11.7C345,236.4,344.5,235.9,344.5,235.2z"/>
				
					<rect x="344.5" y="229.3" fill="#EAF6FE" stroke="#CBD3D7" stroke-width="0.3" stroke-miterlimit="10" width="14" height="4.4"/>
				
					<line fill="#EAF6FE" stroke="#CBD3D7" stroke-width="0.3" stroke-miterlimit="10" x1="346.4" y1="233.7" x2="346.4" y2="229.3"/>
				
					<line fill="#EAF6FE" stroke="#CBD3D7" stroke-width="0.3" stroke-miterlimit="10" x1="356.6" y1="229.3" x2="356.6" y2="233.7"/>
			</g>
		</g>
		<g>
			<path fill="#EAF6FE" stroke="#CBD3D7" stroke-width="0.3" stroke-miterlimit="10" d="M358.5,196v1.6h-14V196
				c0-0.6,0.5-1.1,1.1-1.1h11.7C358,194.8,358.5,195.3,358.5,196z"/>
			<rect x="344.5" y="197.5" fill="#EAF6FE" stroke="#CBD3D7" stroke-width="0.3" stroke-miterlimit="10" width="14" height="4.4"/>
			<line fill="#EAF6FE" stroke="#CBD3D7" stroke-width="0.3" stroke-miterlimit="10" x1="356.6" y1="197.5" x2="356.6" y2="201.9"/>
			<line fill="#EAF6FE" stroke="#CBD3D7" stroke-width="0.3" stroke-miterlimit="10" x1="346.4" y1="201.9" x2="346.4" y2="197.5"/>
		</g>
		<g>
			<path fill="#EAF6FE" stroke="#CBD3D7" stroke-width="0.3" stroke-miterlimit="10" d="M342,196v1.6h-14V196c0-0.6,0.5-1.1,1.1-1.1
				h11.7C341.4,194.8,342,195.3,342,196z"/>
			<rect x="328" y="197.5" fill="#EAF6FE" stroke="#CBD3D7" stroke-width="0.3" stroke-miterlimit="10" width="14" height="4.4"/>
			<line fill="#EAF6FE" stroke="#CBD3D7" stroke-width="0.3" stroke-miterlimit="10" x1="340" y1="197.5" x2="340" y2="201.9"/>
			<line fill="#EAF6FE" stroke="#CBD3D7" stroke-width="0.3" stroke-miterlimit="10" x1="329.9" y1="201.9" x2="329.9" y2="197.5"/>
		</g>
		<g>
			<path fill="#EAF6FE" stroke="#CBD3D7" stroke-width="0.3" stroke-miterlimit="10" d="M321.3,192l0.6,1.5l-12.9,5.4l-0.6-1.5
				c-0.2-0.6,0-1.2,0.6-1.5l10.8-4.5C320.4,191.1,321,191.4,321.3,192z"/>
			
				<rect x="311.7" y="194.8" transform="matrix(0.3873 0.922 -0.922 0.3873 380.7849 -169.3652)" fill="#EAF6FE" stroke="#CBD3D7" stroke-width="0.3" stroke-miterlimit="10" width="12.3" height="14"/>
			<line fill="#EAF6FE" stroke="#CBD3D7" stroke-width="0.3" stroke-miterlimit="10" x1="320.1" y1="194.2" x2="324.9" y2="205.5"/>
			<line fill="#EAF6FE" stroke="#CBD3D7" stroke-width="0.3" stroke-miterlimit="10" x1="315.5" y1="209.4" x2="310.8" y2="198.1"/>
		</g>
		<g>
			<g opacity="5.000000e-002">
				<path fill="#707E85" d="M367,231.1v-25.1c0-0.6-0.5-1.1-1.1-1.1h-55.7c-0.6,0-1.1,0.5-1.1,1.1v25.1c0,0.6,0.5,1.1,1.1,1.1h55.7
					C366.4,232.3,367,231.8,367,231.1z"/>
				<path fill="none" stroke="#707E85" stroke-width="0.3" stroke-miterlimit="10" d="M367,231.1v-25.1c0-0.6-0.5-1.1-1.1-1.1h-55.7
					c-0.6,0-1.1,0.5-1.1,1.1v25.1c0,0.6,0.5,1.1,1.1,1.1h55.7C366.4,232.3,367,231.8,367,231.1z"/>
			</g>
			<g>
				<path fill="#EAF6FE" d="M364,228.1v-25.1c0-0.6-0.5-1.1-1.1-1.1h-55.7c-0.6,0-1.1,0.5-1.1,1.1v25.1c0,0.6,0.5,1.1,1.1,1.1h55.7
					C363.4,229.3,364,228.8,364,228.1z"/>
				<path fill="none" stroke="#CBD3D7" stroke-width="0.3" stroke-miterlimit="10" d="M364,228.1v-25.1c0-0.6-0.5-1.1-1.1-1.1h-55.7
					c-0.6,0-1.1,0.5-1.1,1.1v25.1c0,0.6,0.5,1.1,1.1,1.1h55.7C363.4,229.3,364,228.8,364,228.1z"/>
			</g>
		</g>
		<path fill="#EAF6FE" stroke="#CBD3D7" stroke-width="0.3" stroke-miterlimit="10" d="M355.6,217l-1.7-2.4c-0.3-0.4-1-0.5-1.4-0.2
			l-4.4,3.2c-0.4,0.3-0.5,1-0.2,1.4l1.7,2.4c0.3,0.4,1,0.5,1.4,0.2l4.4-3.2C355.8,218.1,355.9,217.5,355.6,217z"/>
	</g>
	<g>
		<g>
			<g>
				
					<rect x="317.4" y="299.9" transform="matrix(-0.9535 0.3014 -0.3014 -0.9535 712.7977 498.46)" fill="none" stroke="#CBD3D7" stroke-width="0.3" stroke-miterlimit="10" width="1.1" height="8.6"/>
				
					<rect x="321.8" y="298.5" transform="matrix(0.9535 -0.3014 0.3014 0.9535 -76.2813 111.2303)" fill="none" stroke="#CBD3D7" stroke-width="0.3" stroke-miterlimit="10" width="1.1" height="8.6"/>
				<g>
					<g opacity="5.000000e-002">
						<path fill="#707E85" d="M327,296l2.8,8.8c0.2,0.7-0.2,1.4-0.9,1.7l-10.7,3.4c-0.7,0.2-1.4-0.2-1.7-0.9l-2.8-8.8L327,296z"/>
						<path fill="none" stroke="#707E85" stroke-width="0.3" stroke-miterlimit="10" d="M327,296l2.8,8.8c0.2,0.7-0.2,1.4-0.9,1.7
							l-10.7,3.4c-0.7,0.2-1.4-0.2-1.7-0.9l-2.8-8.8L327,296z"/>
					</g>
					<g>
						<path fill="#EAF6FE" d="M324,293l2.8,8.8c0.2,0.7-0.2,1.4-0.9,1.7l-10.7,3.4c-0.7,0.2-1.4-0.2-1.7-0.9l-2.8-8.8L324,293z"/>
						<path fill="none" stroke="#CBD3D7" stroke-width="0.3" stroke-miterlimit="10" d="M324,293l2.8,8.8c0.2,0.7-0.2,1.4-0.9,1.7
							l-10.7,3.4c-0.7,0.2-1.4-0.2-1.7-0.9l-2.8-8.8L324,293z"/>
					</g>
				</g>
			</g>
			<g>
				<path fill="#EAF6FE" stroke="#CBD3D7" stroke-width="0.3" stroke-miterlimit="10" d="M317.5,308c2.7,0.5,5.2-0.3,7.1-2.3
					c0.2-0.2,0.5-0.1,0.6,0.2c0.2,0.3,0.3,0.6,0.5,1c-2.2,2.5-5.3,3.4-8.5,2.7c-0.1-0.4-0.1-0.7-0.2-1.1
					C317.1,308.2,317.3,308,317.5,308z"/>
				<path fill="#EAF6FE" stroke="#CBD3D7" stroke-width="0.3" stroke-miterlimit="10" d="M317.3,309.6c3,0.7,6.4-0.4,8.5-2.7
					c0.2,0.4,0.4,0.8,0.6,1.1c0.1,0.2,0.1,0.5,0,0.7c-2.1,2.2-5.4,3.2-8.4,2.6c-0.2,0-0.4-0.3-0.4-0.5
					C317.4,310.5,317.4,310,317.3,309.6z"/>
			</g>
		</g>
		<g>
			<g>
				<rect x="298.5" y="299.3" fill="none" stroke="#CBD3D7" stroke-width="0.3" stroke-miterlimit="10" width="1.1" height="8.6"/>
				<rect x="303.1" y="299.3" fill="none" stroke="#CBD3D7" stroke-width="0.3" stroke-miterlimit="10" width="1.1" height="8.6"/>
				<g>
					<g opacity="5.000000e-002">
						<path fill="#707E85" d="M311.2,297.8l0,9.2c0,0.7-0.6,1.3-1.3,1.3l-11.2,0c-0.7,0-1.3-0.6-1.3-1.3l0-9.2L311.2,297.8z"/>
						<path fill="none" stroke="#707E85" stroke-width="0.3" stroke-miterlimit="10" d="M311.2,297.8l0,9.2c0,0.7-0.6,1.3-1.3,1.3
							l-11.2,0c-0.7,0-1.3-0.6-1.3-1.3l0-9.2L311.2,297.8z"/>
					</g>
					<g>
						<path fill="#EAF6FE" d="M308.2,294.8l0,9.2c0,0.7-0.6,1.3-1.3,1.3l-11.2,0c-0.7,0-1.3-0.6-1.3-1.3l0-9.2L308.2,294.8z"/>
						<path fill="none" stroke="#CBD3D7" stroke-width="0.3" stroke-miterlimit="10" d="M308.2,294.8l0,9.2c0,0.7-0.6,1.3-1.3,1.3
							l-11.2,0c-0.7,0-1.3-0.6-1.3-1.3l0-9.2L308.2,294.8z"/>
					</g>
				</g>
			</g>
			<g>
				<path fill="#EAF6FE" stroke="#CBD3D7" stroke-width="0.3" stroke-miterlimit="10" d="M297.5,307.1c2.4,1.3,5.1,1.3,7.5,0
					c0.2-0.1,0.5,0.1,0.5,0.4c0.1,0.4,0.1,0.7,0.2,1.1c-2.8,1.7-6,1.7-8.9,0c0.1-0.4,0.1-0.7,0.2-1.1
					C297,307.2,297.3,307,297.5,307.1z"/>
				<path fill="#EAF6FE" stroke="#CBD3D7" stroke-width="0.3" stroke-miterlimit="10" d="M296.8,308.6c2.7,1.6,6.2,1.6,8.9,0
					c0.1,0.4,0.1,0.8,0.2,1.3c0,0.3-0.1,0.5-0.2,0.6c-2.7,1.4-6.1,1.5-8.8,0c-0.2-0.1-0.3-0.4-0.2-0.6
					C296.7,309.4,296.7,309,296.8,308.6z"/>
			</g>
		</g>
	</g>
	<g>
		<rect x="281.6" y="270.2" fill="#FFFFFF" width="58" height="29.3"/>
		<path fill="#707E85" d="M339.4,270.3v29h-57.7v-29H339.4 M339.7,270h-58.3v29.6h58.3V270L339.7,270z"/>
	</g>
</g>
<g id="Ouvertures">
	<g>
		<g>
			<rect x="259.2" y="163.1" fill="#FFFFFF" width="110.8" height="6.8"/>
			<path fill="#707E85" d="M369.9,163.2v6.5H259.4v-6.5H369.9 M370.2,162.9H259.1v7.1h111.1V162.9L370.2,162.9z"/>
		</g>
		<g>
			<rect x="314.8" y="163.1" fill="#FFFFFF" width="55.3" height="3.2"/>
			<path fill="#707E85" d="M369.9,163.2v2.9h-55v-2.9H369.9 M370.2,162.9h-55.6v3.5h55.6V162.9L370.2,162.9z"/>
		</g>
		<g>
			<rect x="259.2" y="166.9" fill="#FFFFFF" width="54.8" height="2.9"/>
			<path fill="#707E85" d="M313.8,167v2.6h-54.5V167H313.8 M314.1,166.7h-55.1v3.2h55.1V166.7L314.1,166.7z"/>
		</g>
		<g>
			<g>
				<line fill="none" stroke="#707E85" stroke-width="0.3" stroke-miterlimit="1" x1="334.7" y1="173.3" x2="348" y2="173.3"/>
				<g>
					<polygon fill="#707E85" points="347,174.5 346.8,174.3 347.9,173.3 346.8,172.3 347,172.1 348.4,173.3 					"/>
				</g>
			</g>
		</g>
		<rect x="312.4" y="166.7" fill="#707E85" width="3.5" height="3.2"/>
		<rect x="312.4" y="162.9" fill="#707E85" width="3.5" height="3.5"/>
		<rect x="259.1" y="166.8" fill="#707E85" width="2.6" height="3.2"/>
		<rect x="367" y="162.9" fill="#707E85" width="3.3" height="3.5"/>
		<line fill="none" stroke="#707E85" stroke-width="0.1" stroke-miterlimit="1" x1="315.6" y1="164.8" x2="369.9" y2="164.8"/>
		<line fill="none" stroke="#707E85" stroke-width="0.1" stroke-miterlimit="1" x1="260.4" y1="168.4" x2="314.7" y2="168.4"/>
	</g>
	<g>
		<rect x="260" y="492.3" fill="#707E85" width="1.3" height="2"/>
		<rect x="372.6" y="492.3" fill="#707E85" width="1.5" height="2"/>
		<g>
			<rect x="260.8" y="492.5" fill="#FFFFFF" width="112.6" height="1.7"/>
			<path fill="#707E85" d="M373.3,492.6v1.4H261v-1.4H373.3 M373.6,492.3H260.7v2h112.9V492.3L373.6,492.3z"/>
		</g>
		<rect x="350.3" y="492.3" fill="#707E85" width="2.4" height="2"/>
		<g>
			<path fill="none" stroke="#707E85" stroke-width="0.3" stroke-miterlimit="10" stroke-dasharray="2,2" d="M351.5,492.3
				c0-12.1,9.8-20.8,21.9-20.8"/>
			<line fill="none" stroke="#707E85" stroke-width="0.3" stroke-miterlimit="10" x1="373.3" y1="492.3" x2="373.3" y2="471.5"/>
		</g>
	</g>
	<g>
		<g>
			<rect x="409.2" y="492.5" fill="#FFFFFF" width="44.4" height="1.5"/>
			<path fill="#707E85" d="M453.4,492.7v1.2h-44.1v-1.2H453.4 M453.7,492.4H409v1.8h44.7V492.4L453.7,492.4z"/>
		</g>
		<polyline fill="none" stroke="#707E85" stroke-width="0.3" stroke-miterlimit="10" stroke-dasharray="2,2" points="425.7,492.4 
			420.7,479.8 409.4,492.4 		"/>
		<rect x="424.5" y="492.4" fill="#707E85" width="3.7" height="1.8"/>
		<g>
			<path fill="none" stroke="#707E85" stroke-width="0.3" stroke-miterlimit="10" stroke-dasharray="2,2" d="M425.7,492.4
				c0-13.1,11.3-28.1,27.7-28.1"/>
			<line fill="none" stroke="#707E85" stroke-width="0.3" stroke-miterlimit="10" x1="453.5" y1="492.4" x2="453.5" y2="464.3"/>
		</g>
	</g>
	<g>
		<g>
			<rect x="423.2" y="95.9" fill="#FFFFFF" width="43.4" height="1.4"/>
			<path fill="#707E85" d="M466.5,96.1v1.1h-43.2v-1.1H466.5 M466.8,95.8H423v1.7h43.8V95.8L466.8,95.8z"/>
		</g>
		<path fill="none" stroke="#707E85" stroke-width="0.3" stroke-miterlimit="10" stroke-dasharray="2,2" d="M450.1,97.5
			c0,0,4.6,12.6,4.8,12.8l12.8-12.8"/>
		<rect x="447.7" y="95.8" fill="#707E85" width="3.6" height="1.7"/>
		<g>
			<path fill="none" stroke="#707E85" stroke-width="0.3" stroke-miterlimit="10" stroke-dasharray="2,2" d="M450.1,97.5
				c0,12.6-12,28.2-28,28.2"/>
			<line fill="none" stroke="#707E85" stroke-width="0.3" stroke-miterlimit="10" x1="422.1" y1="97.5" x2="422.1" y2="125.7"/>
		</g>
	</g>
	<g>
		<g>
			<rect x="151.2" y="95.9" fill="#FFFFFF" width="43.5" height="1.4"/>
			<path fill="#707E85" d="M194.5,96.1v1.1h-43.2v-1.1H194.5 M194.8,95.8h-43.8v1.7h43.8V95.8L194.8,95.8z"/>
		</g>
		<path fill="none" stroke="#707E85" stroke-width="0.3" stroke-miterlimit="10" stroke-dasharray="2,2" d="M178.1,97.5
			c0,0,4.6,12.6,4.8,12.8l12.8-12.8"/>
		<rect x="175.7" y="95.8" fill="#707E85" width="3.6" height="1.7"/>
		<g>
			<path fill="none" stroke="#707E85" stroke-width="0.3" stroke-miterlimit="10" stroke-dasharray="2,2" d="M178.1,97.5
				c0,12.6-12,28.2-28,28.2"/>
			<line fill="none" stroke="#707E85" stroke-width="0.3" stroke-miterlimit="10" x1="150.2" y1="97.5" x2="150.2" y2="125.7"/>
		</g>
	</g>
	<g>
		<path fill="none" stroke="#707E85" stroke-width="0.3" stroke-miterlimit="10" stroke-dasharray="2,2" d="M155.9,243.3
			c-13.3,0-24-10.9-24-24.5"/>
		<line fill="none" stroke="#707E85" stroke-width="0.3" stroke-miterlimit="10" x1="155.9" y1="218.8" x2="131.9" y2="218.8"/>
	</g>
	<g>
		<path fill="none" stroke="#707E85" stroke-width="0.3" stroke-miterlimit="10" stroke-dasharray="2,2" d="M164.2,211
			c0-15.1,12.4-27.3,27.8-27.3"/>
		<line fill="none" stroke="#707E85" stroke-width="0.3" stroke-miterlimit="10" x1="192" y1="211" x2="192" y2="183.7"/>
	</g>
	<g>
		<path fill="none" stroke="#707E85" stroke-width="0.3" stroke-miterlimit="10" stroke-dasharray="2,2" d="M415.2,357
			c0,15.1-12.4,27.3-27.8,27.3"/>
		<line fill="none" stroke="#707E85" stroke-width="0.3" stroke-miterlimit="10" x1="387.4" y1="357" x2="387.4" y2="384.2"/>
	</g>
	<g>
		<path fill="none" stroke="#707E85" stroke-width="0.3" stroke-miterlimit="10" stroke-dasharray="2,2" d="M426.8,287
			c14.6,0,26.5-12.1,26.5-27"/>
		<line fill="none" stroke="#707E85" stroke-width="0.3" stroke-miterlimit="10" x1="426.8" y1="260" x2="453.3" y2="260"/>
	</g>
	<g>
		<path fill="none" stroke="#707E85" stroke-width="0.3" stroke-miterlimit="10" stroke-dasharray="2,2" d="M414.6,248.3
			c0-15.1-12.4-27.3-27.8-27.3"/>
		<line fill="none" stroke="#707E85" stroke-width="0.3" stroke-miterlimit="10" x1="386.8" y1="248.3" x2="386.8" y2="221"/>
	</g>
	<g>
		<path fill="none" stroke="#707E85" stroke-width="0.3" stroke-miterlimit="10" stroke-dasharray="2,2" d="M223.2,332.4
			c0-17-14.3-30.8-31.9-30.8"/>
		<line fill="none" stroke="#707E85" stroke-width="0.3" stroke-miterlimit="10" x1="191.3" y1="332.4" x2="191.3" y2="301.7"/>
	</g>
</g>
<g id="Étiquettes" display="none">
	<text transform="matrix(1 0 0 1 322.562 478.3647)" display="inline" fill="#3A3A39" font-family="'Lato-Black'" font-size="7px">Espace Jour</text>
	
		<text transform="matrix(1 0 0 1 332.9595 486.7646)" display="inline" fill="#3A3A39" font-family="'Lato-Italic'" font-size="7px">44.30 m</text>
	
		<text transform="matrix(0.583 0 0 0.583 357.522 484.4336)" display="inline" fill="#3A3A39" font-family="'Lato-Italic'" font-size="7px">2</text>
	<text transform="matrix(1 0 0 1 439.4989 212.6489)" display="inline" fill="#3A3A39" font-family="'Lato-Black'" font-size="7px">Chambre 3</text>
	
		<text transform="matrix(1 0 0 1 446.9921 221.0488)" display="inline" fill="#3A3A39" font-family="'Lato-Italic'" font-size="7px">13.70 m</text>
	
		<text transform="matrix(0.583 0 0 0.583 471.5546 218.7178)" display="inline" fill="#3A3A39" font-family="'Lato-Italic'" font-size="7px">2</text>
	<text transform="matrix(1 0 0 1 438.3983 70.521)" display="inline" fill="#3A3A39" font-family="'Lato-Black'" font-size="7px">Jardins</text>
	<text transform="matrix(1 0 0 1 438.205 78.9209)" display="inline" fill="#3A3A39" font-family="'Lato-Italic'" font-size="7px">130.00 m</text>
	
		<text transform="matrix(0.583 0 0 0.583 466.828 76.5898)" display="inline" fill="#3A3A39" font-family="'Lato-Italic'" font-size="7px">2</text>
	<text transform="matrix(1 0 0 1 326.6978 150.686)" display="inline" fill="#3A3A39" font-family="'Lato-Black'" font-size="7px">Terrasse </text>
	
		<text transform="matrix(1 0 0 1 331.0474 159.0859)" display="inline" fill="#3A3A39" font-family="'Lato-Italic'" font-size="7px">10.20 m</text>
	
		<text transform="matrix(0.583 0 0 0.583 355.6099 156.7549)" display="inline" fill="#3A3A39" font-family="'Lato-Italic'" font-size="7px">2</text>
	<text transform="matrix(1 0 0 1 456.5319 472.7837)" display="inline" fill="#3A3A39" font-family="'Lato-Black'" font-size="7px">Chambre 2</text>
	
		<text transform="matrix(1 0 0 1 464.0251 481.1836)" display="inline" fill="#3A3A39" font-family="'Lato-Italic'" font-size="7px">15.50 m</text>
	
		<text transform="matrix(0.583 0 0 0.583 488.5876 478.8525)" display="inline" fill="#3A3A39" font-family="'Lato-Italic'" font-size="7px">2</text>
	<text transform="matrix(1 0 0 1 165.9781 197.3657)" display="inline" fill="#3A3A39" font-family="'Lato-Black'" font-size="7px">Chambre 1</text>
	
		<text transform="matrix(1 0 0 1 173.4713 205.7656)" display="inline" fill="#3A3A39" font-family="'Lato-Italic'" font-size="7px">14.60 m</text>
	
		<text transform="matrix(0.583 0 0 0.583 198.0338 203.4346)" display="inline" fill="#3A3A39" font-family="'Lato-Italic'" font-size="7px">2</text>
	<text transform="matrix(1 0 0 1 218.1748 311.5698)" display="inline" fill="#3A3A39" font-family="'Lato-Black'" font-size="7px">Dégagement </text>
	
		<text transform="matrix(1 0 0 1 231.6768 319.9697)" display="inline" fill="#3A3A39" font-family="'Lato-Italic'" font-size="7px">7</text>
	
		<text transform="matrix(1 0 0 1 235.7363 319.9697)" display="inline" fill="#3A3A39" font-family="'Lato-Italic'" font-size="7px" letter-spacing="-1">	</text>
	
		<text transform="matrix(1 0 0 1 235.9961 319.9697)" display="inline" fill="#3A3A39" font-family="'Lato-Italic'" font-size="7px">.30 m</text>
	
		<text transform="matrix(0.583 0 0 0.583 252.4375 317.6387)" display="inline" fill="#3A3A39" font-family="'Lato-Italic'" font-size="7px">2</text>
	<text transform="matrix(1 0 0 1 366.1787 314.5894)" display="inline" fill="#3A3A39" font-family="'Lato-Black'" font-size="7px">Dégagement </text>
	
		<text transform="matrix(1 0 0 1 379.6807 322.9893)" display="inline" fill="#3A3A39" font-family="'Lato-Italic'" font-size="7px">4</text>
	
		<text transform="matrix(1 0 0 1 383.7402 322.9893)" display="inline" fill="#3A3A39" font-family="'Lato-Italic'" font-size="7px" letter-spacing="-1">	</text>
	<text transform="matrix(1 0 0 1 384 322.9893)" display="inline" fill="#3A3A39" font-family="'Lato-Italic'" font-size="7px">.30 m</text>
	
		<text transform="matrix(0.583 0 0 0.583 400.4414 320.6582)" display="inline" fill="#3A3A39" font-family="'Lato-Italic'" font-size="7px">2</text>
</g>
<g id="Murs">
	<g>
		<polygon fill="#707E85" points="376.7,489.5 376.7,333.4 384,333.4 384,352.2 388.3,352.2 388.3,355.9 384,355.9 384,489.5 
			407,489.5 407,492.4 410,492.4 410,503.2 407,503.2 376.7,503.2 373.5,503.2 373.5,492.4 376.7,492.4 		"/>
		<polygon fill="#707E85" points="260,492.3 260,503.2 227,503.2 227,341.6 222.4,341.6 222.4,333.4 235.7,333.4 235.7,489.5 
			256.6,489.5 256.6,492.3 		"/>
		<polygon fill="#707E85" points="192.9,333.4 192.9,341.6 152.4,341.6 152.4,289.5 77.4,289.5 77.4,86.7 151.6,86.7 151.6,97.5 
			148.4,97.5 148.4,100 85.6,100 85.6,211.9 160.5,211.9 160.5,220.3 156.5,220.3 156.5,215.7 85.6,215.7 85.6,272.8 156.5,272.8 
			156.5,242.7 160.5,242.7 160.5,272.8 179.5,272.8 179.5,284.7 160.5,284.7 160.5,333.4 		"/>
		<polygon fill="#707E85" points="510.8,503.2 453.4,503.2 453.4,492.4 456.4,492.4 456.4,489.5 505.6,489.5 497.5,355.9 
			425.9,355.9 422.2,355.9 414,355.9 414,352.2 422.2,352.2 422.2,286.6 425.9,286.6 425.9,352.2 483.4,352.2 483.4,232.9 
			425.9,232.9 425.9,249.8 425.9,253.1 425.9,261.1 422.2,261.1 422.2,253.1 414,253.1 414,249.8 422.2,249.8 422.2,229 424,229 
			425.9,229 483.4,229 489.7,229 481.7,100.2 469.9,100.2 469.9,97.5 466.8,97.5 466.8,86.7 485,86.7 489,86.3 514.5,502.6 		"/>
		<polygon fill="#707E85" points="234.9,285.7 254.2,285.7 254.2,290.1 234.9,290.1 233.8,290.1 232.6,290.1 220.1,290.1 
			217.8,290.1 217.8,100 197.9,100 197.9,97.5 194.8,97.5 194.8,86.7 197.9,86.7 232.6,86.7 232.6,91.2 232.6,97.9 232.6,100 
			232.6,162.9 259.1,162.9 259.1,170.1 234.9,170.1 		"/>
		<polygon fill="#707E85" points="376.7,170.2 376.7,289.9 384,289.9 384,253.1 388.1,253.1 388.1,249.8 384,249.8 384,100.2 
			420.5,100.2 420.5,97.5 423.6,97.5 423.6,86.7 384,86.7 383.1,86.7 377.5,86.7 376.7,86.7 370.2,86.7 370.2,170.2 		"/>
	</g>
	<rect x="160.5" y="211.9" fill="#707E85" width="4.7" height="3.8"/>
	<rect x="190.9" y="211.9" fill="#707E85" width="26.9" height="3.8"/>
</g>
<g id="Entree">
	<polygon fill="#3A3A39" points="202.1,338.1 207.6,333.4 213.1,338.1 	"/>
</g>
<g id="Nord">
	<circle fill="none" stroke="#707E85" stroke-miterlimit="10" cx="94.1" cy="547.2" r="11.9"/>
	<line fill="none" stroke="#707E85" stroke-width="2" stroke-miterlimit="10" x1="101.8" y1="544.8" x2="109.2" y2="542.4"/>
	<text transform="matrix(1 0 0 1 87.9281 553.0099)" fill="#707E85" font-family="'Lato-Black'" font-size="16.4252px">N</text>
</g>
</svg>
