<?xml version="1.0" encoding="utf-8"?>
<!-- Generator: Adobe Illustrator 19.0.0, SVG Export Plug-In . SVG Version: 6.00 Build 0)  -->
<svg version="1.1" xmlns="http://www.w3.org/2000/svg" xmlns:xlink="http://www.w3.org/1999/xlink" x="0px" y="0px"
	 viewBox="0 0 595.3 595.3" enable-background="new 0 0 595.3 595.3" xml:space="preserve">
<pattern  width="3.8" height="3.4" patternUnits="userSpaceOnUse" id="Nouvelle_nuance_de_motif_7" viewBox="0 -3.4 3.8 3.4" overflow="visible">
	<g>
		<polygon fill="none" points="0,0 3.8,0 3.8,-3.4 0,-3.4 		"/>
		<polygon fill="#FFFFFF" points="3.7,0 0.1,0 0.1,-3.4 3.7,-3.4 		"/>
		<polygon fill="#E3E3E3" points="3.8,0 3.7,0 3.7,-3.4 3.8,-3.4 		"/>
		<polygon fill="#E3E3E3" points="0.1,0 0,0 0,-3.4 0.1,-3.4 		"/>
	</g>
</pattern>
<g id="Jardin">
	<polygon fill="#DBEBD0" points="509.6,203.2 509.6,431.7 572.7,431.7 572.7,165.3 143.6,165.3 143.6,140.2 13.2,140.2 13.2,347.9 
		75.9,347.9 75.9,203.2 143.6,203.2 	"/>
	<path fill="#ABBBA1" d="M33.6,175.8c0.1,0,0.1-0.1,0.2-0.1c0.3-0.2,0.6-0.2,0.7,0.2c0.2,0,0.5,0,0.7-0.1c0.2-0.1,0.3-0.3,0.6-0.4
		c0.3-0.1,0.6-0.1,0.8-0.2c0.3,0,0.5,0.1,0.7,0.1c0.3-0.1,0.4-0.4,0.8-0.4c0.3,0,0.7,0.3,1,0.2c0.3-0.1,0.4-0.7,0.7-0.9
		c0.3-0.3,0.9-0.1,1.2-0.5c0.3-0.4,0-1,0.7-1.1c0.7-0.2,1.2-0.6,1.7-1.2c0.2-0.2,0.1-0.4,0.2-0.6c0.1-0.3,0.2-0.2,0.4-0.3
		c0.2-0.1,0.2,0,0.3-0.3c0-0.2,0-0.4,0-0.6c0.2,0,0.5,0.1,0.6-0.2c0.1-0.2-0.3-0.5-0.3-0.7c-0.1-0.4,0.3-0.4,0.5-0.7
		c0.2-0.3,0.3-0.7,0.6-1.1c0.2-0.3,0.1-0.3,0.1-0.8c-0.1-0.2-0.1-0.5,0.1-0.7c0.2-0.2,0.5,0,0.4-0.4c0-0.2-0.4-0.4-0.5-0.7
		c-0.1-0.3,0-0.4,0.1-0.5c0.1-0.2,0.3-0.3,0.3-0.6c0.1-0.6-0.4-1-0.4-1.6c0-0.2,0.1-0.4,0-0.5c0-0.3-0.2-0.4-0.3-0.6
		c-0.2-0.4,0.2-0.8-0.2-1.1c-0.2-0.3-0.4-0.2-0.4-0.6c0-0.1,0-0.3,0-0.5c-0.3-0.1-0.7-0.2-0.7-0.5c-0.1-0.5,0.4-1.2-0.3-1.6
		c-0.6-0.3-0.1-0.2-0.2-0.8c-0.2,0-0.4-0.1-0.6-0.1c0-0.1,0.1-0.5,0-0.6c-0.2-0.3-0.7-0.2-1-0.2c-0.7,0-0.2-0.2-0.4-0.7
		c-0.1-0.3-1-0.6-1.3-0.6c-0.1,0-0.3,0.1-0.4,0.1c-0.1-0.1-0.1-0.2-0.2-0.3c-0.3-0.3-0.4-0.2-0.7-0.3c-0.4-0.1-0.3-0.4-0.5-0.6
		c-0.2-0.2-0.4,0-0.6-0.1c-0.3-0.1-0.3-0.2-0.6-0.2c-0.2,0-0.6,0.5-0.8,0.3c-0.2-0.1-0.1-0.5-0.3-0.7c-0.1-0.1-0.4-0.3-0.6-0.3
		c-0.2,0-0.3,0.1-0.5,0.1c-0.3,0-0.4-0.1-0.6-0.1c-0.3,0-0.5,0.3-0.7,0.2c-0.2,0-0.3-0.3-0.5-0.4c-0.3-0.1-0.6,0.1-0.9,0.1
		c-0.3,0-0.7,0-0.9,0.2c-0.2,0.2-0.2,0.5-0.4,0.7c-0.4,0.3-0.8-0.3-1-0.3c-0.3,0-0.5,0.7-0.5,1c-0.5,0.1-1-0.5-1.5-0.3
		c0,0.4,0.1,0.9-0.2,1c-0.3,0.1-0.8-0.2-1,0.1c-0.2,0.3,0.1,0.7-0.2,1c-0.1,0.1-0.7,0-0.9,0c0,0.3,0,0.5-0.1,0.7
		c0,0-0.5,0.3-0.5,0.3c-0.1,0.5-0.2,1.3-0.8,1.4c-0.2,0-0.5-0.2-0.7,0c-0.3,0.2,0,0.5-0.1,0.8c-0.1,0.2-0.1,0.1-0.3,0.2
		c-0.2,0.2-0.2,0.1-0.2,0.3c0,0.1,0.2,0.4,0.1,0.5c-0.1,0.2-0.5,0.3-0.7,0.6c-0.2,0.3-0.4,0.8-0.3,1.1c0.1,0.3,0.5,0.3,0.4,0.6
		c0,0.1-0.2,0.1-0.3,0.2c-0.1,0.1-0.2,0.3-0.3,0.5c-0.2,0.4-0.3,0.6,0,0.9c0.2,0.2,0.5,0.2,0.4,0.6c-0.1,0.4-0.2,0.7-0.4,1.1
		c-0.1,0.3-0.3,0.6-0.2,0.9c0.1,0.3,0.5,0.3,0.6,0.5c0.3,0.6-0.1,1.2,0.1,1.8c0.1,0.3,0.3,0.4,0.4,0.7c0,0.3-0.2,0.6-0.2,0.9
		c0,0.5,0.6,0.9,1.1,1c0.3,0.1,0.3-0.1,0.4,0.2c0.1,0.3-0.3,0.5-0.2,0.7c0,0.5,0.8,0.1,1,0.4c0.2,0.3,0,0.6,0.3,0.8
		c0.2,0.2,0.7,0.1,0.9,0.1c-0.1,0.6,0.6,0.4,0.9,0.5c0.5,0.1,0.5,0.5,0.6,0.9c0,0.2,0,0.6,0.2,0.7c0.3,0.3,0.6-0.1,1,0
		c0.1,0.1,0.1,0.2,0.2,0.3c0.2,0.1,0.3,0.1,0.5,0.1c0.3,0,0.6,0,0.8,0.1c0.6,0.2,0.9,0.8,1.4,1c0.3,0.1,0.5-0.2,0.8-0.2
		c0.3,0,0.2,0.1,0.4,0.3C33.1,176.3,33.3,176.1,33.6,175.8z"/>
	<path fill="#ABBBA1" d="M38.3,209.2c0.1,0,0.1-0.1,0.2-0.1c0.3-0.2,0.6-0.2,0.7,0.2c0.2,0,0.5,0,0.7-0.1c0.2-0.1,0.3-0.3,0.6-0.4
		c0.3-0.1,0.6-0.1,0.8-0.2c0.3,0,0.5,0.1,0.7,0.1c0.3-0.1,0.4-0.4,0.8-0.4c0.3,0,0.7,0.3,1,0.2c0.3-0.1,0.4-0.7,0.7-0.9
		c0.3-0.3,0.9-0.1,1.2-0.5c0.3-0.4,0-1,0.7-1.1c0.7-0.2,1.2-0.6,1.7-1.2c0.2-0.2,0.1-0.4,0.2-0.6c0.1-0.3,0.2-0.2,0.4-0.3
		c0.2-0.1,0.2,0,0.3-0.3c0-0.2,0-0.4,0-0.6c0.2,0,0.5,0.1,0.6-0.2c0.1-0.2-0.3-0.5-0.3-0.7c-0.1-0.4,0.3-0.4,0.5-0.7
		c0.2-0.3,0.3-0.7,0.6-1.1c0.2-0.3,0.1-0.3,0.1-0.8c-0.1-0.2-0.1-0.5,0.1-0.7c0.2-0.2,0.5,0,0.4-0.4c0-0.2-0.4-0.4-0.5-0.7
		c-0.1-0.3,0-0.4,0.1-0.5c0.1-0.2,0.3-0.3,0.3-0.6c0.1-0.6-0.4-1-0.4-1.6c0-0.2,0.1-0.4,0-0.5c0-0.3-0.2-0.4-0.3-0.6
		c-0.2-0.4,0.2-0.8-0.2-1.1c-0.2-0.3-0.4-0.2-0.4-0.6c0-0.1,0-0.3,0-0.5c-0.3-0.1-0.7-0.2-0.7-0.5c-0.1-0.5,0.4-1.2-0.3-1.6
		c-0.6-0.3-0.1-0.2-0.2-0.8c-0.2,0-0.4-0.1-0.6-0.1c0-0.1,0.1-0.5,0-0.6c-0.2-0.3-0.7-0.2-1-0.2c-0.7,0-0.2-0.2-0.4-0.7
		c-0.1-0.3-1-0.6-1.3-0.6c-0.1,0-0.3,0.1-0.4,0.1c-0.1-0.1-0.1-0.2-0.2-0.3c-0.3-0.3-0.4-0.2-0.7-0.3c-0.4-0.1-0.3-0.4-0.5-0.6
		c-0.2-0.2-0.4,0-0.6-0.1c-0.3-0.1-0.3-0.2-0.6-0.2c-0.2,0-0.6,0.5-0.8,0.3c-0.2-0.1-0.1-0.5-0.3-0.7c-0.1-0.1-0.4-0.3-0.6-0.3
		c-0.2,0-0.3,0.1-0.5,0.1c-0.3,0-0.4-0.1-0.6-0.1c-0.3,0-0.5,0.3-0.7,0.2c-0.2,0-0.3-0.3-0.5-0.4c-0.3-0.1-0.6,0.1-0.9,0.1
		c-0.3,0-0.7,0-0.9,0.2c-0.2,0.2-0.2,0.5-0.4,0.7c-0.4,0.3-0.8-0.3-1-0.3c-0.3,0-0.5,0.7-0.5,1c-0.5,0.1-1-0.5-1.5-0.3
		c0,0.4,0.1,0.9-0.2,1c-0.3,0.1-0.8-0.2-1,0.1c-0.2,0.3,0.1,0.7-0.2,1c-0.1,0.1-0.7,0-0.9,0c0,0.3,0,0.5-0.1,0.7
		c0,0-0.5,0.3-0.5,0.3c-0.1,0.5-0.2,1.3-0.8,1.4c-0.2,0-0.5-0.2-0.7,0c-0.3,0.2,0,0.5-0.1,0.8c-0.1,0.2-0.1,0.1-0.3,0.2
		c-0.2,0.2-0.2,0.1-0.2,0.3c0,0.1,0.2,0.4,0.1,0.5c-0.1,0.2-0.5,0.3-0.7,0.6c-0.2,0.3-0.4,0.8-0.3,1.1c0.1,0.3,0.5,0.3,0.4,0.6
		c0,0.1-0.2,0.1-0.3,0.2c-0.1,0.1-0.2,0.3-0.3,0.5c-0.2,0.4-0.3,0.6,0,0.9c0.2,0.2,0.5,0.2,0.4,0.6c-0.1,0.4-0.2,0.7-0.4,1.1
		c-0.1,0.3-0.3,0.6-0.2,0.9c0.1,0.3,0.5,0.3,0.6,0.5c0.3,0.6-0.1,1.2,0.1,1.8c0.1,0.3,0.3,0.4,0.4,0.7c0,0.3-0.2,0.6-0.2,0.9
		c0,0.5,0.6,0.9,1.1,1c0.3,0.1,0.3-0.1,0.4,0.2c0.1,0.3-0.3,0.5-0.2,0.7c0,0.5,0.8,0.1,1,0.4c0.2,0.3,0,0.6,0.3,0.8
		c0.2,0.2,0.7,0.1,0.9,0.1c-0.1,0.6,0.6,0.4,0.9,0.5c0.5,0.1,0.5,0.5,0.6,0.9c0,0.2,0,0.6,0.2,0.7c0.3,0.3,0.6-0.1,1,0
		c0.1,0.1,0.1,0.2,0.2,0.3c0.2,0.1,0.3,0.1,0.5,0.1c0.3,0,0.6,0,0.8,0.1c0.6,0.2,0.9,0.8,1.4,1c0.3,0.1,0.5-0.2,0.8-0.2
		c0.3,0,0.2,0.1,0.4,0.3C37.7,209.8,37.9,209.5,38.3,209.2z"/>
</g>
<g id="Fond">
	<polygon fill="#FFFFFF" stroke="#707E85" stroke-width="0.3" stroke-miterlimit="10" points="509.6,444.9 509.6,203.2 354.1,203.2 
		332.5,203.2 75.9,203.2 75.9,402.6 264.3,402.6 309.3,402.6 478.5,403.1 	"/>
	<polygon fill="#EAF6FE" points="499.3,432.5 499.3,394.8 499.3,251.4 499.3,213.5 157.7,213.5 157.7,402.5 401.9,402.5 
		401.9,432.5 	"/>
</g>
<g id="Sol">
	<g>
		<pattern  id="SVGID_1_" xlink:href="#Nouvelle_nuance_de_motif_7" patternTransform="matrix(1 0 0 1 -7.626 10.3125)">
		</pattern>
		<rect x="76.2" y="203.7" fill="url(#SVGID_1_)" width="78.7" height="192.3"/>
	</g>
	<rect x="405" y="333.8" opacity="0.8" fill="#FFFFFF" width="94.3" height="96.9"/>
</g>
<g id="Installations">
	<g>
		<rect x="346.6" y="216.2" fill="#FFFFFF" width="18.2" height="114.2"/>
		<path fill="#707E85" d="M364.6,216.4v113.9h-17.9V216.4H364.6 M364.9,216.1h-18.5v114.5h18.5V216.1L364.9,216.1z"/>
	</g>
	<line fill="none" stroke="#707E85" stroke-width="0.3" stroke-miterlimit="10" x1="346.4" y1="311.2" x2="364.9" y2="311.2"/>
	<g>
		
			<polyline fill="none" stroke="#000000" stroke-width="0.12" stroke-linecap="square" stroke-linejoin="bevel" stroke-miterlimit="10" points="
			357,318.4 357,319.2 357.7,319.2 		"/>
		
			<polyline fill="none" stroke="#000000" stroke-width="0.12" stroke-linecap="square" stroke-linejoin="bevel" stroke-miterlimit="10" points="
			352.6,322.7 353.4,322.7 353.4,323.5 		"/>
		
			<line fill="none" stroke="#000000" stroke-width="0.12" stroke-linecap="square" stroke-linejoin="bevel" stroke-miterlimit="10" x1="352.8" y1="323.2" x2="357.5" y2="318.7"/>
		
			<polyline fill="none" stroke="#000000" stroke-width="0.12" stroke-linecap="square" stroke-linejoin="bevel" stroke-miterlimit="10" points="
			357.7,322.7 357,322.7 357,323.5 		"/>
		
			<polyline fill="none" stroke="#000000" stroke-width="0.12" stroke-linecap="square" stroke-linejoin="bevel" stroke-miterlimit="10" points="
			353.4,318.4 353.4,319.2 352.6,319.2 		"/>
		
			<line fill="none" stroke="#000000" stroke-width="0.12" stroke-linecap="square" stroke-linejoin="bevel" stroke-miterlimit="10" x1="352.8" y1="318.7" x2="357.5" y2="323.2"/>
		
			<polyline fill="none" stroke="#000000" stroke-width="0.12" stroke-linecap="square" stroke-linejoin="bevel" stroke-miterlimit="10" points="
			358.2,320.4 357.7,320.9 358.2,321.4 		"/>
		
			<polyline fill="none" stroke="#000000" stroke-width="0.12" stroke-linecap="square" stroke-linejoin="bevel" stroke-miterlimit="10" points="
			352.1,320.4 352.6,320.9 352.1,321.4 		"/>
		
			<polyline fill="none" stroke="#000000" stroke-width="0.12" stroke-linecap="square" stroke-linejoin="bevel" stroke-miterlimit="10" points="
			355.7,324 355.2,323.5 354.6,324 		"/>
		
			<polyline fill="none" stroke="#000000" stroke-width="0.12" stroke-linecap="square" stroke-linejoin="bevel" stroke-miterlimit="10" points="
			355.7,317.9 355.2,318.5 354.6,317.9 		"/>
		
			<line fill="none" stroke="#000000" stroke-width="0.12" stroke-linecap="square" stroke-linejoin="bevel" stroke-miterlimit="10" x1="351.9" y1="320.9" x2="358.4" y2="320.9"/>
		
			<line fill="none" stroke="#000000" stroke-width="0.12" stroke-linecap="square" stroke-linejoin="bevel" stroke-miterlimit="10" x1="355.2" y1="317.7" x2="355.2" y2="324.2"/>
		<polyline fill="none" stroke="#707E85" stroke-width="0.3" stroke-miterlimit="10" points="357,318.4 357,319.2 357.7,319.2 		"/>
		<polyline fill="none" stroke="#707E85" stroke-width="0.3" stroke-miterlimit="10" points="352.6,322.7 353.4,322.7 353.4,323.5 
					"/>
		<line fill="none" stroke="#707E85" stroke-width="0.3" stroke-miterlimit="10" x1="352.8" y1="323.2" x2="357.5" y2="318.7"/>
		<polyline fill="none" stroke="#707E85" stroke-width="0.3" stroke-miterlimit="10" points="357.7,322.7 357,322.7 357,323.5 		"/>
		<polyline fill="none" stroke="#707E85" stroke-width="0.3" stroke-miterlimit="10" points="353.4,318.4 353.4,319.2 352.6,319.2 
					"/>
		<line fill="none" stroke="#707E85" stroke-width="0.3" stroke-miterlimit="10" x1="352.8" y1="318.7" x2="357.5" y2="323.2"/>
		<polyline fill="none" stroke="#707E85" stroke-width="0.3" stroke-miterlimit="10" points="358.2,320.4 357.7,320.9 358.2,321.4 
					"/>
		<polyline fill="none" stroke="#707E85" stroke-width="0.3" stroke-miterlimit="10" points="352.1,320.4 352.6,320.9 352.1,321.4 
					"/>
		<polyline fill="none" stroke="#707E85" stroke-width="0.3" stroke-miterlimit="10" points="355.7,324 355.2,323.5 354.6,324 		"/>
		<polyline fill="none" stroke="#707E85" stroke-width="0.3" stroke-miterlimit="10" points="355.7,317.9 355.2,318.5 354.6,317.9 
					"/>
		<line fill="none" stroke="#707E85" stroke-width="0.3" stroke-miterlimit="10" x1="351.9" y1="320.9" x2="358.4" y2="320.9"/>
		<line fill="none" stroke="#707E85" stroke-width="0.3" stroke-miterlimit="10" x1="355.2" y1="317.7" x2="355.2" y2="324.2"/>
	</g>
	<g>
		<rect x="348.1" y="276.3" fill="none" stroke="#707E85" stroke-width="0.3" stroke-miterlimit="10" width="15.4" height="31.1"/>
		<g>
			<path fill="#FFFFFF" stroke="#707E85" stroke-width="0.3" stroke-miterlimit="10" d="M359.8,292.2h-8.1c-1.3,0-2.4-1.1-2.4-2.4
				v-9.6c0-1.3,1.1-2.4,2.4-2.4h8.1c1.3,0,2.4,1.1,2.4,2.4v9.6C362.2,291.1,361.2,292.2,359.8,292.2z"/>
			<circle fill="#FFFFFF" stroke="#707E85" stroke-width="0.3" stroke-miterlimit="10" cx="359.7" cy="284.7" r="1"/>
		</g>
		<g>
			<rect x="351.2" y="294.6" fill="#707E85" width="0.6" height="10.2"/>
			<rect x="353.3" y="294.6" fill="#707E85" width="0.6" height="10.2"/>
			<rect x="355.5" y="294.6" fill="#707E85" width="0.6" height="10.2"/>
			<rect x="357.6" y="294.6" fill="#707E85" width="0.6" height="10.2"/>
			<rect x="359.8" y="294.6" fill="#707E85" width="0.6" height="10.2"/>
		</g>
	</g>
	<g>
		<rect x="348.1" y="228" fill="none" stroke="#707E85" stroke-width="0.3" stroke-miterlimit="10" width="15.4" height="15.4"/>
		<path fill="#FFFFFF" stroke="#707E85" stroke-width="0.3" stroke-miterlimit="10" d="M359,236.1c1.6,0,2.8,1.3,2.8,2.8
			c0,1.6-1.3,2.8-2.8,2.8c-1.6,0-2.8-1.3-2.8-2.8C356.2,237.4,357.4,236.1,359,236.1"/>
		<path fill="#FFFFFF" stroke="#707E85" stroke-width="0.3" stroke-miterlimit="10" d="M352.4,229.8c1.6,0,2.8,1.3,2.8,2.8
			c0,1.6-1.3,2.8-2.8,2.8c-1.6,0-2.8-1.3-2.8-2.8C349.6,231.1,350.9,229.8,352.4,229.8"/>
		<path fill="#FFFFFF" stroke="#707E85" stroke-width="0.3" stroke-miterlimit="10" d="M351.9,236.9c1.3,0,2.3,1,2.3,2.3
			c0,1.3-1,2.3-2.3,2.3s-2.3-1-2.3-2.3C349.6,237.9,350.6,236.9,351.9,236.9"/>
		<path fill="#FFFFFF" stroke="#707E85" stroke-width="0.3" stroke-miterlimit="10" d="M359.4,229.8c1.3,0,2.3,1,2.3,2.3
			s-1,2.3-2.3,2.3s-2.3-1-2.3-2.3S358.1,229.8,359.4,229.8"/>
	</g>
	<g>
		<g>
			<g>
				<path fill="#EAF6FE" stroke="#CBD3D7" stroke-width="0.3" stroke-miterlimit="10" d="M308.5,286.8V285h-15.9v1.8
					c0,0.7,0.6,1.3,1.3,1.3h13.3C308,288.1,308.5,287.5,308.5,286.8z"/>
				<rect x="292.7" y="280" fill="#EAF6FE" stroke="#CBD3D7" stroke-width="0.3" stroke-miterlimit="10" width="15.9" height="5"/>
				<line fill="#EAF6FE" stroke="#CBD3D7" stroke-width="0.3" stroke-miterlimit="10" x1="306.4" y1="285" x2="306.4" y2="280"/>
				<line fill="#EAF6FE" stroke="#CBD3D7" stroke-width="0.3" stroke-miterlimit="10" x1="294.8" y1="280" x2="294.8" y2="285"/>
			</g>
		</g>
		<g>
			<g>
				<path fill="#EAF6FE" stroke="#CBD3D7" stroke-width="0.3" stroke-miterlimit="10" d="M297,238.9l-0.7,1.6l13.8,5.8l0.7-1.6
					c0.3-0.6,0-1.3-0.6-1.6l-11.5-4.9C298,238,297.3,238.3,297,238.9z"/>
				
					<rect x="294.2" y="241.9" transform="matrix(-0.3873 0.922 -0.922 -0.3873 647.1108 68.7265)" fill="#EAF6FE" stroke="#CBD3D7" stroke-width="0.3" stroke-miterlimit="10" width="13.1" height="14.9"/>
				
					<line fill="#EAF6FE" stroke="#CBD3D7" stroke-width="0.3" stroke-miterlimit="10" x1="298.3" y1="241.2" x2="293.2" y2="253.3"/>
				
					<line fill="#EAF6FE" stroke="#CBD3D7" stroke-width="0.3" stroke-miterlimit="10" x1="303.2" y1="257.6" x2="308.3" y2="245.4"/>
			</g>
			<g>
				<g opacity="5.000000e-002">
					<path fill="#707E85" d="M290.2,281.7v-28.5c0-0.7,0.6-1.3,1.3-1.3h24.9c0.7,0,1.3,0.6,1.3,1.3v28.5c0,0.7-0.6,1.3-1.3,1.3
						h-24.9C290.8,283,290.2,282.5,290.2,281.7z"/>
					<path fill="none" stroke="#707E85" stroke-width="0.3" stroke-miterlimit="10" d="M290.2,281.7v-28.5c0-0.7,0.6-1.3,1.3-1.3
						h24.9c0.7,0,1.3,0.6,1.3,1.3v28.5c0,0.7-0.6,1.3-1.3,1.3h-24.9C290.8,283,290.2,282.5,290.2,281.7z"/>
				</g>
				<g>
					<path fill="#EAF6FE" d="M287.2,278.7v-28.5c0-0.7,0.6-1.3,1.3-1.3h24.9c0.7,0,1.3,0.6,1.3,1.3v28.5c0,0.7-0.6,1.3-1.3,1.3
						h-24.9C287.8,280,287.2,279.5,287.2,278.7z"/>
					<path fill="none" stroke="#CBD3D7" stroke-width="0.3" stroke-miterlimit="10" d="M287.2,278.7v-28.5c0-0.7,0.6-1.3,1.3-1.3
						h24.9c0.7,0,1.3,0.6,1.3,1.3v28.5c0,0.7-0.6,1.3-1.3,1.3h-24.9C287.8,280,287.2,279.5,287.2,278.7z"/>
				</g>
			</g>
			<path fill="#EAF6FE" stroke="#CBD3D7" stroke-width="0.3" stroke-miterlimit="10" d="M296.9,266.2l2.1-2.9c0.3-0.4,1-0.5,1.4-0.2
				l5.2,3.8c0.4,0.3,0.5,1,0.2,1.4l-2.1,2.9c-0.3,0.4-1,0.5-1.4,0.2l-5.2-3.8C296.7,267.3,296.6,266.7,296.9,266.2z"/>
		</g>
	</g>
	<g>
		<g>
			<g>
				<rect x="275" y="217.8" fill="#FFFFFF" width="1.9" height="21.7"/>
				<path fill="#707E85" d="M276.7,217.9v21.4h-1.6v-21.4H276.7 M277,217.6h-2.2v22h2.2V217.6L277,217.6z"/>
			</g>
		</g>
		<g>
			<g>
				<rect x="274.8" y="216.1" fill="#707E85" width="2.2" height="1.6"/>
			</g>
		</g>
		<g>
			<g>
				<rect x="274.8" y="239.6" fill="#707E85" width="2.2" height="1.6"/>
			</g>
		</g>
	</g>
	<g>
		<g>
			<g>
				<g opacity="5.000000e-002">
					<path fill="#707E85" d="M219.3,337.7c-0.9-5-0.9-12.4,0-17.4c0.1-0.5,0.6-0.9,1.1-0.9h15.7c0.5,0,1,0.4,1.1,0.9
						c0.9,5,0.9,12.4,0,17.4c-0.1,0.5-0.6,0.9-1.1,0.9h-15.7C219.8,338.6,219.4,338.2,219.3,337.7z"/>
					<path fill="none" stroke="#707E85" stroke-width="0.3" stroke-miterlimit="10" d="M219.3,337.7c-0.9-5-0.9-12.4,0-17.4
						c0.1-0.5,0.6-0.9,1.1-0.9h15.7c0.5,0,1,0.4,1.1,0.9c0.9,5,0.9,12.4,0,17.4c-0.1,0.5-0.6,0.9-1.1,0.9h-15.7
						C219.8,338.6,219.4,338.2,219.3,337.7z"/>
				</g>
				<g>
					<path fill="#EAF6FE" d="M216.3,334.7c-0.9-5-0.9-12.4,0-17.4c0.1-0.5,0.6-0.9,1.1-0.9h15.7c0.5,0,1,0.4,1.1,0.9
						c0.9,5,0.9,12.4,0,17.4c-0.1,0.5-0.6,0.9-1.1,0.9h-15.7C216.8,335.6,216.4,335.2,216.3,334.7z"/>
					<path fill="none" stroke="#CBD3D7" stroke-width="0.3" stroke-miterlimit="10" d="M216.3,334.7c-0.9-5-0.9-12.4,0-17.4
						c0.1-0.5,0.6-0.9,1.1-0.9h15.7c0.5,0,1,0.4,1.1,0.9c0.9,5,0.9,12.4,0,17.4c-0.1,0.5-0.6,0.9-1.1,0.9h-15.7
						C216.8,335.6,216.4,335.2,216.3,334.7z"/>
				</g>
			</g>
		</g>
		<g>
			<g>
				
					<path fill="#EAF6FE" stroke="#CBD3D7" stroke-width="0.3" stroke-linecap="round" stroke-linejoin="round" stroke-miterlimit="10" d="
					M225.9,326.1c0,0,3.1-1.3,5-0.2C230.9,325.9,229.7,327.4,225.9,326.1z"/>
				
					<path fill="#EAF6FE" stroke="#CBD3D7" stroke-width="0.3" stroke-linecap="round" stroke-linejoin="round" stroke-miterlimit="10" d="
					M225.9,326.1c0,0,3.2,0.1,4.6,1.9C230.5,328,228.7,328.9,225.9,326.1z"/>
				
					<path fill="#EAF6FE" stroke="#CBD3D7" stroke-width="0.3" stroke-linecap="round" stroke-linejoin="round" stroke-miterlimit="10" d="
					M229.9,322.7c0,0-3.3,0-4,3.4C225.9,326.1,229.7,325.2,229.9,322.7z"/>
				
					<path fill="#EAF6FE" stroke="#CBD3D7" stroke-width="0.3" stroke-linecap="round" stroke-linejoin="round" stroke-miterlimit="10" d="
					M220.8,322.4c0,0,4,0.7,5.1,3.7C225.9,326.1,222.6,326.5,220.8,322.4z"/>
				
					<path fill="#EAF6FE" stroke="#CBD3D7" stroke-width="0.3" stroke-linecap="round" stroke-linejoin="round" stroke-miterlimit="10" d="
					M226.7,320.6c0,0,0.7,2.2-0.8,5.5C225.9,326.1,224.7,323.1,226.7,320.6z"/>
				
					<path fill="#EAF6FE" stroke="#CBD3D7" stroke-width="0.3" stroke-linecap="round" stroke-linejoin="round" stroke-miterlimit="10" d="
					M219.6,325.9c0,0,4.1-1.7,6.4,0.1C226,326,225.6,327.3,219.6,325.9z"/>
				
					<path fill="#EAF6FE" stroke="#CBD3D7" stroke-width="0.3" stroke-linecap="round" stroke-linejoin="round" stroke-miterlimit="10" d="
					M229.3,330.2c0,0-1.4-3.5-3.4-4.1C225.9,326.1,226.8,328.4,229.3,330.2z"/>
				
					<path fill="#EAF6FE" stroke="#CBD3D7" stroke-width="0.3" stroke-linecap="round" stroke-linejoin="round" stroke-miterlimit="10" d="
					M220.6,329.2c0,0,2.1-2.9,5.3-3.1C225.9,326.1,224.2,328.8,220.6,329.2z"/>
				
					<path fill="#EAF6FE" stroke="#CBD3D7" stroke-width="0.3" stroke-linecap="round" stroke-linejoin="round" stroke-miterlimit="10" d="
					M227,331.6c0,0,0.6-3.5-1.1-5.6C226,326,224.8,328.2,227,331.6z"/>
				
					<path fill="#EAF6FE" stroke="#CBD3D7" stroke-width="0.3" stroke-linecap="round" stroke-linejoin="round" stroke-miterlimit="10" d="
					M223.8,320.6c0,0,2.3,1.6,2.1,5.4C226,326,223.4,323.8,223.8,320.6z"/>
				
					<path fill="#EAF6FE" stroke="#CBD3D7" stroke-width="0.3" stroke-linecap="round" stroke-linejoin="round" stroke-miterlimit="10" d="
					M222.2,330.8c0,0,1.3-4.2,3.8-4.9C226,325.9,225.8,329,222.2,330.8z"/>
				
					<path fill="#EAF6FE" stroke="#CBD3D7" stroke-width="0.3" stroke-linecap="round" stroke-linejoin="round" stroke-miterlimit="10" d="
					M224.4,331.8c0,0-0.6-3.5,1.5-5.8C226,326,227,328.5,224.4,331.8z"/>
				
					<path fill="#EAF6FE" stroke="#CBD3D7" stroke-width="0.3" stroke-linecap="round" stroke-linejoin="round" stroke-miterlimit="10" d="
					M226,325.8c0,0-0.1-2,2.3-4.5C228.3,321.3,228.2,323.4,226,325.8z"/>
				
					<path fill="#EAF6FE" stroke="#CBD3D7" stroke-width="0.3" stroke-linecap="round" stroke-linejoin="round" stroke-miterlimit="10" d="
					M222.6,321.4c0,0,2.7,1.9,3.3,4.4C225.9,325.8,223.6,325.5,222.6,321.4z"/>
			</g>
			<g>
				
					<path fill="#EAF6FE" stroke="#CBD3D7" stroke-width="0.3" stroke-linecap="round" stroke-linejoin="round" stroke-miterlimit="10" d="
					M225.6,326.1c0,0,1.9,0.1,2.7,1.2C228.3,327.3,227.3,327.8,225.6,326.1z"/>
				
					<path fill="#EAF6FE" stroke="#CBD3D7" stroke-width="0.3" stroke-linecap="round" stroke-linejoin="round" stroke-miterlimit="10" d="
					M228,324.1c0,0-1.9,0-2.4,2C225.6,326.1,227.9,325.6,228,324.1z"/>
				
					<path fill="#EAF6FE" stroke="#CBD3D7" stroke-width="0.3" stroke-linecap="round" stroke-linejoin="round" stroke-miterlimit="10" d="
					M222.6,323.9c0,0,2.4,0.4,3,2.2C225.6,326.1,223.7,326.4,222.6,323.9z"/>
				
					<path fill="#EAF6FE" stroke="#CBD3D7" stroke-width="0.3" stroke-linecap="round" stroke-linejoin="round" stroke-miterlimit="10" d="
					M226.1,322.9c0,0,0.4,1.3-0.5,3.3C225.6,326.1,224.9,324.3,226.1,322.9z"/>
				
					<path fill="#EAF6FE" stroke="#CBD3D7" stroke-width="0.3" stroke-linecap="round" stroke-linejoin="round" stroke-miterlimit="10" d="
					M222.5,328c0,0,1.2-1.7,3.1-1.9C225.6,326.1,224.6,327.7,222.5,328z"/>
				
					<path fill="#EAF6FE" stroke="#CBD3D7" stroke-width="0.3" stroke-linecap="round" stroke-linejoin="round" stroke-miterlimit="10" d="
					M226.3,329.4c0,0,0.3-2.1-0.6-3.3C225.7,326.1,225,327.4,226.3,329.4z"/>
				
					<path fill="#EAF6FE" stroke="#CBD3D7" stroke-width="0.3" stroke-linecap="round" stroke-linejoin="round" stroke-miterlimit="10" d="
					M224.4,322.9c0,0,1.3,1,1.3,3.2C225.7,326.1,224.2,324.8,224.4,322.9z"/>
				
					<path fill="#EAF6FE" stroke="#CBD3D7" stroke-width="0.3" stroke-linecap="round" stroke-linejoin="round" stroke-miterlimit="10" d="
					M224.8,329.5c0,0-0.3-2.1,0.9-3.4C225.7,326.1,226.3,327.5,224.8,329.5z"/>
			</g>
		</g>
	</g>
	<g>
		<g>
			<g opacity="5.000000e-002">
				<path fill="#707E85" d="M201,382.3h54.3c0.6,0,1.1,0.4,1.1,1v12.4c0,0.6-0.5,1-1.1,1H201c-0.6,0-1.1-0.4-1.1-1v-12.4
					C199.9,382.8,200.4,382.3,201,382.3z"/>
				<path fill="none" stroke="#707E85" stroke-width="0.3" stroke-miterlimit="10" d="M201,382.3h54.3c0.6,0,1.1,0.4,1.1,1v12.4
					c0,0.6-0.5,1-1.1,1H201c-0.6,0-1.1-0.4-1.1-1v-12.4C199.9,382.8,200.4,382.3,201,382.3z"/>
			</g>
			<g>
				<path fill="#EAF6FE" d="M198,379.3h54.3c0.6,0,1.1,0.4,1.1,1v12.4c0,0.6-0.5,1-1.1,1H198c-0.6,0-1.1-0.4-1.1-1v-12.4
					C196.9,379.8,197.4,379.3,198,379.3z"/>
				<path fill="none" stroke="#CBD3D7" stroke-width="0.3" stroke-miterlimit="10" d="M198,379.3h54.3c0.6,0,1.1,0.4,1.1,1v12.4
					c0,0.6-0.5,1-1.1,1H198c-0.6,0-1.1-0.4-1.1-1v-12.4C196.9,379.8,197.4,379.3,198,379.3z"/>
			</g>
		</g>
		<path fill="#EAF6FE" stroke="#CBD3D7" stroke-width="0.3" stroke-miterlimit="10" d="M232.5,386.4v4.8c0,0.6-0.4,1-1,1h-12.7
			c-0.6,0-1-0.4-1-1v-4.8c0-0.6,0.4-1,1-1h12.7C232.1,385.4,232.5,385.8,232.5,386.4z"/>
		<path fill="#EAF6FE" stroke="#CBD3D7" stroke-width="0.2953" stroke-miterlimit="10" d="M231.3,391.6H219c-0.3,0-0.6-0.3-0.6-0.6
			v-4.5c0-0.3,0.3-0.6,0.6-0.6h12.2c0.3,0,0.6,0.3,0.6,0.6v4.5C231.9,391.3,231.6,391.6,231.3,391.6z"/>
		
			<rect x="202.5" y="387.3" fill="#EAF6FE" stroke="#CBD3D7" stroke-width="0.3" stroke-miterlimit="10" width="45.4" height="1.4"/>
	</g>
	<g>
		<g>
			<g opacity="5.000000e-002">
				<path fill="#707E85" d="M198.5,309.4c0.6,0,1.1-0.5,1.1-1.1v-0.2c0-0.6-0.5-1.1-1.1-1.1h-20.1c-2.8,0-5,2.2-5,5v33.9
					c0,2.8,2.2,5,5,5h20.1c0.6,0,1.1-0.5,1.1-1.1v-0.2c0-0.6-0.5-1.1-1.1-1.1h-0.7c0.7,0,1.3-0.6,1.3-1.3v-17c0-0.7-0.6-1.3-1.3-1.3
					c0.7,0,1.3-0.6,1.3-1.3v-17c0-0.7-0.6-1.3-1.3-1.3H198.5z"/>
				<path fill="none" stroke="#707E85" stroke-width="0.3" stroke-miterlimit="10" d="M198.5,309.4c0.6,0,1.1-0.5,1.1-1.1v-0.2
					c0-0.6-0.5-1.1-1.1-1.1h-20.1c-2.8,0-5,2.2-5,5v33.9c0,2.8,2.2,5,5,5h20.1c0.6,0,1.1-0.5,1.1-1.1v-0.2c0-0.6-0.5-1.1-1.1-1.1
					h-0.7c0.7,0,1.3-0.6,1.3-1.3v-17c0-0.7-0.6-1.3-1.3-1.3c0.7,0,1.3-0.6,1.3-1.3v-17c0-0.7-0.6-1.3-1.3-1.3H198.5z"/>
			</g>
			<g>
				<path fill="#EAF6FE" d="M195.5,306.4c0.6,0,1.1-0.5,1.1-1.1v-0.2c0-0.6-0.5-1.1-1.1-1.1h-20.1c-2.8,0-5,2.2-5,5v33.9
					c0,2.8,2.2,5,5,5h20.1c0.6,0,1.1-0.5,1.1-1.1v-0.2c0-0.6-0.5-1.1-1.1-1.1h-0.7c0.7,0,1.3-0.6,1.3-1.3v-17c0-0.7-0.6-1.3-1.3-1.3
					c0.7,0,1.3-0.6,1.3-1.3v-17c0-0.7-0.6-1.3-1.3-1.3H195.5z"/>
				<path fill="none" stroke="#CBD3D7" stroke-width="0.3" stroke-miterlimit="10" d="M195.5,306.4c0.6,0,1.1-0.5,1.1-1.1v-0.2
					c0-0.6-0.5-1.1-1.1-1.1h-20.1c-2.8,0-5,2.2-5,5v33.9c0,2.8,2.2,5,5,5h20.1c0.6,0,1.1-0.5,1.1-1.1v-0.2c0-0.6-0.5-1.1-1.1-1.1
					h-0.7c0.7,0,1.3-0.6,1.3-1.3v-17c0-0.7-0.6-1.3-1.3-1.3c0.7,0,1.3-0.6,1.3-1.3v-17c0-0.7-0.6-1.3-1.3-1.3H195.5z"/>
			</g>
		</g>
		<g>
			<path fill="#EAF6FE" stroke="#CBD3D7" stroke-width="0.3033" stroke-miterlimit="10" d="M170.4,309v33.9c0,2.8,2.2,5,5,5h20.1
				c0.6,0,1.1-0.5,1.1-1.1v-0.2c0-0.6-0.5-1.1-1.1-1.1h-17.2v-39h17.2c0.6,0,1.1-0.5,1.1-1.1v-0.2c0-0.6-0.5-1.1-1.1-1.1h-20.1
				C172.7,304,170.4,306.2,170.4,309z"/>
			<g>
				<g>
					<path fill="#EAF6FE" stroke="#CBD3D7" stroke-width="0.3" stroke-miterlimit="10" d="M180.3,343.8c-0.5-5.4-0.5-10.8,0-16.2
						c0.1-1.2-0.7-2.3-1.9-2.4c-0.9-0.1-1.8-0.2-2.6-0.3c-1.2-0.2-2.3,0.8-2.4,2.1c-0.6,5.8-0.6,11.7,0,17.5
						c0.1,1.3,1.2,2.2,2.4,2.1c0.9-0.1,1.8-0.2,2.6-0.3C179.5,346.1,180.4,345,180.3,343.8z"/>
					
						<path fill="#EAF6FE" stroke="#CBD3D7" stroke-width="0.3" stroke-linecap="round" stroke-linejoin="round" stroke-miterlimit="10" d="
						M178.5,344.2c-0.6-0.1-0.6-16.9,0-17.1"/>
				</g>
			</g>
			<g>
				<line fill="#EAF6FE" stroke="#CBD3D7" stroke-width="0.3" stroke-miterlimit="10" x1="177.3" y1="326" x2="194.8" y2="326"/>
				<g>
					<path fill="#EAF6FE" stroke="#CBD3D7" stroke-width="0.3" stroke-miterlimit="10" d="M180.3,324.3c-0.5-5.4-0.5-10.8,0-16.2
						c0.1-1.2-0.7-2.3-1.9-2.4c-0.9-0.1-1.8-0.2-2.6-0.3c-1.2-0.2-2.3,0.8-2.4,2.1c-0.6,5.8-0.6,11.7,0,17.5
						c0.1,1.3,1.2,2.2,2.4,2.1c0.9-0.1,1.8-0.2,2.6-0.3C179.5,326.6,180.4,325.5,180.3,324.3z"/>
					
						<path fill="#EAF6FE" stroke="#CBD3D7" stroke-width="0.3" stroke-linecap="round" stroke-linejoin="round" stroke-miterlimit="10" d="
						M178.5,324.7c-0.6-0.1-0.6-16.9,0-17.1"/>
				</g>
			</g>
			<g>
				<g>
					<path fill="#EAF6FE" stroke="#CBD3D7" stroke-width="0.3" stroke-miterlimit="10" d="M180.3,324.3c-0.5-5.4-0.5-10.8,0-16.2
						c0.1-1.2-0.7-2.3-1.9-2.4c-0.9-0.1-1.8-0.2-2.6-0.3c-1.2-0.2-2.3,0.8-2.4,2.1c-0.6,5.8-0.6,11.7,0,17.5
						c0.1,1.3,1.2,2.2,2.4,2.1c0.9-0.1,1.8-0.2,2.6-0.3C179.5,326.6,180.4,325.5,180.3,324.3z"/>
					
						<path fill="#EAF6FE" stroke="#CBD3D7" stroke-width="0.3" stroke-linecap="round" stroke-linejoin="round" stroke-miterlimit="10" d="
						M178.5,324.7c-0.6-0.1-0.6-16.9,0-17.1"/>
				</g>
			</g>
			<path fill="#EAF6FE" stroke="#CBD3D7" stroke-width="0.3" stroke-miterlimit="10" d="M175.7,344.7c0.5-0.8,3.6-3.6,3.8-3.8
				c0-1.5,0.8-4.1,1.3-4.5c0.4,0.2,0.3,0.4,0.9,0.7c0.7,0.2,4.6,1.1,6.6,2.8c-1,1.1-1.6,6.6-3.2,8.1c-0.4,0.8-0.6,1.6-1.3,2.2
				c-0.5-0.2-2.3-2.3-2.4-3.2C180.4,346.6,176.4,345.8,175.7,344.7z"/>
			<path fill="#EAF6FE" stroke="#CBD3D7" stroke-width="0.3" stroke-miterlimit="10" d="M174.9,310.1c0.6-0.8,6.9-5.4,7.4-5.7
				c1.5,0.4,3.6,3.3,4.1,4.2c1,0.3,2.1,0.9,2.6,1.5c-0.4,0.4-1.3,1.2-1.8,1.5c-0.3,0.5-2.8,3.5-4.8,4.1c-0.5,0.4-1,1-1.3,1
				c-0.5-0.7-0.9-1.5-0.9-2C179.8,314.2,175,310.9,174.9,310.1z"/>
		</g>
	</g>
	<g>
		<g>
			<g opacity="5.000000e-002">
				<path fill="#707E85" d="M247.8,299c0,0.6,0.5,1.1,1.1,1.1h0.2c0.6,0,1.1-0.5,1.1-1.1v-20.1c0-2.8-2.2-5-5-5h-33.9
					c-2.8,0-5,2.2-5,5V299c0,0.6,0.5,1.1,1.1,1.1h0.2c0.6,0,1.1-0.5,1.1-1.1v-0.7c0,0.7,0.6,1.3,1.3,1.3h17c0.7,0,1.3-0.6,1.3-1.3
					c0,0.7,0.6,1.3,1.3,1.3h17c0.7,0,1.3-0.6,1.3-1.3V299z"/>
				<path fill="none" stroke="#707E85" stroke-width="0.3" stroke-miterlimit="10" d="M247.8,299c0,0.6,0.5,1.1,1.1,1.1h0.2
					c0.6,0,1.1-0.5,1.1-1.1v-20.1c0-2.8-2.2-5-5-5h-33.9c-2.8,0-5,2.2-5,5V299c0,0.6,0.5,1.1,1.1,1.1h0.2c0.6,0,1.1-0.5,1.1-1.1
					v-0.7c0,0.7,0.6,1.3,1.3,1.3h17c0.7,0,1.3-0.6,1.3-1.3c0,0.7,0.6,1.3,1.3,1.3h17c0.7,0,1.3-0.6,1.3-1.3V299z"/>
			</g>
			<g>
				<path fill="#EAF6FE" d="M244.8,296c0,0.6,0.5,1.1,1.1,1.1h0.2c0.6,0,1.1-0.5,1.1-1.1v-20.1c0-2.8-2.2-5-5-5h-33.9
					c-2.8,0-5,2.2-5,5V296c0,0.6,0.5,1.1,1.1,1.1h0.2c0.6,0,1.1-0.5,1.1-1.1v-0.7c0,0.7,0.6,1.3,1.3,1.3h17c0.7,0,1.3-0.6,1.3-1.3
					c0,0.7,0.6,1.3,1.3,1.3h17c0.7,0,1.3-0.6,1.3-1.3V296z"/>
				<path fill="none" stroke="#CBD3D7" stroke-width="0.3" stroke-miterlimit="10" d="M244.8,296c0,0.6,0.5,1.1,1.1,1.1h0.2
					c0.6,0,1.1-0.5,1.1-1.1v-20.1c0-2.8-2.2-5-5-5h-33.9c-2.8,0-5,2.2-5,5V296c0,0.6,0.5,1.1,1.1,1.1h0.2c0.6,0,1.1-0.5,1.1-1.1
					v-0.7c0,0.7,0.6,1.3,1.3,1.3h17c0.7,0,1.3-0.6,1.3-1.3c0,0.7,0.6,1.3,1.3,1.3h17c0.7,0,1.3-0.6,1.3-1.3V296z"/>
			</g>
		</g>
		<g>
			<path fill="#EAF6FE" stroke="#CBD3D7" stroke-width="0.3033" stroke-miterlimit="10" d="M242.3,270.9h-33.9c-2.8,0-5,2.2-5,5V296
				c0,0.6,0.5,1.1,1.1,1.1h0.2c0.6,0,1.1-0.5,1.1-1.1v-17.2h39V296c0,0.6,0.5,1.1,1.1,1.1h0.2c0.6,0,1.1-0.5,1.1-1.1v-20.1
				C247.3,273.2,245,270.9,242.3,270.9z"/>
			<g>
				<g>
					<path fill="#EAF6FE" stroke="#CBD3D7" stroke-width="0.3" stroke-miterlimit="10" d="M207.5,280.8c5.4-0.5,10.8-0.5,16.2,0
						c1.2,0.1,2.3-0.7,2.4-1.9c0.1-0.9,0.2-1.8,0.3-2.6c0.2-1.2-0.8-2.3-2.1-2.4c-5.8-0.6-11.7-0.6-17.5,0c-1.3,0.1-2.2,1.2-2.1,2.4
						c0.1,0.9,0.2,1.8,0.3,2.6C205.2,280,206.3,280.9,207.5,280.8z"/>
					
						<path fill="#EAF6FE" stroke="#CBD3D7" stroke-width="0.3" stroke-linecap="round" stroke-linejoin="round" stroke-miterlimit="10" d="
						M207,278.9c0.1-0.6,16.9-0.6,17.1,0"/>
				</g>
			</g>
			<g>
				
					<line fill="#EAF6FE" stroke="#CBD3D7" stroke-width="0.3" stroke-miterlimit="10" x1="225.3" y1="277.8" x2="225.3" y2="295.3"/>
				<g>
					<path fill="#EAF6FE" stroke="#CBD3D7" stroke-width="0.3" stroke-miterlimit="10" d="M227,280.8c5.4-0.5,10.8-0.5,16.2,0
						c1.2,0.1,2.3-0.7,2.4-1.9c0.1-0.9,0.2-1.8,0.3-2.6c0.2-1.2-0.8-2.3-2.1-2.4c-5.8-0.6-11.7-0.6-17.5,0c-1.3,0.1-2.2,1.2-2.1,2.4
						c0.1,0.9,0.2,1.8,0.3,2.6C224.7,280,225.8,280.9,227,280.8z"/>
					
						<path fill="#EAF6FE" stroke="#CBD3D7" stroke-width="0.3" stroke-linecap="round" stroke-linejoin="round" stroke-miterlimit="10" d="
						M226.5,278.9c0.1-0.6,16.9-0.6,17.1,0"/>
				</g>
			</g>
			<g>
				<g>
					<path fill="#EAF6FE" stroke="#CBD3D7" stroke-width="0.3" stroke-miterlimit="10" d="M227,280.8c5.4-0.5,10.8-0.5,16.2,0
						c1.2,0.1,2.3-0.7,2.4-1.9c0.1-0.9,0.2-1.8,0.3-2.6c0.2-1.2-0.8-2.3-2.1-2.4c-5.8-0.6-11.7-0.6-17.5,0c-1.3,0.1-2.2,1.2-2.1,2.4
						c0.1,0.9,0.2,1.8,0.3,2.6C224.7,280,225.8,280.9,227,280.8z"/>
					
						<path fill="#EAF6FE" stroke="#CBD3D7" stroke-width="0.3" stroke-linecap="round" stroke-linejoin="round" stroke-miterlimit="10" d="
						M226.5,278.9c0.1-0.6,16.9-0.6,17.1,0"/>
				</g>
			</g>
			<path fill="#EAF6FE" stroke="#CBD3D7" stroke-width="0.3" stroke-miterlimit="10" d="M206.6,276.2c0.8,0.5,3.6,3.6,3.8,3.8
				c1.5,0,4.1,0.8,4.5,1.3c-0.2,0.4-0.4,0.3-0.7,0.9c-0.2,0.7-1.1,4.6-2.8,6.6c-1.1-1-6.6-1.6-8.1-3.2c-0.8-0.4-1.6-0.6-2.2-1.3
				c0.2-0.5,2.3-2.3,3.2-2.4C204.7,280.9,205.5,276.9,206.6,276.2z"/>
			<path fill="#EAF6FE" stroke="#CBD3D7" stroke-width="0.3" stroke-miterlimit="10" d="M241.2,275.4c0.8,0.6,5.4,6.9,5.7,7.4
				c-0.4,1.5-3.3,3.6-4.2,4.1c-0.3,1-0.9,2.1-1.5,2.6c-0.4-0.4-1.2-1.3-1.5-1.8c-0.5-0.3-3.5-2.8-4.1-4.8c-0.4-0.5-1-1-1-1.3
				c0.7-0.5,1.5-0.9,2-0.9C237.1,280.3,240.4,275.5,241.2,275.4z"/>
		</g>
	</g>
	<g>
		<g>
			<rect x="349.7" y="370.9" fill="#FFFFFF" width="52.4" height="18.5"/>
			<path fill="#707E85" d="M402,371.1v18.3h-52.1v-18.3H402 M402.3,370.8h-52.7v18.9h52.7V370.8L402.3,370.8z"/>
		</g>
		<line fill="none" stroke="#707E85" stroke-width="0.5" stroke-miterlimit="10" x1="356.7" y1="386.3" x2="357.8" y2="374.1"/>
		<line fill="none" stroke="#707E85" stroke-width="0.5" stroke-miterlimit="10" x1="360.6" y1="386.3" x2="359.3" y2="374.1"/>
		<line fill="none" stroke="#707E85" stroke-width="0.5" stroke-miterlimit="10" x1="362" y1="386.3" x2="363.1" y2="374.1"/>
		<line fill="none" stroke="#707E85" stroke-width="0.5" stroke-miterlimit="10" x1="365.9" y1="386.3" x2="364.6" y2="374.1"/>
		<line fill="none" stroke="#707E85" stroke-width="0.5" stroke-miterlimit="10" x1="386" y1="386.3" x2="387" y2="374.1"/>
		<line fill="none" stroke="#707E85" stroke-width="0.5" stroke-miterlimit="10" x1="389.9" y1="386.3" x2="388.6" y2="374.1"/>
		<line fill="none" stroke="#707E85" stroke-width="0.5" stroke-miterlimit="10" x1="391.3" y1="386.3" x2="392.3" y2="374.1"/>
		<line fill="none" stroke="#707E85" stroke-width="0.5" stroke-miterlimit="10" x1="395.1" y1="386.3" x2="393.9" y2="374.1"/>
		<line fill="#EAF6FE" stroke="#707E85" stroke-width="0.3" stroke-miterlimit="10" x1="349.6" y1="372.2" x2="402.1" y2="372.2"/>
		<line fill="#EAF6FE" stroke="#707E85" stroke-width="0.3" stroke-miterlimit="10" x1="375.8" y1="372.2" x2="375.8" y2="370.9"/>
		<polyline fill="none" stroke="#707E85" stroke-width="0.3" stroke-miterlimit="10" points="370.1,370.9 370.1,370.2 372.1,370.2 
			372.1,370.9 		"/>
		<polyline fill="none" stroke="#707E85" stroke-width="0.3" stroke-miterlimit="10" points="379.6,370.9 379.6,370.2 381.5,370.2 
			381.5,370.9 		"/>
		<line fill="none" stroke="#707E85" stroke-width="0.3" stroke-miterlimit="10" x1="349.6" y1="380.2" x2="402.1" y2="380.2"/>
	</g>
	<g>
		<g>
			<g opacity="5.000000e-002">
				<path fill="#707E85" d="M434.7,250.4h63.1c0.6,0,1,0.4,1,1v49.9c0,0.6-0.4,1-1,1h-63.1c-0.6,0-1-0.4-1-1v-49.9
					C433.7,250.8,434.1,250.4,434.7,250.4z"/>
				<path fill="none" stroke="#707E85" stroke-width="0.3" stroke-miterlimit="10" d="M434.7,250.4h63.1c0.6,0,1,0.4,1,1v49.9
					c0,0.6-0.4,1-1,1h-63.1c-0.6,0-1-0.4-1-1v-49.9C433.7,250.8,434.1,250.4,434.7,250.4z"/>
			</g>
			<g>
				<path fill="#EAF6FE" d="M431.7,247.4h63.1c0.6,0,1,0.4,1,1v49.9c0,0.6-0.4,1-1,1h-63.1c-0.6,0-1-0.4-1-1v-49.9
					C430.7,247.8,431.1,247.4,431.7,247.4z"/>
				<path fill="none" stroke="#CBD3D7" stroke-width="0.3" stroke-miterlimit="10" d="M431.7,247.4h63.1c0.6,0,1,0.4,1,1v49.9
					c0,0.6-0.4,1-1,1h-63.1c-0.6,0-1-0.4-1-1v-49.9C430.7,247.8,431.1,247.4,431.7,247.4z"/>
			</g>
		</g>
		<path fill="#EAF6FE" stroke="#CBD3D7" stroke-width="0.3" stroke-miterlimit="10" d="M435.2,250.9h56.1c0.6,0,1,0.4,1,1v43
			c0,0.6-0.4,1-1,1h-56.1c-0.6,0-1-0.4-1-1v-43C434.2,251.3,434.6,250.9,435.2,250.9z"/>
		<path fill="#EAF6FE" stroke="#CBD3D7" stroke-width="0.3" stroke-miterlimit="10" d="M489.1,253.8c1.1,1.9,1.3,15.4,0.1,17.5
			c-0.1,0.1-6.5,0.9-9.9,0.4c-0.6-0.1-1.4-0.6-1.8-1.7c-1.2-3.5-0.7-11.4,0.4-15.2c0.4-1.4,1.8-1.3,2.3-1.4
			C482.8,253,488.7,253.2,489.1,253.8z"/>
		<path fill="#EAF6FE" stroke="#CBD3D7" stroke-width="0.3" stroke-miterlimit="10" d="M489.2,275.2c1.5,3.9,1,16.8,0.3,17.5
			c-0.3,0.3-6.5,1-9.4,0.4c-0.4-0.1-0.8-0.3-1-0.5c-1.1-1.6-2-16.7-1.8-17s1.4-0.1,2-0.4C480.9,274.5,489,274.5,489.2,275.2z"/>
		<g>
			<path fill="#EAF6FE" stroke="#CBD3D7" stroke-width="0.3" stroke-miterlimit="10" d="M468.6,293.5c0,0-1.7-17.9-1.7-20.1
				c0-2.4,1.7-20.1,1.7-20.1c0-1.7-2.8-3.1-1.1-3.1h9.4c1.7,0,3.1,1.4,3.1,3.1c0,0-0.9,17.3-0.9,20s0.9,20.2,0.9,20.2
				c0,1.7-1.4,3.1-3.1,3.1h-9.4C465.7,296.6,468.6,295.2,468.6,293.5z"/>
			<path fill="#EAF6FE" stroke="#CBD3D7" stroke-width="0.3" stroke-linecap="round" stroke-miterlimit="10" d="M477.5,256.9
				c-0.3-2.1-3.2-6.5-4-6.6"/>
			<path fill="#EAF6FE" stroke="#CBD3D7" stroke-width="0.3" stroke-linecap="round" stroke-miterlimit="10" d="M476.6,278.7
				c-0.1-0.4-4.7-9.7-6.8-8.7c-0.8,0.4-0.3,1.9,0.1,2.6"/>
			<path fill="#EAF6FE" stroke="#CBD3D7" stroke-width="0.3" stroke-linecap="round" stroke-miterlimit="10" d="M478.5,293.9
				c-1.3-1.3-4.9-6.8-7.7-14.4"/>
		</g>
		<g>
			<g>
				<g opacity="5.000000e-002">
					<path fill="#707E85" d="M498.8,305.5v8.9c0,0.6-0.4,1-1,1h-7.9c-0.6,0-1-0.4-1-1v-8.9c0-0.6,0.4-1,1-1h7.9
						C498.3,304.5,498.8,305,498.8,305.5z"/>
					<path fill="none" stroke="#707E85" stroke-width="0.3" stroke-miterlimit="10" d="M498.8,305.5v8.9c0,0.6-0.4,1-1,1h-7.9
						c-0.6,0-1-0.4-1-1v-8.9c0-0.6,0.4-1,1-1h7.9C498.3,304.5,498.8,305,498.8,305.5z"/>
				</g>
				<g>
					<path fill="#EAF6FE" d="M495.8,302.5v8.9c0,0.6-0.4,1-1,1h-7.9c-0.6,0-1-0.4-1-1v-8.9c0-0.6,0.4-1,1-1h7.9
						C495.3,301.5,495.8,302,495.8,302.5z"/>
					<path fill="none" stroke="#CBD3D7" stroke-width="0.3" stroke-miterlimit="10" d="M495.8,302.5v8.9c0,0.6-0.4,1-1,1h-7.9
						c-0.6,0-1-0.4-1-1v-8.9c0-0.6,0.4-1,1-1h7.9C495.3,301.5,495.8,302,495.8,302.5z"/>
				</g>
			</g>
			<path fill="#EAF6FE" stroke="#CBD3D7" stroke-width="0.3" stroke-miterlimit="10" d="M488.5,308.1l1.4-3.6
				c0.2-0.5,0.8-0.8,1.3-0.6l1.4,0.5c0.5,0.2,0.8,0.8,0.6,1.3l-1.4,3.6c-0.2,0.5-0.8,0.8-1.3,0.6l-1.4-0.5
				C488.5,309.2,488.3,308.6,488.5,308.1z"/>
			<circle fill="#EAF6FE" stroke="#CBD3D7" stroke-width="0.3" stroke-miterlimit="10" cx="490.8" cy="306.9" r="0.5"/>
		</g>
		<g>
			<g>
				<g opacity="5.000000e-002">
					<path fill="#707E85" d="M488.9,247.1v-8.9c0-0.6,0.4-1,1-1h7.9c0.6,0,1,0.4,1,1v8.9c0,0.6-0.4,1-1,1h-7.9
						C489.3,248.1,488.9,247.6,488.9,247.1z"/>
					<path fill="none" stroke="#707E85" stroke-width="0.3" stroke-miterlimit="10" d="M488.9,247.1v-8.9c0-0.6,0.4-1,1-1h7.9
						c0.6,0,1,0.4,1,1v8.9c0,0.6-0.4,1-1,1h-7.9C489.3,248.1,488.9,247.6,488.9,247.1z"/>
				</g>
				<g>
					<path fill="#EAF6FE" d="M485.9,244.1v-8.9c0-0.6,0.4-1,1-1h7.9c0.6,0,1,0.4,1,1v8.9c0,0.6-0.4,1-1,1h-7.9
						C486.3,245.1,485.9,244.6,485.9,244.1z"/>
					<path fill="none" stroke="#CBD3D7" stroke-width="0.3" stroke-miterlimit="10" d="M485.9,244.1v-8.9c0-0.6,0.4-1,1-1h7.9
						c0.6,0,1,0.4,1,1v8.9c0,0.6-0.4,1-1,1h-7.9C486.3,245.1,485.9,244.6,485.9,244.1z"/>
				</g>
			</g>
			<path fill="#EAF6FE" stroke="#CBD3D7" stroke-width="0.3" stroke-miterlimit="10" d="M490.2,237.3v-0.4c0-0.1,0.1-0.2,0.2-0.2
				h5.3v0.9h-5.3C490.3,237.5,490.2,237.4,490.2,237.3z"/>
			<path fill="#EAF6FE" stroke="#CBD3D7" stroke-width="0.3" stroke-miterlimit="10" d="M491,239v-0.4c0-0.1,0.1-0.2,0.2-0.2h4.5
				v0.9h-4.5C491.1,239.3,491,239.1,491,239z"/>
			<path fill="#EAF6FE" stroke="#CBD3D7" stroke-width="0.3" stroke-miterlimit="10" d="M489.7,238.1v-0.4c0-0.1,0.1-0.2,0.2-0.2
				h5.9v0.9h-5.9C489.8,238.4,489.7,238.3,489.7,238.1z"/>
		</g>
	</g>
	<g>
		<g>
			<g opacity="5.000000e-002">
				<path fill="#707E85" d="M373.5,271.3v-49.6c0-0.6,0.4-1,1-1H391c0.6,0,1,0.4,1,1v49.6c0,0.6-0.4,1-1,1h-16.4
					C374,272.3,373.5,271.9,373.5,271.3z"/>
				<path fill="none" stroke="#707E85" stroke-width="0.3" stroke-miterlimit="10" d="M373.5,271.3v-49.6c0-0.6,0.4-1,1-1H391
					c0.6,0,1,0.4,1,1v49.6c0,0.6-0.4,1-1,1h-16.4C374,272.3,373.5,271.9,373.5,271.3z"/>
			</g>
			<g>
				<path fill="#EAF6FE" d="M370.5,268.3v-49.6c0-0.6,0.4-1,1-1H388c0.6,0,1,0.4,1,1v49.6c0,0.6-0.4,1-1,1h-16.4
					C371,269.3,370.5,268.9,370.5,268.3z"/>
				<path fill="none" stroke="#CBD3D7" stroke-width="0.3" stroke-miterlimit="10" d="M370.5,268.3v-49.6c0-0.6,0.4-1,1-1H388
					c0.6,0,1,0.4,1,1v49.6c0,0.6-0.4,1-1,1h-16.4C371,269.3,370.5,268.9,370.5,268.3z"/>
			</g>
		</g>
		<line fill="#EAF6FE" stroke="#CBD3D7" stroke-width="0.3" stroke-miterlimit="10" x1="386.5" y1="217.7" x2="386.5" y2="269.3"/>
		<line fill="#EAF6FE" stroke="#CBD3D7" stroke-width="0.3" stroke-miterlimit="10" x1="386.5" y1="243.5" x2="389" y2="243.5"/>
		<polyline fill="none" stroke="#CBD3D7" stroke-width="0.3" stroke-miterlimit="10" points="389,237.9 390.3,237.9 390.3,239.8 
			389,239.8 		"/>
		<polyline fill="none" stroke="#CBD3D7" stroke-width="0.3" stroke-miterlimit="10" points="389,247.2 390.3,247.2 390.3,249.1 
			389,249.1 		"/>
	</g>
	<g>
		<g>
			
				<rect x="408.3" y="408.9" fill="#FFFFFF" stroke="#707E85" stroke-width="0.3" stroke-miterlimit="10" width="19.1" height="19.1"/>
		</g>
		<g>
			<circle fill="none" stroke="#707E85" stroke-width="0.6204" stroke-miterlimit="10" cx="417.8" cy="418.5" r="4.5"/>
			<path fill="none" stroke="#707E85" stroke-width="0.6204" stroke-miterlimit="10" d="M418.3,415.6c-1.7,0-3.1,1.4-3.1,3.1"/>
		</g>
	</g>
	<g>
		<g>
			<g opacity="0.2">
				<path fill="#708793" d="M469.5,412.8v12.4h-26.2v-12.4c0-2.3,1.9-4.2,4.2-4.2h17.8C467.7,408.6,469.5,410.4,469.5,412.8z"/>
				<path fill="none" stroke="#708793" stroke-width="0.3" stroke-miterlimit="10" d="M469.5,412.8v12.4h-26.2v-12.4
					c0-2.3,1.9-4.2,4.2-4.2h17.8C467.7,408.6,469.5,410.4,469.5,412.8z"/>
			</g>
			<g>
				<path fill="#FFFFFF" d="M466.5,409.8v12.4h-26.2v-12.4c0-2.3,1.9-4.2,4.2-4.2h17.8C464.7,405.6,466.5,407.4,466.5,409.8z"/>
				<path fill="none" stroke="#707E85" stroke-width="0.3" stroke-miterlimit="10" d="M466.5,409.8v12.4h-26.2v-12.4
					c0-2.3,1.9-4.2,4.2-4.2h17.8C464.7,405.6,466.5,407.4,466.5,409.8z"/>
			</g>
		</g>
		<path fill="#FFFFFF" stroke="#707E85" stroke-width="0.3" stroke-miterlimit="10" d="M464.7,409.8v5.7c0,1.4-1.1,2.6-2.6,2.6
			h-17.4c-1.4,0-2.6-1.1-2.6-2.6v-5.7c0-1.4,1.1-2.6,2.6-2.6h17.4C463.5,407.2,464.7,408.4,464.7,409.8z"/>
		<circle fill="#FFFFFF" stroke="#707E85" stroke-width="0.3" stroke-miterlimit="10" cx="453.4" cy="415.9" r="0.9"/>
	</g>
	<g>
		<g>
			<g opacity="0.2">
				<path fill="#708793" d="M479.6,415.4c0,1,0.1,6.5,0.2,7.4c0.1,0.8,0.2,1.5,0.3,2.2h10.6c0.1-0.6,0.2-1.3,0.3-1.9
					c0.1-1,0.1-7.4,0.1-8.5c0-2.4-2-7.5-5.7-7.5C481.6,407.1,479.6,412.5,479.6,415.4z"/>
				<path fill="none" stroke="#708793" stroke-width="0.3" stroke-miterlimit="10" d="M479.6,415.4c0,1,0.1,6.5,0.2,7.4
					c0.1,0.8,0.2,1.5,0.3,2.2h10.6c0.1-0.6,0.2-1.3,0.3-1.9c0.1-1,0.1-7.4,0.1-8.5c0-2.4-2-7.5-5.7-7.5
					C481.6,407.1,479.6,412.5,479.6,415.4z"/>
			</g>
			<g>
				<path fill="#FFFFFF" d="M476.6,412.4c0,1,0.1,6.5,0.2,7.4c0.1,0.8,0.2,1.5,0.3,2.2h10.6c0.1-0.6,0.2-1.3,0.3-1.9
					c0.1-1,0.1-7.4,0.1-8.5c0-2.4-2-7.5-5.7-7.5C478.6,404.1,476.6,409.5,476.6,412.4z"/>
				<path fill="none" stroke="#707E85" stroke-width="0.3" stroke-miterlimit="10" d="M476.6,412.4c0,1,0.1,6.5,0.2,7.4
					c0.1,0.8,0.2,1.5,0.3,2.2h10.6c0.1-0.6,0.2-1.3,0.3-1.9c0.1-1,0.1-7.4,0.1-8.5c0-2.4-2-7.5-5.7-7.5
					C478.6,404.1,476.6,409.5,476.6,412.4z"/>
			</g>
		</g>
		<g>
			<circle fill="#FFFFFF" stroke="#707E85" stroke-width="0.3" stroke-miterlimit="10" cx="479.9" cy="419.5" r="0.4"/>
			<circle fill="#FFFFFF" stroke="#707E85" stroke-width="0.3" stroke-miterlimit="10" cx="484.9" cy="419.5" r="0.4"/>
		</g>
		<path fill="#FFFFFF" stroke="#707E85" stroke-width="0.3" stroke-miterlimit="10" d="M482.4,405.6c2.4,0,4.4,3.7,4.4,6.2
			c0,2.4-2,4.4-4.4,4.4c-2.4,0-4.4-2-4.4-4.4C478,409.3,480,405.6,482.4,405.6z"/>
		<path fill="#FFFFFF" stroke="#707E85" stroke-width="0.3" stroke-miterlimit="10" d="M480.9,412.7v1.6c0,0.5,0.7,0.5,1.5,0.5
			s1.5-0.1,1.5-0.5v-1.6c0-0.8-0.7-1.5-1.5-1.5S480.9,411.9,480.9,412.7z"/>
		<path fill="none" stroke="#707E85" stroke-width="0.3" stroke-miterlimit="10" d="M476.8,419.5c1.4,0.9,3.5,1.4,5.9,1.4
			c2,0,3.9-0.4,5.3-1.1"/>
	</g>
	<g>
		<path fill="#FFFFFF" stroke="#707E85" stroke-width="0.3" stroke-miterlimit="10" d="M497,334.5v22.3c0,0.5-0.4,0.9-0.9,0.9h-55
			c-0.5,0-0.9-0.4-0.9-0.9v-22.3c0-0.5,0.4-0.9,0.9-0.9h55C496.6,333.6,497,334,497,334.5z"/>
		<path fill="#FFFFFF" stroke="#707E85" stroke-width="0.3" stroke-miterlimit="10" d="M442.4,345.7c0,7.2,4.4,9.7,6.5,9.7h42.5
			c2.1,0,3.9-1.8,3.9-3.9v-11.7c0-2.2-1.7-3.9-3.9-3.9h-42.5C446.8,335.8,442.4,338.4,442.4,345.7z"/>
		<path fill="#FFFFFF" stroke="#707E85" stroke-width="0.3" stroke-miterlimit="10" d="M451.2,345.7c0,6.1,3.5,8.2,5.3,8.2h34.3
			c1.7,0,3.1-1.5,3.1-3.3v-9.9c0-1.8-1.4-3.3-3.1-3.3h-34.3C454.7,337.3,451.2,339.6,451.2,345.7z"/>
		<ellipse fill="#FFFFFF" stroke="#707E85" stroke-width="0.3" stroke-miterlimit="10" cx="487.6" cy="345.6" rx="1" ry="1"/>
	</g>
</g>
<g id="Ouvertures">
	<g>
		<g>
			<rect x="151.2" y="216.1" fill="#FFFFFF" width="6.3" height="123.8"/>
			<path fill="#707E85" d="M157.4,216.2v123.5h-6V216.2H157.4 M157.7,215.9H151V340h6.6V215.9L157.7,215.9z"/>
		</g>
		<g>
			<rect x="151.2" y="216.1" fill="#FFFFFF" width="3" height="61.7"/>
			<path fill="#707E85" d="M154.1,216.2v61.4h-2.7v-61.4H154.1 M154.4,215.9H151v62h3.3V215.9L154.4,215.9z"/>
		</g>
		<g>
			<rect x="154.8" y="278.7" fill="#FFFFFF" width="2.7" height="61.2"/>
			<path fill="#707E85" d="M157.4,278.8v60.9h-2.4v-60.9H157.4 M157.7,278.5h-3V340h3V278.5L157.7,278.5z"/>
		</g>
		<g>
			<g>
				<line fill="none" stroke="#707E85" stroke-width="0.3" stroke-miterlimit="1" x1="160.8" y1="255.6" x2="160.8" y2="240.6"/>
				<g>
					<polygon fill="#707E85" points="162,241.6 161.8,241.8 160.8,240.8 159.8,241.8 159.6,241.6 160.8,240.3 					"/>
				</g>
			</g>
		</g>
		<rect x="154.6" y="276.6" fill="#707E85" width="3" height="3.9"/>
		<rect x="151" y="276.6" fill="#707E85" width="3.3" height="3.9"/>
		<rect x="154.7" y="337.1" fill="#707E85" width="3" height="2.9"/>
		<rect x="151" y="215.9" fill="#707E85" width="3.3" height="3.6"/>
		<line fill="none" stroke="#707E85" stroke-width="0.1" stroke-miterlimit="1" x1="152.8" y1="276.9" x2="152.8" y2="216.2"/>
		<line fill="none" stroke="#707E85" stroke-width="0.1" stroke-miterlimit="1" x1="156.2" y1="338.6" x2="156.2" y2="277.9"/>
	</g>
	<g>
		<g>
			<rect x="297.8" y="212.1" fill="#FFFFFF" width="42.6" height="1.4"/>
			<path fill="#707E85" d="M340.2,212.2v1.1h-42.3v-1.1H340.2 M340.5,211.9h-42.9v1.7h42.9V211.9L340.5,211.9z"/>
		</g>
		<path fill="none" stroke="#707E85" stroke-width="0.3" stroke-miterlimit="10" stroke-dasharray="2,2" d="M324.5,213.7
			c0,0,4.5,12.5,4.8,12.7l12.7-12.7"/>
		<rect x="322.1" y="211.9" fill="#707E85" width="3.5" height="1.7"/>
		<g>
			<path fill="none" stroke="#707E85" stroke-width="0.3" stroke-miterlimit="10" stroke-dasharray="2,2" d="M324.5,213.7
				c0,12.6-11.9,28-27.8,28"/>
			<line fill="none" stroke="#707E85" stroke-width="0.3" stroke-miterlimit="10" x1="296.7" y1="213.7" x2="296.7" y2="241.6"/>
		</g>
	</g>
	<g>
		<g>
			<rect x="397.2" y="212.1" fill="#FFFFFF" width="42.6" height="1.4"/>
			<path fill="#707E85" d="M439.7,212.2v1.1h-42.3v-1.1H439.7 M440,211.9h-42.9v1.7H440V211.9L440,211.9z"/>
		</g>
		<path fill="none" stroke="#707E85" stroke-width="0.3" stroke-miterlimit="10" stroke-dasharray="2,2" d="M424,213.7
			c0,0,4.5,12.5,4.8,12.7l12.7-12.7"/>
		<rect x="421.6" y="211.9" fill="#707E85" width="3.5" height="1.7"/>
		<g>
			<path fill="none" stroke="#707E85" stroke-width="0.3" stroke-miterlimit="10" stroke-dasharray="2,2" d="M424,213.7
				c0,12.6-11.9,28-27.8,28"/>
			<line fill="none" stroke="#707E85" stroke-width="0.3" stroke-miterlimit="10" x1="396.2" y1="213.7" x2="396.2" y2="241.6"/>
		</g>
	</g>
	<g>
		<g>
			<g>
				<rect x="499.4" y="366.1" fill="#FFFFFF" width="1.4" height="36.8"/>
				<path fill="#707E85" d="M500.6,366.3v36.5h-1.1v-36.5H500.6 M500.9,366h-1.7v37.1h1.7V366L500.9,366z"/>
			</g>
		</g>
		<g>
			<g>
				<rect x="499.2" y="363.3" fill="#707E85" width="1.7" height="2.6"/>
			</g>
		</g>
		<g>
			<g>
				<rect x="499.2" y="403.1" fill="#707E85" width="1.7" height="2.6"/>
			</g>
		</g>
	</g>
	<g>
		<path fill="none" stroke="#707E85" stroke-width="0.3" stroke-miterlimit="10" stroke-dasharray="2,2" d="M399.3,329.8
			c0-15-12.4-27.1-27.6-27.1"/>
		<line fill="none" stroke="#707E85" stroke-width="0.3" stroke-miterlimit="10" x1="371.7" y1="329.8" x2="371.7" y2="302.7"/>
	</g>
	<g>
		<path fill="none" stroke="#707E85" stroke-width="0.3" stroke-miterlimit="10" stroke-dasharray="2,2" d="M309.3,394
			c0-16.9,14-30.6,31.2-30.6"/>
		<line fill="none" stroke="#707E85" stroke-width="0.3" stroke-miterlimit="10" x1="340.5" y1="394" x2="340.5" y2="363.3"/>
	</g>
	<g>
		<path fill="none" stroke="#707E85" stroke-width="0.3" stroke-miterlimit="10" stroke-dasharray="2,2" d="M405.8,365.4
			c14.7,0,26.6-12.1,26.6-27.1"/>
		<line fill="none" stroke="#707E85" stroke-width="0.3" stroke-miterlimit="10" x1="405.8" y1="338.3" x2="432.4" y2="338.3"/>
	</g>
</g>
<g id="Étiquettes" display="none">
	<text transform="matrix(1 0 0 1 445.9438 316.1987)" display="inline" fill="#3A3A39" font-family="'Lato-Black'" font-size="7px">Chambre 1</text>
	<text transform="matrix(1 0 0 1 453.437 324.5986)" display="inline" fill="#3A3A39" font-family="'Lato-Italic'" font-size="7px">15.10 m</text>
	
		<text transform="matrix(0.583 0 0 0.583 477.9995 322.2676)" display="inline" fill="#3A3A39" font-family="'Lato-Italic'" font-size="7px">2</text>
	<text transform="matrix(1 0 0 1 346.0203 357.6812)" display="inline" fill="#3A3A39" font-family="'Lato-Black'" font-size="7px">Dégagement </text>
	
		<text transform="matrix(1 0 0 1 359.6521 366.0811)" display="inline" fill="#3A3A39" font-family="'Lato-Italic'" font-size="7px">5.60 m</text>
	
		<text transform="matrix(0.583 0 0 0.583 380.1541 363.75)" display="inline" fill="#3A3A39" font-family="'Lato-Italic'" font-size="7px">2</text>
	<text transform="matrix(1 0 0 1 40.9008 330.8198)" display="inline" fill="#3A3A39" font-family="'Lato-Black'" font-size="7px">Jardin </text>
	<text transform="matrix(1 0 0 1 38.7054 339.2197)" display="inline" fill="#3A3A39" font-family="'Lato-Italic'" font-size="7px">118.00 m</text>
	
		<text transform="matrix(0.583 0 0 0.583 67.3285 336.8887)" display="inline" fill="#3A3A39" font-family="'Lato-Italic'" font-size="7px">2</text>
	<text transform="matrix(1 0 0 1 247.908 380.2046)" display="inline" fill="#3A3A39" font-family="'Lato-Black'" font-size="7px">Espace Jour </text>
	
		<text transform="matrix(1 0 0 1 258.3054 388.6045)" display="inline" fill="#3A3A39" font-family="'Lato-Italic'" font-size="7px">33.80 m</text>
	
		<text transform="matrix(0.583 0 0 0.583 282.8679 386.2734)" display="inline" fill="#3A3A39" font-family="'Lato-Italic'" font-size="7px">2</text>
	<text transform="matrix(1 0 0 1 103.5179 382.6577)" display="inline" fill="#3A3A39" font-family="'Lato-Black'" font-size="7px">Terrasse </text>
	
		<text transform="matrix(1 0 0 1 107.8676 391.0576)" display="inline" fill="#3A3A39" font-family="'Lato-Italic'" font-size="7px">13.60 m</text>
	
		<text transform="matrix(0.583 0 0 0.583 132.4301 388.7266)" display="inline" fill="#3A3A39" font-family="'Lato-Italic'" font-size="7px">2</text>
</g>
<g id="Murs">
	<g>
		<polygon fill="#707E85" points="157.7,402.6 309.3,402.6 309.3,394.8 157.7,394.8 157.7,340 144.4,340 144.4,396 89.3,396 
			89.3,339.9 75.9,339.9 75.9,409.3 86.1,409.3 89.3,409.3 155.4,409.3 155.4,402.6 		"/>
		<polygon fill="#707E85" points="368.1,330.6 368.1,216.1 394.3,216.1 394.3,213.5 397.2,213.5 397.2,203.2 394.3,203.2 
			343.2,203.2 340.4,203.2 340.4,213.5 343.2,213.5 343.2,216.1 365,216.1 365,330.6 346.4,330.6 346.4,334.1 365,334.1 
			368.1,334.1 373,334.1 373,330.6 		"/>
		<polygon fill="#707E85" points="509.6,408.5 509.6,405.7 499.3,405.7 499.3,408.5 496.7,408.5 496.7,422.1 432,422.1 432,430.7 
			405,430.7 405,407.5 405,402.6 405,397.5 405,396.1 405,394.8 405,389.6 405,364.6 401.9,364.6 401.9,389.6 349.6,389.6 
			349.6,370.7 346.4,370.7 346.4,394.8 338.9,394.8 338.9,402.6 394.7,402.6 394.7,439 399.8,439 405,439 496.7,439 496.7,444.9 
			509.6,444.9 509.6,441.1 		"/>
		<polygon fill="#707E85" points="297.7,213.5 297.7,203.2 294.8,203.2 240.9,203.2 151,203.2 151,216.1 294.8,216.1 294.8,213.5 		
			"/>
		<polygon fill="#707E85" points="496.7,333.8 496.7,360.9 499.3,360.9 499.3,363.3 509.6,363.3 509.6,360.9 509.6,328 509.6,203.2 
			500.7,203.2 496.7,203.2 442.7,203.2 439.9,203.2 439.9,213.5 442.7,213.5 442.7,216.1 496.7,216.1 496.7,330.6 398.1,330.6 
			398.1,333.8 401.9,333.8 401.9,339.6 405,339.6 405,333.8 		"/>
	</g>
	<rect x="274.8" y="241.2" fill="#707E85" width="11.3" height="46.9"/>
</g>
<g id="Entree">
	<polygon fill="#3A3A39" points="319,400 324.5,395.3 329.9,400 	"/>
</g>
<g id="Nord">
	<circle fill="none" stroke="#707E85" stroke-miterlimit="10" cx="24.6" cy="422.9" r="11.9"/>
	<line fill="none" stroke="#707E85" stroke-width="2" stroke-miterlimit="10" x1="32.3" y1="420.5" x2="39.7" y2="418.1"/>
	<text transform="matrix(1 0 0 1 18.4354 428.7025)" fill="#707E85" font-family="'Lato-Black'" font-size="16.4252px">N</text>
</g>
</svg>
