<?xml version="1.0" encoding="utf-8"?>
<!-- Generator: Adobe Illustrator 19.0.0, SVG Export Plug-In . SVG Version: 6.00 Build 0)  -->
<svg version="1.1" xmlns="http://www.w3.org/2000/svg" xmlns:xlink="http://www.w3.org/1999/xlink" x="0px" y="0px"
	 viewBox="0 0 595.3 595.3" enable-background="new 0 0 595.3 595.3" xml:space="preserve">
<pattern  width="3.8" height="3.4" patternUnits="userSpaceOnUse" id="Nouvelle_nuance_de_motif_7" viewBox="0 -3.4 3.8 3.4" overflow="visible">
	<g>
		<polygon fill="none" points="0,0 3.8,0 3.8,-3.4 0,-3.4 		"/>
		<polygon fill="#FFFFFF" points="3.7,0 0.1,0 0.1,-3.4 3.7,-3.4 		"/>
		<polygon fill="#E3E3E3" points="3.8,0 3.7,0 3.7,-3.4 3.8,-3.4 		"/>
		<polygon fill="#E3E3E3" points="0.1,0 0,0 0,-3.4 0.1,-3.4 		"/>
	</g>
</pattern>
<g id="Fond">
	<polyline fill="#FFFFFF" points="173.3,27.1 173.3,161.5 167.3,280.6 157.7,461.9 347.3,554.3 415.3,550.7 409.6,381.8 173.3,27.1 
			"/>
	<polygon fill="#EAF6FE" points="183.3,40.3 183.3,172.7 176.8,280.2 168.6,462.1 248.8,462.1 248.8,466.7 324.7,466.7 324.7,545.5 
		436.3,538.7 436.3,291 422.5,290.2 421.8,40.3 	"/>
</g>
<g id="Sols">
	<rect x="379.1" y="297.7" opacity="0.8" fill="#FFFFFF" width="47.5" height="51.5"/>
	<rect x="333.9" y="42.9" opacity="0.8" fill="#FFFFFF" width="71.4" height="76.8"/>
	<pattern  id="SVGID_1_" xlink:href="#Nouvelle_nuance_de_motif_7" patternTransform="matrix(1 0 0 1 -7.626 10.3125)">
	</pattern>
	<polygon fill="url(#SVGID_1_)" stroke="#717E86" stroke-width="0.3" stroke-miterlimit="10" points="323,470.7 322.9,555.6 
		152.4,564.2 157.2,470.8 	"/>
</g>
<g id="Installations">
	<g>
		<g>
			<path fill="#EAF6FE" stroke="#CCD3D8" stroke-width="0.3" stroke-miterlimit="10" d="M219.7,125.2v1.9h17.1v-1.9
				c0-0.8-0.6-1.4-1.4-1.4h-14.3C220.4,123.8,219.7,124.4,219.7,125.2z"/>
			
				<rect x="219.7" y="127.1" fill="#EAF6FE" stroke="#CCD3D8" stroke-width="0.3" stroke-miterlimit="10" width="17.1" height="8.1"/>
			<line fill="#EAF6FE" stroke="#CCD3D8" stroke-width="0.3" stroke-miterlimit="10" x1="222.1" y1="127.1" x2="222.1" y2="135.2"/>
			<line fill="#EAF6FE" stroke="#CCD3D8" stroke-width="0.3" stroke-miterlimit="10" x1="234.5" y1="135.2" x2="234.5" y2="127.1"/>
		</g>
	</g>
	<polyline fill="#FFFFFF" stroke="#717E86" stroke-width="0.3" stroke-miterlimit="10" points="309,229.5 309.1,185.2 187,185.2 
		188.1,164.9 309.1,164.9 330.4,185.2 330.4,229.5 	"/>
	<g>
		<g>
			<g>
				<g opacity="5.000000e-002">
					<path fill="#717E86" d="M287.9,46.9h9.3c0.6,0,1,0.4,1,1v8.2c0,0.6-0.4,1-1,1h-9.3c-0.6,0-1-0.4-1-1v-8.2
						C286.9,47.4,287.4,46.9,287.9,46.9z"/>
					<path fill="none" stroke="#717E86" stroke-width="0.3" stroke-miterlimit="10" d="M287.9,46.9h9.3c0.6,0,1,0.4,1,1v8.2
						c0,0.6-0.4,1-1,1h-9.3c-0.6,0-1-0.4-1-1v-8.2C286.9,47.4,287.4,46.9,287.9,46.9z"/>
				</g>
				<g>
					<path fill="#EAF6FE" d="M284.9,43.9h9.3c0.6,0,1,0.4,1,1v8.2c0,0.6-0.4,1-1,1h-9.3c-0.6,0-1-0.4-1-1v-8.2
						C283.9,44.4,284.4,43.9,284.9,43.9z"/>
					<path fill="none" stroke="#CCD3D8" stroke-width="0.3" stroke-miterlimit="10" d="M284.9,43.9h9.3c0.6,0,1,0.4,1,1v8.2
						c0,0.6-0.4,1-1,1h-9.3c-0.6,0-1-0.4-1-1v-8.2C283.9,44.4,284.4,43.9,284.9,43.9z"/>
				</g>
			</g>
			<path fill="#EAF6FE" stroke="#CCD3D8" stroke-width="0.3" stroke-miterlimit="10" d="M290.7,51.5l-3.8-1.5
				c-0.5-0.2-0.8-0.8-0.6-1.3l0.6-1.5c0.2-0.5,0.8-0.8,1.3-0.6l3.8,1.5c0.5,0.2,0.8,0.8,0.6,1.3l-0.6,1.5
				C291.8,51.4,291.2,51.7,290.7,51.5z"/>
			<circle fill="#EAF6FE" stroke="#CCD3D8" stroke-width="0.3" stroke-miterlimit="10" cx="289.4" cy="49.1" r="0.5"/>
		</g>
		<g>
			<g opacity="5.000000e-002">
				<path fill="#717E86" d="M300.8,113.2V47.9c0-0.6,0.4-1,1-1h28.4c0.6,0,1,0.4,1,1v65.3c0,0.6-0.4,1-1,1h-28.4
					C301.2,114.2,300.8,113.8,300.8,113.2z"/>
				<path fill="none" stroke="#717E86" stroke-width="0.3" stroke-miterlimit="10" d="M300.8,113.2V47.9c0-0.6,0.4-1,1-1h28.4
					c0.6,0,1,0.4,1,1v65.3c0,0.6-0.4,1-1,1h-28.4C301.2,114.2,300.8,113.8,300.8,113.2z"/>
			</g>
			<g>
				<path fill="#EAF6FE" d="M297.8,110.2V44.9c0-0.6,0.4-1,1-1h28.4c0.6,0,1,0.4,1,1v65.3c0,0.6-0.4,1-1,1h-28.4
					C298.2,111.2,297.8,110.8,297.8,110.2z"/>
				<path fill="none" stroke="#CCD3D8" stroke-width="0.3" stroke-miterlimit="10" d="M297.8,110.2V44.9c0-0.6,0.4-1,1-1h28.4
					c0.6,0,1,0.4,1,1v65.3c0,0.6-0.4,1-1,1h-28.4C298.2,111.2,297.8,110.8,297.8,110.2z"/>
			</g>
		</g>
		<path fill="#EAF6FE" stroke="#CCD3D8" stroke-width="0.3" stroke-miterlimit="10" d="M301.4,106.6V48.5c0-0.6,0.4-1,1-1h21.2
			c0.6,0,1,0.4,1,1v58.1c0,0.6-0.4,1-1,1h-21.2C301.8,107.6,301.4,107.2,301.4,106.6z"/>
		<path fill="#EAF6FE" stroke="#CCD3D8" stroke-width="0.3" stroke-miterlimit="10" d="M304.5,50.6c0.5-0.2,0.9,0.1,1.8,0.1
			c7.5-1.6,15.5,0.4,15.7,0.7c0.2,0.3-0.2,0.2-0.5,1.9c-0.1,1.8,0.3,5.8,0.1,7.3c-0.1,0.4-0.2,0.6-0.4,0.8
			c-1.4,1.1-16.1,0.7-16.3,0.5c-0.2-0.2-0.7-0.7-0.8-1.3C303.8,59,304,50.8,304.5,50.6z"/>
		<g>
			<g>
				<path fill="#EAF6FE" stroke="#CCD3D8" stroke-width="0.3" stroke-miterlimit="10" d="M322.3,72c0,0-7,0.9-9.3,0.9
					c-2.4,0-9.3-0.9-9.3-0.9c-1.8,0-3.2,2.9-3.2,1.2v-9.8c0-1.8,1.4-3.2,3.2-3.2c0,0,6.4,0.9,9.1,0.9c2.8,0,9.4-0.9,9.4-0.9
					c1.8,0,3.2,1.4,3.2,3.2v9.8C325.4,75,324,72,322.3,72z"/>
			</g>
			<path fill="#EAF6FE" stroke="#CCD3D8" stroke-width="0.3" stroke-linecap="round" stroke-miterlimit="10" d="M304.4,64.5
				c-0.2,1.4,1.3,4.9,3.9,5.5"/>
			<path fill="#EAF6FE" stroke="#CCD3D8" stroke-width="0.3" stroke-linecap="round" stroke-miterlimit="10" d="M312.1,64.1
				c1.9,1.9,6.4,4.3,9.3,4.1"/>
		</g>
	</g>
	<g>
		<g>
			<g opacity="5.000000e-002">
				<path fill="#717E86" d="M193,46.9h39.6c0.6,0,1,0.4,1,1v17.9c0,0.6-0.4,1-1,1H193c-0.6,0-1-0.4-1-1V47.9
					C192,47.4,192.5,46.9,193,46.9z"/>
				<path fill="none" stroke="#717E86" stroke-width="0.3" stroke-miterlimit="10" d="M193,46.9h39.6c0.6,0,1,0.4,1,1v17.9
					c0,0.6-0.4,1-1,1H193c-0.6,0-1-0.4-1-1V47.9C192,47.4,192.5,46.9,193,46.9z"/>
			</g>
			<g>
				<path fill="#EAF6FE" d="M190,43.9h39.6c0.6,0,1,0.4,1,1v17.9c0,0.6-0.4,1-1,1H190c-0.6,0-1-0.4-1-1V44.9
					C189,44.4,189.5,43.9,190,43.9z"/>
				<path fill="none" stroke="#CCD3D8" stroke-width="0.3" stroke-miterlimit="10" d="M190,43.9h39.6c0.6,0,1,0.4,1,1v17.9
					c0,0.6-0.4,1-1,1H190c-0.6,0-1-0.4-1-1V44.9C189,44.4,189.5,43.9,190,43.9z"/>
			</g>
		</g>
		<line fill="#EAF6FE" stroke="#CCD3D8" stroke-width="0.3" stroke-miterlimit="10" x1="230.6" y1="61.2" x2="189" y2="61.2"/>
		<line fill="#EAF6FE" stroke="#CCD3D8" stroke-width="0.3" stroke-miterlimit="10" x1="209.8" y1="61.2" x2="209.8" y2="63.8"/>
		<polyline fill="none" stroke="#CCD3D8" stroke-width="0.3" stroke-miterlimit="10" points="214.3,63.8 214.3,65.3 212.8,65.3 
			212.8,63.8 		"/>
		<polyline fill="none" stroke="#CCD3D8" stroke-width="0.3" stroke-miterlimit="10" points="206.8,63.8 206.8,65.3 205.3,65.3 
			205.3,63.8 		"/>
	</g>
	<g>
		<g>
			<g>
				<g opacity="5.000000e-002">
					<path fill="#717E86" d="M427.7,428.6V419c0-0.6,0.4-1,1-1h8.6c0.6,0,1,0.4,1,1v9.6c0,0.6-0.4,1-1,1h-8.6
						C428.1,429.6,427.7,429.2,427.7,428.6z"/>
					<path fill="none" stroke="#717E86" stroke-width="0.3" stroke-miterlimit="10" d="M427.7,428.6V419c0-0.6,0.4-1,1-1h8.6
						c0.6,0,1,0.4,1,1v9.6c0,0.6-0.4,1-1,1h-8.6C428.1,429.6,427.7,429.2,427.7,428.6z"/>
				</g>
				<g>
					<path fill="#EAF6FE" d="M424.7,425.6V416c0-0.6,0.4-1,1-1h8.6c0.6,0,1,0.4,1,1v9.6c0,0.6-0.4,1-1,1h-8.6
						C425.1,426.6,424.7,426.2,424.7,425.6z"/>
					<path fill="none" stroke="#CCD3D8" stroke-width="0.3" stroke-miterlimit="10" d="M424.7,425.6V416c0-0.6,0.4-1,1-1h8.6
						c0.6,0,1,0.4,1,1v9.6c0,0.6-0.4,1-1,1h-8.6C425.1,426.6,424.7,426.2,424.7,425.6z"/>
				</g>
			</g>
			<path fill="#EAF6FE" stroke="#CCD3D8" stroke-width="0.3" stroke-miterlimit="10" d="M429.3,418.2v-0.4c0-0.1,0.1-0.3,0.3-0.3
				h5.7v0.9h-5.7C429.4,418.5,429.3,418.4,429.3,418.2z"/>
			<path fill="#EAF6FE" stroke="#CCD3D8" stroke-width="0.3" stroke-miterlimit="10" d="M430.2,420.1v-0.4c0-0.1,0.1-0.3,0.3-0.3
				h4.8v0.9h-4.8C430.3,420.4,430.2,420.2,430.2,420.1z"/>
			<path fill="#EAF6FE" stroke="#CCD3D8" stroke-width="0.3" stroke-miterlimit="10" d="M428.7,419.2v-0.4c0-0.1,0.1-0.3,0.3-0.3
				h6.3v0.9h-6.3C428.8,419.4,428.7,419.3,428.7,419.2z"/>
		</g>
		<g>
			<g opacity="5.000000e-002">
				<path fill="#717E86" d="M369.6,432.1h67.6c0.6,0,1,0.4,1,1v53.5c0,0.6-0.4,1-1,1h-67.6c-0.6,0-1-0.4-1-1v-53.5
					C368.6,432.5,369.1,432.1,369.6,432.1z"/>
				<path fill="none" stroke="#717E86" stroke-width="0.3" stroke-miterlimit="10" d="M369.6,432.1h67.6c0.6,0,1,0.4,1,1v53.5
					c0,0.6-0.4,1-1,1h-67.6c-0.6,0-1-0.4-1-1v-53.5C368.6,432.5,369.1,432.1,369.6,432.1z"/>
			</g>
			<g>
				<path fill="#EAF6FE" d="M366.6,429.1h67.6c0.6,0,1,0.4,1,1v53.5c0,0.6-0.4,1-1,1h-67.6c-0.6,0-1-0.4-1-1v-53.5
					C365.6,429.5,366.1,429.1,366.6,429.1z"/>
				<path fill="none" stroke="#CCD3D8" stroke-width="0.3" stroke-miterlimit="10" d="M366.6,429.1h67.6c0.6,0,1,0.4,1,1v53.5
					c0,0.6-0.4,1-1,1h-67.6c-0.6,0-1-0.4-1-1v-53.5C365.6,429.5,366.1,429.1,366.6,429.1z"/>
			</g>
		</g>
		<path fill="#EAF6FE" stroke="#CCD3D8" stroke-width="0.3" stroke-miterlimit="10" d="M370.4,432.8h60.1c0.6,0,1,0.4,1,1v46.1
			c0,0.6-0.4,1-1,1h-60.1c-0.6,0-1-0.4-1-1v-46.1C369.4,433.2,369.8,432.8,370.4,432.8z"/>
		<path fill="#EAF6FE" stroke="#CCD3D8" stroke-width="0.3" stroke-miterlimit="10" d="M428,435.9c1.2,2,1.4,16.5,0.1,18.7
			c-0.1,0.2-6.9,0.9-10.6,0.4c-0.6-0.1-1.5-0.7-1.9-1.8c-1.3-3.7-0.8-12.2,0.4-16.3c0.4-1.5,1.9-1.4,2.5-1.5
			C421.4,435.1,427.7,435.3,428,435.9z"/>
		<path fill="#EAF6FE" stroke="#CCD3D8" stroke-width="0.3" stroke-miterlimit="10" d="M428.2,458.7c1.6,4.1,1.1,18,0.3,18.7
			c-0.3,0.3-7,1.1-10,0.4c-0.4-0.1-0.9-0.3-1.1-0.5c-1.2-1.7-2.1-17.9-2-18.1c0.2-0.2,1.5-0.1,2.2-0.4
			C419.3,458,428,458.1,428.2,458.7z"/>
		<g>
			<path fill="#EAF6FE" stroke="#CCD3D8" stroke-width="0.3" stroke-miterlimit="10" d="M406.2,478.4c0,0-1.8-19.1-1.8-21.5
				c0-2.5,1.8-21.5,1.8-21.5c0-1.8-3-3.3-1.2-3.3H415c1.8,0,3.3,1.5,3.3,3.3c0,0-1,18.5-1,21.3c0,2.9,1,21.6,1,21.6
				c0,1.8-1.5,3.3-3.3,3.3h-10.1C403.1,481.7,406.2,480.2,406.2,478.4z"/>
			<path fill="#EAF6FE" stroke="#CCD3D8" stroke-width="0.3" stroke-linecap="round" stroke-miterlimit="10" d="M415.7,439.2
				c-0.3-2.3-3.4-6.9-4.3-7.1"/>
			<path fill="#EAF6FE" stroke="#CCD3D8" stroke-width="0.3" stroke-linecap="round" stroke-miterlimit="10" d="M414.7,462.5
				c-0.2-0.4-5-10.4-7.3-9.3c-0.9,0.4-0.3,2,0.2,2.8"/>
			<path fill="#EAF6FE" stroke="#CCD3D8" stroke-width="0.3" stroke-linecap="round" stroke-miterlimit="10" d="M416.8,478.7
				c-1.4-1.4-5.3-7.3-8.3-15.3"/>
		</g>
		<g>
			<g>
				<g opacity="5.000000e-002">
					<path fill="#717E86" d="M438.2,490.9v9.6c0,0.6-0.4,1-1,1h-8.6c-0.6,0-1-0.4-1-1v-9.6c0-0.6,0.4-1,1-1h8.6
						C437.8,489.9,438.2,490.4,438.2,490.9z"/>
					<path fill="none" stroke="#717E86" stroke-width="0.3" stroke-miterlimit="10" d="M438.2,490.9v9.6c0,0.6-0.4,1-1,1h-8.6
						c-0.6,0-1-0.4-1-1v-9.6c0-0.6,0.4-1,1-1h8.6C437.8,489.9,438.2,490.4,438.2,490.9z"/>
				</g>
				<g>
					<path fill="#EAF6FE" d="M435.2,487.9v9.6c0,0.6-0.4,1-1,1h-8.6c-0.6,0-1-0.4-1-1v-9.6c0-0.6,0.4-1,1-1h8.6
						C434.8,486.9,435.2,487.4,435.2,487.9z"/>
					<path fill="none" stroke="#CCD3D8" stroke-width="0.3" stroke-miterlimit="10" d="M435.2,487.9v9.6c0,0.6-0.4,1-1,1h-8.6
						c-0.6,0-1-0.4-1-1v-9.6c0-0.6,0.4-1,1-1h8.6C434.8,486.9,435.2,487.4,435.2,487.9z"/>
				</g>
			</g>
			<path fill="#EAF6FE" stroke="#CCD3D8" stroke-width="0.3" stroke-miterlimit="10" d="M427.4,494l1.5-4c0.2-0.5,0.8-0.8,1.3-0.6
				l1.6,0.6c0.5,0.2,0.8,0.8,0.6,1.3l-1.5,4c-0.2,0.5-0.8,0.8-1.3,0.6l-1.6-0.6C427.4,495.1,427.2,494.5,427.4,494z"/>
			<circle fill="#EAF6FE" stroke="#CCD3D8" stroke-width="0.3" stroke-miterlimit="10" cx="429.9" cy="492.7" r="0.6"/>
		</g>
	</g>
	<g>
		<g>
			<g opacity="5.000000e-002">
				<path fill="#717E86" d="M376.6,357.4h60.6c0.6,0,1,0.4,1,1v16.3c0,0.6-0.4,1-1,1h-60.6c-0.6,0-1-0.4-1-1v-16.3
					C375.6,357.9,376.1,357.4,376.6,357.4z"/>
				<path fill="none" stroke="#717E86" stroke-width="0.3" stroke-miterlimit="10" d="M376.6,357.4h60.6c0.6,0,1,0.4,1,1v16.3
					c0,0.6-0.4,1-1,1h-60.6c-0.6,0-1-0.4-1-1v-16.3C375.6,357.9,376.1,357.4,376.6,357.4z"/>
			</g>
			<g>
				<path fill="#EAF6FE" d="M373.6,354.4h60.6c0.6,0,1,0.4,1,1v16.3c0,0.6-0.4,1-1,1h-60.6c-0.6,0-1-0.4-1-1v-16.3
					C372.6,354.9,373.1,354.4,373.6,354.4z"/>
				<path fill="none" stroke="#CCD3D8" stroke-width="0.3" stroke-miterlimit="10" d="M373.6,354.4h60.6c0.6,0,1,0.4,1,1v16.3
					c0,0.6-0.4,1-1,1h-60.6c-0.6,0-1-0.4-1-1v-16.3C372.6,354.9,373.1,354.4,373.6,354.4z"/>
			</g>
		</g>
		<line fill="#EAF6FE" stroke="#CCD3D8" stroke-width="0.3" stroke-miterlimit="10" x1="435.2" y1="370.3" x2="372.6" y2="370.3"/>
		<line fill="#EAF6FE" stroke="#CCD3D8" stroke-width="0.3" stroke-miterlimit="10" x1="403.9" y1="370.3" x2="403.9" y2="372.7"/>
		<polyline fill="none" stroke="#CCD3D8" stroke-width="0.3" stroke-miterlimit="10" points="410.7,372.7 410.7,374.1 408.4,374.1 
			408.4,372.7 		"/>
		<polyline fill="none" stroke="#CCD3D8" stroke-width="0.3" stroke-miterlimit="10" points="399.4,372.7 399.4,374.1 397.1,374.1 
			397.1,372.7 		"/>
	</g>
	<g>
		<rect x="192.6" y="165.7" fill="none" stroke="#717E86" stroke-width="0.3" stroke-miterlimit="10" width="37.6" height="18.7"/>
		<g>
			<path fill="#FFFFFF" stroke="#717E86" stroke-width="0.3" stroke-miterlimit="10" d="M211,169.7v10.8c0,1.3,1.1,2.4,2.4,2.4h12.6
				c1.3,0,2.4-1.1,2.4-2.4v-10.8c0-1.3-1.1-2.4-2.4-2.4h-12.6C212.1,167.2,211,168.3,211,169.7z"/>
			<circle fill="#FFFFFF" stroke="#717E86" stroke-width="0.3" stroke-miterlimit="10" cx="220" cy="170.3" r="1.2"/>
		</g>
		<g>
			<rect x="195.8" y="179.9" fill="#717E86" width="12.3" height="0.7"/>
			<rect x="195.8" y="177.3" fill="#717E86" width="12.3" height="0.7"/>
			<rect x="195.8" y="174.7" fill="#717E86" width="12.3" height="0.7"/>
			<rect x="195.8" y="172.1" fill="#717E86" width="12.3" height="0.7"/>
			<rect x="195.8" y="169.5" fill="#717E86" width="12.3" height="0.7"/>
		</g>
	</g>
	<g>
		<rect x="271.5" y="165.7" fill="none" stroke="#717E86" stroke-width="0.3" stroke-miterlimit="10" width="19.5" height="18.7"/>
		<path fill="#FFFFFF" stroke="#717E86" stroke-width="0.3" stroke-miterlimit="10" d="M285.3,174.6c2,0,3.5-1.5,3.5-3.4
			c0-1.9-1.6-3.4-3.5-3.4c-2,0-3.5,1.5-3.5,3.4C281.7,173.1,283.3,174.6,285.3,174.6"/>
		<path fill="#FFFFFF" stroke="#717E86" stroke-width="0.3" stroke-miterlimit="10" d="M277,182.2c2,0,3.5-1.5,3.5-3.4
			c0-1.9-1.6-3.4-3.5-3.4c-2,0-3.5,1.5-3.5,3.4C273.5,180.7,275.1,182.2,277,182.2"/>
		<path fill="#FFFFFF" stroke="#717E86" stroke-width="0.3" stroke-miterlimit="10" d="M276.4,173.6c1.6,0,2.9-1.2,2.9-2.8
			c0-1.5-1.3-2.8-2.9-2.8c-1.6,0-2.9,1.2-2.9,2.8C273.5,172.4,274.8,173.6,276.4,173.6"/>
		<path fill="#FFFFFF" stroke="#717E86" stroke-width="0.3" stroke-miterlimit="10" d="M285.8,182.2c1.6,0,2.9-1.2,2.9-2.8
			s-1.3-2.8-2.9-2.8c-1.6,0-2.9,1.2-2.9,2.8S284.2,182.2,285.8,182.2"/>
	</g>
	<g>
		
			<polyline fill="none" stroke="#000000" stroke-width="0.12" stroke-linecap="square" stroke-linejoin="bevel" stroke-miterlimit="10" points="
			316.5,213.5 316.5,215 315.3,215 		"/>
		
			<polyline fill="none" stroke="#000000" stroke-width="0.12" stroke-linecap="square" stroke-linejoin="bevel" stroke-miterlimit="10" points="
			323.8,220.8 322.5,220.8 322.5,222.1 		"/>
		
			<line fill="none" stroke="#000000" stroke-width="0.12" stroke-linecap="square" stroke-linejoin="bevel" stroke-miterlimit="10" x1="323.4" y1="221.7" x2="315.6" y2="214.1"/>
		
			<polyline fill="none" stroke="#000000" stroke-width="0.12" stroke-linecap="square" stroke-linejoin="bevel" stroke-miterlimit="10" points="
			315.3,220.8 316.5,220.8 316.5,222.1 		"/>
		
			<polyline fill="none" stroke="#000000" stroke-width="0.12" stroke-linecap="square" stroke-linejoin="bevel" stroke-miterlimit="10" points="
			322.5,213.5 322.5,215 323.8,215 		"/>
		
			<line fill="none" stroke="#000000" stroke-width="0.12" stroke-linecap="square" stroke-linejoin="bevel" stroke-miterlimit="10" x1="323.4" y1="214.1" x2="315.6" y2="221.7"/>
		
			<polyline fill="none" stroke="#000000" stroke-width="0.12" stroke-linecap="square" stroke-linejoin="bevel" stroke-miterlimit="10" points="
			314.4,216.9 315.3,217.8 314.4,218.7 		"/>
		
			<polyline fill="none" stroke="#000000" stroke-width="0.12" stroke-linecap="square" stroke-linejoin="bevel" stroke-miterlimit="10" points="
			324.7,216.9 323.8,217.8 324.7,218.7 		"/>
		
			<polyline fill="none" stroke="#000000" stroke-width="0.12" stroke-linecap="square" stroke-linejoin="bevel" stroke-miterlimit="10" points="
			318.6,223 319.5,222.1 320.4,223 		"/>
		
			<polyline fill="none" stroke="#000000" stroke-width="0.12" stroke-linecap="square" stroke-linejoin="bevel" stroke-miterlimit="10" points="
			318.6,212.8 319.5,213.7 320.4,212.8 		"/>
		
			<line fill="none" stroke="#000000" stroke-width="0.12" stroke-linecap="square" stroke-linejoin="bevel" stroke-miterlimit="10" x1="325" y1="217.8" x2="314" y2="217.8"/>
		
			<line fill="none" stroke="#000000" stroke-width="0.12" stroke-linecap="square" stroke-linejoin="bevel" stroke-miterlimit="10" x1="319.5" y1="212.5" x2="319.5" y2="223.3"/>
		<polyline fill="none" stroke="#717E86" stroke-width="0.3" stroke-miterlimit="10" points="316.5,213.5 316.5,215 315.3,215 		"/>
		<polyline fill="none" stroke="#717E86" stroke-width="0.3" stroke-miterlimit="10" points="323.8,220.8 322.5,220.8 322.5,222.1 
					"/>
		<line fill="none" stroke="#717E86" stroke-width="0.3" stroke-miterlimit="10" x1="323.4" y1="221.7" x2="315.6" y2="214.1"/>
		<polyline fill="none" stroke="#717E86" stroke-width="0.3" stroke-miterlimit="10" points="315.3,220.8 316.5,220.8 316.5,222.1 
					"/>
		<polyline fill="none" stroke="#717E86" stroke-width="0.3" stroke-miterlimit="10" points="322.5,213.5 322.5,215 323.8,215 		"/>
		<line fill="none" stroke="#717E86" stroke-width="0.3" stroke-miterlimit="10" x1="323.4" y1="214.1" x2="315.6" y2="221.7"/>
		<polyline fill="none" stroke="#717E86" stroke-width="0.3" stroke-miterlimit="10" points="314.4,216.9 315.3,217.8 314.4,218.7 
					"/>
		<polyline fill="none" stroke="#717E86" stroke-width="0.3" stroke-miterlimit="10" points="324.7,216.9 323.8,217.8 324.7,218.7 
					"/>
		<polyline fill="none" stroke="#717E86" stroke-width="0.3" stroke-miterlimit="10" points="318.6,223 319.5,222.1 320.4,223 		"/>
		<polyline fill="none" stroke="#717E86" stroke-width="0.3" stroke-miterlimit="10" points="318.6,212.8 319.5,213.7 320.4,212.8 
					"/>
		<line fill="none" stroke="#717E86" stroke-width="0.3" stroke-miterlimit="10" x1="325" y1="217.8" x2="314" y2="217.8"/>
		<line fill="none" stroke="#717E86" stroke-width="0.3" stroke-miterlimit="10" x1="319.5" y1="212.5" x2="319.5" y2="223.3"/>
	</g>
	<g>
		<path fill="#FFFFFF" stroke="#717E86" stroke-width="0.3" stroke-miterlimit="10" d="M399.2,43.8v24.2c0,0.5-0.4,0.9-0.9,0.9h-57
			c-0.5,0-0.9-0.4-0.9-0.9V43.8c0-0.5,0.4-0.9,0.9-0.9h57C398.8,42.9,399.2,43.3,399.2,43.8z"/>
		<path fill="#FFFFFF" stroke="#717E86" stroke-width="0.3" stroke-miterlimit="10" d="M342.6,56c0,7.8,4.5,10.5,6.8,10.5h44
			c2.2,0,4-1.9,4-4.3V49.6c0-2.4-1.8-4.3-4-4.3h-44C347.2,45.3,342.6,48.2,342.6,56z"/>
		<path fill="#FFFFFF" stroke="#717E86" stroke-width="0.3" stroke-miterlimit="10" d="M351.7,56c0,6.6,3.7,8.9,5.5,8.9h35.6
			c1.8,0,3.2-1.6,3.2-3.6V50.6c0-2-1.4-3.6-3.2-3.6h-35.6C355.4,47,351.7,49.4,351.7,56z"/>
		<ellipse fill="#FFFFFF" stroke="#717E86" stroke-width="0.3" stroke-miterlimit="10" cx="389.4" cy="56" rx="1" ry="1.1"/>
	</g>
	<g>
		<g>
			<g opacity="0.2">
				<path fill="#738793" d="M396,75.2h12.6v20.4H396c-2.3,0-4.2-1.9-4.2-4.2V79.4C391.7,77.1,393.6,75.2,396,75.2z"/>
				<path fill="none" stroke="#738793" stroke-width="0.3" stroke-miterlimit="10" d="M396,75.2h12.6v20.4H396
					c-2.3,0-4.2-1.9-4.2-4.2V79.4C391.7,77.1,393.6,75.2,396,75.2z"/>
			</g>
			<g>
				<path fill="#FFFFFF" d="M393,72.2h12.6v20.4H393c-2.3,0-4.2-1.9-4.2-4.2V76.4C388.7,74.1,390.6,72.2,393,72.2z"/>
				<path fill="none" stroke="#717E86" stroke-width="0.3" stroke-miterlimit="10" d="M393,72.2h12.6v20.4H393
					c-2.3,0-4.2-1.9-4.2-4.2V76.4C388.7,74.1,390.6,72.2,393,72.2z"/>
			</g>
		</g>
		<path fill="#FFFFFF" stroke="#717E86" stroke-width="0.3" stroke-miterlimit="10" d="M393,74.1h5.8c1.4,0,2.6,1.1,2.6,2.6v11.6
			c0,1.4-1.1,2.6-2.6,2.6H393c-1.4,0-2.6-1.1-2.6-2.6V76.6C390.4,75.2,391.6,74.1,393,74.1z"/>
		<circle fill="#FFFFFF" stroke="#717E86" stroke-width="0.3" stroke-miterlimit="10" cx="399.2" cy="82.5" r="0.9"/>
	</g>
	<g>
		<g>
			<g opacity="0.2">
				<path fill="#738793" d="M397.1,113.7c1.2,0,7.6-0.1,8.7-0.2c0.9-0.1,1.8-0.2,2.6-0.4v-12.4c-0.7-0.1-1.5-0.2-2.2-0.3
					c-1.2-0.1-8.7-0.2-10-0.2c-2.9,0-8.8,2.3-8.8,6.7C387.3,111.4,393.7,113.7,397.1,113.7z"/>
				<path fill="none" stroke="#738793" stroke-width="0.3" stroke-miterlimit="10" d="M397.1,113.7c1.2,0,7.6-0.1,8.7-0.2
					c0.9-0.1,1.8-0.2,2.6-0.4v-12.4c-0.7-0.1-1.5-0.2-2.2-0.3c-1.2-0.1-8.7-0.2-10-0.2c-2.9,0-8.8,2.3-8.8,6.7
					C387.3,111.4,393.7,113.7,397.1,113.7z"/>
			</g>
			<g>
				<path fill="#FFFFFF" d="M394.1,110.7c1.2,0,7.6-0.1,8.7-0.2c0.9-0.1,1.8-0.2,2.6-0.4V97.7c-0.7-0.1-1.5-0.2-2.2-0.3
					c-1.2-0.1-8.7-0.2-10-0.2c-2.9,0-8.8,2.3-8.8,6.7C384.3,108.4,390.7,110.7,394.1,110.7z"/>
				<path fill="none" stroke="#717E86" stroke-width="0.3" stroke-miterlimit="10" d="M394.1,110.7c1.2,0,7.6-0.1,8.7-0.2
					c0.9-0.1,1.8-0.2,2.6-0.4V97.7c-0.7-0.1-1.5-0.2-2.2-0.3c-1.2-0.1-8.7-0.2-10-0.2c-2.9,0-8.8,2.3-8.8,6.7
					C384.3,108.4,390.7,110.7,394.1,110.7z"/>
			</g>
		</g>
		<g>
			<circle fill="#FFFFFF" stroke="#717E86" stroke-width="0.3" stroke-miterlimit="10" cx="402.4" cy="106.9" r="0.4"/>
			<circle fill="#FFFFFF" stroke="#717E86" stroke-width="0.3" stroke-miterlimit="10" cx="402.4" cy="100.9" r="0.4"/>
		</g>
		<path fill="#FFFFFF" stroke="#717E86" stroke-width="0.3" stroke-miterlimit="10" d="M386.1,103.9c0-2.9,4.4-5.2,7.2-5.2
			s5.2,2.3,5.2,5.2s-2.3,5.2-5.2,5.2S386.1,106.8,386.1,103.9z"/>
		<path fill="#FFFFFF" stroke="#717E86" stroke-width="0.3" stroke-miterlimit="10" d="M394.5,105.7h1.9c0.5,0,0.6-0.8,0.6-1.8
			s-0.2-1.8-0.6-1.8h-1.9c-1,0-1.8,0.8-1.8,1.8S393.5,105.7,394.5,105.7z"/>
		<path fill="none" stroke="#717E86" stroke-width="0.3" stroke-miterlimit="10" d="M402.4,110.5c1-1.7,1.7-4.1,1.7-6.9
			c0-2.4-0.5-4.6-1.3-6.2"/>
	</g>
	<g>
		<g>
			<g opacity="0.2">
				<path fill="#738793" d="M419.4,322.5c1.1,0,7-0.1,8-0.2c0.8-0.1,1.6-0.2,2.4-0.3v-11.4c-0.7-0.1-1.4-0.2-2.1-0.3
					c-1.1-0.1-8-0.2-9.2-0.2c-2.6,0-8.1,2.1-8.1,6.1C410.4,320.4,416.3,322.5,419.4,322.5z"/>
				<path fill="none" stroke="#738793" stroke-width="0.3" stroke-miterlimit="10" d="M419.4,322.5c1.1,0,7-0.1,8-0.2
					c0.8-0.1,1.6-0.2,2.4-0.3v-11.4c-0.7-0.1-1.4-0.2-2.1-0.3c-1.1-0.1-8-0.2-9.2-0.2c-2.6,0-8.1,2.1-8.1,6.1
					C410.4,320.4,416.3,322.5,419.4,322.5z"/>
			</g>
			<g>
				<path fill="#FFFFFF" d="M416.4,319.5c1.1,0,7-0.1,8-0.2c0.8-0.1,1.6-0.2,2.4-0.3v-11.4c-0.7-0.1-1.4-0.2-2.1-0.3
					c-1.1-0.1-8-0.2-9.2-0.2c-2.6,0-8.1,2.1-8.1,6.1C407.4,317.4,413.3,319.5,416.4,319.5z"/>
				<path fill="none" stroke="#717E86" stroke-width="0.3" stroke-miterlimit="10" d="M416.4,319.5c1.1,0,7-0.1,8-0.2
					c0.8-0.1,1.6-0.2,2.4-0.3v-11.4c-0.7-0.1-1.4-0.2-2.1-0.3c-1.1-0.1-8-0.2-9.2-0.2c-2.6,0-8.1,2.1-8.1,6.1
					C407.4,317.4,413.3,319.5,416.4,319.5z"/>
			</g>
		</g>
		<g>
			<circle fill="#FFFFFF" stroke="#717E86" stroke-width="0.3" stroke-miterlimit="10" cx="424" cy="316" r="0.4"/>
			<circle fill="#FFFFFF" stroke="#717E86" stroke-width="0.3" stroke-miterlimit="10" cx="424" cy="310.6" r="0.4"/>
		</g>
		<path fill="#FFFFFF" stroke="#717E86" stroke-width="0.3" stroke-miterlimit="10" d="M409,313.3c0-2.6,4-4.8,6.6-4.8
			c2.6,0,4.8,2.1,4.8,4.8c0,2.6-2.1,4.8-4.8,4.8C413,318,409,315.9,409,313.3z"/>
		<path fill="#FFFFFF" stroke="#717E86" stroke-width="0.3" stroke-miterlimit="10" d="M416.7,314.9h1.8c0.5,0,0.5-0.7,0.5-1.6
			c0-0.9-0.2-1.6-0.5-1.6h-1.8c-0.9,0-1.6,0.7-1.6,1.6C415.1,314.2,415.8,314.9,416.7,314.9z"/>
		<path fill="none" stroke="#717E86" stroke-width="0.3" stroke-miterlimit="10" d="M424,319.3c0.9-1.5,1.5-3.8,1.5-6.3
			c0-2.2-0.4-4.2-1.2-5.7"/>
	</g>
	<g>
		<g>
			<g opacity="0.2">
				<path fill="#738793" d="M421,331.1h8.9v14.4H421c-1.6,0-3-1.3-3-3v-8.4C418,332.5,419.3,331.1,421,331.1z"/>
				<path fill="none" stroke="#738793" stroke-width="0.3" stroke-miterlimit="10" d="M421,331.1h8.9v14.4H421c-1.6,0-3-1.3-3-3
					v-8.4C418,332.5,419.3,331.1,421,331.1z"/>
			</g>
			<g>
				<path fill="#FFFFFF" d="M418,328.1h8.9v14.4H418c-1.6,0-3-1.3-3-3v-8.4C415,329.5,416.3,328.1,418,328.1z"/>
				<path fill="none" stroke="#717E86" stroke-width="0.3" stroke-miterlimit="10" d="M418,328.1h8.9v14.4H418c-1.6,0-3-1.3-3-3
					v-8.4C415,329.5,416.3,328.1,418,328.1z"/>
			</g>
		</g>
		<path fill="#FFFFFF" stroke="#717E86" stroke-width="0.3" stroke-miterlimit="10" d="M418.7,329.5h2.6c1.4,0,2.6,1.1,2.6,2.6v6.7
			c0,1.4-1.1,2.6-2.6,2.6h-2.6c-1.4,0-2.6-1.1-2.6-2.6V332C416.2,330.6,417.3,329.5,418.7,329.5z"/>
		<circle fill="#FFFFFF" stroke="#717E86" stroke-width="0.3" stroke-miterlimit="10" cx="422.3" cy="335.3" r="0.7"/>
	</g>
	<g>
		<g>
			<g opacity="5.000000e-002">
				<path fill="#717E86" d="M327.6,413.3v-57c0-2.9-2.4-5.3-5.3-5.3h-21.4c-0.7,0-1.2,0.5-1.2,1.2v0.2c0,0.7,0.5,1.2,1.2,1.2h0.8
					c-0.8,0-1.4,0.6-1.4,1.4V373c0,0.8,0.6,1.4,1.4,1.4c-0.8,0-1.4,0.6-1.4,1.4v18.1c0,0.8,0.6,1.4,1.4,1.4c-0.8,0-1.4,0.6-1.4,1.4
					v18.1c0,0.7,0.6,1.3,1.3,1.3h-0.7c-0.7,0-1.2,0.5-1.2,1.2v0.2c0,0.7,0.5,1.2,1.2,1.2h21.4C325.2,418.6,327.6,416.2,327.6,413.3z
					"/>
				<path fill="none" stroke="#717E86" stroke-width="0.3" stroke-miterlimit="10" d="M327.6,413.3v-57c0-2.9-2.4-5.3-5.3-5.3h-21.4
					c-0.7,0-1.2,0.5-1.2,1.2v0.2c0,0.7,0.5,1.2,1.2,1.2h0.8c-0.8,0-1.4,0.6-1.4,1.4V373c0,0.8,0.6,1.4,1.4,1.4
					c-0.8,0-1.4,0.6-1.4,1.4v18.1c0,0.8,0.6,1.4,1.4,1.4c-0.8,0-1.4,0.6-1.4,1.4v18.1c0,0.7,0.6,1.3,1.3,1.3h-0.7
					c-0.7,0-1.2,0.5-1.2,1.2v0.2c0,0.7,0.5,1.2,1.2,1.2h21.4C325.2,418.6,327.6,416.2,327.6,413.3z"/>
			</g>
			<g>
				<path fill="#EAF6FE" d="M324.6,410.3v-57c0-2.9-2.4-5.3-5.3-5.3h-21.4c-0.7,0-1.2,0.5-1.2,1.2v0.2c0,0.7,0.5,1.2,1.2,1.2h0.8
					c-0.8,0-1.4,0.6-1.4,1.4V370c0,0.8,0.6,1.4,1.4,1.4c-0.8,0-1.4,0.6-1.4,1.4v18.1c0,0.8,0.6,1.4,1.4,1.4c-0.8,0-1.4,0.6-1.4,1.4
					v18.1c0,0.7,0.6,1.3,1.3,1.3h-0.7c-0.7,0-1.2,0.5-1.2,1.2v0.2c0,0.7,0.5,1.2,1.2,1.2h21.4C322.2,415.6,324.6,413.2,324.6,410.3z
					"/>
				<path fill="none" stroke="#CCD3D8" stroke-width="0.3" stroke-miterlimit="10" d="M324.6,410.3v-57c0-2.9-2.4-5.3-5.3-5.3h-21.4
					c-0.7,0-1.2,0.5-1.2,1.2v0.2c0,0.7,0.5,1.2,1.2,1.2h0.8c-0.8,0-1.4,0.6-1.4,1.4V370c0,0.8,0.6,1.4,1.4,1.4
					c-0.8,0-1.4,0.6-1.4,1.4v18.1c0,0.8,0.6,1.4,1.4,1.4c-0.8,0-1.4,0.6-1.4,1.4v18.1c0,0.7,0.6,1.3,1.3,1.3h-0.7
					c-0.7,0-1.2,0.5-1.2,1.2v0.2c0,0.7,0.5,1.2,1.2,1.2h21.4C322.2,415.6,324.6,413.2,324.6,410.3z"/>
			</g>
		</g>
		<g>
			<path fill="#EAF6FE" stroke="#CCD3D8" stroke-width="0.3033" stroke-miterlimit="10" d="M324.6,410.3v-57c0-2.9-2.4-5.3-5.3-5.3
				h-21.4c-0.7,0-1.2,0.5-1.2,1.2v0.2c0,0.7,0.5,1.2,1.2,1.2h18.4V413h-18.4c-0.7,0-1.2,0.5-1.2,1.2v0.2c0,0.7,0.5,1.2,1.2,1.2h21.4
				C322.2,415.6,324.6,413.2,324.6,410.3z"/>
			<g>
				<path fill="#EAF6FE" stroke="#CCD3D8" stroke-width="0.3" stroke-miterlimit="10" d="M297.3,351.8v18.4c0,0.7,0.5,1.2,1.2,1.2
					h19c0.7,0,1.2-0.5,1.2-1.2v-18.4c0-0.7-0.5-1.2-1.2-1.2h-19C297.8,350.6,297.3,351.1,297.3,351.8z"/>
				<g>
					<path fill="#EAF6FE" stroke="#CCD3D8" stroke-width="0.3" stroke-miterlimit="10" d="M314.1,352.4c0.6,5.7,0.6,11.5,0,17.3
						c-0.1,1.3,0.8,2.4,2.1,2.6c0.9,0.1,1.9,0.2,2.8,0.4c1.3,0.2,2.5-0.8,2.6-2.2c0.6-6.2,0.6-12.5,0-18.7c-0.1-1.4-1.3-2.4-2.6-2.2
						c-0.9,0.1-1.9,0.2-2.8,0.4C314.9,349.9,314,351.1,314.1,352.4z"/>
					
						<path fill="#EAF6FE" stroke="#CCD3D8" stroke-width="0.3" stroke-linecap="round" stroke-linejoin="round" stroke-miterlimit="10" d="
						M316.1,351.9c0.6,0.1,0.6,18.1,0,18.2"/>
				</g>
			</g>
			<g>
				<path fill="#EAF6FE" stroke="#CCD3D8" stroke-width="0.3" stroke-miterlimit="10" d="M297.3,393.4v18.4c0,0.7,0.5,1.2,1.2,1.2
					h19c0.7,0,1.2-0.5,1.2-1.2v-18.4c0-0.7-0.5-1.2-1.2-1.2h-19C297.8,392.2,297.3,392.8,297.3,393.4z"/>
				<g>
					<path fill="#EAF6FE" stroke="#CCD3D8" stroke-width="0.3" stroke-miterlimit="10" d="M314.1,394c0.6,5.7,0.6,11.5,0,17.3
						c-0.1,1.3,0.8,2.4,2.1,2.6c0.9,0.1,1.9,0.2,2.8,0.4c1.3,0.2,2.5-0.8,2.6-2.2c0.6-6.2,0.6-12.5,0-18.7c-0.1-1.4-1.3-2.4-2.6-2.2
						c-0.9,0.1-1.9,0.2-2.8,0.4C314.9,391.6,314,392.7,314.1,394z"/>
					
						<path fill="#EAF6FE" stroke="#CCD3D8" stroke-width="0.3" stroke-linecap="round" stroke-linejoin="round" stroke-miterlimit="10" d="
						M316.1,393.5c0.6,0.1,0.6,18.1,0,18.2"/>
				</g>
			</g>
			<g>
				<path fill="#EAF6FE" stroke="#CCD3D8" stroke-width="0.3" stroke-miterlimit="10" d="M297.3,372.6V391c0,0.7,0.5,1.2,1.2,1.2h19
					c0.7,0,1.2-0.5,1.2-1.2v-18.4c0-0.7-0.5-1.2-1.2-1.2h-19C297.8,371.4,297.3,371.9,297.3,372.6z"/>
				<g>
					<path fill="#EAF6FE" stroke="#CCD3D8" stroke-width="0.3" stroke-miterlimit="10" d="M314.1,373.2c0.6,5.7,0.6,11.5,0,17.3
						c-0.1,1.3,0.8,2.4,2.1,2.6c0.9,0.1,1.9,0.2,2.8,0.4c1.3,0.2,2.5-0.8,2.6-2.2c0.6-6.2,0.6-12.5,0-18.7c-0.1-1.4-1.3-2.4-2.6-2.2
						c-0.9,0.1-1.9,0.2-2.8,0.4C314.9,370.7,314,371.9,314.1,373.2z"/>
					
						<path fill="#EAF6FE" stroke="#CCD3D8" stroke-width="0.3" stroke-linecap="round" stroke-linejoin="round" stroke-miterlimit="10" d="
						M316.1,372.7c0.6,0.1,0.6,18.1,0,18.2"/>
				</g>
			</g>
			<path fill="#EAF6FE" stroke="#CCD3D8" stroke-width="0.3" stroke-miterlimit="10" d="M319,351.4c-0.5,0.8-3.8,3.8-4.1,4
				c0,1.6-0.8,4.4-1.4,4.8c-0.4-0.2-0.3-0.4-0.9-0.8c-0.8-0.2-4.9-1.2-7.1-3c1-1.1,1.7-7,3.4-8.6c0.4-0.9,0.6-1.7,1.4-2.4
				c0.5,0.2,2.4,2.5,2.6,3.4C314,349.4,318.3,350.2,319,351.4z"/>
			<path fill="#EAF6FE" stroke="#CCD3D8" stroke-width="0.3" stroke-miterlimit="10" d="M319.8,409.1c-0.6,0.8-7.4,5.7-7.9,6
				c-1.6-0.4-3.8-3.5-4.4-4.5c-1.1-0.3-2.2-1-2.8-1.6c0.4-0.4,1.3-1.3,1.9-1.6c0.3-0.5,3-3.7,5.1-4.4c0.5-0.5,1-1.1,1.4-1
				c0.6,0.7,0.9,1.6,1,2.1C314.6,404.8,319.7,408.3,319.8,409.1z"/>
		</g>
	</g>
	<g>
		<g>
			<g opacity="5.000000e-002">
				<path fill="#717E86" d="M247.1,428c0-0.7-0.5-1.2-1.2-1.2h-0.2c-0.7,0-1.2,0.5-1.2,1.2v21.2c0,2.9,2.4,5.3,5.3,5.3H265
					c2.9,0,5.3-2.4,5.3-5.3V428c0-0.7-0.5-1.2-1.2-1.2h-0.2c-0.7,0-1.2,0.5-1.2,1.2l0,0.8c0-0.7-0.6-1.3-1.3-1.3h-17.9
					c-0.7,0-1.3,0.6-1.3,1.3L247.1,428z"/>
				
					<path fill="none" stroke="#717E86" stroke-width="0.3" stroke-linecap="round" stroke-linejoin="round" stroke-miterlimit="10" d="
					M247.1,428c0-0.7-0.5-1.2-1.2-1.2h-0.2c-0.7,0-1.2,0.5-1.2,1.2v21.2c0,2.9,2.4,5.3,5.3,5.3H265c2.9,0,5.3-2.4,5.3-5.3V428
					c0-0.7-0.5-1.2-1.2-1.2h-0.2c-0.7,0-1.2,0.5-1.2,1.2l0,0.8c0-0.7-0.6-1.3-1.3-1.3h-17.9c-0.7,0-1.3,0.6-1.3,1.3L247.1,428z"/>
			</g>
			<g>
				<path fill="#EAF6FE" d="M244.1,425c0-0.7-0.5-1.2-1.2-1.2h-0.2c-0.7,0-1.2,0.5-1.2,1.2v21.2c0,2.9,2.4,5.3,5.3,5.3H262
					c2.9,0,5.3-2.4,5.3-5.3V425c0-0.7-0.5-1.2-1.2-1.2h-0.2c-0.7,0-1.2,0.5-1.2,1.2l0,0.8c0-0.7-0.6-1.3-1.3-1.3h-17.9
					c-0.7,0-1.3,0.6-1.3,1.3L244.1,425z"/>
				
					<path fill="none" stroke="#CCD3D8" stroke-width="0.3" stroke-linecap="round" stroke-linejoin="round" stroke-miterlimit="10" d="
					M244.1,425c0-0.7-0.5-1.2-1.2-1.2h-0.2c-0.7,0-1.2,0.5-1.2,1.2v21.2c0,2.9,2.4,5.3,5.3,5.3H262c2.9,0,5.3-2.4,5.3-5.3V425
					c0-0.7-0.5-1.2-1.2-1.2h-0.2c-0.7,0-1.2,0.5-1.2,1.2l0,0.8c0-0.7-0.6-1.3-1.3-1.3h-17.9c-0.7,0-1.3,0.6-1.3,1.3L244.1,425z"/>
			</g>
		</g>
		<g>
			<path fill="#EAF6FE" stroke="#CCD3D8" stroke-width="0.3033" stroke-miterlimit="10" d="M246.8,451.5H262c2.9,0,5.3-2.4,5.3-5.3
				V425c0-0.7-0.5-1.2-1.2-1.2h-0.2c-0.7,0-1.2,0.5-1.2,1.2v18.2h-20.6V425c0-0.7-0.5-1.2-1.2-1.2h-0.2c-0.7,0-1.2,0.5-1.2,1.2v21.2
				C241.5,449.1,243.9,451.5,246.8,451.5z"/>
			<path fill="#EAF6FE" stroke="#CCD3D8" stroke-width="0.3" stroke-miterlimit="10" d="M263.5,424.4h-18.2c-0.7,0-1.2,0.5-1.2,1.2
				v18.8c0,0.7,0.5,1.2,1.2,1.2h18.2c0.7,0,1.2-0.5,1.2-1.2v-18.8C264.7,425,264.2,424.4,263.5,424.4z"/>
			<g>
				<path fill="#EAF6FE" stroke="#CCD3D8" stroke-width="0.3" stroke-miterlimit="10" d="M262.9,441.1c-5.7,0.6-11.4,0.6-17.1,0
					c-1.3-0.1-2.4,0.8-2.6,2c-0.1,0.9-0.2,1.9-0.3,2.8c-0.2,1.3,0.8,2.4,2.2,2.6c6.2,0.6,12.4,0.6,18.5,0c1.4-0.1,2.4-1.3,2.2-2.6
					c-0.1-0.9-0.2-1.9-0.3-2.8C265.3,441.8,264.2,441,262.9,441.1z"/>
				
					<path fill="#EAF6FE" stroke="#CCD3D8" stroke-width="0.3" stroke-linecap="round" stroke-linejoin="round" stroke-miterlimit="10" d="
					M263.4,443c-0.1,0.6-17.9,0.6-18,0"/>
			</g>
		</g>
	</g>
	<g>
		<g>
			<g opacity="5.000000e-002">
				<path fill="#717E86" d="M267.7,339.7c0,0.7,0.5,1.2,1.2,1.2h0.2c0.7,0,1.2-0.5,1.2-1.2v-21.2c0-2.9-2.4-5.3-5.3-5.3h-15.2
					c-2.9,0-5.3,2.4-5.3,5.3v21.2c0,0.7,0.5,1.2,1.2,1.2h0.2c0.7,0,1.2-0.5,1.2-1.2l0-0.8c0,0.7,0.6,1.3,1.3,1.3h17.9
					c0.7,0,1.3-0.6,1.3-1.3L267.7,339.7z"/>
				
					<path fill="none" stroke="#717E86" stroke-width="0.3" stroke-linecap="round" stroke-linejoin="round" stroke-miterlimit="10" d="
					M267.7,339.7c0,0.7,0.5,1.2,1.2,1.2h0.2c0.7,0,1.2-0.5,1.2-1.2v-21.2c0-2.9-2.4-5.3-5.3-5.3h-15.2c-2.9,0-5.3,2.4-5.3,5.3v21.2
					c0,0.7,0.5,1.2,1.2,1.2h0.2c0.7,0,1.2-0.5,1.2-1.2l0-0.8c0,0.7,0.6,1.3,1.3,1.3h17.9c0.7,0,1.3-0.6,1.3-1.3L267.7,339.7z"/>
			</g>
			<g>
				<path fill="#EAF6FE" d="M264.7,336.7c0,0.7,0.5,1.2,1.2,1.2h0.2c0.7,0,1.2-0.5,1.2-1.2v-21.2c0-2.9-2.4-5.3-5.3-5.3h-15.2
					c-2.9,0-5.3,2.4-5.3,5.3v21.2c0,0.7,0.5,1.2,1.2,1.2h0.2c0.7,0,1.2-0.5,1.2-1.2l0-0.8c0,0.7,0.6,1.3,1.3,1.3h17.9
					c0.7,0,1.3-0.6,1.3-1.3L264.7,336.7z"/>
				
					<path fill="none" stroke="#CCD3D8" stroke-width="0.3" stroke-linecap="round" stroke-linejoin="round" stroke-miterlimit="10" d="
					M264.7,336.7c0,0.7,0.5,1.2,1.2,1.2h0.2c0.7,0,1.2-0.5,1.2-1.2v-21.2c0-2.9-2.4-5.3-5.3-5.3h-15.2c-2.9,0-5.3,2.4-5.3,5.3v21.2
					c0,0.7,0.5,1.2,1.2,1.2h0.2c0.7,0,1.2-0.5,1.2-1.2l0-0.8c0,0.7,0.6,1.3,1.3,1.3h17.9c0.7,0,1.3-0.6,1.3-1.3L264.7,336.7z"/>
			</g>
		</g>
		<g>
			<path fill="#EAF6FE" stroke="#CCD3D8" stroke-width="0.3033" stroke-miterlimit="10" d="M262,310.3h-15.2c-2.9,0-5.3,2.4-5.3,5.3
				v21.2c0,0.7,0.5,1.2,1.2,1.2h0.2c0.7,0,1.2-0.5,1.2-1.2v-18.2h20.6v18.2c0,0.7,0.5,1.2,1.2,1.2h0.2c0.7,0,1.2-0.5,1.2-1.2v-21.2
				C267.3,312.7,264.9,310.3,262,310.3z"/>
			<path fill="#EAF6FE" stroke="#CCD3D8" stroke-width="0.3" stroke-miterlimit="10" d="M245.3,337.3h18.2c0.7,0,1.2-0.5,1.2-1.2
				v-18.8c0-0.7-0.5-1.2-1.2-1.2h-18.2c-0.7,0-1.2,0.5-1.2,1.2v18.8C244.1,336.8,244.6,337.3,245.3,337.3z"/>
			<g>
				<path fill="#EAF6FE" stroke="#CCD3D8" stroke-width="0.3" stroke-miterlimit="10" d="M245.9,320.7c5.7-0.6,11.4-0.6,17.1,0
					c1.3,0.1,2.4-0.8,2.6-2c0.1-0.9,0.2-1.9,0.3-2.8c0.2-1.3-0.8-2.4-2.2-2.6c-6.2-0.6-12.4-0.6-18.5,0c-1.4,0.1-2.4,1.3-2.2,2.6
					c0.1,0.9,0.2,1.9,0.3,2.8C243.4,319.9,244.6,320.8,245.9,320.7z"/>
				
					<path fill="#EAF6FE" stroke="#CCD3D8" stroke-width="0.3" stroke-linecap="round" stroke-linejoin="round" stroke-miterlimit="10" d="
					M245.4,318.8c0.1-0.6,17.9-0.6,18,0"/>
			</g>
		</g>
	</g>
	<g>
		<g>
			<g>
				<path fill="#EAF6FE" stroke="#CCD3D8" stroke-width="0.3" stroke-miterlimit="10" d="M267,282.9v-1.7H252v1.7
					c0,0.7,0.5,1.2,1.2,1.2h12.5C266.4,284.1,267,283.5,267,282.9z"/>
				
					<rect x="252" y="276.5" fill="#EAF6FE" stroke="#CCD3D8" stroke-width="0.3" stroke-miterlimit="10" width="14.9" height="4.7"/>
				
					<line fill="#EAF6FE" stroke="#CCD3D8" stroke-width="0.3" stroke-miterlimit="10" x1="264.9" y1="281.2" x2="264.9" y2="276.5"/>
				
					<line fill="#EAF6FE" stroke="#CCD3D8" stroke-width="0.3" stroke-miterlimit="10" x1="254.1" y1="276.5" x2="254.1" y2="281.2"/>
			</g>
			<g>
				<path fill="#EAF6FE" stroke="#CCD3D8" stroke-width="0.3" stroke-miterlimit="10" d="M249.3,282.9v-1.7h-14.9v1.7
					c0,0.7,0.5,1.2,1.2,1.2h12.5C248.8,284.1,249.3,283.5,249.3,282.9z"/>
				
					<rect x="234.4" y="276.5" fill="#EAF6FE" stroke="#CCD3D8" stroke-width="0.3" stroke-miterlimit="10" width="14.9" height="4.7"/>
				
					<line fill="#EAF6FE" stroke="#CCD3D8" stroke-width="0.3" stroke-miterlimit="10" x1="247.3" y1="281.2" x2="247.3" y2="276.5"/>
				
					<line fill="#EAF6FE" stroke="#CCD3D8" stroke-width="0.3" stroke-miterlimit="10" x1="236.4" y1="276.5" x2="236.4" y2="281.2"/>
			</g>
			<g>
				<path fill="#EAF6FE" stroke="#CCD3D8" stroke-width="0.3" stroke-miterlimit="10" d="M231.6,282.9v-1.7h-14.9v1.7
					c0,0.7,0.5,1.2,1.2,1.2h12.5C231.1,284.1,231.6,283.5,231.6,282.9z"/>
				
					<rect x="216.7" y="276.5" fill="#EAF6FE" stroke="#CCD3D8" stroke-width="0.3" stroke-miterlimit="10" width="14.9" height="4.7"/>
				
					<line fill="#EAF6FE" stroke="#CCD3D8" stroke-width="0.3" stroke-miterlimit="10" x1="229.6" y1="281.2" x2="229.6" y2="276.5"/>
				
					<line fill="#EAF6FE" stroke="#CCD3D8" stroke-width="0.3" stroke-miterlimit="10" x1="218.8" y1="276.5" x2="218.8" y2="281.2"/>
			</g>
		</g>
		<g>
			<path fill="#EAF6FE" stroke="#CCD3D8" stroke-width="0.3" stroke-miterlimit="10" d="M216.7,240.9v1.7h14.9v-1.7
				c0-0.7-0.5-1.2-1.2-1.2h-12.5C217.3,239.7,216.7,240.3,216.7,240.9z"/>
			
				<rect x="216.7" y="242.6" fill="#EAF6FE" stroke="#CCD3D8" stroke-width="0.3" stroke-miterlimit="10" width="14.9" height="4.7"/>
			<line fill="#EAF6FE" stroke="#CCD3D8" stroke-width="0.3" stroke-miterlimit="10" x1="218.8" y1="242.6" x2="218.8" y2="247.3"/>
			<line fill="#EAF6FE" stroke="#CCD3D8" stroke-width="0.3" stroke-miterlimit="10" x1="229.6" y1="247.3" x2="229.6" y2="242.6"/>
		</g>
		<g>
			<path fill="#EAF6FE" stroke="#CCD3D8" stroke-width="0.3" stroke-miterlimit="10" d="M234.4,240.9v1.7h14.9v-1.7
				c0-0.7-0.5-1.2-1.2-1.2h-12.5C234.9,239.7,234.4,240.3,234.4,240.9z"/>
			
				<rect x="234.4" y="242.6" fill="#EAF6FE" stroke="#CCD3D8" stroke-width="0.3" stroke-miterlimit="10" width="14.9" height="4.7"/>
			<line fill="#EAF6FE" stroke="#CCD3D8" stroke-width="0.3" stroke-miterlimit="10" x1="236.4" y1="242.6" x2="236.4" y2="247.3"/>
			<line fill="#EAF6FE" stroke="#CCD3D8" stroke-width="0.3" stroke-miterlimit="10" x1="247.3" y1="247.3" x2="247.3" y2="242.6"/>
		</g>
		<g>
			<path fill="#EAF6FE" stroke="#CCD3D8" stroke-width="0.3" stroke-miterlimit="10" d="M256.5,236.7l-0.7,1.6l13.8,5.8l0.7-1.6
				c0.3-0.6,0-1.3-0.6-1.6l-11.5-4.8C257.4,235.8,256.7,236.1,256.5,236.7z"/>
			
				<rect x="253.6" y="239.7" transform="matrix(-0.3873 0.922 -0.922 -0.3873 588.7861 103.0396)" fill="#EAF6FE" stroke="#CCD3D8" stroke-width="0.3" stroke-miterlimit="10" width="13.1" height="14.9"/>
			<line fill="#EAF6FE" stroke="#CCD3D8" stroke-width="0.3" stroke-miterlimit="10" x1="257.7" y1="239" x2="252.6" y2="251.1"/>
			<line fill="#EAF6FE" stroke="#CCD3D8" stroke-width="0.3" stroke-miterlimit="10" x1="262.6" y1="255.3" x2="267.7" y2="243.2"/>
		</g>
		<g>
			<g opacity="5.000000e-002">
				<path fill="#717E86" d="M213.9,278.3v-26.8c0-0.7,0.5-1.2,1.2-1.2h59.5c0.7,0,1.2,0.5,1.2,1.2v26.8c0,0.7-0.5,1.2-1.2,1.2h-59.5
					C214.4,279.5,213.9,279,213.9,278.3z"/>
				<path fill="none" stroke="#717E86" stroke-width="0.3" stroke-miterlimit="10" d="M213.9,278.3v-26.8c0-0.7,0.5-1.2,1.2-1.2
					h59.5c0.7,0,1.2,0.5,1.2,1.2v26.8c0,0.7-0.5,1.2-1.2,1.2h-59.5C214.4,279.5,213.9,279,213.9,278.3z"/>
			</g>
			<g>
				<path fill="#EAF6FE" d="M210.9,275.3v-26.8c0-0.7,0.5-1.2,1.2-1.2h59.5c0.7,0,1.2,0.5,1.2,1.2v26.8c0,0.7-0.5,1.2-1.2,1.2h-59.5
					C211.4,276.5,210.9,276,210.9,275.3z"/>
				<path fill="none" stroke="#CCD3D8" stroke-width="0.3" stroke-miterlimit="10" d="M210.9,275.3v-26.8c0-0.7,0.5-1.2,1.2-1.2
					h59.5c0.7,0,1.2,0.5,1.2,1.2v26.8c0,0.7-0.5,1.2-1.2,1.2h-59.5C211.4,276.5,210.9,276,210.9,275.3z"/>
			</g>
		</g>
		<path fill="#EAF6FE" stroke="#CCD3D8" stroke-width="0.3" stroke-miterlimit="10" d="M219.8,263.5l1.9-2.7c0.3-0.4,1-0.5,1.4-0.2
			l4.8,3.5c0.4,0.3,0.5,1,0.2,1.4l-1.9,2.7c-0.3,0.4-1,0.5-1.4,0.2l-4.8-3.5C219.5,264.5,219.4,263.9,219.8,263.5z"/>
	</g>
	<g>
		<g>
			<g>
				<g opacity="5.000000e-002">
					<path fill="#717E86" d="M280,365.4c2.5,13.7,2.5,27.3,0,41c-0.1,0.6-0.6,1-1.1,1h-16.2c-0.6,0-1-0.4-1.1-1
						c-2.5-13.7-2.5-27.3,0-41c0.1-0.6,0.6-1,1.1-1h16.2C279.4,364.4,279.9,364.9,280,365.4z"/>
					<path fill="none" stroke="#717E86" stroke-width="0.3" stroke-miterlimit="10" d="M280,365.4c2.5,13.7,2.5,27.3,0,41
						c-0.1,0.6-0.6,1-1.1,1h-16.2c-0.6,0-1-0.4-1.1-1c-2.5-13.7-2.5-27.3,0-41c0.1-0.6,0.6-1,1.1-1h16.2
						C279.4,364.4,279.9,364.9,280,365.4z"/>
				</g>
				<g>
					<path fill="#EAF6FE" d="M277,362.4c2.5,13.7,2.5,27.3,0,41c-0.1,0.6-0.6,1-1.1,1h-16.2c-0.6,0-1-0.4-1.1-1
						c-2.5-13.7-2.5-27.3,0-41c0.1-0.6,0.6-1,1.1-1h16.2C276.4,361.4,276.9,361.9,277,362.4z"/>
					<path fill="none" stroke="#CCD3D8" stroke-width="0.3" stroke-miterlimit="10" d="M277,362.4c2.5,13.7,2.5,27.3,0,41
						c-0.1,0.6-0.6,1-1.1,1h-16.2c-0.6,0-1-0.4-1.1-1c-2.5-13.7-2.5-27.3,0-41c0.1-0.6,0.6-1,1.1-1h16.2
						C276.4,361.4,276.9,361.9,277,362.4z"/>
				</g>
			</g>
			<path fill="#EAF6FE" stroke="#CCD3D8" stroke-width="0.3" stroke-miterlimit="10" d="M267.8,380.5l2.4,1.9c0.4,0.3,0.5,1,0.2,1.4
				l-3.4,4.4c-0.3,0.4-1,0.5-1.4,0.2l-2.4-1.9c-0.4-0.3-0.5-1-0.2-1.4l3.4-4.4C266.8,380.3,267.4,380.2,267.8,380.5z"/>
			<path fill="#EAF6FE" stroke="#CCD3D8" stroke-width="0.3" stroke-miterlimit="10" d="M270.5,378.1l1.4,2.7
				c0.3,0.5,0.1,1.1-0.4,1.3l-4.9,2.5c-0.5,0.3-1.1,0.1-1.3-0.4l-1.4-2.7c-0.3-0.5-0.1-1.1,0.4-1.3l4.9-2.5
				C269.6,377.5,270.2,377.6,270.5,378.1z"/>
			<circle fill="#EAF6FE" stroke="#CCD3D8" stroke-width="0.3" stroke-miterlimit="10" cx="271.7" cy="370" r="5"/>
			
				<path fill="#EAF6FE" stroke="#CCD3D8" stroke-width="0.3" stroke-linecap="round" stroke-linejoin="round" stroke-miterlimit="10" d="
				M268.7,371.4c-4-2.6,0.4-7.2,4.1-5C271.6,365.5,267.1,369.6,268.7,371.4z"/>
			<circle fill="#EAF6FE" stroke="#CCD3D8" stroke-width="0.3" stroke-miterlimit="10" cx="268.3" cy="375.2" r="0.7"/>
			<circle fill="#EAF6FE" stroke="#CCD3D8" stroke-width="0.3" stroke-miterlimit="10" cx="269.8" cy="375.3" r="0.7"/>
			<circle fill="#EAF6FE" stroke="#CCD3D8" stroke-width="0.3" stroke-miterlimit="10" cx="269.9" cy="374.1" r="0.7"/>
			<circle fill="#EAF6FE" stroke="#CCD3D8" stroke-width="0.3" stroke-miterlimit="10" cx="268.7" cy="374.1" r="0.7"/>
			<circle fill="#EAF6FE" stroke="#CCD3D8" stroke-width="0.3" stroke-miterlimit="10" cx="267.2" cy="374.3" r="0.7"/>
			<circle fill="#EAF6FE" stroke="#CCD3D8" stroke-width="0.3" stroke-miterlimit="10" cx="266.8" cy="373.2" r="0.7"/>
			<circle fill="#EAF6FE" stroke="#CCD3D8" stroke-width="0.3" stroke-miterlimit="10" cx="267" cy="371.9" r="0.7"/>
			<circle fill="#EAF6FE" stroke="#CCD3D8" stroke-width="0.3" stroke-miterlimit="10" cx="267.9" cy="373.2" r="0.7"/>
			<circle fill="#EAF6FE" stroke="#CCD3D8" stroke-width="0.3" stroke-miterlimit="10" cx="269.2" cy="372.9" r="0.7"/>
			<circle fill="#EAF6FE" stroke="#CCD3D8" stroke-width="0.3" stroke-miterlimit="10" cx="268.2" cy="372" r="0.7"/>
			<circle fill="#EAF6FE" stroke="#CCD3D8" stroke-width="0.3" stroke-miterlimit="10" cx="273" cy="372.4" r="1.8"/>
			<circle fill="#EAF6FE" stroke="#CCD3D8" stroke-width="0.3" stroke-miterlimit="10" cx="270.1" cy="371.6" r="1.3"/>
			
				<ellipse transform="matrix(-0.2653 -0.9642 0.9642 -0.2653 -12.4004 730.7443)" fill="#EAF6FE" stroke="#CCD3D8" stroke-width="0.3" stroke-miterlimit="10" cx="272.2" cy="370.1" rx="1" ry="1.6"/>
			
				<path fill="#EAF6FE" stroke="#CCD3D8" stroke-width="0.3" stroke-linecap="round" stroke-linejoin="round" stroke-miterlimit="10" d="
				M268.7,371.6c-2.4-4.1,3.6-6.3,5.9-2.7C274,367.6,268.1,369.3,268.7,371.6z"/>
		</g>
		<g>
			<g>
				
					<path fill="#EAF6FE" stroke="#CCD3D8" stroke-width="0.3" stroke-linecap="round" stroke-linejoin="round" stroke-miterlimit="10" d="
					M269.1,396.2c0,0-3.2,1.4-5.1,0.2C264,396.4,265.2,394.9,269.1,396.2z"/>
				
					<path fill="#EAF6FE" stroke="#CCD3D8" stroke-width="0.3" stroke-linecap="round" stroke-linejoin="round" stroke-miterlimit="10" d="
					M269.1,396.2c0,0-3.3-0.1-4.7-2C264.4,394.2,266.2,393.3,269.1,396.2z"/>
				
					<path fill="#EAF6FE" stroke="#CCD3D8" stroke-width="0.3" stroke-linecap="round" stroke-linejoin="round" stroke-miterlimit="10" d="
					M265,399.7c0,0,3.4,0,4.1-3.5C269.1,396.2,265.1,397.2,265,399.7z"/>
				
					<path fill="#EAF6FE" stroke="#CCD3D8" stroke-width="0.3" stroke-linecap="round" stroke-linejoin="round" stroke-miterlimit="10" d="
					M274.3,400.1c0,0-4.2-0.8-5.2-3.8C269.1,396.2,272.5,395.8,274.3,400.1z"/>
				
					<path fill="#EAF6FE" stroke="#CCD3D8" stroke-width="0.3" stroke-linecap="round" stroke-linejoin="round" stroke-miterlimit="10" d="
					M268.3,401.9c0,0-0.7-2.3,0.8-5.6C269.1,396.2,270.3,399.3,268.3,401.9z"/>
				
					<path fill="#EAF6FE" stroke="#CCD3D8" stroke-width="0.3" stroke-linecap="round" stroke-linejoin="round" stroke-miterlimit="10" d="
					M275.6,396.4c0,0-4.2,1.7-6.6-0.1C269,396.3,269.4,395,275.6,396.4z"/>
				
					<path fill="#EAF6FE" stroke="#CCD3D8" stroke-width="0.3" stroke-linecap="round" stroke-linejoin="round" stroke-miterlimit="10" d="
					M265.6,392c0,0,1.4,3.6,3.5,4.2C269.1,396.2,268.1,393.8,265.6,392z"/>
				
					<path fill="#EAF6FE" stroke="#CCD3D8" stroke-width="0.3" stroke-linecap="round" stroke-linejoin="round" stroke-miterlimit="10" d="
					M274.5,393c0,0-2.1,2.9-5.4,3.2C269.1,396.2,270.8,393.4,274.5,393z"/>
				
					<path fill="#EAF6FE" stroke="#CCD3D8" stroke-width="0.3" stroke-linecap="round" stroke-linejoin="round" stroke-miterlimit="10" d="
					M267.9,390.6c0,0-0.6,3.5,1.1,5.7C269,396.3,270.2,394,267.9,390.6z"/>
				
					<path fill="#EAF6FE" stroke="#CCD3D8" stroke-width="0.3" stroke-linecap="round" stroke-linejoin="round" stroke-miterlimit="10" d="
					M271.2,401.9c0,0-2.3-1.7-2.2-5.5C269,396.3,271.6,398.6,271.2,401.9z"/>
				
					<path fill="#EAF6FE" stroke="#CCD3D8" stroke-width="0.3" stroke-linecap="round" stroke-linejoin="round" stroke-miterlimit="10" d="
					M272.8,391.4c0,0-1.3,4.3-3.9,5.1C268.9,396.4,269.2,393.3,272.8,391.4z"/>
				
					<path fill="#EAF6FE" stroke="#CCD3D8" stroke-width="0.3" stroke-linecap="round" stroke-linejoin="round" stroke-miterlimit="10" d="
					M270.6,390.4c0,0,0.6,3.6-1.6,5.9C269,396.3,267.9,393.8,270.6,390.4z"/>
				
					<path fill="#EAF6FE" stroke="#CCD3D8" stroke-width="0.3" stroke-linecap="round" stroke-linejoin="round" stroke-miterlimit="10" d="
					M269,396.6c0,0,0.1,2.1-2.4,4.6C266.6,401.2,266.7,398.9,269,396.6z"/>
				
					<path fill="#EAF6FE" stroke="#CCD3D8" stroke-width="0.3" stroke-linecap="round" stroke-linejoin="round" stroke-miterlimit="10" d="
					M272.5,401c0,0-2.8-1.9-3.4-4.5C269.1,396.5,271.4,396.8,272.5,401z"/>
			</g>
			<g>
				
					<path fill="#EAF6FE" stroke="#CCD3D8" stroke-width="0.3" stroke-linecap="round" stroke-linejoin="round" stroke-miterlimit="10" d="
					M269.4,396.2c0,0-2-0.1-2.8-1.2C266.6,395,267.6,394.4,269.4,396.2z"/>
				
					<path fill="#EAF6FE" stroke="#CCD3D8" stroke-width="0.3" stroke-linecap="round" stroke-linejoin="round" stroke-miterlimit="10" d="
					M266.9,398.2c0,0,2,0,2.4-2.1C269.4,396.2,267,396.7,266.9,398.2z"/>
				
					<path fill="#EAF6FE" stroke="#CCD3D8" stroke-width="0.3" stroke-linecap="round" stroke-linejoin="round" stroke-miterlimit="10" d="
					M272.5,398.5c0,0-2.5-0.4-3.1-2.3C269.4,396.2,271.4,395.9,272.5,398.5z"/>
				
					<path fill="#EAF6FE" stroke="#CCD3D8" stroke-width="0.3" stroke-linecap="round" stroke-linejoin="round" stroke-miterlimit="10" d="
					M268.9,399.5c0,0-0.4-1.4,0.5-3.3C269.4,396.2,270.1,398,268.9,399.5z"/>
				
					<path fill="#EAF6FE" stroke="#CCD3D8" stroke-width="0.3" stroke-linecap="round" stroke-linejoin="round" stroke-miterlimit="10" d="
					M272.6,394.3c0,0-1.3,1.7-3.2,1.9C269.4,396.2,270.4,394.5,272.6,394.3z"/>
				
					<path fill="#EAF6FE" stroke="#CCD3D8" stroke-width="0.3" stroke-linecap="round" stroke-linejoin="round" stroke-miterlimit="10" d="
					M268.7,392.8c0,0-0.3,2.1,0.7,3.4C269.3,396.2,270,394.9,268.7,392.8z"/>
				
					<path fill="#EAF6FE" stroke="#CCD3D8" stroke-width="0.3" stroke-linecap="round" stroke-linejoin="round" stroke-miterlimit="10" d="
					M270.6,399.5c0,0-1.4-1-1.3-3.3C269.3,396.2,270.9,397.6,270.6,399.5z"/>
				
					<path fill="#EAF6FE" stroke="#CCD3D8" stroke-width="0.3" stroke-linecap="round" stroke-linejoin="round" stroke-miterlimit="10" d="
					M270.2,392.7c0,0,0.3,2.2-0.9,3.5C269.3,396.2,268.7,394.7,270.2,392.7z"/>
			</g>
		</g>
	</g>
	<g>
		<g>
			<g opacity="5.000000e-002">
				<path fill="#717E86" d="M197.2,344.6l-2.4,49.1c0,0.6-0.5,1-1,0.9l-12.4-0.6c-0.6,0-1-0.5-0.9-1l2.4-49.1c0-0.6,0.5-1,1-0.9
					l12.4,0.6C196.8,343.6,197.3,344.1,197.2,344.6z"/>
				<path fill="none" stroke="#717E86" stroke-width="0.3" stroke-miterlimit="10" d="M197.2,344.6l-2.4,49.1c0,0.6-0.5,1-1,0.9
					l-12.4-0.6c-0.6,0-1-0.5-0.9-1l2.4-49.1c0-0.6,0.5-1,1-0.9l12.4,0.6C196.8,343.6,197.3,344.1,197.2,344.6z"/>
			</g>
			<g>
				<path fill="#EAF6FE" d="M194.2,341.6l-2.4,49.1c0,0.6-0.5,1-1,0.9l-12.4-0.6c-0.6,0-1-0.5-0.9-1l2.4-49.1c0-0.6,0.5-1,1-0.9
					l12.4,0.6C193.8,340.6,194.3,341.1,194.2,341.6z"/>
				<path fill="none" stroke="#CCD3D8" stroke-width="0.3" stroke-miterlimit="10" d="M194.2,341.6l-2.4,49.1c0,0.6-0.5,1-1,0.9
					l-12.4-0.6c-0.6,0-1-0.5-0.9-1l2.4-49.1c0-0.6,0.5-1,1-0.9l12.4,0.6C193.8,340.6,194.3,341.1,194.2,341.6z"/>
			</g>
		</g>
		<path fill="#EAF6FE" stroke="#CCD3D8" stroke-width="0.3" stroke-miterlimit="10" d="M185.6,372.5l-4.7-0.2c-0.6,0-1-0.5-0.9-1
			l0.6-11.3c0-0.6,0.5-1,1-0.9l4.7,0.2c0.6,0,1,0.5,0.9,1l-0.6,11.3C186.6,372.1,186.2,372.5,185.6,372.5z"/>
		<path fill="#EAF6FE" stroke="#CCD3D8" stroke-width="0.2953" stroke-miterlimit="10" d="M180.5,371l0.5-11c0-0.3,0.3-0.6,0.6-0.6
			l4.5,0.2c0.3,0,0.6,0.3,0.6,0.6l-0.5,11c0,0.3-0.3,0.6-0.6,0.6l-4.5-0.2C180.7,371.6,180.5,371.3,180.5,371z"/>
		
			<rect x="183.6" y="345.2" transform="matrix(0.9988 4.968010e-002 -4.968010e-002 0.9988 18.3968 -8.7042)" fill="#EAF6FE" stroke="#CCD3D8" stroke-width="0.3" stroke-miterlimit="10" width="1.4" height="41"/>
	</g>
	<g>
		<g>
			<g opacity="5.000000e-002">
				<path fill="#717E86" d="M206.3,161.3v-22.1c0-0.6,0.4-1,1-1h47.9c0.5,0,1,0.4,1,1v22.1c0,0.6-0.4,1-1,1h-47.9
					C206.8,162.3,206.3,161.8,206.3,161.3z"/>
				<path fill="none" stroke="#717E86" stroke-width="0.3" stroke-miterlimit="10" d="M206.3,161.3v-22.1c0-0.6,0.4-1,1-1h47.9
					c0.5,0,1,0.4,1,1v22.1c0,0.6-0.4,1-1,1h-47.9C206.8,162.3,206.3,161.8,206.3,161.3z"/>
			</g>
			<g>
				<path fill="#EAF6FE" d="M203.3,158.3v-22.1c0-0.6,0.4-1,1-1h47.9c0.5,0,1,0.4,1,1v22.1c0,0.6-0.4,1-1,1h-47.9
					C203.8,159.3,203.3,158.8,203.3,158.3z"/>
				<path fill="none" stroke="#CCD3D8" stroke-width="0.3" stroke-miterlimit="10" d="M203.3,158.3v-22.1c0-0.6,0.4-1,1-1h47.9
					c0.5,0,1,0.4,1,1v22.1c0,0.6-0.4,1-1,1h-47.9C203.8,159.3,203.3,158.8,203.3,158.3z"/>
			</g>
		</g>
	</g>
	<line fill="none" stroke="#717E86" stroke-width="0.3" stroke-miterlimit="10" x1="309.1" y1="206.3" x2="330.4" y2="206.3"/>
	<line fill="none" stroke="#717E86" stroke-width="0.3" stroke-miterlimit="10" x1="405.4" y1="69.2" x2="333.9" y2="69.2"/>
	<g>
		<g>
			<rect x="387" y="175.2" fill="#FFFFFF" width="20.1" height="54.1"/>
			<path fill="#717E86" d="M406.9,175.4v53.8h-19.8v-53.8H406.9 M407.2,175.1h-20.4v54.4h20.4V175.1L407.2,175.1z"/>
		</g>
		<line fill="none" stroke="#717E86" stroke-width="0.5" stroke-miterlimit="10" x1="403.7" y1="222.1" x2="390.4" y2="221"/>
		<line fill="none" stroke="#717E86" stroke-width="0.5" stroke-miterlimit="10" x1="403.7" y1="218.1" x2="390.4" y2="219.4"/>
		<line fill="none" stroke="#717E86" stroke-width="0.5" stroke-miterlimit="10" x1="403.7" y1="216.6" x2="390.4" y2="215.6"/>
		<line fill="none" stroke="#717E86" stroke-width="0.5" stroke-miterlimit="10" x1="403.7" y1="212.7" x2="390.4" y2="214"/>
		<line fill="none" stroke="#717E86" stroke-width="0.5" stroke-miterlimit="10" x1="403.7" y1="191.9" x2="390.4" y2="190.8"/>
		<line fill="none" stroke="#717E86" stroke-width="0.5" stroke-miterlimit="10" x1="403.7" y1="187.9" x2="390.4" y2="189.2"/>
		<line fill="none" stroke="#717E86" stroke-width="0.5" stroke-miterlimit="10" x1="403.7" y1="186.4" x2="390.4" y2="185.4"/>
		<line fill="none" stroke="#717E86" stroke-width="0.5" stroke-miterlimit="10" x1="403.7" y1="182.5" x2="390.4" y2="183.8"/>
		<line fill="#EAF6FE" stroke="#717E86" stroke-width="0.3" stroke-miterlimit="10" x1="388.3" y1="229.5" x2="388.3" y2="175.3"/>
		<line fill="#EAF6FE" stroke="#717E86" stroke-width="0.3" stroke-miterlimit="10" x1="388.3" y1="202.4" x2="386.9" y2="202.4"/>
		<polyline fill="none" stroke="#717E86" stroke-width="0.3" stroke-miterlimit="10" points="386.9,208.3 386.2,208.3 386.2,206.3 
			386.9,206.3 		"/>
		<polyline fill="none" stroke="#717E86" stroke-width="0.3" stroke-miterlimit="10" points="386.9,198.5 386.2,198.5 386.2,196.5 
			386.9,196.5 		"/>
		<line fill="none" stroke="#717E86" stroke-width="0.3" stroke-miterlimit="10" x1="397" y1="229.5" x2="397" y2="175.3"/>
	</g>
	<g>
		<g>
			<rect x="387.1" y="123.1" fill="#FFFFFF" width="27" height="47.6"/>
			<path fill="#717E86" d="M413.9,123.3v47.3h-26.7v-47.3H413.9 M414.2,123h-27.3v47.9h27.3V123L414.2,123z"/>
		</g>
		<line fill="#EAF6FE" stroke="#717E86" stroke-width="0.3" stroke-miterlimit="10" x1="388.4" y1="170.9" x2="388.4" y2="123.2"/>
		<line fill="#EAF6FE" stroke="#717E86" stroke-width="0.3" stroke-miterlimit="10" x1="388.4" y1="147" x2="387.1" y2="147"/>
		<polyline fill="none" stroke="#717E86" stroke-width="0.3" stroke-miterlimit="10" points="387.1,152.3 386.3,152.3 386.3,150.5 
			387.1,150.5 		"/>
		<polyline fill="none" stroke="#717E86" stroke-width="0.3" stroke-miterlimit="10" points="387.1,143.6 386.3,143.6 386.3,141.8 
			387.1,141.8 		"/>
	</g>
	<g>
		<g>
			<rect x="391" y="147" fill="#FFFFFF" stroke="#717E86" stroke-width="0.3" stroke-miterlimit="10" width="19.6" height="19.6"/>
		</g>
		<g>
			<circle fill="none" stroke="#717E86" stroke-width="0.6204" stroke-miterlimit="10" cx="400.8" cy="156.9" r="4.6"/>
			<path fill="none" stroke="#717E86" stroke-width="0.6204" stroke-miterlimit="10" d="M397.8,156.4c0,1.8,1.4,3.2,3.2,3.2"/>
		</g>
	</g>
	<g>
		<rect x="391" y="127.4" fill="#FFFFFF" stroke="#717E86" stroke-width="0.3" stroke-miterlimit="10" width="19.6" height="19.6"/>
		<circle fill="none" stroke="#717E86" stroke-width="0.6204" stroke-miterlimit="10" cx="400.8" cy="137.2" r="4.6"/>
		<path fill="none" stroke="#717E86" stroke-width="0.5" stroke-linecap="round" stroke-miterlimit="10" d="M402.8,135.6
			c0,0-1,0.5-1.3,0.5s-0.9-0.5-1.3-0.5s-1.3,0.5-1.3,0.5"/>
		<path fill="none" stroke="#717E86" stroke-width="0.5" stroke-linecap="round" stroke-miterlimit="10" d="M402.8,137
			c0,0-1,0.5-1.3,0.5s-0.9-0.5-1.3-0.5s-1.3,0.5-1.3,0.5"/>
		<path fill="none" stroke="#717E86" stroke-width="0.5" stroke-linecap="round" stroke-miterlimit="10" d="M402.8,138.4
			c0,0-1,0.5-1.3,0.5s-0.9-0.5-1.3-0.5s-1.3,0.5-1.3,0.5"/>
	</g>
</g>
<g id="Ouvertures">
	<g>
		<path fill="none" stroke="#717E86" stroke-width="0.3" stroke-miterlimit="10" stroke-dasharray="2,2" d="M413.1,252.2
			c-17.5,0-31.7,14.4-31.7,32.3"/>
		<line fill="none" stroke="#717E86" stroke-width="0.3" stroke-miterlimit="10" x1="413.1" y1="284.5" x2="381.4" y2="284.5"/>
	</g>
	<g>
		<path fill="none" stroke="#717E86" stroke-width="0.3" stroke-miterlimit="10" stroke-dasharray="2,2" d="M328.2,127.4
			c-16.4,0-29.8,13.6-29.8,30.4"/>
		<line fill="none" stroke="#717E86" stroke-width="0.3" stroke-miterlimit="10" x1="328.2" y1="157.8" x2="298.4" y2="157.8"/>
	</g>
	<g>
		<path fill="none" stroke="#717E86" stroke-width="0.3" stroke-miterlimit="10" stroke-dasharray="2,2" d="M367.3,117.8
			c0-16.4-13.6-29.8-30.4-29.8"/>
		<line fill="none" stroke="#717E86" stroke-width="0.3" stroke-miterlimit="10" x1="337" y1="117.8" x2="337" y2="88"/>
	</g>
	<g>
		<path fill="none" stroke="#717E86" stroke-width="0.3" stroke-miterlimit="10" stroke-dasharray="2,2" d="M366.7,354.3
			c0,15.8-13.1,28.6-29.2,28.6"/>
		<line fill="none" stroke="#717E86" stroke-width="0.3" stroke-miterlimit="10" x1="337.5" y1="354.3" x2="337.5" y2="382.9"/>
	</g>
	<g>
		<path fill="none" stroke="#717E86" stroke-width="0.3" stroke-miterlimit="10" stroke-dasharray="2,2" d="M379.8,327.5
			c14.2,0,25.7-11.7,25.7-26.2"/>
		<line fill="none" stroke="#717E86" stroke-width="0.3" stroke-miterlimit="10" x1="379.8" y1="301.2" x2="405.6" y2="301.2"/>
	</g>
	<g>
		<polygon fill="#717E86" points="344.7,544.3 344.5,541.6 342.6,541.7 342.8,544.4 		"/>
		<polygon fill="#717E86" points="417.8,539.9 417.7,537.1 415.6,537.3 415.7,540 		"/>
		<g>
			<polygon fill="#FFFFFF" points="344.6,541.7 415.4,537.4 415.6,539.9 344.8,544.2 			"/>
			<path fill="#717E86" d="M415.3,537.6l0.1,2.1l-70.5,4.3l-0.1-2.1L415.3,537.6 M415.6,537.3l-71.1,4.3l0.2,2.7l71.1-4.3
				L415.6,537.3L415.6,537.3z"/>
		</g>
		<polyline fill="none" stroke="#717E86" stroke-width="0.3" stroke-miterlimit="10" stroke-dasharray="2,2" points="390.7,538.8 
			389,527 345.1,541.5 		"/>
		<polygon fill="#717E86" points="392.1,541.4 391.9,538.7 388.6,538.9 388.8,541.6 		"/>
		<g>
			<path fill="none" stroke="#717E86" stroke-width="0.3" stroke-miterlimit="10" stroke-dasharray="2,2" d="M390.7,538.8
				c-0.8-13.1,9.5-24.3,23-25.2"/>
			<line fill="none" stroke="#717E86" stroke-width="0.3" stroke-miterlimit="10" x1="415.2" y1="537.3" x2="413.7" y2="513.6"/>
		</g>
	</g>
	<g>
		<polygon fill="#717E86" points="180.7,210.5 183.4,210.7 183.3,212.7 180.6,212.5 		"/>
		<g>
			<polygon fill="#FFFFFF" points="176,282.1 180.7,212.7 183.1,212.9 178.4,282.2 			"/>
			<path fill="#717E86" d="M180.9,212.9l2.1,0.1l-4.7,69.1l-2.1-0.1L180.9,212.9 M180.6,212.5l-4.7,69.7l2.7,0.2l4.7-69.7
				L180.6,212.5L180.6,212.5z"/>
		</g>
		<polyline fill="none" stroke="#717E86" stroke-width="0.3" stroke-miterlimit="10" stroke-dasharray="2,2" points="181.6,237.1 
			193.2,238.9 178.6,281.8 		"/>
		<polygon fill="#717E86" points="179,235.7 181.7,235.9 181.5,239.1 178.8,239 		"/>
		<g>
			<path fill="none" stroke="#717E86" stroke-width="0.3" stroke-miterlimit="10" stroke-dasharray="2,2" d="M181.6,237.1
				c12.9,0.9,24-9.1,24.9-22.4"/>
			<line fill="none" stroke="#717E86" stroke-width="0.3" stroke-miterlimit="10" x1="183.3" y1="213.1" x2="206.5" y2="214.7"/>
		</g>
	</g>
	<g>
		<polygon fill="#717E86" points="167.1,456 169.6,456.2 169.4,458.1 167,457.9 		"/>
		<g>
			<polygon fill="#FFFFFF" points="167.3,455.9 170.2,407.5 172.3,407.7 169.4,456.1 			"/>
			<path fill="#717E86" d="M170.3,407.7l1.9,0.1l-2.9,48.1l-1.9-0.1L170.3,407.7 M170,407.4l-2.9,48.7l2.5,0.2l2.9-48.7L170,407.4
				L170,407.4z"/>
		</g>
		<polyline fill="none" stroke="#717E86" stroke-width="0.3" stroke-miterlimit="10" stroke-dasharray="2,2" points="172.2,411.2 
			182.6,412.9 169.4,454.4 		"/>
		<polygon fill="#717E86" points="170,407.3 172.5,407.5 172.2,411.2 169.8,411 		"/>
	</g>
	<g>
		<polygon fill="#717E86" points="182.8,140.5 185.4,140.5 185.4,142.3 182.8,142.3 		"/>
		<polygon fill="#717E86" points="183.1,69.2 185.8,69.3 185.8,71.3 183.1,71.3 		"/>
		<g>
			<polygon fill="#FFFFFF" points="182.9,140.3 183.2,71.5 185.6,71.5 185.3,140.4 			"/>
			<path fill="#717E86" d="M183.4,71.6l2.1,0l-0.3,68.6l-2.1,0L183.4,71.6 M183.1,71.3l-0.3,69.2l2.7,0l0.3-69.2L183.1,71.3
				L183.1,71.3z"/>
		</g>
		<polyline fill="none" stroke="#717E86" stroke-width="0.3" stroke-miterlimit="10" stroke-dasharray="2,2" points="185.6,95.6 
			197.2,96.5 185.5,139.9 		"/>
		<polygon fill="#717E86" points="183,94.3 185.7,94.3 185.6,97.5 183,97.5 		"/>
		<g>
			<path fill="none" stroke="#717E86" stroke-width="0.3" stroke-miterlimit="10" stroke-dasharray="2,2" d="M185.6,95.6
				c12.8,0.1,23.2-10.5,23.2-23.7"/>
			<line fill="none" stroke="#717E86" stroke-width="0.3" stroke-miterlimit="10" x1="185.8" y1="71.7" x2="208.9" y2="71.8"/>
		</g>
	</g>
	<g>
		<g>
			<rect x="174.9" y="462.1" fill="#FFFFFF" width="147.9" height="8.5"/>
			<path fill="#717E86" d="M322.7,462.3v8.2H175.1v-8.2H322.7 M323,462H174.8v8.8H323V462L323,462z"/>
		</g>
		<g>
			<rect x="249" y="466.5" fill="#FFFFFF" width="73.8" height="4.1"/>
			<path fill="#717E86" d="M322.7,466.7v3.8h-73.5v-3.8H322.7 M323,466.4h-74.1v4.4H323V466.4L323,466.4z"/>
		</g>
		<g>
			<rect x="174.9" y="462.1" fill="#FFFFFF" width="73.1" height="3.7"/>
			<path fill="#717E86" d="M247.9,462.3v3.4h-72.8v-3.4H247.9 M248.2,462h-73.4v4h73.4V462L248.2,462z"/>
		</g>
		<g>
			<g>
				<line fill="none" stroke="#717E86" stroke-width="0.3" stroke-miterlimit="1" x1="275.6" y1="457.9" x2="293.5" y2="457.9"/>
				<g>
					<polygon fill="#717E86" points="292.5,459.1 292.3,458.9 293.4,457.9 292.3,456.9 292.5,456.6 293.8,457.9 					"/>
				</g>
			</g>
		</g>
		<rect x="245.9" y="462" fill="#717E86" width="4.7" height="4"/>
		<rect x="245.9" y="466.4" fill="#717E86" width="4.7" height="4.4"/>
		<rect x="174.8" y="462" fill="#717E86" width="3.5" height="4"/>
		<rect x="318.6" y="466.4" fill="#717E86" width="4.3" height="4.4"/>
		<line fill="none" stroke="#717E86" stroke-width="0.1" stroke-miterlimit="1" x1="250.2" y1="468.5" x2="322.6" y2="468.5"/>
		<line fill="none" stroke="#717E86" stroke-width="0.1" stroke-miterlimit="1" x1="176.5" y1="464" x2="248.9" y2="464"/>
	</g>
</g>
<g id="Étiquettes" display="none">
	<text transform="matrix(1 0 0 1 281.4824 143.6411)" display="inline" fill="#3C3C3B" font-family="'Lato-Black'" font-size="7px">Chambre 2</text>
	<text transform="matrix(1 0 0 1 288.9756 152.041)" display="inline" fill="#3C3C3B" font-family="'Lato-Italic'" font-size="7px">14.10 m</text>
	
		<text transform="matrix(0.583 0 0 0.583 313.5381 149.71)" display="inline" fill="#3C3C3B" font-family="'Lato-Italic'" font-size="7px">2</text>
	<text transform="matrix(1 0 0 1 388.0508 521.0864)" display="inline" fill="#3C3C3B" font-family="'Lato-Black'" font-size="7px">Chambre 1</text>
	
		<text transform="matrix(1 0 0 1 395.5439 529.4863)" display="inline" fill="#3C3C3B" font-family="'Lato-Italic'" font-size="7px">15.60 m</text>
	
		<text transform="matrix(0.583 0 0 0.583 420.1064 527.1553)" display="inline" fill="#3C3C3B" font-family="'Lato-Italic'" font-size="7px">2</text>
	<text transform="matrix(1 0 0 1 274.8462 443.4526)" display="inline" fill="#3C3C3B" font-family="'Lato-Black'" font-size="7px">Espace Jour </text>
	
		<text transform="matrix(1 0 0 1 285.2437 451.8525)" display="inline" fill="#3C3C3B" font-family="'Lato-Italic'" font-size="7px">37.20 m</text>
	
		<text transform="matrix(0.583 0 0 0.583 309.8062 449.5215)" display="inline" fill="#3C3C3B" font-family="'Lato-Italic'" font-size="7px">2</text>
	<text transform="matrix(1 0 0 1 290.9739 537.2827)" display="inline" fill="#3C3C3B" font-family="'Lato-Black'" font-size="7px">LOGGIA </text>
	
		<text transform="matrix(1 0 0 1 291.3342 545.6826)" display="inline" fill="#3C3C3B" font-family="'Lato-Italic'" font-size="7px">12.40 m</text>
	
		<text transform="matrix(0.583 0 0 0.583 315.8967 543.3516)" display="inline" fill="#3C3C3B" font-family="'Lato-Italic'" font-size="7px">2</text>
	<text transform="matrix(1 0 0 1 350.7349 273.2622)" display="inline" fill="#3C3C3B" font-family="'Lato-Black'" font-size="7px">dégagement </text>
	<text transform="matrix(1 0 0 1 350.854 281.6621)" display="inline" fill="#3C3C3B" font-family="'Lato-Black'" font-size="7px">&amp; Buanderie</text>
	<text transform="matrix(1 0 0 1 362.3364 290.062)" display="inline" fill="#3C3C3B" font-family="'Lato-Italic'" font-size="7px">13.50 m</text>
	
		<text transform="matrix(0.583 0 0 0.583 386.8989 287.7314)" display="inline" fill="#3C3C3B" font-family="'Lato-Italic'" font-size="7px">2</text>
</g>
<g id="Murs">
	<polygon fill="#717E86" points="160.4,410.6 167.3,280.6 178.6,281.7 178.4,284.3 181.6,284.7 175.3,408.1 170.1,407.7 
		169.8,411.4 	"/>
	<rect x="329.7" y="289.4" fill="#717E86" width="8.2" height="15"/>
	<polygon fill="#717E86" points="322.9,555.6 322.9,466.4 323,461.9 325.4,461.9 337.9,461.9 337.9,539.4 343.2,539 343.5,544.1 
		346.7,544.2 347.3,554.3 	"/>
	<polygon fill="#717E86" points="329.7,301.9 329.7,546.8 333.8,546.8 333.8,353.5 337.9,353.5 337.9,349.5 333.8,349.5 
		333.8,301.9 	"/>
	<path fill="#717E86" d="M173.3,161.5l-2.4,51.1l12.4,0.5l0.2-2.7l2.1,0l2.6-45.5h121v20.4h21.3v44.3H309v3.6h24.9v-76.5h-4.1v4
		L188,160.5v-17h-2.6v-3h-12.2V161.5z"/>
	<polygon fill="#717E86" points="156.8,476.4 158.1,454 169.4,454.4 169.4,458.1 172.6,458.3 172.4,461.9 174.8,461.9 174.9,476.4 	
		"/>
	<polygon fill="#717E86" points="152.4,564.2 153.6,543.7 161.1,543.7 160.4,563.8 	"/>
	<path fill="#717E86" d="M173.3,27.1v45l12.5-0.1v-3.2l2.3,0V42.9h141.6V127h4.3v-4h3.8v-3.4h-3.8V42.9h71.4v76.4h-37.6v3.8h38.6
		h7.9v47.7h-27.3v4.4H407v54.3l-20.2,0.1v3.9l27.3-0.1v16.5l0,2.9h1.5h6.7L422,130h1.4v-6.6v-1l-1.4-0.2h1.3V33.7H263.8v-7.3
		L173.3,27.1z"/>
	<polygon fill="#717E86" points="414,284.5 414,286.9 414,293.7 375,293.7 375,301.4 378.6,301.4 378.6,297.7 426.6,297.7 
		426.6,349.2 379.1,349.2 379.1,327.9 375,327.9 375,349.5 367.5,349.5 367.5,353.2 427.8,353.2 436.1,353.2 436.1,534.4 
		417.6,535.9 417.7,537.1 415.1,537.6 415.3,550.7 429,549.9 445,550.7 445,289.2 422.4,289.2 422.4,284.5 416,284.5 	"/>
	<polyline fill="none" stroke="#717E86" stroke-width="0.3" stroke-miterlimit="10" points="422.4,284.5 422.4,289.2 445,289.2 
		445,550.7 431.2,550 152.4,564.2 173.3,161.5 173.3,27.1 263.8,26.5 263.8,33.7 423.4,33.7 423.4,122.2 422,130 422.3,252.6 	"/>
	<path fill="none" stroke="#717E86" stroke-width="0.3" stroke-miterlimit="10" d="M420,296.4"/>
	<path fill="none" stroke="#717E86" stroke-width="0.3" stroke-miterlimit="10" d="M420,122.4"/>
	
		<rect x="126.6" y="509" transform="matrix(5.233596e-002 -0.9986 0.9986 5.233596e-002 -359.0153 641.2695)" fill="#A5B9C4" width="63.6" height="1.6"/>
	
		<rect x="141.9" y="431.6" transform="matrix(5.233596e-002 -0.9986 0.9986 5.233596e-002 -277.4382 572.5201)" fill="#A5B9C4" width="42" height="1.6"/>
	
		<rect x="161.1" y="555.3" transform="matrix(0.9986 -5.233596e-002 5.233596e-002 0.9986 -28.7676 13.4055)" fill="#A5B9C4" width="161" height="1.5"/>
</g>
<g id="Entree">
	<polygon fill="#3C3C3B" points="418.4,273.3 413.7,267.8 418.4,262.3 	"/>
</g>
<g id="Nord">
	<circle fill="none" stroke="#717E86" stroke-miterlimit="10" cx="137.4" cy="43.9" r="11.9"/>
	<line fill="none" stroke="#717E86" stroke-width="2" stroke-miterlimit="10" x1="145" y1="41.4" x2="152.4" y2="39.1"/>
	<text transform="matrix(1 0 0 1 131.1442 49.6895)" fill="#717E86" font-family="'Lato-Black'" font-size="16.4252px">N</text>
</g>
</svg>
