<?xml version="1.0" encoding="utf-8"?>
<!-- Generator: Adobe Illustrator 19.0.0, SVG Export Plug-In . SVG Version: 6.00 Build 0)  -->
<svg version="1.1" xmlns="http://www.w3.org/2000/svg" xmlns:xlink="http://www.w3.org/1999/xlink" x="0px" y="0px"
	 viewBox="0 0 595.3 595.3" enable-background="new 0 0 595.3 595.3" xml:space="preserve">
<pattern  width="3.8" height="3.4" patternUnits="userSpaceOnUse" id="Nouvelle_nuance_de_motif_7" viewBox="0 -3.4 3.8 3.4" overflow="visible">
	<g>
		<polygon fill="none" points="0,0 3.8,0 3.8,-3.4 0,-3.4 		"/>
		<polygon fill="#FFFFFF" points="3.7,0 0.1,0 0.1,-3.4 3.7,-3.4 		"/>
		<polygon fill="#E3E3E3" points="3.8,0 3.7,0 3.7,-3.4 3.8,-3.4 		"/>
		<polygon fill="#E3E3E3" points="0.1,0 0,0 0,-3.4 0.1,-3.4 		"/>
	</g>
</pattern>
<g id="Fond">
	<polyline fill="#FFFFFF" points="453.8,441.6 61.3,421.7 113.6,358.3 338,378.9 453.8,441.6 	"/>
	<polygon fill="#EAF6FE" points="71.4,150.1 71.4,250.8 71.4,269.1 71.4,412.3 444.2,429 444.5,250.6 277.9,250.7 278.2,150.1 	"/>
</g>
<g id="Sols">
	<rect x="80.7" y="158.7" opacity="0.8" fill="#FFFFFF" width="64.9" height="88"/>
	<pattern  id="SVGID_1_" xlink:href="#Nouvelle_nuance_de_motif_7" patternTransform="matrix(1 0 0 1 -7.626 10.3125)">
	</pattern>
	<polygon fill="url(#SVGID_1_)" points="539,256.4 539,447.3 439.6,442.1 439.6,349.3 439.6,348.8 439.6,256.4 	"/>
</g>
<g id="Jardin">
</g>
<g id="Installations">
	<polyline fill="#FFFFFF" stroke="#717E86" stroke-width="0.3" stroke-miterlimit="10" points="223.8,415.1 223.7,250.6 
		202.2,250.6 202.2,414 	"/>
	<rect x="149.3" y="157.6" fill="#FFFFFF" width="28.4" height="29.6"/>
	<rect x="202.2" y="250.5" fill="none" stroke="#717E86" stroke-width="0.3" stroke-miterlimit="10" width="21.6" height="21.6"/>
	<g>
		<rect x="203.3" y="368.4" fill="none" stroke="#717E86" stroke-width="0.3" stroke-miterlimit="10" width="19.3" height="38.8"/>
		<g>
			<path fill="#FFFFFF" stroke="#717E86" stroke-width="0.3" stroke-miterlimit="10" d="M207.3,388.2h11.3c1.3,0,2.4-1.1,2.4-2.4
				v-13.2c0-1.3-1.1-2.4-2.4-2.4h-11.3c-1.3,0-2.4,1.1-2.4,2.4v13.2C204.8,387.1,205.9,388.2,207.3,388.2z"/>
			<circle fill="#FFFFFF" stroke="#717E86" stroke-width="0.3" stroke-miterlimit="10" cx="208" cy="378.9" r="1.3"/>
		</g>
		<g>
			<rect x="217.9" y="391.2" fill="#717E86" width="0.7" height="12.7"/>
			<rect x="215.3" y="391.2" fill="#717E86" width="0.7" height="12.7"/>
			<rect x="212.6" y="391.2" fill="#717E86" width="0.7" height="12.7"/>
			<rect x="209.9" y="391.2" fill="#717E86" width="0.7" height="12.7"/>
			<rect x="207.2" y="391.2" fill="#717E86" width="0.7" height="12.7"/>
		</g>
	</g>
	<g>
		<rect x="203.3" y="313.2" fill="none" stroke="#717E86" stroke-width="0.3" stroke-miterlimit="10" width="19.4" height="19.4"/>
		<path fill="#FFFFFF" stroke="#717E86" stroke-width="0.3" stroke-miterlimit="10" d="M217,322.4c1.9,0,3.5-1.6,3.5-3.5
			c0-1.9-1.6-3.5-3.5-3.5c-1.9,0-3.5,1.6-3.5,3.5C213.5,320.8,215,322.4,217,322.4"/>
		<path fill="#FFFFFF" stroke="#717E86" stroke-width="0.3" stroke-miterlimit="10" d="M208.8,330.3c1.9,0,3.5-1.6,3.5-3.5
			c0-1.9-1.6-3.5-3.5-3.5c-1.9,0-3.5,1.6-3.5,3.5C205.2,328.7,206.8,330.3,208.8,330.3"/>
		<path fill="#FFFFFF" stroke="#717E86" stroke-width="0.3" stroke-miterlimit="10" d="M208.1,321.4c1.6,0,2.9-1.3,2.9-2.9
			c0-1.6-1.3-2.9-2.9-2.9s-2.9,1.3-2.9,2.9C205.2,320.1,206.5,321.4,208.1,321.4"/>
		<path fill="#FFFFFF" stroke="#717E86" stroke-width="0.3" stroke-miterlimit="10" d="M217.5,330.3c1.6,0,2.9-1.3,2.9-2.9
			s-1.3-2.9-2.9-2.9s-2.9,1.3-2.9,2.9S215.9,330.3,217.5,330.3"/>
	</g>
	<g>
		
			<polyline fill="none" stroke="#000000" stroke-width="0.12" stroke-linecap="square" stroke-linejoin="bevel" stroke-miterlimit="10" points="
			211,258.6 211,259.5 210.3,259.5 		"/>
		
			<polyline fill="none" stroke="#000000" stroke-width="0.12" stroke-linecap="square" stroke-linejoin="bevel" stroke-miterlimit="10" points="
			215.7,263.2 214.9,263.2 214.9,264 		"/>
		
			<line fill="none" stroke="#000000" stroke-width="0.12" stroke-linecap="square" stroke-linejoin="bevel" stroke-miterlimit="10" x1="215.4" y1="263.8" x2="210.5" y2="258.9"/>
		
			<polyline fill="none" stroke="#000000" stroke-width="0.12" stroke-linecap="square" stroke-linejoin="bevel" stroke-miterlimit="10" points="
			210.3,263.2 211,263.2 211,264 		"/>
		
			<polyline fill="none" stroke="#000000" stroke-width="0.12" stroke-linecap="square" stroke-linejoin="bevel" stroke-miterlimit="10" points="
			214.9,258.6 214.9,259.5 215.7,259.5 		"/>
		
			<line fill="none" stroke="#000000" stroke-width="0.12" stroke-linecap="square" stroke-linejoin="bevel" stroke-miterlimit="10" x1="215.4" y1="258.9" x2="210.5" y2="263.8"/>
		
			<polyline fill="none" stroke="#000000" stroke-width="0.12" stroke-linecap="square" stroke-linejoin="bevel" stroke-miterlimit="10" points="
			209.7,260.7 210.3,261.3 209.7,261.8 		"/>
		
			<polyline fill="none" stroke="#000000" stroke-width="0.12" stroke-linecap="square" stroke-linejoin="bevel" stroke-miterlimit="10" points="
			216.2,260.7 215.7,261.3 216.2,261.8 		"/>
		
			<polyline fill="none" stroke="#000000" stroke-width="0.12" stroke-linecap="square" stroke-linejoin="bevel" stroke-miterlimit="10" points="
			212.4,264.5 213,264 213.5,264.5 		"/>
		
			<polyline fill="none" stroke="#000000" stroke-width="0.12" stroke-linecap="square" stroke-linejoin="bevel" stroke-miterlimit="10" points="
			212.4,258.1 213,258.7 213.5,258.1 		"/>
		
			<line fill="none" stroke="#000000" stroke-width="0.12" stroke-linecap="square" stroke-linejoin="bevel" stroke-miterlimit="10" x1="216.4" y1="261.3" x2="209.5" y2="261.3"/>
		
			<line fill="none" stroke="#000000" stroke-width="0.12" stroke-linecap="square" stroke-linejoin="bevel" stroke-miterlimit="10" x1="213" y1="257.9" x2="213" y2="264.8"/>
		<polyline fill="none" stroke="#717E86" stroke-width="0.3" stroke-miterlimit="10" points="211,258.6 211,259.5 210.3,259.5 		"/>
		<polyline fill="none" stroke="#717E86" stroke-width="0.3" stroke-miterlimit="10" points="215.7,263.2 214.9,263.2 214.9,264 		
			"/>
		<line fill="none" stroke="#717E86" stroke-width="0.3" stroke-miterlimit="10" x1="215.4" y1="263.8" x2="210.5" y2="258.9"/>
		<polyline fill="none" stroke="#717E86" stroke-width="0.3" stroke-miterlimit="10" points="210.3,263.2 211,263.2 211,264 		"/>
		<polyline fill="none" stroke="#717E86" stroke-width="0.3" stroke-miterlimit="10" points="214.9,258.6 214.9,259.5 215.7,259.5 
					"/>
		<line fill="none" stroke="#717E86" stroke-width="0.3" stroke-miterlimit="10" x1="215.4" y1="258.9" x2="210.5" y2="263.8"/>
		<polyline fill="none" stroke="#717E86" stroke-width="0.3" stroke-miterlimit="10" points="209.7,260.7 210.3,261.3 209.7,261.8 
					"/>
		<polyline fill="none" stroke="#717E86" stroke-width="0.3" stroke-miterlimit="10" points="216.2,260.7 215.7,261.3 216.2,261.8 
					"/>
		<polyline fill="none" stroke="#717E86" stroke-width="0.3" stroke-miterlimit="10" points="212.4,264.5 213,264 213.5,264.5 		"/>
		<polyline fill="none" stroke="#717E86" stroke-width="0.3" stroke-miterlimit="10" points="212.4,258.1 213,258.7 213.5,258.1 		
			"/>
		<line fill="none" stroke="#717E86" stroke-width="0.3" stroke-miterlimit="10" x1="216.4" y1="261.3" x2="209.5" y2="261.3"/>
		<line fill="none" stroke="#717E86" stroke-width="0.3" stroke-miterlimit="10" x1="213" y1="257.9" x2="213" y2="264.8"/>
	</g>
	<g>
		<g>
			<g>
				<g opacity="5.000000e-002">
					<path fill="#717E86" d="M382.1,327.6c-13.7,2.5-27.3,2.5-41,0c-0.6-0.1-1-0.6-1-1.1v-16.2c0-0.6,0.4-1,1-1.1
						c13.7-2.5,27.3-2.5,41,0c0.6,0.1,1,0.6,1,1.1v16.2C383,327,382.6,327.5,382.1,327.6z"/>
					<path fill="none" stroke="#717E86" stroke-width="0.3" stroke-miterlimit="10" d="M382.1,327.6c-13.7,2.5-27.3,2.5-41,0
						c-0.6-0.1-1-0.6-1-1.1v-16.2c0-0.6,0.4-1,1-1.1c13.7-2.5,27.3-2.5,41,0c0.6,0.1,1,0.6,1,1.1v16.2
						C383,327,382.6,327.5,382.1,327.6z"/>
				</g>
				<g>
					<path fill="#EAF6FE" d="M379.1,324.6c-13.7,2.5-27.3,2.5-41,0c-0.6-0.1-1-0.6-1-1.1v-16.2c0-0.6,0.4-1,1-1.1
						c13.7-2.5,27.3-2.5,41,0c0.6,0.1,1,0.6,1,1.1v16.2C380,324,379.6,324.5,379.1,324.6z"/>
					<path fill="none" stroke="#CCD3D8" stroke-width="0.3" stroke-miterlimit="10" d="M379.1,324.6c-13.7,2.5-27.3,2.5-41,0
						c-0.6-0.1-1-0.6-1-1.1v-16.2c0-0.6,0.4-1,1-1.1c13.7-2.5,27.3-2.5,41,0c0.6,0.1,1,0.6,1,1.1v16.2
						C380,324,379.6,324.5,379.1,324.6z"/>
				</g>
			</g>
			<path fill="#EAF6FE" stroke="#CCD3D8" stroke-width="0.3" stroke-miterlimit="10" d="M361,315.5l-1.9,2.4c-0.3,0.4-1,0.5-1.4,0.2
				l-4.4-3.4c-0.4-0.3-0.5-1-0.2-1.4l1.9-2.4c0.3-0.4,1-0.5,1.4-0.2l4.4,3.4C361.2,314.4,361.3,315,361,315.5z"/>
			<path fill="#EAF6FE" stroke="#CCD3D8" stroke-width="0.3" stroke-miterlimit="10" d="M363.3,318.1l-2.7,1.4
				c-0.5,0.3-1.1,0.1-1.3-0.4l-2.5-4.9c-0.3-0.5-0.1-1.1,0.4-1.3l2.7-1.4c0.5-0.3,1.1-0.1,1.3,0.4l2.5,4.9
				C364,317.3,363.8,317.9,363.3,318.1z"/>
			<circle fill="#EAF6FE" stroke="#CCD3D8" stroke-width="0.3" stroke-miterlimit="10" cx="371.4" cy="319.3" r="5"/>
			
				<path fill="#EAF6FE" stroke="#CCD3D8" stroke-width="0.3" stroke-linecap="round" stroke-linejoin="round" stroke-miterlimit="10" d="
				M370.1,316.3c2.6-4,7.2,0.4,5,4.1C376,319.2,371.8,314.7,370.1,316.3z"/>
			<circle fill="#EAF6FE" stroke="#CCD3D8" stroke-width="0.3" stroke-miterlimit="10" cx="366.3" cy="315.9" r="0.7"/>
			<circle fill="#EAF6FE" stroke="#CCD3D8" stroke-width="0.3" stroke-miterlimit="10" cx="366.2" cy="317.4" r="0.7"/>
			<circle fill="#EAF6FE" stroke="#CCD3D8" stroke-width="0.3" stroke-miterlimit="10" cx="367.4" cy="317.5" r="0.7"/>
			<circle fill="#EAF6FE" stroke="#CCD3D8" stroke-width="0.3" stroke-miterlimit="10" cx="367.4" cy="316.3" r="0.7"/>
			<circle fill="#EAF6FE" stroke="#CCD3D8" stroke-width="0.3" stroke-miterlimit="10" cx="367.2" cy="314.8" r="0.7"/>
			<circle fill="#EAF6FE" stroke="#CCD3D8" stroke-width="0.3" stroke-miterlimit="10" cx="368.2" cy="314.4" r="0.7"/>
			<circle fill="#EAF6FE" stroke="#CCD3D8" stroke-width="0.3" stroke-miterlimit="10" cx="369.6" cy="314.6" r="0.7"/>
			<circle fill="#EAF6FE" stroke="#CCD3D8" stroke-width="0.3" stroke-miterlimit="10" cx="368.2" cy="315.5" r="0.7"/>
			<circle fill="#EAF6FE" stroke="#CCD3D8" stroke-width="0.3" stroke-miterlimit="10" cx="368.5" cy="316.9" r="0.7"/>
			<circle fill="#EAF6FE" stroke="#CCD3D8" stroke-width="0.3" stroke-miterlimit="10" cx="369.5" cy="315.8" r="0.7"/>
			<circle fill="#EAF6FE" stroke="#CCD3D8" stroke-width="0.3" stroke-miterlimit="10" cx="369.1" cy="320.6" r="1.8"/>
			<circle fill="#EAF6FE" stroke="#CCD3D8" stroke-width="0.3" stroke-miterlimit="10" cx="369.9" cy="317.8" r="1.3"/>
			
				<ellipse transform="matrix(0.9642 -0.2653 0.2653 0.9642 -71.5461 109.9848)" fill="#EAF6FE" stroke="#CCD3D8" stroke-width="0.3" stroke-miterlimit="10" cx="371.4" cy="319.8" rx="1" ry="1.6"/>
			
				<path fill="#EAF6FE" stroke="#CCD3D8" stroke-width="0.3" stroke-linecap="round" stroke-linejoin="round" stroke-miterlimit="10" d="
				M369.9,316.3c4.1-2.4,6.3,3.6,2.7,5.9C373.8,321.6,372.1,315.7,369.9,316.3z"/>
		</g>
		<g>
			<g>
				
					<path fill="#EAF6FE" stroke="#CCD3D8" stroke-width="0.3" stroke-linecap="round" stroke-linejoin="round" stroke-miterlimit="10" d="
					M345.3,316.7c0,0-1.4-3.2-0.2-5.1C345.1,311.6,346.6,312.8,345.3,316.7z"/>
				
					<path fill="#EAF6FE" stroke="#CCD3D8" stroke-width="0.3" stroke-linecap="round" stroke-linejoin="round" stroke-miterlimit="10" d="
					M345.3,316.7c0,0,0.1-3.3,2-4.7C347.2,312,348.2,313.8,345.3,316.7z"/>
				
					<path fill="#EAF6FE" stroke="#CCD3D8" stroke-width="0.3" stroke-linecap="round" stroke-linejoin="round" stroke-miterlimit="10" d="
					M341.8,312.6c0,0,0,3.4,3.5,4.1C345.3,316.7,344.3,312.8,341.8,312.6z"/>
				
					<path fill="#EAF6FE" stroke="#CCD3D8" stroke-width="0.3" stroke-linecap="round" stroke-linejoin="round" stroke-miterlimit="10" d="
					M341.4,321.9c0,0,0.8-4.2,3.8-5.2C345.3,316.7,345.7,320.1,341.4,321.9z"/>
				
					<path fill="#EAF6FE" stroke="#CCD3D8" stroke-width="0.3" stroke-linecap="round" stroke-linejoin="round" stroke-miterlimit="10" d="
					M339.6,315.9c0,0,2.3-0.7,5.6,0.8C345.3,316.7,342.1,317.9,339.6,315.9z"/>
				
					<path fill="#EAF6FE" stroke="#CCD3D8" stroke-width="0.3" stroke-linecap="round" stroke-linejoin="round" stroke-miterlimit="10" d="
					M345.1,323.2c0,0-1.7-4.2,0.1-6.6C345.2,316.6,346.5,317.1,345.1,323.2z"/>
				
					<path fill="#EAF6FE" stroke="#CCD3D8" stroke-width="0.3" stroke-linecap="round" stroke-linejoin="round" stroke-miterlimit="10" d="
					M349.5,313.2c0,0-3.6,1.4-4.2,3.5C345.3,316.7,347.6,315.8,349.5,313.2z"/>
				
					<path fill="#EAF6FE" stroke="#CCD3D8" stroke-width="0.3" stroke-linecap="round" stroke-linejoin="round" stroke-miterlimit="10" d="
					M348.5,322.2c0,0-2.9-2.1-3.2-5.4C345.3,316.7,348,318.4,348.5,322.2z"/>
				
					<path fill="#EAF6FE" stroke="#CCD3D8" stroke-width="0.3" stroke-linecap="round" stroke-linejoin="round" stroke-miterlimit="10" d="
					M350.9,315.5c0,0-3.5-0.6-5.7,1.1C345.2,316.6,347.4,317.9,350.9,315.5z"/>
				
					<path fill="#EAF6FE" stroke="#CCD3D8" stroke-width="0.3" stroke-linecap="round" stroke-linejoin="round" stroke-miterlimit="10" d="
					M339.6,318.8c0,0,1.7-2.3,5.5-2.2C345.2,316.6,342.9,319.2,339.6,318.8z"/>
				
					<path fill="#EAF6FE" stroke="#CCD3D8" stroke-width="0.3" stroke-linecap="round" stroke-linejoin="round" stroke-miterlimit="10" d="
					M350.1,320.5c0,0-4.3-1.3-5.1-3.9C345,316.6,348.2,316.9,350.1,320.5z"/>
				
					<path fill="#EAF6FE" stroke="#CCD3D8" stroke-width="0.3" stroke-linecap="round" stroke-linejoin="round" stroke-miterlimit="10" d="
					M351.1,318.2c0,0-3.6,0.6-5.9-1.6C345.2,316.6,347.7,315.5,351.1,318.2z"/>
				
					<path fill="#EAF6FE" stroke="#CCD3D8" stroke-width="0.3" stroke-linecap="round" stroke-linejoin="round" stroke-miterlimit="10" d="
					M344.9,316.6c0,0-2.1,0.1-4.6-2.4C340.3,314.2,342.5,314.4,344.9,316.6z"/>
				
					<path fill="#EAF6FE" stroke="#CCD3D8" stroke-width="0.3" stroke-linecap="round" stroke-linejoin="round" stroke-miterlimit="10" d="
					M340.5,320.1c0,0,1.9-2.8,4.5-3.4C345,316.7,344.7,319,340.5,320.1z"/>
			</g>
			<g>
				
					<path fill="#EAF6FE" stroke="#CCD3D8" stroke-width="0.3" stroke-linecap="round" stroke-linejoin="round" stroke-miterlimit="10" d="
					M345.3,317c0,0,0.1-2,1.2-2.8C346.5,314.2,347,315.3,345.3,317z"/>
				
					<path fill="#EAF6FE" stroke="#CCD3D8" stroke-width="0.3" stroke-linecap="round" stroke-linejoin="round" stroke-miterlimit="10" d="
					M343.2,314.6c0,0,0,2,2.1,2.4C345.3,317,344.7,314.7,343.2,314.6z"/>
				
					<path fill="#EAF6FE" stroke="#CCD3D8" stroke-width="0.3" stroke-linecap="round" stroke-linejoin="round" stroke-miterlimit="10" d="
					M343,320.1c0,0,0.4-2.5,2.3-3.1C345.3,317,345.5,319,343,320.1z"/>
				
					<path fill="#EAF6FE" stroke="#CCD3D8" stroke-width="0.3" stroke-linecap="round" stroke-linejoin="round" stroke-miterlimit="10" d="
					M341.9,316.5c0,0,1.4-0.4,3.3,0.5C345.3,317,343.4,317.7,341.9,316.5z"/>
				
					<path fill="#EAF6FE" stroke="#CCD3D8" stroke-width="0.3" stroke-linecap="round" stroke-linejoin="round" stroke-miterlimit="10" d="
					M347.2,320.2c0,0-1.7-1.3-1.9-3.2C345.3,317,346.9,318,347.2,320.2z"/>
				
					<path fill="#EAF6FE" stroke="#CCD3D8" stroke-width="0.3" stroke-linecap="round" stroke-linejoin="round" stroke-miterlimit="10" d="
					M348.6,316.3c0,0-2.1-0.3-3.4,0.7C345.2,317,346.6,317.7,348.6,316.3z"/>
				
					<path fill="#EAF6FE" stroke="#CCD3D8" stroke-width="0.3" stroke-linecap="round" stroke-linejoin="round" stroke-miterlimit="10" d="
					M341.9,318.3c0,0,1-1.4,3.3-1.3C345.2,317,343.9,318.5,341.9,318.3z"/>
				
					<path fill="#EAF6FE" stroke="#CCD3D8" stroke-width="0.3" stroke-linecap="round" stroke-linejoin="round" stroke-miterlimit="10" d="
					M348.8,317.9c0,0-2.2,0.3-3.5-0.9C345.2,317,346.7,316.3,348.8,317.9z"/>
			</g>
		</g>
	</g>
	<g>
		<g>
			<g opacity="5.000000e-002">
				<path fill="#717E86" d="M342.6,410.3l45.9,2.5c0.5,0,0.9,0.5,0.9,1l-0.6,11.6c0,0.5-0.5,0.9-1,0.9l-45.9-2.5
					c-0.5,0-0.9-0.5-0.9-1l0.6-11.6C341.7,410.7,342.1,410.3,342.6,410.3z"/>
				<path fill="none" stroke="#717E86" stroke-width="0.3" stroke-miterlimit="10" d="M342.6,410.3l45.9,2.5c0.5,0,0.9,0.5,0.9,1
					l-0.6,11.6c0,0.5-0.5,0.9-1,0.9l-45.9-2.5c-0.5,0-0.9-0.5-0.9-1l0.6-11.6C341.7,410.7,342.1,410.3,342.6,410.3z"/>
			</g>
			<g>
				<path fill="#EAF6FE" d="M339.6,407.3l45.9,2.5c0.5,0,0.9,0.5,0.9,1l-0.6,11.6c0,0.5-0.5,0.9-1,0.9l-45.9-2.5
					c-0.5,0-0.9-0.5-0.9-1l0.6-11.6C338.7,407.7,339.1,407.3,339.6,407.3z"/>
				<path fill="none" stroke="#CCD3D8" stroke-width="0.3" stroke-miterlimit="10" d="M339.6,407.3l45.9,2.5c0.5,0,0.9,0.5,0.9,1
					l-0.6,11.6c0,0.5-0.5,0.9-1,0.9l-45.9-2.5c-0.5,0-0.9-0.5-0.9-1l0.6-11.6C338.7,407.7,339.1,407.3,339.6,407.3z"/>
			</g>
		</g>
		<path fill="#EAF6FE" stroke="#CCD3D8" stroke-width="0.3" stroke-miterlimit="10" d="M368.5,415.6l-0.2,4.3c0,0.6-0.5,1-1.1,0.9
			l-10.5-0.6c-0.6,0-1-0.5-0.9-1.1l0.2-4.3c0-0.6,0.5-1,1.1-0.9l10.5,0.6C368.1,414.6,368.5,415,368.5,415.6z"/>
		<path fill="#EAF6FE" stroke="#CCD3D8" stroke-width="0.2953" stroke-miterlimit="10" d="M367.1,420.3l-10.2-0.6
			c-0.3,0-0.6-0.3-0.6-0.6l0.2-4.1c0-0.3,0.3-0.6,0.6-0.6l10.2,0.6c0.3,0,0.6,0.3,0.6,0.6l-0.2,4.1
			C367.7,420.1,367.4,420.4,367.1,420.3z"/>
		
			<rect x="361.5" y="397.5" transform="matrix(5.530595e-002 -0.9985 0.9985 5.530595e-002 -73.9784 755.2905)" fill="#EAF6FE" stroke="#CCD3D8" stroke-width="0.3" stroke-miterlimit="10" width="1.3" height="38.4"/>
	</g>
	<g>
		<g>
			
				<rect x="153.4" y="161.8" fill="#FFFFFF" stroke="#717E86" stroke-width="0.3" stroke-miterlimit="10" width="21.1" height="21.5"/>
		</g>
		<g>
			<ellipse fill="none" stroke="#717E86" stroke-width="0.6204" stroke-miterlimit="10" cx="164" cy="172.6" rx="4.9" ry="5"/>
			<path fill="none" stroke="#717E86" stroke-width="0.6204" stroke-miterlimit="10" d="M163.5,175.8c1.9,0,3.4-1.6,3.4-3.5"/>
		</g>
	</g>
	<g>
		<g>
			<g opacity="0.2">
				<path fill="#738793" d="M96.2,222.4H83.4v-29.1h12.7c2.4,0,4.3,1.9,4.3,4.3v20.5C100.5,220.5,98.6,222.4,96.2,222.4z"/>
				<path fill="none" stroke="#738793" stroke-width="0.3" stroke-miterlimit="10" d="M96.2,222.4H83.4v-29.1h12.7
					c2.4,0,4.3,1.9,4.3,4.3v20.5C100.5,220.5,98.6,222.4,96.2,222.4z"/>
			</g>
			<g>
				<path fill="#FFFFFF" d="M93.2,219.4H80.4v-29.1h12.7c2.4,0,4.3,1.9,4.3,4.3v20.5C97.5,217.5,95.6,219.4,93.2,219.4z"/>
				<path fill="none" stroke="#717E86" stroke-width="0.3" stroke-miterlimit="10" d="M93.2,219.4H80.4v-29.1h12.7
					c2.4,0,4.3,1.9,4.3,4.3v20.5C97.5,217.5,95.6,219.4,93.2,219.4z"/>
			</g>
		</g>
		<path fill="#FFFFFF" stroke="#717E86" stroke-width="0.3" stroke-miterlimit="10" d="M93.2,217.5h-6c-1.4,0-2.6-1.1-2.6-2.6v-20.3
			c0-1.4,1.1-2.6,2.6-2.6h6c1.4,0,2.6,1.1,2.6,2.6V215C95.8,216.4,94.6,217.5,93.2,217.5z"/>
		<circle fill="#FFFFFF" stroke="#717E86" stroke-width="0.3" stroke-miterlimit="10" cx="86.9" cy="204.9" r="1"/>
	</g>
	<g>
		<g>
			<g opacity="0.2">
				<path fill="#738793" d="M94,227.1c-1.1,0-7.1,0.1-8.1,0.2c-0.8,0.1-1.7,0.2-2.5,0.3v11.6c0.7,0.1,1.4,0.2,2.1,0.3
					c1.1,0.1,8.1,0.2,9.4,0.2c2.7,0,8.2-2.2,8.2-6.3C103.1,229.2,97.1,227.1,94,227.1z"/>
				<path fill="none" stroke="#738793" stroke-width="0.3" stroke-miterlimit="10" d="M94,227.1c-1.1,0-7.1,0.1-8.1,0.2
					c-0.8,0.1-1.7,0.2-2.5,0.3v11.6c0.7,0.1,1.4,0.2,2.1,0.3c1.1,0.1,8.1,0.2,9.4,0.2c2.7,0,8.2-2.2,8.2-6.3
					C103.1,229.2,97.1,227.1,94,227.1z"/>
			</g>
			<g>
				<path fill="#FFFFFF" d="M91,224.1c-1.1,0-7.1,0.1-8.1,0.2c-0.8,0.1-1.7,0.2-2.5,0.3v11.6c0.7,0.1,1.4,0.2,2.1,0.3
					c1.1,0.1,8.1,0.2,9.4,0.2c2.7,0,8.2-2.2,8.2-6.3C100.1,226.2,94.1,224.1,91,224.1z"/>
				<path fill="none" stroke="#717E86" stroke-width="0.3" stroke-miterlimit="10" d="M91,224.1c-1.1,0-7.1,0.1-8.1,0.2
					c-0.8,0.1-1.7,0.2-2.5,0.3v11.6c0.7,0.1,1.4,0.2,2.1,0.3c1.1,0.1,8.1,0.2,9.4,0.2c2.7,0,8.2-2.2,8.2-6.3
					C100.1,226.2,94.1,224.1,91,224.1z"/>
			</g>
		</g>
		<g>
			<circle fill="#FFFFFF" stroke="#717E86" stroke-width="0.3" stroke-miterlimit="10" cx="83.2" cy="227.7" r="0.4"/>
			<circle fill="#FFFFFF" stroke="#717E86" stroke-width="0.3" stroke-miterlimit="10" cx="83.2" cy="233.3" r="0.4"/>
		</g>
		<path fill="#FFFFFF" stroke="#717E86" stroke-width="0.3" stroke-miterlimit="10" d="M98.5,230.5c0,2.7-4.1,4.8-6.8,4.8
			s-4.8-2.2-4.8-4.8c0-2.7,2.2-4.8,4.8-4.8S98.5,227.8,98.5,230.5z"/>
		<path fill="#FFFFFF" stroke="#717E86" stroke-width="0.3" stroke-miterlimit="10" d="M90.6,228.8h-1.8c-0.5,0-0.6,0.7-0.6,1.6
			c0,0.9,0.2,1.6,0.6,1.6h1.8c0.9,0,1.6-0.7,1.6-1.6C92.2,229.6,91.5,228.8,90.6,228.8z"/>
		<path fill="none" stroke="#717E86" stroke-width="0.3" stroke-miterlimit="10" d="M83.1,224.3c-0.9,1.5-1.5,3.9-1.5,6.5
			c0,2.2,0.5,4.3,1.2,5.8"/>
	</g>
	<g>
		<path fill="#FFFFFF" stroke="#717E86" stroke-width="0.3" stroke-miterlimit="10" d="M81.2,184.4v-23.7c0-0.5,0.4-0.9,0.9-0.9H141
			c0.5,0,0.9,0.4,0.9,0.9v23.7c0,0.5-0.4,0.9-0.9,0.9H82.2C81.7,185.3,81.2,184.9,81.2,184.4z"/>
		<path fill="#FFFFFF" stroke="#717E86" stroke-width="0.3" stroke-miterlimit="10" d="M139.6,172.5c0-7.7-4.7-10.3-7-10.3H87.2
			c-2.3,0-4.1,1.9-4.1,4.2v12.4c0,2.3,1.8,4.2,4.1,4.2h45.4C134.9,182.9,139.6,180.1,139.6,172.5z"/>
		<path fill="#FFFFFF" stroke="#717E86" stroke-width="0.3" stroke-miterlimit="10" d="M130.2,172.5c0-6.5-3.8-8.7-5.6-8.7H87.9
			c-1.8,0-3.3,1.6-3.3,3.5v10.5c0,2,1.5,3.5,3.3,3.5h36.7C126.4,181.3,130.2,179,130.2,172.5z"/>
		<circle fill="#FFFFFF" stroke="#717E86" stroke-width="0.3" stroke-miterlimit="10" cx="91.3" cy="172.5" r="1.1"/>
	</g>
	<g>
		<g>
			<g>
				<g opacity="5.000000e-002">
					<path fill="#717E86" d="M86.2,375.4v10.1c0,0.6-0.4,1-1,1h-9c-0.6,0-1-0.4-1-1v-10.1c0-0.6,0.4-1,1-1h9
						C85.7,374.4,86.2,374.8,86.2,375.4z"/>
					<path fill="none" stroke="#717E86" stroke-width="0.3" stroke-miterlimit="10" d="M86.2,375.4v10.1c0,0.6-0.4,1-1,1h-9
						c-0.6,0-1-0.4-1-1v-10.1c0-0.6,0.4-1,1-1h9C85.7,374.4,86.2,374.8,86.2,375.4z"/>
				</g>
				<g>
					<path fill="#EAF6FE" d="M83.2,372.4v10.1c0,0.6-0.4,1-1,1h-9c-0.6,0-1-0.4-1-1v-10.1c0-0.6,0.4-1,1-1h9
						C82.7,371.4,83.2,371.8,83.2,372.4z"/>
					<path fill="none" stroke="#CCD3D8" stroke-width="0.3" stroke-miterlimit="10" d="M83.2,372.4v10.1c0,0.6-0.4,1-1,1h-9
						c-0.6,0-1-0.4-1-1v-10.1c0-0.6,0.4-1,1-1h9C82.7,371.4,83.2,371.8,83.2,372.4z"/>
				</g>
			</g>
			<path fill="#EAF6FE" stroke="#CCD3D8" stroke-width="0.3" stroke-miterlimit="10" d="M78.3,380.1v0.4c0,0.1-0.1,0.3-0.3,0.3h-5.9
				v-1h5.9C78.2,379.8,78.3,380,78.3,380.1z"/>
			<path fill="#EAF6FE" stroke="#CCD3D8" stroke-width="0.3" stroke-miterlimit="10" d="M77.4,378.2v0.4c0,0.1-0.1,0.3-0.3,0.3h-5
				v-1h5C77.3,377.9,77.4,378,77.4,378.2z"/>
			<path fill="#EAF6FE" stroke="#CCD3D8" stroke-width="0.3" stroke-miterlimit="10" d="M79,379.1v0.4c0,0.1-0.1,0.3-0.3,0.3h-6.5
				v-1h6.5C78.8,378.9,79,379,79,379.1z"/>
		</g>
		<g>
			<g opacity="5.000000e-002">
				<path fill="#717E86" d="M146.6,371.8H76.2c-0.6,0-1-0.4-1-1V315c0-0.6,0.4-1,1-1h70.5c0.6,0,1,0.4,1,1v55.8
					C147.6,371.4,147.2,371.8,146.6,371.8z"/>
				<path fill="none" stroke="#717E86" stroke-width="0.3" stroke-miterlimit="10" d="M146.6,371.8H76.2c-0.6,0-1-0.4-1-1V315
					c0-0.6,0.4-1,1-1h70.5c0.6,0,1,0.4,1,1v55.8C147.6,371.4,147.2,371.8,146.6,371.8z"/>
			</g>
			<g>
				<path fill="#EAF6FE" d="M143.6,368.8H73.2c-0.6,0-1-0.4-1-1V312c0-0.6,0.4-1,1-1h70.5c0.6,0,1,0.4,1,1v55.8
					C144.6,368.4,144.2,368.8,143.6,368.8z"/>
				<path fill="none" stroke="#CCD3D8" stroke-width="0.3" stroke-miterlimit="10" d="M143.6,368.8H73.2c-0.6,0-1-0.4-1-1V312
					c0-0.6,0.4-1,1-1h70.5c0.6,0,1,0.4,1,1v55.8C144.6,368.4,144.2,368.8,143.6,368.8z"/>
			</g>
		</g>
		<path fill="#EAF6FE" stroke="#CCD3D8" stroke-width="0.3" stroke-miterlimit="10" d="M139.8,365H77c-0.6,0-1-0.4-1-1v-48.1
			c0-0.6,0.4-1,1-1h62.7c0.6,0,1,0.4,1,1V364C140.8,364.5,140.3,365,139.8,365z"/>
		<path fill="#EAF6FE" stroke="#CCD3D8" stroke-width="0.3" stroke-miterlimit="10" d="M79.6,361.7c-1.3-2.1-1.5-17.2-0.2-19.5
			c0.1-0.2,7.2-1,11-0.4c0.7,0.1,1.6,0.7,2,1.8c1.4,3.8,0.8,12.7-0.4,17c-0.5,1.5-2,1.4-2.6,1.5C86.6,362.6,80,362.4,79.6,361.7z"/>
		<path fill="#EAF6FE" stroke="#CCD3D8" stroke-width="0.3" stroke-miterlimit="10" d="M79.5,337.9c-1.6-4.3-1.1-18.7-0.3-19.5
			c0.3-0.3,7.3-1.1,10.5-0.4c0.5,0.1,0.9,0.3,1.1,0.5c1.3,1.8,2.2,18.7,2.1,18.9s-1.5,0.1-2.3,0.5C88.8,338.7,79.7,338.6,79.5,337.9
			z"/>
		<g>
			<path fill="#EAF6FE" stroke="#CCD3D8" stroke-width="0.3" stroke-miterlimit="10" d="M102.4,317.5c0,0,1.9,19.9,1.9,22.4
				c0,2.6-1.9,22.4-1.9,22.4c0,1.9,3.2,3.4,1.3,3.4H93.2c-1.9,0-3.4-1.5-3.4-3.4c0,0,1-19.3,1-22.2s-1-22.5-1-22.5
				c0-1.9,1.5-3.4,3.4-3.4h10.5C105.6,314,102.4,315.6,102.4,317.5z"/>
			<path fill="#EAF6FE" stroke="#CCD3D8" stroke-width="0.3" stroke-linecap="round" stroke-miterlimit="10" d="M92.5,358.3
				c0.3,2.4,3.5,7.2,4.5,7.4"/>
			<path fill="#EAF6FE" stroke="#CCD3D8" stroke-width="0.3" stroke-linecap="round" stroke-miterlimit="10" d="M93.5,334
				c0.2,0.4,5.2,10.9,7.6,9.6c0.9-0.5,0.3-2.1-0.2-2.9"/>
			<path fill="#EAF6FE" stroke="#CCD3D8" stroke-width="0.3" stroke-linecap="round" stroke-miterlimit="10" d="M91.3,317.1
				c1.4,1.5,5.5,7.6,8.6,16"/>
		</g>
		<g>
			<g>
				<g opacity="5.000000e-002">
					<path fill="#717E86" d="M75.2,310.5v-10.1c0-0.6,0.4-1,1-1h9c0.6,0,1,0.4,1,1v10.1c0,0.6-0.4,1-1,1h-9
						C75.6,311.5,75.2,311.1,75.2,310.5z"/>
					<path fill="none" stroke="#717E86" stroke-width="0.3" stroke-miterlimit="10" d="M75.2,310.5v-10.1c0-0.6,0.4-1,1-1h9
						c0.6,0,1,0.4,1,1v10.1c0,0.6-0.4,1-1,1h-9C75.6,311.5,75.2,311.1,75.2,310.5z"/>
				</g>
				<g>
					<path fill="#EAF6FE" d="M72.2,307.5v-10.1c0-0.6,0.4-1,1-1h9c0.6,0,1,0.4,1,1v10.1c0,0.6-0.4,1-1,1h-9
						C72.6,308.5,72.2,308.1,72.2,307.5z"/>
					<path fill="none" stroke="#CCD3D8" stroke-width="0.3" stroke-miterlimit="10" d="M72.2,307.5v-10.1c0-0.6,0.4-1,1-1h9
						c0.6,0,1,0.4,1,1v10.1c0,0.6-0.4,1-1,1h-9C72.6,308.5,72.2,308.1,72.2,307.5z"/>
				</g>
			</g>
			<path fill="#EAF6FE" stroke="#CCD3D8" stroke-width="0.3" stroke-miterlimit="10" d="M80.3,301.1l-1.6,4.3
				c-0.2,0.5-0.8,0.8-1.3,0.6l-1.7-0.7c-0.5-0.2-0.8-0.8-0.6-1.3l1.6-4.3c0.2-0.5,0.8-0.8,1.3-0.6l1.7,0.7
				C80.3,300.1,80.5,300.6,80.3,301.1z"/>
			<circle fill="#EAF6FE" stroke="#CCD3D8" stroke-width="0.3" stroke-miterlimit="10" cx="77.7" cy="302.6" r="0.6"/>
		</g>
	</g>
	<g>
		<g>
			<g opacity="5.000000e-002">
				<path fill="#717E86" d="M76.2,255.5h62.7c0.6,0,1,0.4,1,1v18.3c0,0.6-0.4,1-1,1H76.2c-0.6,0-1-0.4-1-1v-18.3
					C75.2,255.9,75.6,255.5,76.2,255.5z"/>
				<path fill="none" stroke="#717E86" stroke-width="0.3" stroke-miterlimit="10" d="M76.2,255.5h62.7c0.6,0,1,0.4,1,1v18.3
					c0,0.6-0.4,1-1,1H76.2c-0.6,0-1-0.4-1-1v-18.3C75.2,255.9,75.6,255.5,76.2,255.5z"/>
			</g>
			<g>
				<path fill="#EAF6FE" d="M73.2,252.5h62.7c0.6,0,1,0.4,1,1v18.3c0,0.6-0.4,1-1,1H73.2c-0.6,0-1-0.4-1-1v-18.3
					C72.2,252.9,72.6,252.5,73.2,252.5z"/>
				<path fill="none" stroke="#CCD3D8" stroke-width="0.3" stroke-miterlimit="10" d="M73.2,252.5h62.7c0.6,0,1,0.4,1,1v18.3
					c0,0.6-0.4,1-1,1H73.2c-0.6,0-1-0.4-1-1v-18.3C72.2,252.9,72.6,252.5,73.2,252.5z"/>
			</g>
		</g>
		<line fill="#EAF6FE" stroke="#CCD3D8" stroke-width="0.3" stroke-miterlimit="10" x1="136.9" y1="270" x2="72.2" y2="270"/>
		<line fill="#EAF6FE" stroke="#CCD3D8" stroke-width="0.3" stroke-miterlimit="10" x1="104.5" y1="270" x2="104.5" y2="272.8"/>
		<polyline fill="none" stroke="#CCD3D8" stroke-width="0.3" stroke-miterlimit="10" points="111.6,272.8 111.6,274.3 109.1,274.3 
			109.1,272.8 		"/>
		<polyline fill="none" stroke="#CCD3D8" stroke-width="0.3" stroke-miterlimit="10" points="99.9,272.8 99.9,274.3 97.5,274.3 
			97.5,272.8 		"/>
	</g>
	<g>
		<path fill="#EAF6FE" stroke="#CCD3D8" stroke-width="0.3" stroke-miterlimit="10" d="M259.8,324v1.7h14.9V324
			c0-0.7-0.5-1.2-1.2-1.2H261C260.4,322.8,259.8,323.3,259.8,324z"/>
		
			<rect x="259.8" y="325.7" fill="#EAF6FE" stroke="#CCD3D8" stroke-width="0.3" stroke-miterlimit="10" width="14.9" height="4.7"/>
		<line fill="#EAF6FE" stroke="#CCD3D8" stroke-width="0.3" stroke-miterlimit="10" x1="261.9" y1="325.7" x2="261.9" y2="330.3"/>
		<line fill="#EAF6FE" stroke="#CCD3D8" stroke-width="0.3" stroke-miterlimit="10" x1="272.7" y1="330.3" x2="272.7" y2="325.7"/>
		<path fill="#EAF6FE" stroke="#CCD3D8" stroke-width="0.3" stroke-miterlimit="10" d="M277.4,324v1.7h14.9V324
			c0-0.7-0.5-1.2-1.2-1.2h-12.4C278,322.8,277.4,323.3,277.4,324z"/>
		
			<rect x="277.4" y="325.7" fill="#EAF6FE" stroke="#CCD3D8" stroke-width="0.3" stroke-miterlimit="10" width="14.9" height="4.7"/>
		<line fill="#EAF6FE" stroke="#CCD3D8" stroke-width="0.3" stroke-miterlimit="10" x1="279.4" y1="325.7" x2="279.4" y2="330.3"/>
		<line fill="#EAF6FE" stroke="#CCD3D8" stroke-width="0.3" stroke-miterlimit="10" x1="290.2" y1="330.3" x2="290.2" y2="325.7"/>
		<g>
			<path fill="#EAF6FE" stroke="#CCD3D8" stroke-width="0.3" stroke-miterlimit="10" d="M292.3,365.7v-1.7h-14.9v1.7
				c0,0.7,0.5,1.2,1.2,1.2h12.4C291.7,366.9,292.3,366.4,292.3,365.7z"/>
			
				<rect x="277.4" y="359.4" fill="#EAF6FE" stroke="#CCD3D8" stroke-width="0.3" stroke-miterlimit="10" width="14.9" height="4.7"/>
			<line fill="#EAF6FE" stroke="#CCD3D8" stroke-width="0.3" stroke-miterlimit="10" x1="290.2" y1="364.1" x2="290.2" y2="359.4"/>
			<line fill="#EAF6FE" stroke="#CCD3D8" stroke-width="0.3" stroke-miterlimit="10" x1="279.4" y1="359.4" x2="279.4" y2="364.1"/>
		</g>
		<g>
			<path fill="#EAF6FE" stroke="#CCD3D8" stroke-width="0.3" stroke-miterlimit="10" d="M270.3,370l0.6-1.5l-13.7-5.8l-0.6,1.5
				c-0.3,0.6,0,1.3,0.6,1.6l11.5,4.8C269.3,370.9,270,370.6,270.3,370z"/>
			
				<rect x="260.1" y="352.1" transform="matrix(0.3873 -0.922 0.922 0.3873 -168.1157 466.0952)" fill="#EAF6FE" stroke="#CCD3D8" stroke-width="0.3" stroke-miterlimit="10" width="13.1" height="14.9"/>
			<line fill="#EAF6FE" stroke="#CCD3D8" stroke-width="0.3" stroke-miterlimit="10" x1="269.1" y1="367.6" x2="274.1" y2="355.6"/>
			<line fill="#EAF6FE" stroke="#CCD3D8" stroke-width="0.3" stroke-miterlimit="10" x1="264.2" y1="351.4" x2="259.1" y2="363.5"/>
		</g>
		<g>
			<g opacity="5.000000e-002">
				<path fill="#717E86" d="M300.6,334.5v26.7c0,0.7-0.5,1.2-1.2,1.2h-41.1c-0.7,0-1.2-0.5-1.2-1.2v-26.7c0-0.7,0.5-1.2,1.2-1.2
					h41.1C300,333.3,300.6,333.9,300.6,334.5z"/>
				<path fill="none" stroke="#717E86" stroke-width="0.3" stroke-miterlimit="10" d="M300.6,334.5v26.7c0,0.7-0.5,1.2-1.2,1.2
					h-41.1c-0.7,0-1.2-0.5-1.2-1.2v-26.7c0-0.7,0.5-1.2,1.2-1.2h41.1C300,333.3,300.6,333.9,300.6,334.5z"/>
			</g>
			<g>
				<path fill="#EAF6FE" d="M297.6,331.5v26.7c0,0.7-0.5,1.2-1.2,1.2h-41.1c-0.7,0-1.2-0.5-1.2-1.2v-26.7c0-0.7,0.5-1.2,1.2-1.2
					h41.1C297,330.3,297.6,330.9,297.6,331.5z"/>
				<path fill="none" stroke="#CCD3D8" stroke-width="0.3" stroke-miterlimit="10" d="M297.6,331.5v26.7c0,0.7-0.5,1.2-1.2,1.2
					h-41.1c-0.7,0-1.2-0.5-1.2-1.2v-26.7c0-0.7,0.5-1.2,1.2-1.2h41.1C297,330.3,297.6,330.9,297.6,331.5z"/>
			</g>
		</g>
		<path fill="#EAF6FE" stroke="#CCD3D8" stroke-width="0.3" stroke-miterlimit="10" d="M287.5,343.3l-1.9,2.6
			c-0.3,0.4-1,0.5-1.4,0.2l-4.7-3.5c-0.4-0.3-0.5-1-0.2-1.4l1.9-2.6c0.3-0.4,1-0.5,1.4-0.2l4.7,3.5
			C287.8,342.2,287.9,342.9,287.5,343.3z"/>
	</g>
	<g>
		<g>
			<rect x="182.4" y="166" fill="#FFFFFF" width="42.6" height="20.9"/>
			<path fill="#717E86" d="M224.9,166.2v20.6h-42.3v-20.6H224.9 M225.2,165.9h-42.9V187h42.9V165.9L225.2,165.9z"/>
		</g>
		<line fill="none" stroke="#717E86" stroke-width="0.5" stroke-miterlimit="10" x1="219.4" y1="169.6" x2="218.5" y2="183.3"/>
		<line fill="none" stroke="#717E86" stroke-width="0.5" stroke-miterlimit="10" x1="216.2" y1="169.6" x2="217.2" y2="183.3"/>
		<line fill="none" stroke="#717E86" stroke-width="0.5" stroke-miterlimit="10" x1="215.1" y1="169.6" x2="214.2" y2="183.3"/>
		<line fill="none" stroke="#717E86" stroke-width="0.5" stroke-miterlimit="10" x1="211.9" y1="169.6" x2="212.9" y2="183.3"/>
		<line fill="none" stroke="#717E86" stroke-width="0.5" stroke-miterlimit="10" x1="195.5" y1="169.6" x2="194.7" y2="183.3"/>
		<line fill="none" stroke="#717E86" stroke-width="0.5" stroke-miterlimit="10" x1="192.4" y1="169.6" x2="193.4" y2="183.3"/>
		<line fill="none" stroke="#717E86" stroke-width="0.5" stroke-miterlimit="10" x1="191.2" y1="169.6" x2="190.4" y2="183.3"/>
		<line fill="none" stroke="#717E86" stroke-width="0.5" stroke-miterlimit="10" x1="188.1" y1="169.6" x2="189.1" y2="183.3"/>
		<line fill="#EAF6FE" stroke="#717E86" stroke-width="0.3" stroke-miterlimit="10" x1="225.2" y1="185.5" x2="182.5" y2="185.5"/>
		<line fill="#EAF6FE" stroke="#717E86" stroke-width="0.3" stroke-miterlimit="10" x1="203.8" y1="185.5" x2="203.8" y2="186.9"/>
		<polyline fill="none" stroke="#717E86" stroke-width="0.3" stroke-miterlimit="10" points="208.5,186.9 208.5,187.7 206.9,187.7 
			206.9,186.9 		"/>
		<polyline fill="none" stroke="#717E86" stroke-width="0.3" stroke-miterlimit="10" points="200.8,186.9 200.8,187.7 199.2,187.7 
			199.2,186.9 		"/>
		<line fill="none" stroke="#717E86" stroke-width="0.3" stroke-miterlimit="10" x1="225.2" y1="176.5" x2="182.5" y2="176.5"/>
	</g>
	<line fill="none" stroke="#717E86" stroke-width="0.3" stroke-miterlimit="10" x1="80.4" y1="186.4" x2="145.6" y2="186.4"/>
	<g>
		<g>
			<g opacity="5.000000e-002">
				<path fill="#717E86" d="M394.1,255.8h-66.5c-3.4,0-6.2,2.8-6.2,6.2v25c0,0.8,0.6,1.4,1.4,1.4h0.2c0.8,0,1.4-0.6,1.4-1.4v-0.9
					c0,0.9,0.7,1.6,1.6,1.6h21.1c0.9,0,1.6-0.7,1.6-1.6c0,0.9,0.7,1.6,1.6,1.6h21.1c0.9,0,1.6-0.7,1.6-1.6c0,0.9,0.7,1.6,1.6,1.6
					h21.1c0.8,0,1.5-0.7,1.6-1.5v0.8c0,0.8,0.6,1.4,1.4,1.4h0.2c0.8,0,1.4-0.6,1.4-1.4v-25C400.3,258.6,397.5,255.8,394.1,255.8z"/>
				<path fill="none" stroke="#717E86" stroke-width="0.3" stroke-miterlimit="10" d="M394.1,255.8h-66.5c-3.4,0-6.2,2.8-6.2,6.2v25
					c0,0.8,0.6,1.4,1.4,1.4h0.2c0.8,0,1.4-0.6,1.4-1.4v-0.9c0,0.9,0.7,1.6,1.6,1.6h21.1c0.9,0,1.6-0.7,1.6-1.6
					c0,0.9,0.7,1.6,1.6,1.6h21.1c0.9,0,1.6-0.7,1.6-1.6c0,0.9,0.7,1.6,1.6,1.6h21.1c0.8,0,1.5-0.7,1.6-1.5v0.8
					c0,0.8,0.6,1.4,1.4,1.4h0.2c0.8,0,1.4-0.6,1.4-1.4v-25C400.3,258.6,397.5,255.8,394.1,255.8z"/>
			</g>
			<g>
				<path fill="#EAF6FE" d="M391.1,252.8h-66.5c-3.4,0-6.2,2.8-6.2,6.2v25c0,0.8,0.6,1.4,1.4,1.4h0.2c0.8,0,1.4-0.6,1.4-1.4v-0.9
					c0,0.9,0.7,1.6,1.6,1.6h21.1c0.9,0,1.6-0.7,1.6-1.6c0,0.9,0.7,1.6,1.6,1.6h21.1c0.9,0,1.6-0.7,1.6-1.6c0,0.9,0.7,1.6,1.6,1.6
					h21.1c0.8,0,1.5-0.7,1.6-1.5v0.8c0,0.8,0.6,1.4,1.4,1.4h0.2c0.8,0,1.4-0.6,1.4-1.4v-25C397.3,255.6,394.5,252.8,391.1,252.8z"/>
				<path fill="none" stroke="#CCD3D8" stroke-width="0.3" stroke-miterlimit="10" d="M391.1,252.8h-66.5c-3.4,0-6.2,2.8-6.2,6.2v25
					c0,0.8,0.6,1.4,1.4,1.4h0.2c0.8,0,1.4-0.6,1.4-1.4v-0.9c0,0.9,0.7,1.6,1.6,1.6h21.1c0.9,0,1.6-0.7,1.6-1.6
					c0,0.9,0.7,1.6,1.6,1.6h21.1c0.9,0,1.6-0.7,1.6-1.6c0,0.9,0.7,1.6,1.6,1.6h21.1c0.8,0,1.5-0.7,1.6-1.5v0.8
					c0,0.8,0.6,1.4,1.4,1.4h0.2c0.8,0,1.4-0.6,1.4-1.4v-25C397.3,255.6,394.5,252.8,391.1,252.8z"/>
			</g>
		</g>
		<g>
			<path fill="#EAF6FE" stroke="#CCD3D8" stroke-width="0.3033" stroke-miterlimit="10" d="M391.1,252.8h-66.5
				c-3.4,0-6.2,2.8-6.2,6.2v25c0,0.8,0.6,1.4,1.4,1.4h0.2c0.8,0,1.4-0.6,1.4-1.4v-21.5h72.9V284c0,0.8,0.6,1.4,1.4,1.4h0.2
				c0.8,0,1.4-0.6,1.4-1.4v-25C397.3,255.6,394.5,252.8,391.1,252.8z"/>
			<g>
				<g>
					<path fill="#EAF6FE" stroke="#CCD3D8" stroke-width="0.3" stroke-miterlimit="10" d="M323.5,265.1c6.7-0.7,13.4-0.7,20.1,0
						c1.5,0.1,2.9-0.9,3-2.4c0.1-1.1,0.3-2.2,0.4-3.3c0.2-1.5-1-2.9-2.6-3c-7.3-0.7-14.6-0.7-21.8,0c-1.6,0.2-2.8,1.5-2.6,3
						c0.1,1.1,0.3,2.2,0.4,3.3C320.7,264.2,322,265.2,323.5,265.1z"/>
					
						<path fill="#EAF6FE" stroke="#CCD3D8" stroke-width="0.3" stroke-linecap="round" stroke-linejoin="round" stroke-miterlimit="10" d="
						M322.9,262.8c0.2-0.7,21.1-0.7,21.3,0"/>
				</g>
			</g>
			<g>
				<g>
					<path fill="#EAF6FE" stroke="#CCD3D8" stroke-width="0.3" stroke-miterlimit="10" d="M372.1,265.1c6.7-0.7,13.4-0.7,20.1,0
						c1.5,0.1,2.9-0.9,3-2.4c0.1-1.1,0.3-2.2,0.4-3.3c0.2-1.5-1-2.9-2.6-3c-7.3-0.7-14.6-0.7-21.8,0c-1.6,0.2-2.8,1.5-2.6,3
						c0.1,1.1,0.3,2.2,0.4,3.3C369.3,264.2,370.6,265.2,372.1,265.1z"/>
					
						<path fill="#EAF6FE" stroke="#CCD3D8" stroke-width="0.3" stroke-linecap="round" stroke-linejoin="round" stroke-miterlimit="10" d="
						M371.5,262.8c0.2-0.7,21.1-0.7,21.3,0"/>
				</g>
			</g>
			<g>
				
					<line fill="#EAF6FE" stroke="#CCD3D8" stroke-width="0.3" stroke-miterlimit="10" x1="345.7" y1="261.4" x2="345.7" y2="283.1"/>
				<line fill="#EAF6FE" stroke="#CCD3D8" stroke-width="0.3" stroke-miterlimit="10" x1="370" y1="283.1" x2="370" y2="261.4"/>
				<g>
					<path fill="#EAF6FE" stroke="#CCD3D8" stroke-width="0.3" stroke-miterlimit="10" d="M347.8,265.1c6.7-0.7,13.4-0.7,20.1,0
						c1.5,0.1,2.9-0.9,3-2.4c0.1-1.1,0.3-2.2,0.4-3.3c0.2-1.5-1-2.9-2.6-3c-7.3-0.7-14.6-0.7-21.8,0c-1.6,0.2-2.8,1.5-2.6,3
						c0.1,1.1,0.3,2.2,0.4,3.3C345,264.2,346.3,265.2,347.8,265.1z"/>
					
						<path fill="#EAF6FE" stroke="#CCD3D8" stroke-width="0.3" stroke-linecap="round" stroke-linejoin="round" stroke-miterlimit="10" d="
						M347.2,262.8c0.2-0.7,21.1-0.7,21.3,0"/>
				</g>
			</g>
			<path fill="#EAF6FE" stroke="#CCD3D8" stroke-width="0.3" stroke-miterlimit="10" d="M322.4,259.3c0.9,0.6,4.5,4.4,4.7,4.7
				c1.9,0,5.1,1,5.6,1.6c-0.3,0.5-0.5,0.4-0.9,1.1c-0.2,0.9-1.4,5.7-3.5,8.3c-1.3-1.2-8.2-1.9-10-4c-1.1-0.5-2-0.7-2.8-1.6
				c0.3-0.6,2.9-2.8,3.9-3C320.1,265.2,321,260.3,322.4,259.3z"/>
			<path fill="#EAF6FE" stroke="#CCD3D8" stroke-width="0.3" stroke-miterlimit="10" d="M389.8,258.4c1,0.7,6.7,8.6,7,9.2
				c-0.4,1.8-4.1,4.5-5.2,5.1c-0.4,1.2-1.1,2.6-1.9,3.2c-0.5-0.5-1.5-1.6-1.8-2.2c-0.6-0.4-4.4-3.5-5.2-6c-0.5-0.6-1.2-1.2-1.2-1.6
				c0.8-0.7,1.9-1.1,2.5-1.1C384.7,264.5,388.8,258.6,389.8,258.4z"/>
		</g>
	</g>
	<g>
		<g>
			<g opacity="5.000000e-002">
				<path fill="#717E86" d="M402.4,342.9c-0.7,0-1.2,0.6-1.2,1.2v0.2c0,0.7,0.6,1.2,1.2,1.2h22.2c3,0,5.5-2.5,5.5-5.5v-15.9
					c0-3-2.5-5.5-5.5-5.5h-22.2c-0.7,0-1.2,0.6-1.2,1.2v0.2c0,0.7,0.6,1.2,1.2,1.2l0.8,0c-0.8,0-1.4,0.6-1.4,1.4v18.8
					c0,0.8,0.6,1.4,1.4,1.4L402.4,342.9z"/>
				
					<path fill="none" stroke="#717E86" stroke-width="0.3" stroke-linecap="round" stroke-linejoin="round" stroke-miterlimit="10" d="
					M402.4,342.9c-0.7,0-1.2,0.6-1.2,1.2v0.2c0,0.7,0.6,1.2,1.2,1.2h22.2c3,0,5.5-2.5,5.5-5.5v-15.9c0-3-2.5-5.5-5.5-5.5h-22.2
					c-0.7,0-1.2,0.6-1.2,1.2v0.2c0,0.7,0.6,1.2,1.2,1.2l0.8,0c-0.8,0-1.4,0.6-1.4,1.4v18.8c0,0.8,0.6,1.4,1.4,1.4L402.4,342.9z"/>
			</g>
			<g>
				<path fill="#EAF6FE" d="M399.4,339.9c-0.7,0-1.2,0.6-1.2,1.2v0.2c0,0.7,0.6,1.2,1.2,1.2h22.2c3,0,5.5-2.5,5.5-5.5v-15.9
					c0-3-2.5-5.5-5.5-5.5h-22.2c-0.7,0-1.2,0.6-1.2,1.2v0.2c0,0.7,0.6,1.2,1.2,1.2l0.8,0c-0.8,0-1.4,0.6-1.4,1.4v18.8
					c0,0.8,0.6,1.4,1.4,1.4L399.4,339.9z"/>
				
					<path fill="none" stroke="#CCD3D8" stroke-width="0.3" stroke-linecap="round" stroke-linejoin="round" stroke-miterlimit="10" d="
					M399.4,339.9c-0.7,0-1.2,0.6-1.2,1.2v0.2c0,0.7,0.6,1.2,1.2,1.2h22.2c3,0,5.5-2.5,5.5-5.5v-15.9c0-3-2.5-5.5-5.5-5.5h-22.2
					c-0.7,0-1.2,0.6-1.2,1.2v0.2c0,0.7,0.6,1.2,1.2,1.2l0.8,0c-0.8,0-1.4,0.6-1.4,1.4v18.8c0,0.8,0.6,1.4,1.4,1.4L399.4,339.9z"/>
			</g>
		</g>
		<g>
			<path fill="#EAF6FE" stroke="#CCD3D8" stroke-width="0.3033" stroke-miterlimit="10" d="M427.1,337.1v-15.9c0-3-2.5-5.5-5.5-5.5
				h-22.2c-0.7,0-1.2,0.6-1.2,1.2v0.2c0,0.7,0.6,1.2,1.2,1.2h19.1v21.6h-19.1c-0.7,0-1.2,0.6-1.2,1.2v0.2c0,0.7,0.6,1.2,1.2,1.2
				h22.2C424.7,342.6,427.1,340.2,427.1,337.1z"/>
			<g>
				<path fill="#EAF6FE" stroke="#CCD3D8" stroke-width="0.3" stroke-miterlimit="10" d="M416.3,320.2c0.6,5.9,0.6,11.9,0,17.9
					c-0.1,1.3,0.8,2.5,2.1,2.7c1,0.1,2,0.2,2.9,0.4c1.3,0.2,2.5-0.9,2.7-2.3c0.6-6.5,0.6-12.9,0-19.4c-0.1-1.5-1.4-2.5-2.7-2.3
					c-1,0.1-2,0.2-2.9,0.4C417.1,317.7,416.1,318.9,416.3,320.2z"/>
				
					<path fill="#EAF6FE" stroke="#CCD3D8" stroke-width="0.3" stroke-linecap="round" stroke-linejoin="round" stroke-miterlimit="10" d="
					M418.3,319.7c0.6,0.1,0.6,18.8,0,18.9"/>
			</g>
		</g>
	</g>
	<g>
		<polyline fill="none" stroke="#717E86" stroke-width="0.3" stroke-miterlimit="10" points="174.6,187.1 174.6,187.9 172.9,187.9 
			172.9,187.1 		"/>
		<g>
			<path fill="#717E86" d="M177.6,185.8v1h-27.5v-1H177.6 M177.9,185.5h-28.1v1.6h28.1V185.5L177.9,185.5z"/>
		</g>
	</g>
	<rect x="202.2" y="272.1" fill="none" stroke="#717E86" stroke-width="0.3" stroke-miterlimit="10" width="21.6" height="21.6"/>
</g>
<g id="Ouvertures">
	<g>
		<path fill="none" stroke="#717E86" stroke-width="0.3" stroke-miterlimit="10" stroke-dasharray="2,2" d="M239,157.8
			c0,18.3,15.1,36.4,33.7,36.4"/>
		<line fill="none" stroke="#717E86" stroke-width="0.3" stroke-miterlimit="10" x1="272.7" y1="158.3" x2="272.7" y2="194.2"/>
	</g>
	<g>
		<path fill="none" stroke="#717E86" stroke-width="0.3" stroke-miterlimit="10" stroke-dasharray="2,2" d="M152.6,251.6
			c0,16.7,13.8,30.3,30.9,30.3"/>
		<line fill="none" stroke="#717E86" stroke-width="0.3" stroke-miterlimit="10" x1="183.5" y1="251.6" x2="183.5" y2="281.9"/>
	</g>
	<g>
		<path fill="none" stroke="#717E86" stroke-width="0.3" stroke-miterlimit="10" stroke-dasharray="2,2" d="M143.9,211.8
			c-16.7,0-30.3,13.8-30.3,30.9"/>
		<line fill="none" stroke="#717E86" stroke-width="0.3" stroke-miterlimit="10" x1="143.9" y1="242.7" x2="113.6" y2="242.7"/>
	</g>
	<g>
		<polygon fill="#717E86" points="230.1,419.7 230.2,417.7 228.4,417.6 228.2,419.7 		"/>
		<polygon fill="#717E86" points="303.6,423.5 303.7,421.4 301.3,421.3 301.2,423.4 		"/>
		<g>
			<polygon fill="#FFFFFF" points="229.3,419.6 229.4,417.8 301.1,421.4 301,423.2 			"/>
			<path fill="#717E86" d="M229.6,417.9l71.4,3.6l-0.1,1.5l-71.4-3.6L229.6,417.9 M229.3,417.6l-0.1,2.1l72,3.7l0.1-2.1L229.3,417.6
				L229.3,417.6z"/>
		</g>
		<polyline fill="none" stroke="#717E86" stroke-width="0.3" stroke-miterlimit="10" stroke-dasharray="2,2" points="276.8,420.5 
			276.4,406.7 230.9,417.7 		"/>
		<polygon fill="#717E86" points="278,422.1 278.1,420 275.8,419.9 275.6,422 		"/>
		<g>
			<path fill="none" stroke="#717E86" stroke-width="0.3" stroke-miterlimit="10" stroke-dasharray="2,2" d="M276.8,420.5
				c0.8-14.5,10.4-25.6,24.6-24.9"/>
			<line fill="none" stroke="#717E86" stroke-width="0.3" stroke-miterlimit="10" x1="299.9" y1="421.3" x2="301.3" y2="395.6"/>
		</g>
	</g>
	<g>
		<polygon fill="#717E86" points="174.8,417.8 174.9,415.7 176.8,415.7 176.7,417.8 		"/>
		<polygon fill="#717E86" points="100,414.4 100.1,412.3 102.5,412.4 102.4,414.5 		"/>
		<g>
			<polygon fill="#FFFFFF" points="102.6,414.4 102.7,412.6 175.7,415.8 175.6,417.6 			"/>
			<path fill="#717E86" d="M102.8,412.7l72.7,3.3l-0.1,1.5l-72.7-3.3L102.8,412.7 M102.5,412.4l-0.1,2.1l73.3,3.3l0.1-2.1
				L102.5,412.4L102.5,412.4z"/>
		</g>
		<polyline fill="none" stroke="#717E86" stroke-width="0.3" stroke-miterlimit="10" stroke-dasharray="2,2" points="127.5,414 
			129.2,400.3 174.2,415.6 		"/>
		<polygon fill="#717E86" points="126,415.5 126.1,413.4 128.5,413.5 128.5,415.6 		"/>
		<g>
			<path fill="none" stroke="#717E86" stroke-width="0.3" stroke-miterlimit="10" stroke-dasharray="2,2" d="M127.5,414
				c0.6-14.5-8-26.5-22.4-27.2"/>
			<line fill="none" stroke="#717E86" stroke-width="0.3" stroke-miterlimit="10" x1="104" y1="412.5" x2="105" y2="386.8"/>
		</g>
	</g>
	<g>
		<g>
			<rect x="436.8" y="257.5" fill="#FFFFFF" width="7.4" height="166.3"/>
			<path fill="#717E86" d="M444.1,257.7v166H437v-166H444.1 M444.4,257.4h-7.7V424h7.7V257.4L444.4,257.4z"/>
		</g>
		<g>
			<rect x="440.7" y="257.5" fill="#FFFFFF" width="3.6" height="90.5"/>
			<path fill="#717E86" d="M444.1,257.7v90.2h-3.3v-90.2H444.1 M444.4,257.4h-3.9v90.8h3.9V257.4L444.4,257.4z"/>
		</g>
		<g>
			<rect x="436.8" y="348.9" fill="#FFFFFF" width="3.2" height="75"/>
			<path fill="#717E86" d="M439.9,349v74.7H437V349H439.9 M440.2,348.7h-3.5V424h3.5V348.7L440.2,348.7z"/>
		</g>
		<g>
			<g>
				<line fill="none" stroke="#717E86" stroke-width="0.3" stroke-miterlimit="1" x1="433.1" y1="310.3" x2="433.1" y2="295.7"/>
				<g>
					<polygon fill="#717E86" points="434.3,296.7 434.1,296.9 433.1,295.8 432.1,296.9 431.8,296.7 433.1,295.3 					"/>
				</g>
			</g>
		</g>
		<rect x="436.7" y="346.8" fill="#717E86" width="3.5" height="3.8"/>
		<rect x="440.5" y="346.8" fill="#717E86" width="3.9" height="3.8"/>
		<rect x="436.7" y="421.2" fill="#717E86" width="3.5" height="2.8"/>
		<rect x="440.5" y="257.4" fill="#717E86" width="3.9" height="3.6"/>
		<line fill="none" stroke="#717E86" stroke-width="0.1" stroke-miterlimit="1" x1="442.4" y1="347.1" x2="442.4" y2="257.7"/>
		<line fill="none" stroke="#717E86" stroke-width="0.1" stroke-miterlimit="1" x1="438.5" y1="422.6" x2="438.5" y2="348.1"/>
	</g>
</g>
<g id="Étiquettes" display="none">
	<text transform="matrix(1 0 0 1 383.4287 408.4019)" display="inline" fill="#3C3C3B" font-family="'Lato-Black'" font-size="7px">Espace Jour</text>
	
		<text transform="matrix(1 0 0 1 393.8262 416.8018)" display="inline" fill="#3C3C3B" font-family="'Lato-Italic'" font-size="7px">30.80 m</text>
	
		<text transform="matrix(0.583 0 0 0.583 418.3887 414.4707)" display="inline" fill="#3C3C3B" font-family="'Lato-Italic'" font-size="7px">2</text>
	<text transform="matrix(1 0 0 1 496.9781 422.104)" display="inline" fill="#3C3C3B" font-family="'Lato-Black'" font-size="7px">Loggia </text>
	
		<text transform="matrix(1 0 0 1 497.3384 430.5039)" display="inline" fill="#3C3C3B" font-family="'Lato-Italic'" font-size="7px">13.20 m</text>
	
		<text transform="matrix(0.583 0 0 0.583 521.9009 428.1729)" display="inline" fill="#3C3C3B" font-family="'Lato-Italic'" font-size="7px">2</text>
	<text transform="matrix(1 0 0 1 178.7601 225.6187)" display="inline" fill="#3C3C3B" font-family="'Lato-Black'" font-size="7px">dégagement </text>
	<text transform="matrix(1 0 0 1 178.8793 234.0186)" display="inline" fill="#3C3C3B" font-family="'Lato-Black'" font-size="7px">&amp; Buanderie</text>
	<text transform="matrix(1 0 0 1 192.392 242.4185)" display="inline" fill="#3C3C3B" font-family="'Lato-Italic'" font-size="7px">8.70 m</text>
	
		<text transform="matrix(0.583 0 0 0.583 212.8939 240.0879)" display="inline" fill="#3C3C3B" font-family="'Lato-Italic'" font-size="7px">2</text>
	<text transform="matrix(1 0 0 1 143.8619 397.5894)" display="inline" fill="#3C3C3B" font-family="'Lato-Black'" font-size="7px">Chambre </text>
	
		<text transform="matrix(1 0 0 1 148.4391 405.9893)" display="inline" fill="#3C3C3B" font-family="'Lato-Italic'" font-size="7px">14.40 m</text>
	
		<text transform="matrix(0.583 0 0 0.583 173.0016 403.6582)" display="inline" fill="#3C3C3B" font-family="'Lato-Italic'" font-size="7px">2</text>
</g>
<g id="Murs">
	<polygon fill="#717E86" points="278.9,150.1 278.2,150.1 272.7,150.1 272.7,157.3 277.7,157.3 277.7,250.6 436.7,250.6 
		436.7,257.4 539,258.1 539,241.6 287,241.6 287,150.1 	"/>
	<polygon fill="#717E86" points="301.9,434.4 302.6,421.2 305.9,421.2 306.1,419.4 436.7,427.6 436.7,423.8 453.1,423.6 
		453.1,442.8 	"/>
	<polygon fill="#717E86" points="61.3,160.9 61.3,421.7 103.8,424.2 104.2,412.7 100.5,412.3 100.6,408.9 71.1,407.1 71.1,250.8 
		153.1,250.8 153.1,246.9 149.8,246.9 149.8,242.5 145.6,242.5 145.6,246.7 80.7,246.7 80.7,158.7 145.6,158.7 145.6,211.9 
		149.8,211.9 149.8,158.5 177.9,158.5 177.9,187.1 182.3,187.1 182.3,165.9 225.2,165.9 225.2,187 229.4,187 229.4,158.4 
		236.6,158.4 239,158.4 239,156.8 239,150.1 61.3,150.1 	"/>
	<polygon fill="#717E86" points="183.6,250.6 187.8,250.6 187.8,412.8 178.6,412.7 178.6,415.8 175.1,415.8 174.3,427.7 230.6,431 
		231.7,417.9 227.9,417.6 227.9,415.1 202.2,414 202.2,250.6 223.8,250.6 223.8,246.7 200.4,246.7 187.8,246.7 183.6,246.7 	"/>
	<polyline fill="none" stroke="#717E86" stroke-width="0.3" stroke-miterlimit="10" points="287,241.6 539,241.6 539,447.3 
		61.3,421.7 61.3,155.6 	"/>
	<rect x="535.5" y="259.1" fill="#A5B9C4" width="1.8" height="167.2"/>
	
		<rect x="453.8" y="441.6" transform="matrix(-0.9989 -4.731387e-002 4.731387e-002 -0.9989 961.6576 907.6786)" fill="#A5B9C4" width="75.5" height="1.8"/>
	<polygon fill="#717E86" points="530.7,426.8 530.7,446.7 538.7,447 538.7,427.2 	"/>
</g>
<g id="Entree">
	<polygon fill="#3C3C3B" points="261.3,153.2 255.8,158 250.3,153.2 	"/>
</g>
<g id="Nord">
	<circle fill="none" stroke="#717E86" stroke-miterlimit="10" cx="519.7" cy="158.7" r="11.9"/>
	<line fill="none" stroke="#717E86" stroke-width="2" stroke-miterlimit="10" x1="527.3" y1="156.2" x2="534.7" y2="153.9"/>
	<text transform="matrix(1 0 0 1 513.4526 164.4805)" fill="#717E86" font-family="'Lato-Black'" font-size="16.4252px">N</text>
</g>
</svg>
