<?xml version="1.0" encoding="utf-8"?>
<!-- Generator: Adobe Illustrator 21.1.0, SVG Export Plug-In . SVG Version: 6.00 Build 0)  -->
<svg version="1.1" id="Calque_1" xmlns="http://www.w3.org/2000/svg" xmlns:xlink="http://www.w3.org/1999/xlink" x="0px" y="0px"
	 viewBox="0 0 1900 575" style="enable-background:new 0 0 1900 575;" xml:space="preserve">
<style type="text/css">
	.st0{fill:#FFFFFF;}
	.st1{fill:#A1A0A0;}
	.st2{fill:#DBDBDB;}
	.st3{fill:#707E85;}
	.st4{fill:none;stroke:#707E85;stroke-width:7.2924;stroke-miterlimit:10;}
</style>
<g id="acces">
	<polygon id="Entree" class="st0" points="1024.633,231.944 1024.633,341.581 941.375,341.581 941.375,508.951 889.846,506.568 
		889.846,341.581 874.409,341.581 875.856,231.944 	"/>
</g>
<g id="HOVER">
	<polygon id="C2-A1-0-01" class="st1" points="1201.264,25.932 1183.313,319.682 1183.313,404.652 1025.157,404.652 
		1025.157,232.795 1011.125,232.795 1011.125,66.747 1019.198,66.747 1088.916,63.034 1089.092,25.932 	"/>
	<polygon id="C2-A1-0-02" class="st2" points="1217.826,408.95 1217.826,528.338 941.398,510.846 941.398,343.091 1024.707,343.091 
		1024.707,404.652 	"/>
	<polygon id="C2-A1-0-03" class="st1" points="889.559,508.865 881.997,507.892 809.831,512.979 809.831,549.043 697.772,549.271 
		715.805,255.534 716.068,170.578 874.029,170.959 873.883,342.832 889.147,342.832 	"/>
	<polygon id="C2-A1-0-04" class="st2" points="1011.125,232.795 873.976,232.795 873.976,170.959 681.49,166.258 681.49,46.625 
		1011.125,66.747 	"/>
</g>
<g id="contours">
	<g id="terrasse">
		<g>
			<path class="st3" d="M1187.029,409.624l30.401,0.182v117.443l-29.911-1.45l-57.132-3.184l-0.374-112.803L1187.029,409.624
				 M1187.031,407.8l-58.848,0.193l0.386,116.345l58.848,3.28l31.836,1.544V407.993L1187.031,407.8L1187.031,407.8z"/>
		</g>
		<g>
			<path class="st3" d="M1200.93,26.823l-1.441,27.014l-3.566,62.118l-105.665-1.68l-0.06-54.211l0.242-33.241L1200.93,26.823
				 M1202.853,25H1088.63l-0.255,35.051l0.062,56.018l109.206,1.736l3.666-63.864L1202.853,25L1202.853,25z"/>
		</g>
		<g>
			<path class="st3" d="M809.354,460.368v54.902v32.907H699.07l1.441-27.017l3.377-60.792L809.354,460.368 M811.177,458.545H702.164
				l-3.473,62.514L697.147,550h114.03v-34.73V458.545L811.177,458.545z"/>
		</g>
		<g>
			<path class="st3" d="M682.57,47.752l29.911,1.45l56.934,3.184v112.991h-56.628l-30.217-0.182L682.57,47.752 M680.747,45.838
				v121.169l32.029,0.193h58.462V50.662l-58.655-3.28L680.747,45.838L680.747,45.838z"/>
		</g>
	</g>
	<g id="big_contour">
		<g>
			<path class="st3" d="M778.53,58.345l239.681,12.526l0.375,0.02l0.375-0.019l62.131-3.15l0.053,48.355l0.008,7.169l7.168,0.114
				l101.642,1.616l-10.214,193.879l-0.01,0.192v0.192v81.293l-51.579,0.169l-7.293,0.024l0.024,7.293l0.36,108.636l-239.655-12.525
				l-0.391-0.02l-0.391,0.022l-62.345,3.435v-49.02v-7.292h-7.292H709.84l10.025-195.117l0.009-0.179v-0.179l0.177-81.285h51.185
				h7.292V167.2V58.345 M771.238,50.662V167.2h-58.462l-0.193,88.561l-10.419,202.784h109.013v56.725l70.039-3.859l247.354,12.927
				l-0.386-116.345l58.848-0.193v-88.561l10.612-201.433l-109.206-1.736l-0.062-56.018l-69.784,3.538L771.238,50.662L771.238,50.662
				z"/>
		</g>
	</g>
	<polyline class="st4" points="889.939,508.951 889.939,342.971 874.409,342.971 874.409,170.839 718.832,170.837 	"/>
	<polyline class="st4" points="941.778,511.348 941.778,342.971 1025.537,342.971 	"/>
	<polyline class="st4" points="875.865,232.675 1025.537,232.675 1025.537,404.532 1180.938,403.677 	"/>
	<line class="st4" x1="1014.089" y1="68.026" x2="1014.089" y2="232.675"/>
</g>
</svg>
