<?xml version="1.0" encoding="utf-8"?>
<!-- Generator: Adobe Illustrator 21.1.0, SVG Export Plug-In . SVG Version: 6.00 Build 0)  -->
<svg version="1.1" xmlns="http://www.w3.org/2000/svg" xmlns:xlink="http://www.w3.org/1999/xlink" x="0px" y="0px"
	 viewBox="0 0 700 198" style="enable-background:new 0 0 700 198;" xml:space="preserve">
<style type="text/css">
	.st0{fill:#F8F8F8;}
	.st1{fill:#DBDBDB;stroke:#707E85;stroke-width:1.7488;stroke-miterlimit:10;}
	.st2{fill:#005785;stroke:#707E85;stroke-width:1.7488;stroke-miterlimit:10;}
	.st3{fill:none;stroke:#707E85;stroke-width:3.8054;stroke-miterlimit:10;}
</style>
<g id="Acces">
	<rect id="Entree" x="379.589" y="153.105" class="st0" width="24.896" height="43.019"/>
</g>
<g id="HOVER">
	<polygon id="C2-A3-0-29" class="st1" points="514.195,153.105 404.485,153.105 404.485,196.123 514.195,196.123 514.195,162.628 
		518.435,162.628 518.435,153.105 	"/>
	<rect id="C2-A3-0-30_1_" x="357.881" y="153.105" class="st1" width="46.604" height="43.019"/>
	<polygon id="C2-A3-0-31" class="st1" points="185.325,153.105 181.085,153.105 181.085,162.628 185.325,162.628 185.325,196.123 
		311.277,196.123 311.277,153.105 	"/>
	<rect id="C2-A3-0-32" x="311.277" y="153.105" class="st1" width="46.604" height="43.019"/>
	<rect id="C2-A3-1-33" x="404.485" y="108.881" class="st1" width="113.95" height="44.223"/>
	<rect id="C2-A3-1-34" x="357.881" y="108.881" class="st2" width="46.604" height="44.223"/>
	<rect id="C2-A3-1-35" x="181.085" y="108.881" class="st1" width="130.191" height="44.223"/>
	<rect id="C2-A3-1-36" x="311.277" y="108.881" class="st1" width="46.604" height="44.223"/>
	<rect id="C2-A3-2-37" x="404.485" y="63.484" class="st1" width="113.95" height="45.397"/>
	<rect id="C2-A3-2-38" x="357.881" y="63.484" class="st1" width="46.604" height="45.397"/>
	<rect id="C2-A3-2-39" x="181.085" y="63.484" class="st1" width="130.191" height="45.397"/>
	<rect id="C2-A3-2-40" x="311.277" y="63.484" class="st1" width="46.604" height="45.397"/>
	<polygon id="C2-A3-3-41" class="st1" points="369.263,11.629 369.263,2.278 330.062,2.278 330.062,11.629 311.277,11.629 
		311.277,63.484 514.195,63.484 514.195,11.629 	"/>
	<rect id="C2-A3-3-42" x="185.325" y="11.629" class="st1" width="125.952" height="51.855"/>
</g>
<g id="Big_contour">
	<polygon class="st3" points="330.062,2.278 369.263,2.278 369.263,11.629 514.195,11.629 514.195,63.484 518.435,63.484 
		518.435,162.628 514.195,162.628 514.195,196.123 185.325,196.123 185.325,162.628 181.085,162.628 181.085,63.484 185.325,63.484 
		185.325,11.629 330.062,11.629 	"/>
</g>
</svg>
