<?xml version="1.0" encoding="utf-8"?>
<!-- Generator: Adobe Illustrator 21.1.0, SVG Export Plug-In . SVG Version: 6.00 Build 0)  -->
<svg version="1.1" xmlns="http://www.w3.org/2000/svg" xmlns:xlink="http://www.w3.org/1999/xlink" x="0px" y="0px"
	 viewBox="0 0 700 198" style="enable-background:new 0 0 700 198;" xml:space="preserve">
<style type="text/css">
	.st0{fill:#DBDBDB;stroke:#707E85;stroke-width:1.7452;stroke-miterlimit:10;}
	.st1{fill:#005785;stroke:#707E85;stroke-width:1.7452;stroke-miterlimit:10;}
	.st2{fill:none;stroke:#707E85;stroke-width:3.7975;stroke-miterlimit:10;}
</style>
<g id="HOVER">
	<rect id="C2-B1-0-43" x="547.936" y="152.881" class="st0" width="121.631" height="44.147"/>
	<rect id="C2-B1-0-44" x="349.96" y="152.881" class="st0" width="197.911" height="44.147"/>
	
		<rect id="C2-B1-0-45" x="152.049" y="152.881" transform="matrix(-1 -4.487045e-11 4.487045e-11 -1 502.0092 349.9084)" class="st0" width="197.911" height="44.147"/>
	
		<rect id="C2-B1-0-46" x="30.353" y="152.881" transform="matrix(-1 -4.489488e-11 4.489488e-11 -1 182.3372 349.9084)" class="st0" width="121.631" height="44.147"/>
	<rect id="C2-B1-1-47" x="470.972" y="108.734" class="st0" width="198.594" height="44.147"/>
	<rect id="C2-B1-1-48" x="349.96" y="108.734" class="st0" width="121.012" height="44.147"/>
	
		<rect id="C2-B1-1-49" x="228.948" y="108.734" transform="matrix(-1 -4.486912e-11 4.486912e-11 -1 578.9075 261.6153)" class="st0" width="121.012" height="44.147"/>
	
		<rect id="C2-B1-1-50" x="30.353" y="108.734" transform="matrix(-1 -4.486246e-11 4.486246e-11 -1 259.3008 261.6153)" class="st0" width="198.594" height="44.147"/>
	<rect id="C2-B1-2-51" x="470.972" y="63.416" class="st0" width="198.594" height="45.319"/>
	<rect id="C2-B1-2-52" x="349.96" y="63.416" class="st0" width="121.012" height="45.319"/>
	
		<rect id="C2-B1-2-53" x="228.948" y="63.416" transform="matrix(-1 -7.230895e-11 7.230895e-11 -1 578.9075 172.1502)" class="st0" width="121.012" height="45.319"/>
	
		<rect id="C2-B1-2-54" x="30.353" y="63.416" transform="matrix(-1 -2.819712e-11 2.819712e-11 -1 259.3008 172.1502)" class="st0" width="198.594" height="45.319"/>
	<rect id="C2-B1-3-55" x="544.81" y="11.716" class="st0" width="109.39" height="51.7"/>
	<polygon id="C2-B1-3-56" class="st0" points="526.253,11.716 526.253,2.116 489.009,2.116 489.009,11.716 349.96,11.716 
		349.96,63.416 544.81,63.416 544.81,11.716 	"/>
	<polygon id="C2-B1-3-57" class="st1" points="210.911,11.716 210.911,2.116 173.732,2.116 173.732,11.716 155.11,11.716 
		155.11,63.416 349.96,63.416 349.96,11.716 	"/>
	
		<rect id="C2-B1-3-58" x="45.72" y="11.716" transform="matrix(-1 -4.488866e-11 4.488866e-11 -1 200.8293 75.1319)" class="st0" width="109.39" height="51.7"/>
</g>
<g id="Big_contour">
	<polygon class="st2" points="489.009,2.116 526.253,2.116 526.253,11.716 654.2,11.716 654.2,63.416 669.567,63.416 
		669.567,195.964 30.353,195.964 30.353,63.416 45.655,63.416 45.655,11.716 173.732,11.716 173.641,2.116 210.821,2.116 
		210.911,11.716 489.009,11.716 	"/>
</g>
</svg>
