<?xml version="1.0" encoding="utf-8"?>
<!-- Generator: Adobe Illustrator 21.1.0, SVG Export Plug-In . SVG Version: 6.00 Build 0)  -->
<svg version="1.1" xmlns="http://www.w3.org/2000/svg" xmlns:xlink="http://www.w3.org/1999/xlink" x="0px" y="0px"
	 viewBox="0 0 700 198" style="enable-background:new 0 0 700 198;" xml:space="preserve">
<style type="text/css">
	.st0{fill:#DBDBDB;stroke:#707E85;stroke-width:1.7506;stroke-miterlimit:10;}
	.st1{fill:#005785;stroke:#707E85;stroke-width:1.7506;stroke-miterlimit:10;}
	.st2{fill:none;stroke:#707E85;stroke-width:3.8092;stroke-miterlimit:10;}
</style>
<g id="HOVER">
	<rect id="C2-B4-0-90" x="506.066" y="153.051" class="st0" width="120.347" height="43.983"/>
	<rect id="C2-B4-0-91" x="349.644" y="153.051" class="st1" width="156.422" height="43.983"/>
	<rect id="C2-B4-0-92" x="193.614" y="153.051" class="st0" width="156.03" height="43.983"/>
	<rect id="C2-B4-0-93" x="73.266" y="153.051" class="st0" width="120.348" height="43.983"/>
	<rect id="C2-B4-1-94" x="485.058" y="108.914" class="st0" width="141.355" height="44.137"/>
	<rect id="C2-B4-1-95" x="349.644" y="108.914" class="st0" width="135.414" height="44.137"/>
	<rect id="C2-B4-1-96" x="214.622" y="108.914" class="st0" width="135.022" height="44.137"/>
	<rect id="C2-B4-1-97" x="73.266" y="108.914" class="st0" width="141.356" height="44.137"/>
	<rect id="C2-B4-2-98" x="485.058" y="63.341" class="st0" width="141.355" height="45.573"/>
	<rect id="C2-B4-2-99" x="349.644" y="63.341" class="st0" width="135.414" height="45.573"/>
	<rect id="C2-B4-2-100" x="214.622" y="63.341" class="st0" width="135.022" height="45.573"/>
	<rect id="C2-B4-2-101" x="73.266" y="63.341" class="st0" width="141.356" height="45.573"/>
	<polygon id="C2-B4-3-102" class="st0" points="509.412,11.434 509.412,0.978 470.89,0.978 470.89,11.434 349.644,11.434 
		349.644,63.341 626.413,63.341 626.413,11.434 	"/>
	<polygon id="C2-B4-3-103" class="st0" points="228.757,11.434 228.757,0.978 190.268,0.978 190.268,11.434 73.266,11.434 
		73.266,63.341 349.644,63.341 349.644,11.434 	"/>
</g>
<g id="Big_contour">
	<polygon class="st2" points="626.413,11.434 626.413,195.985 73.266,195.985 73.266,11.434 190.268,11.434 190.268,2.001 
		228.79,2.001 228.79,11.434 470.89,11.434 470.89,2.001 509.412,2.001 509.412,11.434 	"/>
</g>
</svg>
