<?xml version="1.0" encoding="utf-8"?>
<!-- Generator: Adobe Illustrator 21.1.0, SVG Export Plug-In . SVG Version: 6.00 Build 0)  -->
<svg version="1.1" xmlns="http://www.w3.org/2000/svg" xmlns:xlink="http://www.w3.org/1999/xlink" x="0px" y="0px"
	 viewBox="0 0 700 198" style="enable-background:new 0 0 700 198;" xml:space="preserve">
<style type="text/css">
	.st0{fill:#DBDBDB;stroke:#707E85;stroke-width:1.7502;stroke-miterlimit:10;}
	.st1{fill:#005785;stroke:#707E85;stroke-width:1.7502;stroke-miterlimit:10;}
	.st2{fill:none;stroke:#707E85;stroke-width:3.8085;stroke-miterlimit:10;}
</style>
<g id="HOVER">
	<polygon id="C2-A2-0-15" class="st0" points="514.327,152.826 396.401,152.826 396.401,195.879 514.327,195.879 514.327,162.357 
		518.57,162.357 518.57,152.826 	"/>
	<rect id="C2-A2-0-16" x="349.76" y="152.826" class="st0" width="46.641" height="43.053"/>
	<polygon id="C2-A2-0-17_1_" class="st0" points="185.193,152.826 180.95,152.826 180.95,162.357 185.193,162.357 185.193,195.879 
		303.119,195.879 303.119,152.826 	"/>
	<rect id="C2-A2-0-18" x="303.119" y="152.826" class="st0" width="46.641" height="43.053"/>
	<rect id="C2-A2-1-19" x="396.401" y="108.567" class="st0" width="122.168" height="44.259"/>
	<rect id="C2-A2-1-20" x="349.76" y="108.567" class="st0" width="46.641" height="44.259"/>
	<rect id="C2-A2-1-21" x="180.95" y="108.567" class="st0" width="122.168" height="44.259"/>
	<rect id="C2-A2-1-22" x="303.119" y="108.567" class="st0" width="46.641" height="44.259"/>
	<rect id="C2-A2-2-23" x="396.401" y="63.133" class="st0" width="122.168" height="45.434"/>
	<rect id="C2-A2-2-24" x="349.76" y="63.133" class="st0" width="46.641" height="45.434"/>
	<rect id="C2-A2-2-25" x="180.95" y="63.133" class="st1" width="122.168" height="45.434"/>
	<rect id="C2-A2-2-26" x="303.119" y="63.133" class="st0" width="46.641" height="45.434"/>
	<polygon id="C2-A2-3-27" class="st0" points="514.325,11.237 514.325,63.134 349.76,63.134 349.76,1.879 369.376,1.879 
		369.376,11.237 	"/>
	<polygon id="C2-A2-3-28" class="st0" points="349.76,1.879 349.76,63.134 185.195,63.134 185.195,11.237 330.144,11.237 
		330.144,1.879 	"/>
</g>
<g id="Big_contour">
	<polygon class="st2" points="330.046,1.879 369.278,1.879 369.278,11.237 514.327,11.237 514.327,63.133 518.57,63.133 
		518.57,162.357 514.327,162.357 514.327,195.879 185.193,195.879 185.193,162.357 180.95,162.357 180.95,63.133 185.193,63.133 
		185.193,11.237 330.046,11.237 	"/>
</g>
</svg>
