<?xml version="1.0" encoding="utf-8"?>
<!-- Generator: Adobe Illustrator 21.1.0, SVG Export Plug-In . SVG Version: 6.00 Build 0)  -->
<svg version="1.1" id="Calque_1" xmlns="http://www.w3.org/2000/svg" xmlns:xlink="http://www.w3.org/1999/xlink" x="0px" y="0px"
	 viewBox="0 0 700 364" style="enable-background:new 0 0 700 364;" xml:space="preserve">
<style type="text/css">
	.st0{fill:#FFFFFF;}
	.st1{fill:#A1A0A0;}
	.st2{fill:#DBDBDB;}
	.st3{fill:#005785;}
	.st4{fill:#707E85;}
	.st5{fill:none;stroke:#707E85;stroke-width:1.3636;stroke-miterlimit:10;}
	.st6{fill:none;stroke:#707E85;stroke-width:1.363;stroke-miterlimit:10;}
	.st7{fill:none;stroke:#707E85;stroke-width:1.364;stroke-miterlimit:10;}
	.st8{fill:none;stroke:#707E85;stroke-width:1.3519;stroke-miterlimit:10;}
	.st9{fill:none;stroke:#707E85;stroke-width:1.3561;stroke-miterlimit:10;}
	.st10{fill:none;stroke:#707E85;stroke-width:1.3489;stroke-miterlimit:10;}
	.st11{fill:none;stroke:#717E85;stroke-width:3.0176;stroke-miterlimit:10;}
	.st12{enable-background:new    ;}
	.st13{fill:#717E85;}
</style>
<g id="Acces">
	<polygon id="C2-A1-0_x5F_accès" class="st0" points="525.8,51.3 529.5,71.6 514.1,74.3 519.6,105.3 510,106.6 504.5,76 
		501.7,76.5 498.3,56.2 	"/>
	<polygon id="C2-A2-0_x5F_acces" class="st0" points="651.7,208 631.1,208 631.1,192.3 599.7,192.3 600.1,182.6 631.1,182.6 
		631.1,179.7 651.7,180 	"/>
	<polygon id="C2-A3-0_x5F_acces" class="st0" points="480.8,309.3 485.4,289.1 500.7,292.6 507.6,261.9 517,264.5 510.1,294.8 
		513,295.4 508.1,315.5 	"/>
	<g id="C2-B1-0_x5F_acces_2_">
		<polygon id="C2-B1-0_x5F_acces_1_" class="st0" points="340.1,104.3 341.3,113.5 301.3,118.5 298.7,97.4 318.6,94.9 320.1,106.8 
					"/>
		<polygon id="C2-B1-0_x5F_acces" class="st0" points="188.6,123.2 188.4,114.2 208.8,114 208.7,102.1 228.6,101.9 228.5,123 		"/>
	</g>
	<g id="C2-B3-0_x5F_acces_2_">
		<polygon id="C2-B3-0_x5F_acces_1_" class="st0" points="138.5,336.1 138.5,314.9 144.6,315 144.6,305.2 139.9,305.2 140.1,282.3 
			152.6,282.3 152.5,314.7 158.5,314.7 158.5,336.1 		"/>
		<polygon id="C2-B3-0_x5F_acces" class="st0" points="71.8,339.9 69.2,318.9 63.2,319.6 62,309.9 66.7,309.3 63.9,286.6 
			51.4,288.1 55.3,320.2 49.4,321 51.9,342.3 		"/>
	</g>
	<g id="C2-B4-0_x5F_acces_2_">
		<polygon id="C2-B4-0_x5F_acces_1_" class="st0" points="83.6,71.8 81.1,95.8 58.5,93.4 58.7,91.2 51.1,90.4 51.9,82.7 59.5,83.5 
			60.7,72.8 77,74.5 77.3,71.2 		"/>
		<polygon id="C2-B4-0_x5F_acces" class="st0" points="77.9,153.9 77.9,178 71.7,178.1 71.7,174.7 55.3,174.8 55.2,164.1 
			47.8,164.1 47.8,156.3 55.2,156.2 55.2,154.1 		"/>
	</g>
</g>
<g id="Lots_4_">
	<polygon id="C2-A1-0-01_1_" class="st1" points="551.4,7.4 557.8,62 560.6,77.7 531.5,82.9 525.8,51.3 523.3,51.7 517.8,21.2 
		519.3,20.9 532,17.9 530.8,11.1 	"/>
	<polygon id="C2-A1-0-02_1_" class="st2" points="567.1,77.3 571,99.3 519.6,105.2 514.1,74.3 529.4,71.6 531.4,82.9 	"/>
	<polygon id="C2-A1-0-03_1_" class="st1" points="510,106.5 508.5,106.6 495.4,109.9 496.6,116.6 476,120.3 469.6,65.6 466.9,50 
		496,44.8 501.6,76.5 504.4,76 	"/>
	<polygon id="C2-A1-0-04_1_" class="st2" points="523.3,51.7 498,56.2 496,44.8 460.4,50.3 456.5,28.3 517.8,21.2 	"/>
	<polygon id="C2-A2-0-15_1_" class="st1" points="651.7,205.4 651.7,179.7 663.3,179.7 664.2,143.8 686.5,143.8 682.8,205.4 	"/>
	<polygon id="C2-A2-0-16_1_" class="st2" points="690.4,240.9 635.5,237.5 619.6,237.5 619.6,208 651.7,208 651.7,205.4 
		682.8,205.4 682.8,206.9 683.5,219.9 690.4,219.9 	"/>
	<polygon id="C2-A2-0-17_1_" class="st1" points="618.8,244 596.5,244 599.8,192.3 631.1,192.3 631.1,207.9 619.6,207.9 	"/>
	<polygon id="C2-A2-0-18_1_" class="st2" points="600.1,182.6 600.3,181.2 599.4,167.7 592.6,167.7 592.6,146.8 647.5,150.2 
		663.4,150.2 663.3,179.7 631.2,179.7 631.2,182.6 	"/>
	<polygon id="C2-A3-0-29_1_" class="st1" points="517,264.5 518.3,265 531.7,267.1 533.2,260.5 553.6,265.1 538.2,317.9 
		534.6,333.4 505.8,326.8 513,295.5 510.2,294.8 	"/>
	<polygon id="C2-A3-0-30_1_" class="st2" points="483.4,309.8 508.4,315.5 505.8,326.8 540.8,335.6 535.8,357.5 476.5,340.1 	"/>
	<polygon id="C2-A3-0-31_1_" class="st3" points="440.1,339.7 455.6,286.9 459.1,271.4 487.9,277.9 480.8,309.3 483.4,309.8 
		476.5,340.1 475,339.8 462.2,337.6 460.6,344.4 	"/>
	<polygon id="C2-A3-0-32_1_" class="st2" points="453,269.2 457.9,247.4 507.6,262 500.7,292.6 485.5,289.2 488,277.9 	"/>
	<polygon id="C2-B1-0-43_2_" class="st2" points="328.8,53.7 347.8,51.3 354.3,102.5 320.1,106.8 318.6,94.9 309.4,96.1 308.4,88.7 
		317.7,87.6 314.6,62.9 329.8,61 	"/>
	<polygon id="C2-B1-0-44_2_" class="st1" points="275.8,60.1 294.1,57.8 295,65.4 314.6,62.9 317.7,87.6 308.4,88.7 309.4,96.1 
		298.7,97.4 301.3,118.5 265.2,123.1 261.8,69.5 276.7,67.5 	"/>
	<polygon id="C2-B1-0-45_2_" class="st2" points="228.4,69.5 228.4,62 246.8,61.9 246.8,69.4 261.8,69.5 265.2,123.1 228.5,123 
		228.6,101.9 217.8,102 217.9,94.7 208.7,94.5 208.6,69.9 	"/>
	<polygon id="C2-B1-0-46_2_" class="st1" points="193.4,69.6 193.3,62.4 174.2,62.4 174.3,114 208.8,113.8 208.7,102.1 218.1,102 
		217.9,94.7 208.7,94.5 208.6,69.9 	"/>
	<polygon id="C2-B3-0-75_1_" class="st2" points="173.9,274.9 193.1,275 192.9,336.1 158.5,336.1 158.5,314.7 152.5,314.7 
		152.6,282.3 173.8,282.3 	"/>
	<polygon id="C2-B3-0-76_1_" class="st1" points="120,274.5 139.6,274.4 139.5,291.7 140,291.7 139.9,305.2 144.6,305.2 
		144.6,314.6 138.3,314.6 138.3,335.9 104.8,335.9 101.9,282.1 119.9,282.1 	"/>
	<polygon id="C2-B3-0-77_1_" class="st2" points="82.9,276.4 63.5,278.8 65.6,295.7 65.1,295.8 66.7,309.3 62.1,309.9 63.2,319.3 
		69.5,318.6 72,339.7 105.2,335.8 101.9,282 83.9,284.2 	"/>
	<polygon id="C2-B3-0-78_2_" class="st1" points="29.6,283.3 10.5,285.6 17.7,346.2 51.9,342.3 49.5,321 55.4,320.3 51.5,288.1 
		30.5,290.6 	"/>
	<polygon id="C2-B4-0-90_2_" class="st2" points="79.1,52.2 76.8,74.5 60.7,72.8 59.5,83.5 51.9,82.7 51.5,86.5 25.2,83.7 
		27.1,64.8 19.9,64 21.8,46.1 	"/>
	<polygon id="C2-B4-0-91_2_" class="st1" points="77.8,124.7 80.9,95.8 58.5,93.4 58.7,91.2 51.1,90.4 51.5,86.9 17.5,83.4 
		15.5,102.3 23.1,103.1 21,121.8 	"/>
	<polygon id="C2-B4-0-92_2_" class="st2" points="77.8,124.7 77.9,153.9 55.2,154.1 55.2,156.2 47.6,156.3 47.6,159.6 13.5,159.6 
		13.5,140.7 21.2,140.7 21,121.8 	"/>
	<polygon id="C2-B4-0-93_2_" class="st1" points="47.6,160.2 47.6,164 55.1,164 55.3,174.8 71.5,174.8 71.5,197.3 13.7,197.2 
		13.7,179.1 21.1,179.1 21.2,160.1 	"/>
</g>
<g id="Contours_4_">
	<g id="C2-A1-0_x5F_contours_1_">
		<g>
			<path class="st4" d="M530.6,19.1l1.6,8.9l0.2,1.3l1.3-0.2l18.8-3l4.5,36l0,0l0,0l2.7,15l-9.5,1.7l-1.3,0.2l0.2,1.3l3.6,20
				l-44.5,5.6h-0.1H508l-11.4,2.7l-1.6-9l-0.2-1.3l-1.3,0.2l-18.7,3.3l-4.6-36.2l0,0l0,0l-2.6-15l9.4-1.7l1.3-0.2l-0.2-1.3l-3.6-20
				l44.5-5.6h0.1h0.1L530.6,19.1 M531.7,17.4l-12.7,3l-46,5.8l3.8,21.5L466,49.6l2.9,16.3l4.8,37.7l20.1-3.6l1.9,10.4l12.8-3l46-5.8
				l-3.9-21.4l10.8-2l-2.9-16.3l-4.7-37.4l-20.2,3.3L531.7,17.4L531.7,17.4z"/>
		</g>
		<g>
			<path class="st4" d="M567,77.5l3.9,21.6l-5.6,0.7l-10.6,1.3l-3.8-20.8l10.5-1.9L567,77.5 M567.3,77.2l-5.9,1l-10.8,2l3.9,21.4
				l10.9-1.3l5.9-0.8L567.3,77.2L567.3,77.2z"/>
		</g>
		<g>
			<path class="st4" d="M551.4,7.6l0.6,5l1.4,11.6l-19.5,3.2l-1.8-10l-1-6.1L551.4,7.6 M551.6,7.2l-21,3.8l1.1,6.5l1.9,10.3
				l20.2-3.3l-1.4-11.9L551.6,7.2L551.6,7.2z"/>
		</g>
		<g>
			<path class="st4" d="M493.5,100.3l1.8,10.1l1.1,6.1l-20.3,3.6l-0.6-5l-1.4-11.3L493.5,100.3 M493.8,99.9l-20.1,3.6l1.4,11.6
				l0.7,5.4l21-3.8l-1.1-6.4L493.8,99.9L493.8,99.9z"/>
		</g>
		<g>
			<path class="st4" d="M472.8,26.5l3.7,20.8l-10.4,1.9l-5.6,1l-3.9-21.6l5.6-0.7L472.8,26.5 M473,26.1l-10.9,1.3l-5.9,0.8l4,22.3
				l5.9-1l10.8-1.9L473,26.1L473,26.1z"/>
		</g>
		<polyline class="st5" points="510,106.6 504.5,76 501.7,76.5 496,44.8 467.3,50 		"/>
		<polyline class="st5" points="519.6,105.3 514.1,74.3 529.5,71.6 		"/>
		<polyline class="st5" points="498.3,56.2 525.8,51.3 531.5,82.9 560.1,77.6 		"/>
		<line class="st5" x1="518.3" y1="21.3" x2="523.7" y2="51.6"/>
	</g>
	<g id="C2-A2-0_x5F_contours_2_">
		<g>
			<path class="st4" d="M610.9,149l36.5,1.9l0,0l0,0h15.2v9.6v1.4h1.4h20.3l-2.3,44.8v0.1v0.1l0.6,11.6h-9h-1.3v1.3l-0.3,19
				l-36.2-1.9l0,0l0,0h-15.2v-9.6v-1.4h-1.4l-20.3,0.1l2.3-44.8v-0.1V181l-0.6-11.7h9.2h1.4v-1.4V149 M609.5,147.5v20.4h-10.6
				l0.7,13.1l-2.4,46.2l21.7-0.1v11h16.6l37.6,2l0.3-20.4h10.5l-0.7-13l2.4-46.2H664v-10.9h-16.6L609.5,147.5L609.5,147.5z"/>
		</g>
		<g>
			<path class="st4" d="M618.6,227.5v10.7v5.7h-22l0.3-5.6l0.6-10.7L618.6,227.5 M619,227.2l-21.7,0.1l-0.6,11l-0.3,6H619v-6V227.2
				L619,227.2z"/>
		</g>
		<g>
			<path class="st4" d="M684,220.1h6.2v20.7l-5-0.3l-11.6-0.7l0.3-19.7H684 M684,219.7h-10.5l-0.3,20.4l11.9,0.7l5.4,0.3v-21.3
				L684,219.7L684,219.7z"/>
		</g>
		<g>
			<path class="st4" d="M592.8,147l5,0.3l11.4,0.6v19.7h-10.3h-6.2L592.8,147 M592.4,146.6v21.3h6.5h10.6v-20.4l-11.7-0.6
				L592.4,146.6L592.4,146.6z"/>
		</g>
		<g>
			<path class="st4" d="M686.3,143.9l-0.3,5.6l-0.6,10.6h-21.1v-10.6v-5.6H686.3 M686.7,143.5H664v6v10.9h21.8l0.6-11L686.7,143.5
				L686.7,143.5z"/>
		</g>
		<polyline class="st6" points="600.1,182.6 631.1,182.6 631.1,179.7 663.3,179.7 663.3,150.7 		"/>
		<polyline class="st6" points="599.7,192.3 631.1,192.3 631.1,208 		"/>
		<polyline class="st6" points="651.7,180 651.7,208 619.6,208 619.8,237 		"/>
		<line class="st6" x1="682.5" y1="205.8" x2="651.7" y2="205.8"/>
	</g>
	<g id="C2-A3-0_x5F_contours_1_">
		<g>
			<path class="st4" d="M475.1,253.5l43.2,12.2h0.1h0.1l11.5,2l-2,8.9l-0.3,1.3l1.3,0.3l18.5,4.2l-9.9,35.2l0,0l0,0l-3.4,14.8
				l-9.3-2.1l-1.3-0.3l-0.3,1.3l-4.5,19.9L475.6,339h-0.1h-0.1l-11.5-2l2-8.8l0.3-1.3l-1.3-0.3l-18.5-4.5l9.9-34.9l0,0l0,0l3.4-14.8
				l9.4,2.1l1.3,0.3l0.3-1.3L475.1,253.5 M474.1,251.8l-4.7,21.2l-10.7-2.4l-3.7,16.2l-10.3,36.3l19.8,4.8l-2.3,10.2l12.9,2.2
				l44.6,12.6l4.8-21.3l10.7,2.4l3.7-16.1l10.3-36.6l-19.9-4.5l2.3-10.3l-12.9-2.2L474.1,251.8L474.1,251.8z"/>
		</g>
		<g>
			<path class="st4" d="M458,247.6l5.4,1.5l10.3,2.9l-4.6,20.6l-10.4-2.3l-5.5-1.3L458,247.6 M457.8,247.2l-5,22.1l5.9,1.4l10.7,2.4
				l4.7-21.2l-10.6-3L457.8,247.2L457.8,247.2z"/>
		</g>
		<g>
			<path class="st4" d="M444.9,323.5l19.2,4.7l-2.2,9.9l-1.4,6.1l-20.2-4.6l1.4-4.9L444.9,323.5 M444.7,323.1l-3.3,11.5l-1.5,5.2
				l20.8,4.7l1.5-6.4l2.3-10.2L444.7,323.1L444.7,323.1z"/>
		</g>
		<g>
			<path class="st4" d="M533.3,260.7l20.1,4.6l-1.4,4.9l-3.1,10.9l-19.2-4.4l2.3-10L533.3,260.7 M533.1,260.3l-1.4,6.3l-2.3,10.3
				l19.9,4.5l3.2-11.3l1.5-5.2L533.1,260.3L533.1,260.3z"/>
		</g>
		<g>
			<path class="st4" d="M524.8,332.1l10.3,2.3l5.5,1.3l-4.9,21.4l-5.4-1.5l-10.3-2.9L524.8,332.1 M524.5,331.7l-4.8,21.3l10.6,3
				l5.7,1.6l5-22.1l-5.8-1.4L524.5,331.7L524.5,331.7z"/>
		</g>
		<polyline class="st7" points="517,264.5 510.1,294.8 513,295.4 505.8,326.8 534.2,333.2 		"/>
		<polyline class="st7" points="507.6,261.9 500.7,292.6 485.4,289.1 		"/>
		<polyline class="st7" points="508.1,315.5 480.8,309.3 487.9,277.9 459.6,271.6 		"/>
		<line class="st7" x1="476.1" y1="339.8" x2="482.9" y2="309.7"/>
	</g>
	<g id="C2-B1-0_x5F_contours_1_">
		<g>
			<path class="st4" d="M328.4,62.1l1.1,8.5l0.2,1.3l1.3-0.2l18-2.3l4,32.4l-32.3,4.1l-1.3-10.5l-0.2-1.3l-1.3,0.2l-18.4,2.3
				l-1.3,0.2l0.2,1.3l2.4,19.7l-35.6,4.5l-35.8,0.1l-0.2-19.8v-1.3h-1.3h-18.6h-1.4v1.4v10.5l-32.5,0.1l-0.2-32.8h18.2h1.4v-1.4
				v-8.6l32.3-0.1V79v1.4h1.4l18.1-0.1h1.3V79v-8.7l13.8-0.1h0.1h0.1l13.7-1.7l1.1,8.6l0.2,1.3l1.3-0.2l18-2.3l1.3-0.2l-0.2-1.3
				l-1.1-8.4L328.4,62.1 M329.5,60.5l-34.7,4.4l1.2,9.8L278,77l-1.3-10l-15,1.9L246.6,69v10h-18.1v-9.9l-35,0.1v9.9H174l0.2,35.5
				l35.2-0.2v-11.9H228l0.2,21.2l37.3-0.1l37-4.7L299.7,98l18.4-2.3l1.5,11.8l35-4.4L350.2,68l-19.4,2.4L329.5,60.5L329.5,60.5z"/>
		</g>
		<g>
			<path class="st4" d="M246.6,62v16.9L228.5,79V62.1L246.6,62 M247,61.7h-0.3l-18.1,0.1h-0.3v0.3V79v0.3h0.3l18.1-0.1h0.3v-0.3V62
				V61.7L247,61.7z"/>
		</g>
		<g>
			<path class="st4" d="M193.1,62.6v16.2h-18.9V62.6H193.1 M193.5,62.2H174v16.9h19.5V62.2L193.5,62.2z"/>
		</g>
		<g>
			<path class="st4" d="M293.9,57.9l2.1,16.7L278,77l-2.1-16.8L293.9,57.9 M294.2,57.6h-0.3l-18,2.3h-0.3v0.3l2.1,16.8v0.3h0.3
				l18-2.3h0.3v-0.3L294.2,58V57.6L294.2,57.6z"/>
		</g>
		<g>
			<path class="st4" d="M347.7,51.5l2,16.1L331.1,70l-2-16.1L347.7,51.5 M348,51.2l-19.4,2.4l2.1,16.8l19.4-2.4L348,51.2L348,51.2z"
				/>
		</g>
		<line class="st8" x1="265.2" y1="123.1" x2="261.8" y2="69.3"/>
		<polyline class="st8" points="314.6,62.9 317.7,87.5 308.4,88.7 309.3,96.1 		"/>
		<polyline class="st8" points="208.6,69.7 208.7,94.5 218,94.5 218,102 		"/>
		<polyline id="_x3C_Tracé_x3E__2_" class="st8" points="301.3,118.5 341.3,113.5 340.1,104.2 		"/>
		<polyline id="_x3C_Tracé_x3E__1_" class="st8" points="228.1,123.1 188.6,123.2 188.4,114.2 		"/>
	</g>
	<g id="C2-B3-0_x5F_contours_1_">
		<g>
			<path class="st4" d="M101.9,282.8l70.3,0.2v8.8v1.4h1.4l18.3,0.1v42.2l-86.7-0.3h-0.1H105l-86.1,10.4l-5-41.9l18.2-2.2l1.3-0.2
				l-0.2-1.3l-1.1-8.7L101.9,282.8 M101.8,281.5L30.6,290l1.2,10.1l-19.6,2.4l5.4,44.6l87.5-10.5l88.1,0.3V292l-19.6-0.1v-10.1
				L101.8,281.5L101.8,281.5z"/>
		</g>
		<line class="st9" x1="105" y1="336" x2="101.9" y2="282.1"/>
		<polyline class="st9" points="158.5,336.1 158.4,314.7 152.5,314.7 152.6,282.4 		"/>
		<polyline class="st9" points="140,291.7 119.4,291.7 119.4,282.3 		"/>
		<polyline class="st9" points="138.5,335.9 138.6,314.8 144.6,314.8 144.6,305.2 139.9,305.2 140,282.4 		"/>
		<g>
			<path class="st4" d="M173.9,275.1h19v16.4l-19-0.1V275.1 M173.6,274.8v17l19.6,0.1v-17.1H173.6L173.6,274.8z"/>
		</g>
		<g>
			<path class="st4" d="M139.5,274.5l-0.2,16.5h-19.2v-16.4L139.5,274.5 M139.8,274.2h-0.3l-19.3,0.1h-0.3v0.3V291v0.3h0.3h19.2h0.3
				V291l0.2-16.5L139.8,274.2L139.8,274.2z"/>
		</g>
		<polyline class="st9" points="52,342.3 49.5,321 55.4,320.3 51.5,288.2 		"/>
		<polyline class="st9" points="65.1,296 85.5,293.5 84.4,284.2 		"/>
		<polyline class="st9" points="71.8,339.7 69.2,318.8 63.3,319.5 62.1,309.9 66.7,309.3 64,286.8 		"/>
		<g>
			<path class="st4" d="M29.4,283.5l2,16.3l-18.9,2.3l-1.9-16.3L29.4,283.5 M29.7,283.1l-19.5,2.4l2,17l19.6-2.4L29.7,283.1
				L29.7,283.1z"/>
		</g>
		<g>
			<path class="st4" d="M82.8,276.6l2,16.3l-19.1,2.3l-1.9-16.3L82.8,276.6 M83.1,276.2h-0.3l-19,2.3h-0.3v0.3l1.9,16.3v0.3h0.3
				l19.1-2.3h0.3v-0.3l-2-16.3V276.2L83.1,276.2z"/>
		</g>
	</g>
	<g id="C2-B4-0_x5F_contours_1_">
		<g>
			<path class="st4" d="M39.5,49.2l39,4.1l-1.8,17.2l-0.1,1.4L78,72l4.9,0.5l-5.5,52.3v0.1v0.1v52.5h-5h-1.3v1.3v17.3H31.9V179v-1.3
				h-1.3h-8.7v-16.8h8.7h1.3v-1.3V141v-1.4h-1.4h-8.7V122l1.9-17.5l8.6,0.9l1.3,0.1l0.1-1.3l2-18.6l0.1-1.3L34.5,84l-8.6-0.9
				l1.8-16.6l8.6,0.9l1.3,0.1l0.1-1.3L39.5,49.2 M38.3,47.7l-2,18.3l-9.9-1l-2,19.3l10,1.1l-2,18.6l-10-1.1l-2,19v19h10.1v18.6h-10
				V179h10v18.4h41.9v-18.6h6.3v-53.9l5.7-53.6L78,70.6l2-18.5L38.3,47.7L38.3,47.7z"/>
		</g>
		<line class="st10" x1="77.9" y1="124.8" x2="21.1" y2="121.8"/>
		<polyline class="st10" points="77.3,71 76.9,74.5 60.7,72.8 59.5,83.5 51.9,82.7 51.1,90.4 58.7,91.2 58.5,93.4 81.1,95.8 		"/>
		<polyline class="st10" points="71.7,178.3 71.7,174.7 55.3,174.8 55.2,164 47.6,164 47.6,156.3 55.2,156.3 55.2,154.1 77.9,153.9 
					"/>
		<line class="st10" x1="51.5" y1="86.5" x2="25.2" y2="83.7"/>
		<line class="st10" x1="47.6" y1="160.2" x2="21.1" y2="160.1"/>
		<g>
			<path class="st4" d="M21.9,46.3L38,48l-1.9,17.6l-16-1.7L21.9,46.3 M21.6,45.9l-1.9,18.3L36.4,66l2-18.3L21.6,45.9L21.6,45.9z"/>
		</g>
		<g>
			<path class="st4" d="M17.6,83.6l16.8,1.8l-2,18.6l-16.8-1.8L17.6,83.6 M17.3,83.2v0.3l-2,18.6v0.3h0.3l16.8,1.8h0.3v-0.3l2-18.6
				V85h-0.3l-16.8-1.8H17.3L17.3,83.2z"/>
		</g>
		<g>
			<path class="st4" d="M30.5,140.9v18.6H13.7l0.1-18.6H30.5 M30.8,140.5h-0.3H13.7h-0.3v0.3l-0.1,18.6v0.3h0.3h16.8h0.3v-0.3v-18.6
				L30.8,140.5L30.8,140.5z"/>
		</g>
		<g>
			<path class="st4" d="M30.1,179.3v17.8H13.9v-17.7L30.1,179.3 M30.4,179H13.6v18.4h16.9L30.4,179L30.4,179z"/>
		</g>
	</g>
	<g id="Calque_23">
		<g>
			<circle class="st11" cx="661.1" cy="34.9" r="18.8"/>
			<line class="st11" x1="672.2" y1="30.7" x2="685.3" y2="26.4"/>
			<g class="st12">
				<path class="st13" d="M655.7,25.2c0.2,0,0.2,0.1,0.4,0.1s0.2,0.2,0.3,0.2c0.1,0.1,0.2,0.2,0.3,0.4l9,11.3c0-0.4-0.1-0.7-0.1-1.1
					c0-0.4,0-0.7,0-1v-10h3.8V44h-2.3c-0.3,0-0.6-0.1-0.8-0.2c-0.2-0.1-0.5-0.3-0.7-0.5L656.7,32c0,0.3,0.1,0.7,0.1,1s0,0.6,0,0.9
					V44H653V25.2h2.3C655.4,25.1,655.5,25.1,655.7,25.2z"/>
			</g>
		</g>
	</g>
</g>
</svg>
