<?xml version="1.0" encoding="utf-8"?>
<!-- Generator: Adobe Illustrator 21.1.0, SVG Export Plug-In . SVG Version: 6.00 Build 0)  -->
<svg version="1.1" id="Calque_1" xmlns="http://www.w3.org/2000/svg" xmlns:xlink="http://www.w3.org/1999/xlink" x="0px" y="0px"
	 viewBox="0 0 700 364" style="enable-background:new 0 0 700 364;" xml:space="preserve">
<style type="text/css">
	.st0{fill:#FFFFFF;}
	.st1{fill:#A1A0A0;}
	.st2{fill:#DBDBDB;}
	.st3{fill:#005785;}
	.st4{fill:#707E85;}
	.st5{fill:none;stroke:#707E85;stroke-width:1.3636;stroke-miterlimit:10;}
	.st6{fill:none;stroke:#707E85;stroke-width:1.363;stroke-miterlimit:10;}
	.st7{fill:none;stroke:#707E85;stroke-width:1.364;stroke-miterlimit:10;}
	.st8{fill:none;stroke:#707E85;stroke-width:1.3519;stroke-miterlimit:10;}
	.st9{fill:none;stroke:#707E85;stroke-width:0.338;stroke-miterlimit:10;}
	.st10{fill:none;stroke:#707E85;stroke-width:1.3561;stroke-miterlimit:10;}
	.st11{fill:none;stroke:#707E85;stroke-width:0.339;stroke-miterlimit:10;}
	.st12{fill:none;stroke:#707E85;stroke-width:1.3489;stroke-miterlimit:10;}
	.st13{fill:none;stroke:#707E85;stroke-width:0.3372;stroke-miterlimit:10;}
	.st14{fill:none;stroke:#717E85;stroke-width:3.0176;stroke-miterlimit:10;}
	.st15{enable-background:new    ;}
	.st16{fill:#717E85;}
</style>
<g id="acces">
	
		<rect id="C2-A1-3_x5F_acces" x="499.61" y="53.586" transform="matrix(0.9844 -0.176 0.176 0.9844 -3.2242 91.4181)" class="st0" width="28.3" height="20.6"/>
	<rect id="C2-A2-3_x5F_acces" x="631.1" y="179.7" class="st0" width="20.6" height="28.2"/>
	
		<rect id="C2-A3-3_x5F_acces" x="486.505" y="288.365" transform="matrix(0.2212 -0.9752 0.9752 0.2212 91.8883 720.0933)" class="st0" width="20.598" height="28.298"/>
	<g id="C2-B1-3_x5F_acces_2_">
		
			<rect id="C2-B1-3_x5F_acces_1_" x="299.989" y="96.193" transform="matrix(0.9922 -0.1245 0.1245 0.9922 -10.8836 39.4315)" class="st0" width="20.1" height="21.2"/>
		<polygon id="C2-B1-3_x5F_acces" class="st0" points="209,123.2 208.8,102.1 228.6,102 228.6,123.1 		"/>
	</g>
	<g id="C2-B3-3_x5F_acces_2_">
		<polygon id="C2-B3-3_x5F_acces_1_" class="st0" points="138.2,336.3 138.3,315.1 158.6,315.1 158.7,336.3 		"/>
		<polygon id="C2-B3-3_x5F_acces" class="st0" points="72,340.2 69.4,319.2 49.7,321.5 52.1,342.6 		"/>
	</g>
	<g id="C2-B4-3_x5F_acces_2_">
		<polygon id="C2-B4-3_x5F_acces_1_" class="st0" points="82.6,83.7 60,81.3 59.8,83.6 52.2,82.8 51.4,90.4 59,91.2 58.8,93.3 
			81.1,95.7 		"/>
		<polygon id="C2-B4-3_x5F_acces" class="st0" points="78.3,154 55.4,154.1 55.4,156.3 47.8,156.4 48,164.1 55.5,164 55.5,166.3 
			78.2,166.2 		"/>
	</g>
</g>
<g id="HOVER">
	<polygon id="C2-A1-3-13_1_" class="st1" points="552.2,12.8 558.2,61.7 565.2,100.1 509.8,106.3 504.4,76.3 529.5,71.8 525.8,51.3 
		523.9,51.6 518.5,20.7 	"/>
	<polygon id="C2-A1-3-14_1_" class="st2" points="475.3,114.9 469.2,65.8 462.3,27.6 518.5,20.7 523.9,51.6 498.1,56.2 501.7,76.5 
		504.5,76 510,106.9 508.4,107.1 	"/>
	<polygon id="C2-A2-3-27_1_" class="st1" points="686.2,149.7 685.1,169.3 683.7,218.4 684.9,240.6 642.7,238.2 642.7,208 
		651.7,208 651.9,179.7 644.2,179.7 644.2,149.7 647.4,149.7 	"/>
	<polygon id="C2-A2-3-28_1_" class="st2" points="644.2,149.7 644.2,179.7 631.1,179.7 631.1,208 642.7,208 642.7,238.2 
		635.6,237.9 596.8,238.1 599.8,181 598,147.1 	"/>
	<polygon id="C2-A3-3-41_1_" class="st1" points="552.2,270.3 538.6,317.8 530.1,355.8 476.7,340 483.4,310.3 508.3,315.9 
		512.9,295.5 511,295.1 518.1,264.6 	"/>
	<polygon id="C2-A3-3-42_1_" class="st2" points="441.6,334.4 455.1,286.8 463.6,249 518.1,264.6 511,295.1 485.4,289.3 
		480.9,309.4 483.6,310 476.7,340.6 475.1,340.1 	"/>
	<polygon id="C2-B1-3-55_2_" class="st2" points="348.8,58.3 355.6,112.3 321.4,116.6 318.7,95 308.9,96.3 308,88.9 317.7,87.6 
		314.6,62.5 	"/>
	<polygon id="C2-B1-3-56_2_" class="st1" points="314.6,62.5 317.7,87.6 307.9,88.9 308.9,96.3 298.7,97.5 301.4,118.6 265.2,123.2 
		261.9,69.1 	"/>
	<polygon id="C2-B1-3-57_2_" class="st2" points="208.6,69.3 208.5,95 217.9,95.1 217.9,102 228.7,101.9 228.8,123.1 265.2,123.1 
		261.7,69.1 	"/>
	<polygon id="C2-B1-3-58_2_" class="st1" points="174.1,69.4 174.3,123.8 208.7,123.8 208.7,102 217.9,102 217.9,95.1 208.5,95 
		208.6,69.3 	"/>
	<polygon id="C2-B3-3-87_2_" class="st2" points="158.8,281.9 193.3,282 193.2,336.7 158.7,336.7 158.7,315 149.1,315 149.1,308 
		158.7,308 	"/>
	<polygon id="C2-B3-3-88_2_" class="st1" points="159.2,281.9 158.7,308 149.1,308 149.1,315 138.5,315 138.5,336.7 105.3,336.7 
		102,281.7 	"/>
	<polygon id="C2-B3-3-89_1_" class="st2" points="11.3,292.6 17.9,347.1 52.2,342.9 49.7,321.5 69.7,318.9 72.2,340.6 105.3,336.7 
		102,281.7 	"/>
	<polygon id="C2-B4-3-102_1_" class="st2" points="86.4,52.9 83.1,83.8 60,81.3 59.8,83.6 52.2,82.8 51.4,90.4 59,91.2 58.7,93.4 
		81.8,95.9 78.8,124.9 20.5,121.8 28.6,46.8 	"/>
	<polygon id="C2-B4-3-103_1_" class="st3" points="78.7,197.3 78.7,166.3 55.5,166.3 55.5,164 47.9,164 47.9,156.3 55.5,156.3 
		55.5,154.1 78.7,154.1 78.7,124.9 20.5,121.8 20.6,197.3 	"/>
</g>
<g id="contours">
	<g id="C2-A1-3_x5F_contours_1_">
		<g>
			<path class="st4" d="M517.9,21.9l1.5,8.5l0.2,1.3l1.3-0.2l31.6-5.4l4.5,36l0,0l0,0l2.7,15l-9.5,1.7l-1.3,0.2l0.2,1.3l3.6,20
				l-44.5,5.6h-0.1H508l-11.4,2.7l-1.6-9l-0.2-1.3l-1.3,0.2l-18.7,3.3l-4.6-36.2l0,0l0,0l-2.6-15l17.6-3l1.4-0.2l-0.2-1.4l-3.5-19.8
				L517.9,21.9 M519,20.4l-37.6,4.7l3.7,21.2l-19,3.2l2.9,16.3l4.8,37.7l20.1-3.6l1.9,10.4l12.8-3l46-5.8l-3.9-21.4l10.8-2
				l-2.9-16.3l-4.7-37.4l-33,5.7L519,20.4L519,20.4z"/>
		</g>
		<g>
			<path class="st4" d="M552,13l1.3,11.2L521,29.7l-1.6-9.1L552,13 M552.3,12.6L519,20.4l1.7,9.8l33-5.7L552.3,12.6L552.3,12.6z"/>
		</g>
		<g>
			<path class="st4" d="M493.5,100.3l1.7,9.8l-19.8,4.6l-1.3-10.9L493.5,100.3 M493.8,99.9l-20.1,3.6l1.4,11.6l20.5-4.8L493.8,99.9
				L493.8,99.9z"/>
		</g>
		<g>
			<path class="st4" d="M481.1,25.5l3.6,20.5l-18.3,3.1l-3.9-21.4L481.1,25.5 M481.4,25.1l-19.2,2.4l4,22l19-3.2L481.4,25.1
				L481.4,25.1z"/>
		</g>
		<g>
			<path class="st4" d="M561.1,78.6L565,100l-10.3,1.3l-3.8-20.8L561.1,78.6 M561.3,78.2l-10.8,2l3.9,21.4l10.9-1.3L561.3,78.2
				L561.3,78.2z"/>
		</g>
		
			<rect x="499.61" y="53.586" transform="matrix(0.9844 -0.176 0.176 0.9844 -3.2242 91.4181)" class="st5" width="28.3" height="20.6"/>
		<line class="st5" x1="504.6" y1="76.3" x2="510" y2="106.6"/>
		<line class="st5" x1="518.3" y1="21.3" x2="523.7" y2="51.6"/>
	</g>
	<g id="C2-A2-3_x5F_contours_2_">
		<g>
			<path class="st4" d="M618.6,149.4l28.8,1.5l0,0l0,0h15.2l-0.1,17.9v1.4h1.4H684l-1.3,47.5h-9.3H672v1.4l-0.1,19.7l-36.2-1.9l0,0
				l0,0h-15.2v-9.6v-1.4h-1.4l-20.3,0.1l2.3-44.8v-0.1V181l-0.6-11.7h16.9h1.4v-1.4L618.6,149.4 M617.2,147.9v20h-18.3l0.7,13.1
				l-2.4,46.2l21.7-0.1v11h16.6l37.6,2l0.1-21.2h10.6l1.4-50.2h-21.5l0.1-19.3h-16.6L617.2,147.9L617.2,147.9z"/>
		</g>
		<g>
			<path class="st4" d="M673.7,219.3h10l1.1,21.1l-11.2-0.6L673.7,219.3 M673.3,219l-0.1,21.2l11.9,0.7L684,219H673.3L673.3,219z"/>
		</g>
		<g>
			<path class="st4" d="M598.2,147.3l18.7,1v19.3h-17.6L598.2,147.3 M597.8,146.9l1.1,21h18.3v-20L597.8,146.9L597.8,146.9z"/>
		</g>
		<g>
			<path class="st4" d="M686,149.8l-1,18.6h-20.8l0.1-18.6H686 M686.4,149.5H664l-0.1,19.3h21.5L686.4,149.5L686.4,149.5z"/>
		</g>
		<g>
			<path class="st4" d="M618.6,227.5v10.3l-21.7,0.1l0.6-10.3L618.6,227.5 M619,227.2l-21.7,0.1l-0.6,11l22.4-0.1L619,227.2
				L619,227.2z"/>
		</g>
		<rect x="631.1" y="179.7" class="st6" width="20.6" height="28.2"/>
		<line class="st6" x1="644.2" y1="180.3" x2="644.2" y2="149.6"/>
		<line class="st6" x1="642.7" y1="238.2" x2="642.7" y2="207.5"/>
	</g>
	<g id="C2-A3-3_x5F_contours_1_">
		<g>
			<path class="st4" d="M483.1,255.8l33.9,9.6l-1.9,8.4l-0.3,1.3l1.3,0.3l31.3,7.3l-9.9,34.9l0,0l0,0l-3.4,14.8l-9.4-2.1l-1.3-0.3
				l-0.3,1.3l-4.4,19.8l-43.2-12.2h-0.1h-0.1l-11.5-2l2-8.9l0.3-1.3l-1.3-0.3l-18.5-4.2l9.9-35.2l0,0l0,0l3.4-14.8l17.4,4.1l1.3,0.3
				l0.3-1.3L483.1,255.8 M482.1,254.1l-4.8,21l-18.8-4.4l-3.7,16.1l-10.3,36.6l19.9,4.5l-2.3,10.3l12.9,2.2l44.6,12.6l4.7-21.2
				l10.7,2.4l3.7-16.2l10.3-36.3l-32.6-7.6l2.2-9.7L482.1,254.1L482.1,254.1z"/>
		</g>
		<g>
			<path class="st4" d="M518.9,264.8l33,5.7l-3.1,10.8l-32-7.5L518.9,264.8 M518.7,264.4l-2.2,9.7l32.6,7.6l3.3-11.5L518.7,264.4
				L518.7,264.4z"/>
		</g>
		<g>
			<path class="st4" d="M444.8,323.7l19.2,4.4l-2.2,9.7l-20.1-3.5L444.8,323.7 M444.6,323.3l-3.2,11.3l20.8,3.6l2.3-10.3
				L444.6,323.3L444.6,323.3z"/>
		</g>
		<g>
			<path class="st4" d="M463.8,249.2l18,5.1l-4.6,20.3l-18.1-4.2L463.8,249.2 M463.5,248.8l-4.9,21.9l18.8,4.4l4.8-21L463.5,248.8
				L463.5,248.8z"/>
		</g>
		<g>
			<path class="st4" d="M524.6,332.2l10.1,2.3l-4.7,21.2l-9.9-2.8L524.6,332.2 M524.4,331.7l-4.7,21.2l10.6,3l4.9-21.9L524.4,331.7
				L524.4,331.7z"/>
		</g>
		
			<rect x="486.505" y="288.365" transform="matrix(0.2212 -0.9752 0.9752 0.2212 91.8883 720.0933)" class="st7" width="20.598" height="28.298"/>
		<line class="st7" x1="483.6" y1="310.3" x2="476.8" y2="340.3"/>
		<line class="st7" x1="517.6" y1="265" x2="510.8" y2="295"/>
	</g>
	<g id="C2-B1-3_x5F_contours_1_">
		<g>
			<path class="st4" d="M344.8,69.5l4.8,38l-17.2,2.1l-1.3,0.2l0.2,1.3l0.4,3l-66.3,8.3l-66.8,0.2v-2.9v-1.3h-1.3H180L179.9,80
				l82.8-0.5h0.1h0.1L344.8,69.5 M345.9,68l-83.6,10.2l-84.1,0.5l0.1,41.1H197v4.2l68.2-0.2l67.8-8.5l-0.5-4.3l18.5-2.3L345.9,68
				L345.9,68z"/>
		</g>
		<path class="st8" d="M193.9,123.2"/>
		<path class="st8" d="M228.1,123.2"/>
		<line class="st8" x1="265.2" y1="123.1" x2="262.4" y2="79"/>
		<polyline class="st8" points="315.8,72.3 317.7,87.6 308.5,88.8 309.4,96.2 		"/>
		<polyline class="st8" points="321.3,116.1 318.7,95 298.7,97.5 301.4,118.6 		"/>
		<polyline class="st8" points="208.5,79.3 208.5,95 218,95.1 217.9,102.1 		"/>
		<polyline class="st8" points="228.6,123.1 228.6,102 208.8,102.1 209,123.2 		"/>
		<g>
			<path class="st4" d="M348.6,58.4l6.7,53.8l-90.1,11.3l-90.8,0.3l-0.1-54.2l87.5-0.2L348.6,58.4 M348.9,58l-87.1,10.9L174,69.2
				l0.1,54.9l91.1-0.3l90.5-11.4L348.9,58L348.9,58z"/>
		</g>
		<line class="st9" x1="262.4" y1="78.6" x2="261.8" y2="69.1"/>
		<line class="st9" x1="208.6" y1="79.1" x2="208.6" y2="69.3"/>
		<line class="st9" x1="315.8" y1="71.9" x2="314.6" y2="62.5"/>
	</g>
	<g id="C2-B3-3_x5F_contours_1_">
		<g>
			<path class="st4" d="M102.4,287.4L102.4,287.4l0.2,3.8l0.1,1.3h1.3l83.9,0.6l-0.1,38.4h-17.3h-1.4v1.4v2.8l-49.9-0.1v-2.9v-1.4
				h-1.4l-12.8-0.1h-0.1h-0.1l-32.8,4l-1.3,0.2l0.2,1.3l0.3,2.8l-18.3,2.2l-0.4-2.8l-0.2-1.3l-1.3,0.2l-21.1,2.5l-2.7-22.6l6.7-0.8
				l1.3-0.2l-0.1-1.3L33,296L102.4,287.4 M102.3,286l-70.8,8.8l2.2,20.7l-8.1,1l3,25.3l22.5-2.7l0.5,4.2l21-2.5l-0.5-4.2l32.8-4
				l12.8,0.1v4.2l52.6,0.1v-4.2H189l0.1-41.1l-85.2-0.6l-0.2-5L102.3,286L102.3,286z"/>
		</g>
		<line class="st10" x1="104.9" y1="331.9" x2="102.3" y2="287"/>
		<polyline class="st10" points="158.7,336.5 158.6,315.1 138.3,315 138.2,336.4 		"/>
		<polyline class="st10" points="149.2,314.8 149.2,308 158.7,308 158.8,292.5 		"/>
		<polyline class="st10" points="52.3,343.2 49.7,321.5 69.4,319.2 72,340.8 		"/>
		<line class="st11" x1="105.3" y1="336.7" x2="105" y2="332.2"/>
		<polyline class="st11" points="51.9,343.1 17.9,347.1 11.3,292.6 102,281.7 193.4,282 193.3,336.8 170.4,336.8 		"/>
		<polyline class="st11" points="117.8,336.7 105.2,336.7 72.5,340.6 		"/>
		<line class="st11" x1="158.8" y1="281.9" x2="158.8" y2="291.9"/>
		<line class="st11" x1="102" y1="281.7" x2="102.3" y2="286.3"/>
	</g>
	<g id="C2-B4-3_x5F_contours_1_">
		<g>
			<path class="st4" d="M47.4,50L70,52.4l-0.9,8.4L69,62.1l1.3,0.1L84,63.8l-3.3,31.3l-2.8-0.3l-1.3-0.1L76.4,96l-3,28.6v0.1v0.1
				v28.6v1.4h1.4h2.9v31.6H63.9h-1.3v1.3v8.4H39.9v-17.4v-1.3h-1.3H26.5v-55.2l5.8-54.9l12,1.3l1.3,0.1l0.1-1.3L47.4,50 M46.2,48.5
				l-2,18.6l-13.3-1.4l-6,56.3v56.7h13.4v18.7h25.4v-9.8h15.2v-34.3h-4.2v-28.6l3-28.6l4.2,0.4l3.6-34l-15-1.6l1-9.7L46.2,48.5
				L46.2,48.5z"/>
		</g>
		<line class="st12" x1="74.2" y1="124.7" x2="25.6" y2="122.1"/>
		<polyline class="st12" points="81.3,95.8 58.7,93.4 59,91.2 51.4,90.4 52.2,82.8 59.8,83.6 60,81.3 82.6,83.7 		"/>
		<polyline class="st12" points="77.9,166.2 55.5,166.3 55.5,164 47.9,164.1 47.8,156.4 55.4,156.3 55.4,154.1 78.1,154 		"/>
		<polyline class="st13" points="78.8,153.4 78.8,124.9 81.8,96.4 		"/>
		<g>
			<path class="st4" d="M78.6,188v9.2H64.1v-9.1L78.6,188 M78.9,187.6H63.7v9.8h15.2V187.6L78.9,187.6z"/>
		</g>
		<g>
			<path class="st4" d="M71.8,51.6l14.4,1.5l-1,9.1l-14.4-1.6L71.8,51.6 M71.5,51.2l-1,9.7l15,1.6l1.1-9.8L71.5,51.2L71.5,51.2z"/>
		</g>
		<polyline class="st13" points="38.4,197.3 20.7,197.3 20.6,121.8 28.6,46.8 46.4,48.7 		"/>
		<line class="st13" x1="20.6" y1="121.8" x2="25.2" y2="122.1"/>
		<line class="st13" x1="74.2" y1="124.7" x2="78.8" y2="124.9"/>
	</g>
	<g id="Calque_23">
		<g>
			<circle class="st14" cx="661.1" cy="34.9" r="18.8"/>
			<line class="st14" x1="672.2" y1="30.7" x2="685.3" y2="26.4"/>
			<g class="st15">
				<path class="st16" d="M655.7,25.2c0.2,0,0.2,0.1,0.4,0.1s0.2,0.2,0.3,0.2c0.1,0.1,0.2,0.2,0.3,0.4l9,11.3c0-0.4-0.1-0.7-0.1-1.1
					c0-0.4,0-0.7,0-1v-10h3.8V44h-2.3c-0.3,0-0.6-0.1-0.8-0.2c-0.2-0.1-0.5-0.3-0.7-0.5L656.7,32c0,0.3,0.1,0.7,0.1,1s0,0.6,0,0.9
					V44H653V25.2h2.3C655.4,25.1,655.5,25.1,655.7,25.2z"/>
			</g>
		</g>
	</g>
</g>
</svg>
