<?xml version="1.0" encoding="utf-8"?>
<!-- Generator: Adobe Illustrator 21.1.0, SVG Export Plug-In . SVG Version: 6.00 Build 0)  -->
<svg version="1.1" id="Calque_1" xmlns="http://www.w3.org/2000/svg" xmlns:xlink="http://www.w3.org/1999/xlink" x="0px" y="0px"
	 viewBox="0 0 700 364" style="enable-background:new 0 0 700 364;" xml:space="preserve">
<style type="text/css">
	.st0{fill:#FFFFFF;}
	.st1{fill:#A1A0A0;}
	.st2{fill:#DBDBDB;}
	.st3{fill:#005785;}
	.st4{fill:#707E85;}
	.st5{fill:none;stroke:#707E85;stroke-width:1.3636;stroke-miterlimit:10;}
	.st6{fill:none;stroke:#707E85;stroke-width:1.363;stroke-miterlimit:10;}
	.st7{fill:none;stroke:#707E85;stroke-width:1.364;stroke-miterlimit:10;}
	.st8{fill:none;stroke:#707E85;stroke-width:1.3519;stroke-miterlimit:10;}
	.st9{fill:none;stroke:#707E85;stroke-width:1.3561;stroke-miterlimit:10;}
	.st10{fill:none;stroke:#707E85;stroke-width:1.3489;stroke-miterlimit:10;}
	.st11{fill:none;stroke:#717E85;stroke-width:3.0176;stroke-miterlimit:10;}
	.st12{enable-background:new    ;}
	.st13{fill:#717E85;}
</style>
<g id="acces">
	<polygon id="C2-A1-2_x5F_acces" class="st0" points="525.8,51.3 529.5,71.6 501.7,76.5 498.3,56.2 	"/>
	<polygon id="C2-A2-2_x5F_acces" class="st0" points="651.7,208 631.1,208 631.1,179.7 651.7,180 	"/>
	<polygon id="C2-A3-2_x5F_acces" class="st0" points="480.8,309.3 485.4,289.1 513,295.4 508.1,315.5 	"/>
	<g id="C2-B1-2_x5F_acces_2_">
		
			<rect id="C2-B1-2_x5F_acces_1_" x="299.888" y="96.098" transform="matrix(0.9922 -0.1245 0.1245 0.9922 -10.8726 39.4182)" class="st0" width="20.1" height="21.2"/>
		<polygon id="C2-B1-2_x5F_acces" class="st0" points="208.9,123.1 208.7,102 228.6,101.9 228.5,123 		"/>
	</g>
	<g id="C2-B3-2_x5F_acces_2_">
		<polygon id="C2-B3-2_x5F_acces_1_" class="st0" points="138.2,335.9 138.3,314.7 158.6,314.7 158.7,336.1 		"/>
		<polygon id="C2-B3-2_x5F_acces" class="st0" points="71.9,339.8 69.4,318.8 49.6,321.2 52.1,342.3 		"/>
	</g>
	<g id="C2-B4-2_x5F_acces_2_">
		<polygon id="C2-B4-2_x5F_acces_1_" class="st0" points="82.5,83.7 59.9,81.2 59.7,83.4 52.1,82.6 51.3,90.3 58.8,91.1 58.6,93.2 
			81,95.6 		"/>
		<polygon id="C2-B4-2_x5F_acces" class="st0" points="77.9,153.9 55.1,153.9 55.1,156.2 47.5,156.2 47.6,163.9 55.1,163.9 
			55.1,166.2 77.9,166.1 		"/>
	</g>
</g>
<g id="HOVER">
	<polygon id="C2-A1-2-09_1_" class="st1" points="523.3,51.7 525.8,51.3 531.5,82.9 560.6,77.7 558.1,61.8 552.2,12.8 519.1,20.7 
		517.7,20.9 	"/>
	<polygon id="C2-A1-2-10_1_" class="st2" points="504.5,76 529.5,71.6 531.5,82.9 561.1,77.5 565.2,100.1 510,106.7 	"/>
	<polygon id="C2-A1-2-11_1_" class="st1" points="504.5,76 510,106.7 508.4,107 475.3,114.9 469.7,65.6 466.8,49.9 496,44.7 
		501.7,76.5 	"/>
	<polygon id="C2-A1-2-12_1_" class="st2" points="523.3,51.7 498.1,56.2 496.1,44.7 466.3,50 462.4,27.6 517.7,20.9 	"/>
	<polygon id="C2-A2-2-23" class="st1" points="651.7,205.4 651.7,179.9 663.5,179.9 663.5,149.7 686.2,149.7 683.1,205.4 	"/>
	<polygon id="C2-A2-2-24" class="st2" points="651.7,205.4 651.7,208 619.6,208 619.6,237.6 635.7,237.9 684.9,240.6 683,206.7 
		683.1,205.4 	"/>
	<polygon id="C2-A2-2-25" class="st1" points="631.1,182.6 631.1,208 619.6,208 619.7,238.1 596.8,238.1 600,182.6 	"/>
	<polygon id="C2-A2-2-26" class="st3" points="631.1,182.6 600,182.6 600,181 598,147.1 647.5,150.2 663.5,150.2 663.5,179.7 
		631.1,179.7 	"/>
	<polygon id="C2-A3-2-37_1_" class="st1" points="510.1,294.8 517,264.4 518.6,264.7 552.2,270.3 538.2,317.9 534.7,333.5 
		505.8,327 513,295.4 	"/>
	<polygon id="C2-A3-2-38_1_" class="st2" points="483.4,309.8 508.3,315.5 505.7,326.9 535.1,333.6 530.1,355.8 476.4,340.4 	"/>
	<polygon id="C2-A3-2-39_1_" class="st1" points="483.4,309.8 480.8,309.3 487.9,277.9 459,271.4 455.2,287 441.6,334.4 
		475.1,340.1 476.4,340.4 	"/>
	<polygon id="C2-A3-2-40_1_" class="st2" points="510.1,294.8 485.4,289.2 487.9,277.9 458.6,271.3 463.6,248.9 517,264.4 	"/>
	<polygon id="C2-B1-2-51_2_" class="st2" points="348.8,58.2 355.5,111.6 321.3,115.9 318.6,94.9 308.8,96.1 307.9,88.7 298.6,89.9 
		295.5,64.9 	"/>
	<polygon id="C2-B1-2-52_2_" class="st1" points="295.5,64.9 298.6,89.9 307.9,88.7 308.8,96.1 298.7,97.4 301.3,118.4 265.2,123 
		261.8,69 	"/>
	<polygon id="C2-B1-2-53_2_" class="st2" points="227.8,69.1 227.8,94.3 218.5,94.4 218.5,101.8 228.7,101.8 228.8,123 265.2,123 
		261.7,68.9 	"/>
	<polygon id="C2-B1-2-54_2_" class="st1" points="174.1,69.3 174.2,123.2 208.7,123.1 208.6,101.9 218.5,101.8 218.5,94.4 
		227.8,94.3 227.8,69.1 	"/>
	<polygon id="C2-B3-2-83_1_" class="st2" points="140.2,281.8 193.2,281.9 193.1,336 158.6,336.1 158.6,314.7 149.1,314.6 
		149.1,307.6 140.1,307.6 	"/>
	<polygon id="C2-B3-2-84_1_" class="st1" points="140.2,281.7 140.1,307.6 149.1,307.6 149.1,314.6 138.5,314.6 138.4,335.9 
		105,335.8 102,281.6 	"/>
	<polygon id="C2-B3-2-85_1_" class="st2" points="63.8,286.2 67.1,311.8 58.2,313 59,319.8 69.6,318.6 72.1,339.7 105.4,335.8 
		102,281.6 	"/>
	<polygon id="C2-B3-2-86_1_" class="st1" points="63.8,286.2 11.5,292.5 17.9,346.2 52.1,342.3 49.6,321 59,319.8 58.2,313 
		67.1,311.8 	"/>
	<polygon id="C2-B4-2-98_1_" class="st2" points="28.8,46.6 86,52.9 82.6,83.7 59.9,81.2 59.7,83.4 52.1,82.6 51.7,86.2 24.8,83.3 	
		"/>
	<polygon id="C2-B4-2-99_1_" class="st1" points="24.8,83.3 20.7,121.5 77.9,124.7 81.1,95.7 58.7,93.3 59,91.1 51.3,90.3 
		51.7,86.3 	"/>
	<polygon id="C2-B4-2-100_1_" class="st2" points="77.9,124.7 77.8,153.9 55.1,153.9 55.1,156.2 47.5,156.2 47.5,160 20.5,159.7 
		20.7,121.5 	"/>
	<polygon id="C2-B4-2-101_1_" class="st1" points="20.3,196.9 77.9,197.1 78.1,166.1 55.1,166.2 55.1,163.9 47.4,163.8 47.5,160 
		20.6,159.8 	"/>
</g>
<g id="contours">
	<g id="C2-A1-2_x5F_contours_1_">
		<g>
			<path class="st4" d="M530.6,19.1l1.6,8.9l0.2,1.3l1.3-0.2l18.8-3l4.5,36l0,0l0,0l2.7,15l-9.5,1.7l-1.3,0.2l0.2,1.3l3.6,20
				l-44.5,5.6h-0.1H508l-11.4,2.7l-1.6-9l-0.2-1.3l-1.3,0.2l-18.7,3.3l-4.6-36.2l0,0l0,0l-2.6-15l9.4-1.7l1.3-0.2l-0.2-1.3l-3.6-20
				l44.5-5.6h0.1h0.1L530.6,19.1 M531.7,17.4l-12.7,3l-46,5.8l3.8,21.5L466,49.6l2.9,16.3l4.8,37.7l20.1-3.6l1.9,10.4l12.8-3l46-5.8
				l-3.9-21.4l10.8-2l-2.9-16.3l-4.7-37.4l-20.2,3.3L531.7,17.4L531.7,17.4z"/>
		</g>
		<g>
			<path class="st4" d="M552,13l1.3,11.2l-19.5,3.2l-1.7-9.7L552,13 M552.3,12.6l-20.6,4.8l1.9,10.3l20.2-3.3L552.3,12.6L552.3,12.6
				z"/>
		</g>
		<g>
			<path class="st4" d="M493.5,100.3l1.7,9.8l-19.8,4.6l-1.3-10.9L493.5,100.3 M493.8,99.9l-20.1,3.6l1.4,11.6l20.5-4.8L493.8,99.9
				L493.8,99.9z"/>
		</g>
		<g>
			<path class="st4" d="M472.8,26.5l3.7,20.8l-10.1,1.8l-3.9-21.4L472.8,26.5 M473,26.1l-10.9,1.3l4,22l10.8-1.9L473,26.1L473,26.1z
				"/>
		</g>
		<g>
			<path class="st4" d="M561.1,78.6L565,100l-10.3,1.3l-3.8-20.8L561.1,78.6 M561.3,78.2l-10.8,2l3.9,21.4l10.9-1.3L561.3,78.2
				L561.3,78.2z"/>
		</g>
		<polyline class="st5" points="510,106.6 504.5,76 501.7,76.5 496,44.8 467.3,50 		"/>
		<polyline class="st5" points="504.5,76 514.1,74.3 529.5,71.6 		"/>
		<polyline class="st5" points="498.3,56.2 525.8,51.3 531.5,82.9 560.1,77.6 		"/>
		<line class="st5" x1="518.3" y1="21.3" x2="523.7" y2="51.6"/>
	</g>
	<g id="C2-A2-2_x5F_contours_2_">
		<g>
			<path class="st4" d="M610.9,149l36.5,1.9l0,0l0,0h15.2v9.6v1.4h1.4h20.3l-2.3,44.8v0.1v0.1l0.6,11.6h-9h-1.3v1.3l-0.3,19
				l-36.2-1.9l0,0l0,0h-15.2v-9.6v-1.4h-1.4l-20.3,0.1l2.3-44.8v-0.1V181l-0.6-11.7h9.2h1.4v-1.4V149 M609.5,147.5v20.4h-10.6
				l0.7,13.1l-2.4,46.2l21.7-0.1v11h16.6l37.6,2l0.3-20.4h10.5l-0.7-13l2.4-46.2H664v-10.9h-16.6L609.5,147.5L609.5,147.5z"/>
		</g>
		<g>
			<path class="st4" d="M683.7,220.1l1.1,20.4l-11.2-0.6l0.3-19.7L683.7,220.1 M684,219.7h-10.5l-0.3,20.4l11.9,0.7L684,219.7
				L684,219.7z"/>
		</g>
		<g>
			<path class="st4" d="M598.2,147.3l11,0.6v19.7h-9.9L598.2,147.3 M597.8,146.9l1.1,21h10.6v-20.4L597.8,146.9L597.8,146.9z"/>
		</g>
		<g>
			<path class="st4" d="M686,149.8l-0.6,10.3h-21.1v-10.2L686,149.8 M686.4,149.5H664v10.9h21.8L686.4,149.5L686.4,149.5z"/>
		</g>
		<g>
			<path class="st4" d="M618.6,227.5v10.3l-21.7,0.1l0.6-10.3L618.6,227.5 M619,227.2l-21.7,0.1l-0.6,11l22.4-0.1L619,227.2
				L619,227.2z"/>
		</g>
		<polyline class="st6" points="600.1,182.6 631.1,182.6 631.1,179.7 663.3,179.7 663.3,150.7 		"/>
		<polyline class="st6" points="631.1,182.6 631.1,192.3 631.1,208 		"/>
		<polyline class="st6" points="651.7,180 651.7,208 619.6,208 619.8,237 		"/>
		<line class="st6" x1="682.5" y1="205.8" x2="651.7" y2="205.8"/>
	</g>
	<g id="C2-A3-2_x5F_contours_1_">
		<g>
			<path class="st4" d="M475.1,253.5l43.2,12.2h0.1h0.1l11.5,2l-2,8.9l-0.3,1.3l1.3,0.3l18.5,4.2l-9.9,35.2l0,0l0,0l-3.4,14.8
				l-9.3-2.1l-1.3-0.3l-0.3,1.3l-4.5,19.9L475.6,339h-0.1h-0.1l-11.5-2l2-8.8l0.3-1.3l-1.3-0.3l-18.5-4.5l9.9-34.9l0,0l0,0l3.4-14.8
				l9.4,2.1l1.3,0.3l0.3-1.3L475.1,253.5 M474.1,251.8l-4.7,21.2l-10.7-2.4l-3.7,16.2l-10.3,36.3l19.8,4.8l-2.3,10.2l12.9,2.2
				l44.6,12.6l4.8-21.3l10.7,2.4l3.7-16.1l10.3-36.6l-19.9-4.5l2.3-10.3l-12.9-2.2L474.1,251.8L474.1,251.8z"/>
		</g>
		<g>
			<path class="st4" d="M444.9,323.5l19.2,4.7l-2.2,9.6l-20.2-3.4L444.9,323.5 M444.7,323.1l-3.3,11.5l20.9,3.6l2.3-10.2
				L444.7,323.1L444.7,323.1z"/>
		</g>
		<g>
			<path class="st4" d="M531.9,267l20.1,3.5l-3,10.6l-19.2-4.4L531.9,267 M531.6,266.6l-2.3,10.3l19.9,4.5l3.2-11.3L531.6,266.6
				L531.6,266.6z"/>
		</g>
		<g>
			<path class="st4" d="M524.8,332.1l10,2.3l-4.8,21.2l-9.9-2.8L524.8,332.1 M524.5,331.7l-4.8,21.3l10.6,3l4.9-21.9L524.5,331.7
				L524.5,331.7z"/>
		</g>
		<g>
			<path class="st4" d="M463.8,249.2l9.9,2.8l-4.6,20.6l-10.1-2.3L463.8,249.2 M463.5,248.8l-4.9,21.9l10.7,2.4l4.7-21.2
				L463.5,248.8L463.5,248.8z"/>
		</g>
		<polyline class="st7" points="517,264.5 510.1,294.8 513,295.4 505.8,326.8 534.2,333.2 		"/>
		<polyline class="st7" points="510.1,294.8 500.7,292.6 485.4,289.1 		"/>
		<polyline class="st7" points="508.1,315.5 480.8,309.3 487.9,277.9 459.6,271.6 		"/>
		<line class="st7" x1="476.1" y1="339.8" x2="482.9" y2="309.7"/>
	</g>
	<g id="C2-B1-2_x5F_contours_1_">
		<g>
			<path class="st4" d="M328.4,62l1.1,8.5l0.2,1.3l1.3-0.2l18-2.3l5.2,41.8l-89,11.2l-89.7,0.2l-0.2-42.1h18.2h1.4V79v-8.6l32.3-0.1
				v8.6v1.4h1.4l18.1-0.1h1.3v-1.3v-8.7l13.8-0.1h0.1h0.1l13.7-1.7l1.1,8.6l0.2,1.3l1.3-0.2l18-2.3l1.3-0.2l-0.2-1.3l-1.1-8.4
				L328.4,62 M329.5,60.5l-34.7,4.4l1.2,9.8L278,77l-1.3-10l-15,1.9L246.6,69v10h-18.1v-9.9l-35,0.1v9.9H174l0.2,44.8l91.1-0.2
				l90.4-11.3l-5.5-44.5l-19.4,2.4L329.5,60.5L329.5,60.5z"/>
		</g>
		<g>
			<path class="st4" d="M246.3,69.2v9.3l-17.4,0.1v-9.2L246.3,69.2 M246.7,68.9l-18.1,0.2V79l18.1-0.1V68.9L246.7,68.9z"/>
		</g>
		<g>
			<path class="st4" d="M193.1,69.5v9.2h-18.9v-9.2H193.1 M193.5,69.2H174v9.9h19.5V69.2L193.5,69.2z"/>
		</g>
		<g>
			<path class="st4" d="M294.5,65.2l1.1,9.1l-17.3,2.2l-1.2-9.3L294.5,65.2 M294.8,64.8l-18,2.1l1.3,10l18-2.3L294.8,64.8
				L294.8,64.8z"/>
		</g>
		<g>
			<path class="st4" d="M348.6,58.4l1.2,9.2L331,69.9l-1.1-9.1L348.6,58.4 M348.9,58l-19.4,2.5l1.2,9.8l19.4-2.4L348.9,58L348.9,58z
				"/>
		</g>
		<path class="st8" d="M193.9,123.1"/>
		<path class="st8" d="M228.1,123"/>
		<line class="st8" x1="265.2" y1="123" x2="261.8" y2="69.3"/>
		<polyline class="st8" points="295.5,65.2 298.6,89.9 307.9,88.7 308.8,96.1 		"/>
		<polyline class="st8" points="321.3,115.9 318.6,94.9 298.7,97.4 301.3,118.4 		"/>
		<polyline class="st8" points="227.9,70.4 227.7,94.8 218.3,94.9 218.4,101.9 		"/>
		<polyline class="st8" points="228.5,123 228.6,101.9 208.7,102 208.9,123.1 		"/>
	</g>
	<g id="C2-B3-2_x5F_contours_1_">
		<g>
			<path class="st4" d="M102.1,282.8H119v8.7v1.3h1.3l18.5,0.2h1.4v-1.4v-8.8l32.3,0.1v8.8v1.4h1.4l18.3,0.1l-0.1,42.2l-86.7-0.3
				h-0.1h-0.1L19,345.5l-5-41.9l18.2-2.2l1.3-0.2l-0.2-1.3l-1.1-8.7l32-3.8l1.1,8.6l0.2,1.3l1.3-0.2l18.3-2.2l1.3-0.2l-0.2-1.3
				l-1-8.6L102.1,282.8 M102,281.5l-18.3,2.2l1.2,10l-18.3,2.2l-1.2-10L30.8,290l1.2,10.1l-19.6,2.4l5.4,44.6l87.5-10.5l88.1,0.3
				l0.1-44.9l-19.6-0.1v-10.1l-35-0.1v10.2l-18.5-0.2v-10L102,281.5L102,281.5z"/>
		</g>
		<line class="st9" x1="105.2" y1="336" x2="102" y2="282.1"/>
		<polyline class="st9" points="158.6,336.1 158.6,314.7 138.2,314.7 138.2,336.1 		"/>
		<polyline class="st9" points="149.2,314.5 149.2,307.6 140.1,307.6 140.2,282.2 		"/>
		<g>
			<path class="st4" d="M174.1,282h19v9.5l-19-0.1V282 M173.8,281.6v10.1l19.6,0.1v-10.2H173.8L173.8,281.6z"/>
		</g>
		<g>
			<path class="st4" d="M120.6,281.8h17.8v9.5l-17.8-0.2L120.6,281.8 M120.3,281.5v10l18.5,0.2v-10.2H120.3L120.3,281.5z"/>
		</g>
		<polyline class="st9" points="52.1,341.8 49.6,321.2 69.4,318.8 71.9,339.8 		"/>
		<polyline class="st9" points="59.1,319.5 58.2,313 67.2,311.9 64.1,286.8 		"/>
		<g>
			<path class="st4" d="M30.5,290.4l1.2,9.4l-18.9,2.3l-1.1-9.4L30.5,290.4 M30.8,290l-19.5,2.3l1.2,10.1l19.6-2.4L30.8,290
				L30.8,290z"/>
		</g>
		<g>
			<path class="st4" d="M83.4,284l1.1,9.3L67,295.4l-1.1-9.3L83.4,284 M83.7,283.7l-18.3,2.2l1.2,10l18.3-2.2L83.7,283.7L83.7,283.7
				z"/>
		</g>
	</g>
	<g id="C2-B4-2_x5F_contours_1_">
		<g>
			<path class="st4" d="M39.8,49l45.3,4.9l-7.8,70.7v0.1v0.1L77.1,196l-45.5-0.2v-17.1v-1.3h-1.3h-8.7l0.1-16.8h8.7h1.3v-1.3
				l0.1-18.6v-1.4h-1.4h-8.7l0.1-17.6l1.9-17.5l8.6,0.9l1.3,0.1l0.1-1.3l2-18.6l0.1-1.3l-1.3-0.1L25.9,83l1.8-16.6l8.6,0.9l1.3,0.1
				L38,66L39.8,49 M38.6,47.5l-2,18.3l-9.9-1.1L24.6,84l10,1.1l-2,18.6l-10-1.1l-2.1,18.9l-0.1,19h10.1l-0.1,18.6h-10l-0.1,19.5h10
				V197l48.2,0.2l0.2-72.5l7.9-72.1L38.6,47.5L38.6,47.5z"/>
		</g>
		<line class="st10" x1="77.9" y1="124.8" x2="21.1" y2="121.6"/>
		<polyline class="st10" points="81.2,95.8 58.6,93.3 58.8,91.1 51.3,90.3 52.1,82.6 59.7,83.4 59.9,81.2 82.5,83.7 		"/>
		<polyline class="st10" points="77.5,166.1 55.1,166.2 55.1,163.9 47.5,163.9 47.5,156.2 55.1,156.2 55.1,153.9 77.8,153.9 		"/>
		<line class="st10" x1="51.7" y1="86.3" x2="25.3" y2="83.4"/>
		<line class="st10" x1="47.5" y1="160" x2="21" y2="159.9"/>
		<g>
			<path class="st4" d="M29,46.8l9.3,1l-1.9,17.6l-9.3-1L29,46.8 M28.7,46.4l-2,18.3l9.9,1.1l2-18.3L28.7,46.4L28.7,46.4z"/>
		</g>
		<g>
			<path class="st4" d="M24.9,84.4l9.3,1l-2,17.9l-9.3-1L24.9,84.4 M24.6,84.1l-2,18.6l10,1.1l2-18.6L24.6,84.1L24.6,84.1z"/>
		</g>
		<g>
			<path class="st4" d="M20.7,141h9.4L30,158.9h-9.4L20.7,141 M20.4,140.6l-0.1,18.6h10l0.1-18.6H20.4L20.4,140.6z"/>
		</g>
		<g>
			<path class="st4" d="M20.6,179.1h9.3v17.8h-9.4L20.6,179.1 M20.2,178.7l-0.1,18.4h10v-18.4H20.2L20.2,178.7z"/>
		</g>
		<path class="st10" d="M55.1,166.2"/>
		<path class="st10" d="M55.1,153.9"/>
	</g>
	<g id="Calque_23">
		<g>
			<circle class="st11" cx="661.1" cy="34.9" r="18.8"/>
			<line class="st11" x1="672.2" y1="30.7" x2="685.3" y2="26.4"/>
			<g class="st12">
				<path class="st13" d="M655.7,25.2c0.2,0,0.2,0.1,0.4,0.1s0.2,0.2,0.3,0.2c0.1,0.1,0.2,0.2,0.3,0.4l9,11.3c0-0.4-0.1-0.7-0.1-1.1
					c0-0.4,0-0.7,0-1v-10h3.8V44h-2.3c-0.3,0-0.6-0.1-0.8-0.2c-0.2-0.1-0.5-0.3-0.7-0.5L656.7,32c0,0.3,0.1,0.7,0.1,1s0,0.6,0,0.9
					V44H653V25.2h2.3C655.4,25.1,655.5,25.1,655.7,25.2z"/>
			</g>
		</g>
	</g>
</g>
</svg>
