<?xml version="1.0" encoding="utf-8"?>
<!-- Generator: Adobe Illustrator 22.0.1, SVG Export Plug-In . SVG Version: 6.00 Build 0)  -->
<svg version="1.1" xmlns="http://www.w3.org/2000/svg" xmlns:xlink="http://www.w3.org/1999/xlink" x="0px" y="0px"
	 viewBox="0 0 850.4 850.4" style="enable-background:new 0 0 850.4 850.4;" xml:space="preserve">
<style type="text/css">
	.st0{fill:none;}
	.st1{fill:#FFFFFF;}
	.st2{fill:#E3E3E3;}
	.st3{fill:#DBEBD1;stroke:#D9E7BA;stroke-width:0;stroke-miterlimit:10;}
	.st4{fill:#ABBCA2;}
	.st5{fill:none;stroke:#717E86;stroke-width:0.5008;stroke-miterlimit:10;}
	.st6{fill:#EAF6FE;}
	.st7{opacity:0.8;fill:#FFFFFF;}
	.st8{fill:url(#SVGID_1_);stroke:#717E86;stroke-width:0.5008;stroke-miterlimit:10;}
	.st9{fill:#FFFFFF;stroke:#717E86;stroke-width:0.5008;stroke-miterlimit:10;}
	.st10{opacity:0.2;}
	.st11{fill:#738793;}
	.st12{fill:none;stroke:#738793;stroke-width:0.5008;stroke-miterlimit:10;}
	.st13{fill:#717E86;}
	.st14{fill:none;stroke:#717E86;stroke-width:0.8347;stroke-miterlimit:10;}
	.st15{fill:#EAF6FE;stroke:#717E86;stroke-width:0.5008;stroke-miterlimit:10;}
	.st16{fill:none;stroke:#000000;stroke-width:0.2003;stroke-linecap:square;stroke-linejoin:bevel;stroke-miterlimit:10;}
	.st17{opacity:5.000000e-02;}
	.st18{fill:none;stroke:#CCD3D8;stroke-width:0.5008;stroke-miterlimit:10;}
	.st19{fill:#EAF6FE;stroke:#CCD3D8;stroke-width:0.5008;stroke-miterlimit:10;}
	.st20{fill:#EAF6FE;stroke:#CCD3D8;stroke-width:0.5008;stroke-linecap:round;stroke-linejoin:round;stroke-miterlimit:10;}
	.st21{fill:#EAF6FE;stroke:#CCD3D8;stroke-width:0.493;stroke-miterlimit:10;}
	.st22{fill:#EAF6FE;stroke:#CCD3D8;stroke-width:0.5062;stroke-miterlimit:10;}
	.st23{fill:none;stroke:#CCD3D8;stroke-width:0.5062;stroke-miterlimit:10;}
	.st24{fill:none;stroke:#CCD3D8;stroke-width:0.5062;stroke-miterlimit:10;stroke-dasharray:7.4448,7.4448,7.4448,7.4448;}
	
		.st25{fill:none;stroke:#CCD3D8;stroke-width:0.5062;stroke-miterlimit:10;stroke-dasharray:7.4448,7.4448,7.4448,7.4448,7.4448,7.4448;}
	.st26{fill:none;stroke:#CCD3D8;stroke-width:0.5062;stroke-miterlimit:10;stroke-dasharray:7.3982,7.3982,7.3982,7.3982;}
	
		.st27{fill:none;stroke:#CCD3D8;stroke-width:0.5062;stroke-miterlimit:10;stroke-dasharray:7.3982,7.3982,7.3982,7.3982,7.3982,7.3982;}
	.st28{fill:none;stroke:#717E86;stroke-width:1.0356;stroke-miterlimit:10;}
	.st29{fill:none;stroke:#717E86;stroke-width:0.5008;stroke-miterlimit:10;stroke-dasharray:3.3386,3.3386;}
	.st30{fill:none;stroke:#717E86;stroke-width:0.5008;stroke-miterlimit:1;}
	.st31{fill:none;stroke:#717E86;stroke-width:0.1669;stroke-miterlimit:1;}
	.st32{display:none;}
	.st33{display:inline;fill:#3C3C3B;}
	.st34{font-family:'Lato-Black';}
	.st35{font-size:11.6852px;}
	.st36{font-family:'Lato-Italic';}
	.st37{font-size:12.1687px;}
	.st38{fill:#3C3C3B;}
	.st39{fill:none;stroke:#717E86;stroke-width:1.6693;stroke-miterlimit:10;}
	.st40{fill:none;stroke:#717E86;stroke-width:3.3386;stroke-miterlimit:10;}
	.st41{font-size:27.4189px;}
</style>
<pattern  width="3.8" height="3.4" patternUnits="userSpaceOnUse" id="Nouvelle_nuance_de_motif_7" viewBox="0 -3.4 3.8 3.4" style="overflow:visible;">
	<g>
		<rect y="-3.4" class="st0" width="3.8" height="3.4"/>
		<rect x="0.1" y="-3.4" class="st1" width="3.7" height="3.4"/>
		<rect x="3.7" y="-3.4" class="st2" width="0.1" height="3.4"/>
		<rect x="0" y="-3.4" class="st2" width="0.1" height="3.4"/>
	</g>
</pattern>
<g id="Jardin">
	
		<rect x="410.9" y="357.3" transform="matrix(-1.836970e-16 1 -1 -1.836970e-16 1163.535 -166.4374)" class="st3" width="508.2" height="282.5"/>
	<path class="st4" d="M765.9,681.6c0.1-0.1,0.2-0.1,0.3-0.2c0.4-0.2,0.9-0.3,1,0.4c0.3,0,0.8,0,1-0.2c0.3-0.2,0.5-0.4,0.9-0.6
		c0.4-0.1,0.9-0.2,1.3-0.3c0.4-0.1,0.8,0.2,1.2,0.1c0.5-0.1,0.6-0.7,1.2-0.7c0.5,0,1.1,0.5,1.6,0.3c0.5-0.2,0.6-1.1,1.1-1.4
		c0.5-0.4,1.4-0.2,1.8-0.7c0.5-0.6,0.1-1.5,1-1.7c1.1-0.3,1.8-1,2.6-1.9c0.3-0.4,0.2-0.6,0.4-1c0.2-0.4,0.3-0.3,0.6-0.5
		c0.4-0.2,0.3,0,0.4-0.5c0.1-0.3,0-0.7,0-1c0.3,0,0.8,0.1,0.9-0.3c0.1-0.3-0.4-0.8-0.5-1.1c-0.1-0.6,0.5-0.7,0.8-1
		c0.4-0.4,0.5-1.2,0.9-1.7c0.4-0.5,0.2-0.5,0.1-1.2c-0.1-0.4-0.1-0.8,0.2-1.1c0.2-0.3,0.7-0.1,0.6-0.7c-0.1-0.4-0.6-0.7-0.7-1
		c-0.1-0.4,0-0.6,0.2-0.8c0.2-0.3,0.5-0.4,0.5-0.9c0.1-1-0.6-1.6-0.6-2.5c0-0.3,0.1-0.6,0.1-0.8c-0.1-0.4-0.3-0.6-0.5-1
		c-0.4-0.7,0.2-1.2-0.3-1.8c-0.4-0.4-0.6-0.3-0.6-0.9c0-0.2,0.1-0.5,0-0.7c-0.4-0.1-1-0.3-1.1-0.8c-0.2-0.8,0.6-1.9-0.5-2.5
		c-1-0.5-0.2-0.4-0.3-1.2c-0.3-0.1-0.6-0.2-0.9-0.2c0-0.2,0.2-0.7,0-0.9c-0.3-0.5-1.1-0.3-1.6-0.3c-1.1,0-0.4-0.4-0.6-1
		c-0.2-0.5-1.5-0.9-2.1-0.9c-0.2,0-0.5,0.2-0.7,0.1c-0.2-0.1-0.2-0.3-0.3-0.5c-0.5-0.4-0.6-0.2-1.1-0.4c-0.6-0.2-0.4-0.6-0.8-1
		c-0.3-0.3-0.6-0.1-1-0.2c-0.4-0.1-0.5-0.3-0.9-0.2c-0.4,0-0.9,0.7-1.3,0.5c-0.3-0.2-0.2-0.8-0.5-1.1c-0.2-0.2-0.7-0.5-0.9-0.5
		c-0.3-0.1-0.5,0.1-0.8,0.2c-0.5,0.1-0.6-0.2-1-0.2c-0.4-0.1-0.8,0.4-1.1,0.4c-0.4-0.1-0.5-0.5-0.8-0.6c-0.4-0.1-1,0.1-1.4,0.1
		c-0.5,0-1,0-1.5,0.3c-0.4,0.3-0.3,0.8-0.7,1.1c-0.6,0.4-1.2-0.5-1.6-0.5c-0.5,0-0.8,1-0.7,1.5c-0.8,0.1-1.5-0.8-2.3-0.5
		c0,0.6,0.2,1.4-0.3,1.6c-0.4,0.2-1.2-0.3-1.6,0.1c-0.4,0.4,0.2,1.2-0.3,1.5c-0.2,0.2-1.1,0-1.4,0c-0.1,0.5,0,0.8-0.2,1.1
		c0,0-0.7,0.5-0.8,0.5c-0.2,0.8-0.3,2-1.3,2.1c-0.4,0-0.8-0.3-1.2,0c-0.5,0.3-0.1,0.8-0.2,1.2c-0.1,0.4-0.2,0.1-0.4,0.4
		c-0.3,0.3-0.2,0.1-0.3,0.5c0,0.2,0.3,0.6,0.2,0.7c-0.2,0.4-0.9,0.5-1.1,0.9c-0.3,0.4-0.7,1.2-0.5,1.7c0.2,0.4,0.7,0.4,0.6,0.9
		c0,0.1-0.3,0.2-0.4,0.3c-0.2,0.2-0.3,0.5-0.4,0.7c-0.3,0.6-0.4,0.9,0,1.4c0.3,0.3,0.7,0.4,0.6,0.9c-0.2,0.6-0.4,1.1-0.6,1.7
		c-0.1,0.5-0.5,0.9-0.3,1.4c0.2,0.4,0.8,0.5,1,0.9c0.5,0.9-0.1,1.9,0.1,2.8c0.1,0.4,0.5,0.7,0.6,1.1c0.1,0.5-0.4,0.9-0.3,1.5
		c0.1,0.9,0.9,1.3,1.7,1.5c0.4,0.1,0.5-0.1,0.6,0.2c0.2,0.4-0.4,0.8-0.4,1.1c0,0.8,1.2,0.2,1.6,0.7c0.4,0.4,0.1,0.9,0.5,1.2
		c0.3,0.3,1.1,0.1,1.5,0.1c-0.2,0.9,0.9,0.7,1.4,0.8c0.7,0.2,0.8,0.7,0.9,1.4c0,0.4,0,0.9,0.3,1.2c0.5,0.5,1-0.2,1.5,0
		c0.2,0.1,0.1,0.3,0.3,0.4c0.3,0.1,0.5,0.1,0.8,0.1c0.4,0,0.9,0.1,1.3,0.2c0.9,0.3,1.4,1.3,2.2,1.6c0.5,0.2,0.8-0.3,1.3-0.2
		c0.5,0,0.3,0.2,0.6,0.5C765.1,682.5,765.4,682,765.9,681.6z"/>
	<path class="st4" d="M708.1,701.1c0.1-0.1,0.2-0.1,0.3-0.2c0.4-0.2,0.9-0.3,1,0.4c0.3,0,0.8,0,1-0.2c0.3-0.2,0.5-0.4,0.9-0.6
		c0.4-0.1,0.9-0.2,1.3-0.3c0.4-0.1,0.8,0.2,1.2,0.1c0.5-0.1,0.6-0.7,1.2-0.7c0.5,0,1.1,0.5,1.6,0.3c0.5-0.2,0.6-1.1,1.1-1.4
		c0.5-0.4,1.4-0.2,1.8-0.7c0.5-0.6,0.1-1.5,1-1.7c1.1-0.3,1.8-1,2.6-1.9c0.3-0.4,0.2-0.6,0.4-1c0.2-0.4,0.3-0.3,0.6-0.5
		c0.4-0.2,0.3,0,0.4-0.5c0.1-0.3,0-0.7,0-1c0.3,0,0.8,0.1,0.9-0.3c0.1-0.3-0.4-0.8-0.5-1.1c-0.1-0.6,0.5-0.7,0.8-1
		c0.4-0.4,0.5-1.2,0.9-1.7c0.4-0.5,0.2-0.5,0.1-1.2c-0.1-0.4-0.1-0.8,0.2-1.1c0.2-0.3,0.7-0.1,0.6-0.7c-0.1-0.4-0.6-0.7-0.7-1
		c-0.1-0.4,0-0.6,0.2-0.8c0.2-0.3,0.5-0.4,0.5-0.9c0.1-1-0.6-1.6-0.6-2.5c0-0.3,0.1-0.6,0.1-0.8c-0.1-0.4-0.3-0.6-0.5-1
		c-0.4-0.7,0.2-1.2-0.3-1.8c-0.4-0.4-0.6-0.3-0.6-0.9c0-0.2,0.1-0.5,0-0.7c-0.4-0.1-1-0.3-1.1-0.8c-0.2-0.8,0.6-1.9-0.5-2.5
		c-1-0.5-0.2-0.4-0.3-1.2c-0.3-0.1-0.6-0.2-0.9-0.2c0-0.2,0.2-0.7,0-0.9c-0.3-0.5-1.1-0.3-1.6-0.3c-1.1,0-0.4-0.4-0.6-1
		c-0.2-0.5-1.5-0.9-2.1-0.9c-0.2,0-0.5,0.2-0.7,0.1c-0.2-0.1-0.2-0.3-0.3-0.5c-0.5-0.4-0.6-0.2-1.1-0.4c-0.6-0.2-0.4-0.6-0.8-1
		c-0.3-0.3-0.6-0.1-1-0.2c-0.4-0.1-0.5-0.3-0.9-0.2c-0.4,0-0.9,0.7-1.3,0.5c-0.3-0.2-0.2-0.8-0.5-1.1c-0.2-0.2-0.7-0.5-0.9-0.5
		c-0.3-0.1-0.5,0.1-0.8,0.2c-0.5,0.1-0.6-0.2-1-0.2c-0.4-0.1-0.8,0.4-1.1,0.4c-0.4-0.1-0.5-0.5-0.8-0.6c-0.4-0.1-1,0.1-1.4,0.1
		c-0.5,0-1,0-1.5,0.3c-0.4,0.3-0.3,0.8-0.7,1.1c-0.6,0.4-1.2-0.5-1.6-0.5c-0.5,0-0.8,1-0.7,1.5c-0.8,0.1-1.5-0.8-2.3-0.5
		c0,0.6,0.2,1.4-0.3,1.6c-0.4,0.2-1.2-0.3-1.6,0.1c-0.4,0.4,0.2,1.2-0.3,1.5c-0.2,0.2-1.1,0-1.4,0c-0.1,0.5,0,0.8-0.2,1.1
		c0,0-0.7,0.5-0.8,0.5c-0.2,0.8-0.3,2-1.3,2.1c-0.4,0-0.8-0.3-1.2,0c-0.5,0.3-0.1,0.8-0.2,1.2c-0.1,0.4-0.2,0.1-0.4,0.4
		c-0.3,0.3-0.2,0.1-0.3,0.5c0,0.2,0.3,0.6,0.2,0.7c-0.2,0.4-0.9,0.5-1.1,0.9c-0.3,0.4-0.7,1.2-0.5,1.7c0.2,0.4,0.7,0.4,0.6,0.9
		c0,0.1-0.3,0.2-0.4,0.3c-0.2,0.2-0.3,0.5-0.4,0.7c-0.3,0.6-0.4,0.9,0,1.4c0.3,0.3,0.7,0.4,0.6,0.9c-0.2,0.6-0.4,1.1-0.6,1.7
		c-0.1,0.5-0.5,0.9-0.3,1.4c0.2,0.4,0.8,0.5,1,0.9c0.5,0.9-0.1,1.9,0.1,2.8c0.1,0.4,0.5,0.7,0.6,1.1c0.1,0.5-0.4,0.9-0.3,1.5
		c0.1,0.9,0.9,1.3,1.7,1.5c0.4,0.1,0.5-0.1,0.6,0.2c0.2,0.4-0.4,0.8-0.4,1.1c0,0.8,1.2,0.2,1.6,0.7c0.4,0.4,0.1,0.9,0.5,1.2
		c0.3,0.3,1.1,0.1,1.5,0.1c-0.2,0.9,0.9,0.7,1.4,0.8c0.7,0.2,0.8,0.7,0.9,1.4c0,0.4,0,0.9,0.3,1.2c0.5,0.5,1-0.2,1.5,0
		c0.2,0.1,0.1,0.3,0.3,0.4c0.3,0.1,0.5,0.1,0.8,0.1c0.4,0,0.9,0.1,1.3,0.2c0.9,0.3,1.4,1.3,2.2,1.6c0.5,0.2,0.8-0.3,1.3-0.2
		c0.5,0,0.3,0.2,0.6,0.5C707.3,702,707.5,701.6,708.1,701.1z"/>
</g>
<g id="Fond">
	
		<rect x="250" y="290.1" transform="matrix(-1.836970e-16 1 -1 -1.836970e-16 827.6512 18.8162)" class="st5" width="308.9" height="266.2"/>
	
		<rect x="-76.2" y="227.4" transform="matrix(-1.836970e-16 1 -1 -1.836970e-16 501.9249 193.1701)" class="st1" width="461.2" height="240.4"/>
	
		<rect x="-77.3" y="228.5" transform="matrix(-1.836970e-16 1 -1 -1.836970e-16 491.0033 194.2707)" class="st5" width="451.4" height="228.4"/>
	
		<rect x="145.7" y="198.9" transform="matrix(-1.836970e-16 1 -1 -1.836970e-16 723.8926 132.4714)" class="st6" width="299.9" height="458.6"/>
	
		<rect x="3.7" y="162.6" transform="matrix(-1.836970e-16 1 -1 -1.836970e-16 426.1578 113.2184)" class="st6" width="305.5" height="214.3"/>
</g>
<g id="Sols">
	
		<rect x="44.6" y="135" transform="matrix(-1.836970e-16 1 -1 -1.836970e-16 320.7524 85.6883)" class="st7" width="145.9" height="136.4"/>
	
		<pattern  id="SVGID_1_" xlink:href="#Nouvelle_nuance_de_motif_7" patternTransform="matrix(1.0414 0 0 1.0414 319.4628 283.7145)">
	</pattern>
	<polygon class="st8" points="778.5,616.3 778.5,296.2 537.5,296.2 537.5,603.2 	"/>
</g>
<g id="Installations">
	
		<rect x="-30.1" y="439" transform="matrix(-1.836970e-16 1 -1 -1.836970e-16 523.5977 389.718)" class="st9" width="194" height="35.4"/>
	<g>
		<g>
			<g class="st10">
				<path class="st11" d="M144,254.5c0,2,0.1,13.2,0.3,15.1c0.2,1.6,0.4,3.1,0.6,4.6h21.6c0.2-1.2,0.4-2.6,0.5-3.9
					c0.2-2.1,0.3-15.1,0.3-17.4c0-5-4-15.3-11.6-15.3C147.9,237.6,144,248.7,144,254.5z"/>
				<path class="st12" d="M144,254.5c0,2,0.1,13.2,0.3,15.1c0.2,1.6,0.4,3.1,0.6,4.6h21.6c0.2-1.2,0.4-2.6,0.5-3.9
					c0.2-2.1,0.3-15.1,0.3-17.4c0-5-4-15.3-11.6-15.3C147.9,237.6,144,248.7,144,254.5z"/>
			</g>
			<g>
				<path class="st1" d="M139,249.5c0,2,0.1,13.2,0.3,15.1c0.2,1.6,0.4,3.1,0.6,4.6h21.6c0.2-1.2,0.4-2.6,0.5-3.9
					c0.2-2.1,0.3-15.1,0.3-17.4c0-5-4-15.3-11.6-15.3C142.9,232.6,139,243.7,139,249.5z"/>
				<path class="st5" d="M139,249.5c0,2,0.1,13.2,0.3,15.1c0.2,1.6,0.4,3.1,0.6,4.6h21.6c0.2-1.2,0.4-2.6,0.5-3.9
					c0.2-2.1,0.3-15.1,0.3-17.4c0-5-4-15.3-11.6-15.3C142.9,232.6,139,243.7,139,249.5z"/>
			</g>
		</g>
		<g>
			<circle class="st9" cx="145.5" cy="264" r="0.7"/>
			<circle class="st9" cx="155.9" cy="264" r="0.7"/>
		</g>
		<path class="st9" d="M150.7,235.6c5,0,9,7.6,9,12.5c0,5-4,9-9,9s-9-4-9-9C141.7,243.2,145.8,235.6,150.7,235.6z"/>
		<path class="st9" d="M147.7,250.2v3.3c0,0.9,1.4,1,3.1,1s3.1-0.3,3.1-1v-3.3c0-1.7-1.4-3.1-3.1-3.1S147.7,248.5,147.7,250.2z"/>
		<path class="st5" d="M139.3,264.1c2.9,1.8,7.2,2.9,12,2.9c4.2,0,8-0.8,10.8-2.2"/>
	</g>
	<g>
		<g>
			<rect x="49.5" y="284.2" class="st1" width="35.1" height="75.2"/>
			<path class="st13" d="M84.3,284.4v74.7H49.8v-74.7H84.3 M84.8,283.9H49.3v75.7h35.6V283.9L84.8,283.9z"/>
		</g>
		<line class="st14" x1="55.5" y1="294.2" x2="78.6" y2="295.7"/>
		<line class="st14" x1="55.5" y1="299.7" x2="78.6" y2="298"/>
		<line class="st14" x1="55.5" y1="301.8" x2="78.6" y2="303.3"/>
		<line class="st14" x1="55.5" y1="307.3" x2="78.6" y2="305.5"/>
		<line class="st14" x1="55.5" y1="336.3" x2="78.6" y2="337.7"/>
		<line class="st14" x1="55.5" y1="341.8" x2="78.6" y2="340"/>
		<line class="st14" x1="55.5" y1="343.9" x2="78.6" y2="345.3"/>
		<line class="st14" x1="55.5" y1="349.4" x2="78.6" y2="347.6"/>
		<line class="st15" x1="82.2" y1="283.9" x2="82.2" y2="359.3"/>
		<line class="st15" x1="82.2" y1="321.6" x2="84.6" y2="321.6"/>
		<polyline class="st5" points="84.6,313.4 85.9,313.4 85.9,316.2 84.6,316.2 		"/>
		<polyline class="st5" points="84.6,327 85.9,327 85.9,329.8 84.6,329.8 		"/>
		<line class="st5" x1="67.1" y1="283.9" x2="67.1" y2="359.3"/>
	</g>
	<g>
		<path class="st9" d="M121.8,268.1v-54.4c0-0.4-0.3-0.7-0.7-0.7H50c-0.4,0-0.7,0.3-0.7,0.7v54.4c0,0.4,0.3,0.7,0.7,0.7h71.1
			C121.5,268.8,121.8,268.5,121.8,268.1z"/>
		<path class="st9" d="M118.7,263.9v-45.9c0-1.1-0.9-2-2-2H54.4c-1.1,0-2,0.9-2,2v45.9c0,1.1,0.9,2,2,2h62.3
			C117.8,265.9,118.7,265,118.7,263.9z"/>
		<path class="st9" d="M116.1,261.4v-40.8c0-1.1-0.9-2-2-2H56.9c-1.1,0-2,0.9-2,2v40.8c0,1.1,0.9,2,2,2h57.2
			C115.2,263.4,116.1,262.5,116.1,261.4z"/>
		<circle class="st9" cx="62.5" cy="255.4" r="2.8"/>
	</g>
	<g>
		
			<rect x="50.6" y="436.5" transform="matrix(-1 -1.224647e-16 1.224647e-16 -1 133.3553 937.7642)" class="st5" width="32.2" height="64.7"/>
		<g>
			<path class="st9" d="M55.6,469.6h22.1c1.3,0,2.4-1.1,2.4-2.4v-25.3c0-1.3-1.1-2.4-2.4-2.4H55.6c-1.3,0-2.4,1.1-2.4,2.4v25.3
				C53.2,468.5,54.3,469.6,55.6,469.6z"/>
			<circle class="st9" cx="58.5" cy="454" r="2.1"/>
		</g>
		<g>
			
				<rect x="75.1" y="474.6" transform="matrix(-1 -6.210266e-12 6.210266e-12 -1 151.3613 970.4176)" class="st13" width="1.2" height="21.2"/>
			
				<rect x="70.6" y="474.6" transform="matrix(-1 -1.224647e-16 1.224647e-16 -1 142.3691 970.4176)" class="st13" width="1.2" height="21.2"/>
			
				<rect x="66.1" y="474.6" transform="matrix(-1 6.210021e-12 -6.210021e-12 -1 133.377 970.4176)" class="st13" width="1.2" height="21.2"/>
			
				<rect x="61.6" y="474.6" transform="matrix(-1 6.210021e-12 -6.210021e-12 -1 124.3848 970.4176)" class="st13" width="1.2" height="21.2"/>
			
				<rect x="57.1" y="474.6" transform="matrix(-1 6.210021e-12 -6.210021e-12 -1 115.3926 970.4176)" class="st13" width="1.2" height="21.2"/>
		</g>
	</g>
	<g>
		
			<rect x="50.6" y="376.3" transform="matrix(6.123234e-17 -1 1 6.123234e-17 -325.7292 459.2634)" class="st5" width="32.3" height="32.3"/>
		<path class="st9" d="M73.5,391.7c3.3,0,5.9-2.6,5.9-5.9c0-3.3-2.6-5.9-5.9-5.9c-3.3,0-5.9,2.6-5.9,5.9
			C67.6,389,70.2,391.7,73.5,391.7"/>
		<path class="st9" d="M59.8,404.8c3.3,0,5.9-2.6,5.9-5.9c0-3.3-2.6-5.9-5.9-5.9c-3.3,0-5.9,2.6-5.9,5.9
			C53.9,402.2,56.5,404.8,59.8,404.8"/>
		<path class="st9" d="M58.7,390c2.6,0,4.8-2.1,4.8-4.8c0-2.6-2.1-4.8-4.8-4.8s-4.8,2.1-4.8,4.8C53.9,387.9,56,390,58.7,390"/>
		<path class="st9" d="M74.3,404.8c2.6,0,4.8-2.1,4.8-4.8c0-2.6-2.1-4.8-4.8-4.8c-2.6,0-4.8,2.1-4.8,4.8
			C69.5,402.7,71.7,404.8,74.3,404.8"/>
	</g>
	<g>
		<polyline class="st16" points="63.6,540.4 63.6,538.9 62.3,538.9 		"/>
		<polyline class="st16" points="71.3,532.7 69.9,532.7 69.9,531.4 		"/>
		<line class="st16" x1="70.9" y1="531.8" x2="62.6" y2="539.8"/>
		<polyline class="st16" points="62.3,532.7 63.6,532.7 63.6,531.4 		"/>
		<polyline class="st16" points="69.9,540.4 69.9,538.9 71.3,538.9 		"/>
		<line class="st16" x1="70.9" y1="539.8" x2="62.6" y2="531.8"/>
		<polyline class="st16" points="61.3,536.8 62.3,535.9 61.3,535 		"/>
		<polyline class="st16" points="72.2,536.8 71.3,535.9 72.2,535 		"/>
		<polyline class="st16" points="65.8,530.5 66.8,531.4 67.7,530.5 		"/>
		<polyline class="st16" points="65.8,541.2 66.8,540.2 67.7,541.2 		"/>
		<line class="st16" x1="72.6" y1="535.9" x2="60.9" y2="535.9"/>
		<line class="st16" x1="66.8" y1="541.5" x2="66.8" y2="530.1"/>
		<polyline class="st5" points="63.6,540.4 63.6,538.9 62.3,538.9 		"/>
		<polyline class="st5" points="71.3,532.7 69.9,532.7 69.9,531.4 		"/>
		<line class="st5" x1="70.9" y1="531.8" x2="62.6" y2="539.8"/>
		<polyline class="st5" points="62.3,532.7 63.6,532.7 63.6,531.4 		"/>
		<polyline class="st5" points="69.9,540.4 69.9,538.9 71.3,538.9 		"/>
		<line class="st5" x1="70.9" y1="539.8" x2="62.6" y2="531.8"/>
		<polyline class="st5" points="61.3,536.8 62.3,535.9 61.3,535 		"/>
		<polyline class="st5" points="72.2,536.8 71.3,535.9 72.2,535 		"/>
		<polyline class="st5" points="65.8,530.5 66.8,531.4 67.7,530.5 		"/>
		<polyline class="st5" points="65.8,541.2 66.8,540.2 67.7,541.2 		"/>
		<line class="st5" x1="72.6" y1="535.9" x2="60.9" y2="535.9"/>
		<line class="st5" x1="66.8" y1="541.5" x2="66.8" y2="530.1"/>
	</g>
	<g>
		<g>
			<g>
				<g class="st17">
					<path class="st13" d="M459.6,485.4c-22.8,4.1-45.6,4.1-68.5,0c-0.9-0.2-1.6-1-1.6-1.9v-27c0-0.9,0.7-1.8,1.6-1.9
						c22.8-4.1,45.6-4.1,68.5,0c0.9,0.2,1.6,1,1.6,1.9v27C461.2,484.4,460.6,485.2,459.6,485.4z"/>
					<path class="st5" d="M459.6,485.4c-22.8,4.1-45.6,4.1-68.5,0c-0.9-0.2-1.6-1-1.6-1.9v-27c0-0.9,0.7-1.8,1.6-1.9
						c22.8-4.1,45.6-4.1,68.5,0c0.9,0.2,1.6,1,1.6,1.9v27C461.2,484.4,460.6,485.2,459.6,485.4z"/>
				</g>
				<g>
					<path class="st6" d="M454.6,480.4c-22.8,4.1-45.6,4.1-68.5,0c-0.9-0.2-1.6-1-1.6-1.9v-27c0-0.9,0.7-1.8,1.6-1.9
						c22.8-4.1,45.6-4.1,68.5,0c0.9,0.2,1.6,1,1.6,1.9v27C456.2,479.4,455.5,480.2,454.6,480.4z"/>
					<path class="st18" d="M454.6,480.4c-22.8,4.1-45.6,4.1-68.5,0c-0.9-0.2-1.6-1-1.6-1.9v-27c0-0.9,0.7-1.8,1.6-1.9
						c22.8-4.1,45.6-4.1,68.5,0c0.9,0.2,1.6,1,1.6,1.9v27C456.2,479.4,455.5,480.2,454.6,480.4z"/>
				</g>
			</g>
			<path class="st19" d="M424.8,464.6l-3.9,5.1c-0.3,0.4-1,0.5-1.4,0.2l-8.4-6.4c-0.4-0.3-0.5-1-0.2-1.4l3.9-5.1
				c0.3-0.4,1-0.5,1.4-0.2l8.4,6.4C425.1,463.6,425.2,464.2,424.8,464.6z"/>
			<path class="st19" d="M429,469.3l-5.7,2.9c-0.5,0.3-1.1,0.1-1.3-0.4l-4.8-9.4c-0.3-0.5-0.1-1.1,0.4-1.3l5.7-2.9
				c0.5-0.3,1.1-0.1,1.3,0.4l4.8,9.4C429.6,468.4,429.4,469,429,469.3z"/>
			<circle class="st19" cx="441.9" cy="471.6" r="8.3"/>
			<path class="st20" d="M439.7,466.5c4.4-6.6,12.1,0.7,8.4,6.8C449.4,471.4,442.5,463.9,439.7,466.5z"/>
			<circle class="st19" cx="433.3" cy="465.9" r="1.1"/>
			<circle class="st19" cx="433.2" cy="468.4" r="1.1"/>
			<circle class="st19" cx="435.1" cy="468.6" r="1.1"/>
			<circle class="st19" cx="435.1" cy="466.6" r="1.1"/>
			<circle class="st19" cx="434.8" cy="464" r="1.1"/>
			<circle class="st19" cx="436.6" cy="463.4" r="1.1"/>
			<circle class="st19" cx="438.8" cy="463.7" r="1.1"/>
			<circle class="st19" cx="436.6" cy="465.3" r="1.1"/>
			<circle class="st19" cx="437.1" cy="467.5" r="1.1"/>
			<circle class="st19" cx="438.6" cy="465.7" r="1.1"/>
			<circle class="st19" cx="438" cy="473.7" r="3"/>
			<circle class="st19" cx="439.3" cy="469" r="2.2"/>
			
				<ellipse transform="matrix(0.9642 -0.2653 0.2653 0.9642 -109.51 134.1305)" class="st19" cx="441.8" cy="472.5" rx="1.7" ry="2.7"/>
			<path class="st20" d="M439.3,466.6c6.9-4,10.5,6.1,4.4,9.8C445.9,475.4,443.1,465.6,439.3,466.6z"/>
		</g>
		<g>
			<g>
				<path class="st20" d="M398.2,467.2c0,0-2.3-5.4-0.3-8.5C397.9,458.7,400.5,460.7,398.2,467.2z"/>
				<path class="st20" d="M398.2,467.2c0,0,0.1-5.6,3.3-7.9C401.5,459.4,403.1,462.4,398.2,467.2z"/>
				<path class="st20" d="M392.4,460.4c0,0,0,5.6,5.8,6.9C398.2,467.2,396.6,460.6,392.4,460.4z"/>
				<path class="st20" d="M391.8,475.9c0,0,1.3-6.9,6.4-8.7C398.2,467.2,398.8,472.9,391.8,475.9z"/>
				<path class="st20" d="M388.8,465.9c0,0,3.8-1.2,9.4,1.4C398.2,467.2,393,469.2,388.8,465.9z"/>
				<path class="st20" d="M397.9,478.1c0,0-2.8-7,0.1-11C398,467.1,400.2,467.8,397.9,478.1z"/>
				<path class="st20" d="M405.3,461.4c0,0-6,2.4-7.1,5.9C398.2,467.2,402.2,465.6,405.3,461.4z"/>
				<path class="st20" d="M403.5,476.3c0,0-4.9-3.5-5.4-9.1C398.2,467.2,402.8,470.1,403.5,476.3z"/>
				<path class="st20" d="M407.6,465.2c0,0-5.9-1-9.6,1.9C398,467.1,401.8,469.1,407.6,465.2z"/>
				<path class="st20" d="M388.8,470.8c0,0,2.8-3.9,9.2-3.7C398,467.1,394.2,471.4,388.8,470.8z"/>
				<path class="st20" d="M406.3,473.5c0,0-7.2-2.2-8.4-6.5C397.8,467,403.1,467.5,406.3,473.5z"/>
				<path class="st20" d="M407.9,469.7c0,0-6.1,1-9.9-2.6C398,467.1,402.2,465.2,407.9,469.7z"/>
				<path class="st20" d="M397.6,467c0,0-3.5,0.2-7.7-3.9C389.9,463.1,393.6,463.3,397.6,467z"/>
				<path class="st20" d="M390.2,472.9c0,0,3.2-4.6,7.5-5.7C397.7,467.2,397.2,471.1,390.2,472.9z"/>
			</g>
			<g>
				<path class="st20" d="M398.2,467.7c0,0,0.1-3.3,2-4.7C400.2,463,401.1,464.8,398.2,467.7z"/>
				<path class="st20" d="M394.8,463.6c0,0,0,3.3,3.4,4.1C398.2,467.7,397.3,463.8,394.8,463.6z"/>
				<path class="st20" d="M394.4,472.9c0,0,0.7-4.1,3.8-5.2C398.2,467.7,398.6,471,394.4,472.9z"/>
				<path class="st20" d="M392.6,466.9c0,0,2.3-0.7,5.6,0.8C398.2,467.7,395.1,468.9,392.6,466.9z"/>
				<path class="st20" d="M401.4,473.1c0,0-2.9-2.1-3.2-5.4C398.2,467.7,401,469.4,401.4,473.1z"/>
				<path class="st20" d="M403.8,466.5c0,0-3.5-0.6-5.7,1.1C398.1,467.6,400.4,468.8,403.8,466.5z"/>
				<path class="st20" d="M392.6,469.8c0,0,1.7-2.3,5.5-2.2C398.1,467.6,395.9,470.2,392.6,469.8z"/>
				<path class="st20" d="M404,469.2c0,0-3.6,0.6-5.9-1.6C398.1,467.6,400.7,466.5,404,469.2z"/>
			</g>
		</g>
	</g>
	<g>
		<g>
			<g class="st17">
				<path class="st13" d="M390.3,548.2l76.7,4.2c0.9,0,1.5,0.8,1.5,1.6l-1.1,19.4c0,0.9-0.8,1.5-1.6,1.5l-76.7-4.2
					c-0.9,0-1.5-0.8-1.5-1.6l1.1-19.4C388.7,548.8,389.4,548.2,390.3,548.2z"/>
				<path class="st5" d="M390.3,548.2l76.7,4.2c0.9,0,1.5,0.8,1.5,1.6l-1.1,19.4c0,0.9-0.8,1.5-1.6,1.5l-76.7-4.2
					c-0.9,0-1.5-0.8-1.5-1.6l1.1-19.4C388.7,548.8,389.4,548.2,390.3,548.2z"/>
			</g>
			<g>
				<path class="st6" d="M385.3,543.2l76.7,4.2c0.9,0,1.5,0.8,1.5,1.6l-1.1,19.4c0,0.9-0.8,1.5-1.6,1.5l-76.7-4.2
					c-0.9,0-1.5-0.8-1.5-1.6l1.1-19.4C383.7,543.8,384.4,543.1,385.3,543.2z"/>
				<path class="st18" d="M385.3,543.2l76.7,4.2c0.9,0,1.5,0.8,1.5,1.6l-1.1,19.4c0,0.9-0.8,1.5-1.6,1.5l-76.7-4.2
					c-0.9,0-1.5-0.8-1.5-1.6l1.1-19.4C383.7,543.8,384.4,543.1,385.3,543.2z"/>
			</g>
		</g>
		<path class="st19" d="M433.4,556.4l-0.5,8.5c0,0.6-0.5,1-1.1,0.9l-18.8-1c-0.6,0-1-0.5-0.9-1.1l0.5-8.5c0-0.6,0.5-1,1.1-0.9
			l18.8,1C433,555.3,433.5,555.8,433.4,556.4z"/>
		<path class="st21" d="M431.4,565l-17.8-1c-0.3,0-0.6-0.3-0.6-0.6l0.4-7.7c0-0.3,0.3-0.6,0.6-0.6l17.8,1c0.3,0,0.6,0.3,0.6,0.6
			l-0.4,7.7C432,564.7,431.7,565,431.4,565z"/>
		
			<rect x="421.7" y="526.8" transform="matrix(5.530595e-02 -0.9985 0.9985 5.530595e-02 -158.6171 950.209)" class="st19" width="2.2" height="64.2"/>
	</g>
	<g>
		<path class="st19" d="M322.7,421.5h-2.8v24.8h2.8c1.1,0,2-0.9,2-2v-20.8C324.7,422.4,323.8,421.5,322.7,421.5z"/>
		
			<rect x="312.2" y="421.5" transform="matrix(-1 -1.224647e-16 1.224647e-16 -1 632.0808 867.8692)" class="st19" width="7.8" height="24.8"/>
		<line class="st19" x1="319.9" y1="424.9" x2="312.2" y2="424.9"/>
		<line class="st19" x1="312.2" y1="442.9" x2="319.9" y2="442.9"/>
		<path class="st19" d="M322.7,450.9h-2.8v24.8h2.8c1.1,0,2-0.9,2-2v-20.8C324.7,451.8,323.8,450.9,322.7,450.9z"/>
		
			<rect x="312.2" y="450.9" transform="matrix(-1 -1.224647e-16 1.224647e-16 -1 632.0808 926.5639)" class="st19" width="7.8" height="24.8"/>
		<line class="st19" x1="319.9" y1="454.3" x2="312.2" y2="454.3"/>
		<line class="st19" x1="312.2" y1="472.3" x2="319.9" y2="472.3"/>
		<g>
			<path class="st19" d="M253,475.7h2.8v-24.8H253c-1.1,0-2,0.9-2,2v20.8C251,474.8,251.9,475.7,253,475.7z"/>
			<rect x="255.8" y="450.9" class="st19" width="7.8" height="24.8"/>
			<line class="st19" x1="255.8" y1="472.3" x2="263.6" y2="472.3"/>
			<line class="st19" x1="263.6" y1="454.3" x2="255.8" y2="454.3"/>
		</g>
		<g>
			<path class="st19" d="M246,439l2.6,1.1l9.6-22.9l-2.6-1.1c-1-0.4-2.2,0.1-2.6,1.1l-8,19.2C244.4,437.4,244.9,438.5,246,439z"/>
			
				<rect x="252.5" y="420.4" transform="matrix(0.922 0.3873 -0.3873 0.922 188.1798 -68.2259)" class="st19" width="21.8" height="24.8"/>
			<line class="st19" x1="249.8" y1="436.9" x2="269.9" y2="445.4"/>
			<line class="st19" x1="276.9" y1="428.8" x2="256.8" y2="420.3"/>
		</g>
		<g>
			<g class="st17">
				<path class="st13" d="M315.1,489.5h-44.5c-1.1,0-2-0.9-2-2v-68.7c0-1.1,0.9-2,2-2h44.5c1.1,0,2,0.9,2,2v68.7
					C317.2,488.6,316.3,489.5,315.1,489.5z"/>
				<path class="st5" d="M315.1,489.5h-44.5c-1.1,0-2-0.9-2-2v-68.7c0-1.1,0.9-2,2-2h44.5c1.1,0,2,0.9,2,2v68.7
					C317.2,488.6,316.3,489.5,315.1,489.5z"/>
			</g>
			<g>
				<path class="st6" d="M310.1,484.5h-44.5c-1.1,0-2-0.9-2-2v-68.7c0-1.1,0.9-2,2-2h44.5c1.1,0,2,0.9,2,2v68.7
					C312.2,483.6,311.2,484.5,310.1,484.5z"/>
				<path class="st18" d="M310.1,484.5h-44.5c-1.1,0-2-0.9-2-2v-68.7c0-1.1,0.9-2,2-2h44.5c1.1,0,2,0.9,2,2v68.7
					C312.2,483.6,311.2,484.5,310.1,484.5z"/>
			</g>
		</g>
		<path class="st19" d="M291,468.2l-5.5-4c-0.4-0.3-0.5-1-0.2-1.4l6.5-9c0.3-0.4,1-0.5,1.4-0.2l5.5,4c0.4,0.3,0.5,1,0.2,1.4l-6.5,9
			C292.1,468.4,291.4,468.5,291,468.2z"/>
	</g>
	<g>
		<g>
			<g class="st17">
				<path class="st13" d="M452.1,291.5h-67.8c-5.6,0-10.1,4.5-10.1,10.1v40.8c0,1.3,1,2.3,2.3,2.3h0.4c1.3,0,2.3-1,2.3-2.3V341
					c0,1.4,1.2,2.6,2.6,2.6h33.3c1.4,0,2.6-1.2,2.6-2.6c0,1.4,1.2,2.6,2.6,2.6h34.5c1.4,0,2.5-1.1,2.6-2.4v1.3c0,1.3,1,2.3,2.3,2.3
					h0.4c1.3,0,2.3-1,2.3-2.3v-40.8C462.3,296,457.7,291.5,452.1,291.5z"/>
				<path class="st5" d="M452.1,291.5h-67.8c-5.6,0-10.1,4.5-10.1,10.1v40.8c0,1.3,1,2.3,2.3,2.3h0.4c1.3,0,2.3-1,2.3-2.3V341
					c0,1.4,1.2,2.6,2.6,2.6h33.3c1.4,0,2.6-1.2,2.6-2.6c0,1.4,1.2,2.6,2.6,2.6h34.5c1.4,0,2.5-1.1,2.6-2.4v1.3c0,1.3,1,2.3,2.3,2.3
					h0.4c1.3,0,2.3-1,2.3-2.3v-40.8C462.3,296,457.7,291.5,452.1,291.5z"/>
			</g>
			<g>
				<path class="st6" d="M447.1,286.5h-67.8c-5.6,0-10.1,4.5-10.1,10.1v40.8c0,1.3,1,2.3,2.3,2.3h0.4c1.3,0,2.3-1,2.3-2.3V336
					c0,1.4,1.2,2.6,2.6,2.6h33.3c1.4,0,2.6-1.2,2.6-2.6c0,1.4,1.2,2.6,2.6,2.6h34.5c1.4,0,2.5-1.1,2.6-2.4v1.3c0,1.3,1,2.3,2.3,2.3
					h0.4c1.3,0,2.3-1,2.3-2.3v-40.8C457.3,291,452.7,286.5,447.1,286.5z"/>
				<path class="st18" d="M447.1,286.5h-67.8c-5.6,0-10.1,4.5-10.1,10.1v40.8c0,1.3,1,2.3,2.3,2.3h0.4c1.3,0,2.3-1,2.3-2.3V336
					c0,1.4,1.2,2.6,2.6,2.6h33.3c1.4,0,2.6-1.2,2.6-2.6c0,1.4,1.2,2.6,2.6,2.6h34.5c1.4,0,2.5-1.1,2.6-2.4v1.3c0,1.3,1,2.3,2.3,2.3
					h0.4c1.3,0,2.3-1,2.3-2.3v-40.8C457.3,291,452.7,286.5,447.1,286.5z"/>
			</g>
		</g>
		<g>
			<path class="st22" d="M447.1,286.5h-67.8c-5.6,0-10.1,4.5-10.1,10.1v40.8c0,1.3,1,2.3,2.3,2.3h0.4c1.3,0,2.3-1,2.3-2.3v-35.1
				h78.2v35.1c0,1.3,1,2.3,2.3,2.3h0.4c1.3,0,2.3-1,2.3-2.3v-40.8C457.3,291,452.7,286.5,447.1,286.5z"/>
			<g>
				<g>
					<path class="st19" d="M377.5,306.5c10.9-1.1,21.9-1.1,32.9,0c2.4,0.2,4.7-1.5,5-3.9c0.2-1.8,0.4-3.6,0.7-5.4
						c0.3-2.4-1.6-4.7-4.3-4.9c-11.9-1.2-23.8-1.2-35.7,0c-2.7,0.3-4.6,2.5-4.3,4.9c0.2,1.8,0.4,3.6,0.7,5.4
						C372.9,305,375.1,306.7,377.5,306.5z"/>
					<path class="st20" d="M376.6,302.8c0.3-1.2,34.5-1.2,34.7,0"/>
				</g>
			</g>
			<g>
				<g>
					<path class="st19" d="M416.1,306.5c10.9-1.1,21.9-1.1,32.9,0c2.4,0.2,4.7-1.5,5-3.9c0.2-1.8,0.4-3.6,0.7-5.4
						c0.3-2.4-1.6-4.7-4.3-4.9c-11.9-1.2-23.8-1.2-35.7,0c-2.7,0.3-4.6,2.5-4.3,4.9c0.2,1.8,0.4,3.6,0.7,5.4
						C411.4,305,413.6,306.7,416.1,306.5z"/>
					<path class="st20" d="M415.1,302.8c0.3-1.2,34.5-1.2,34.7,0"/>
				</g>
			</g>
			<path class="st19" d="M375.7,297.1c1.5,1,7.3,7.3,7.7,7.7c3-0.1,8.3,1.6,9.1,2.7c-0.5,0.8-0.8,0.6-1.5,1.8
				c-0.4,1.5-2.3,9.4-5.8,13.5c-2.2-2-13.4-3.2-16.4-6.5c-1.7-0.8-3.2-1.1-4.5-2.6c0.4-1,4.7-4.6,6.4-4.9
				C371.9,306.7,373.5,298.6,375.7,297.1z"/>
			<path class="st19" d="M444.9,295.6c1.6,1.1,10.9,14,11.5,15c-0.7,3-6.8,7.3-8.5,8.4c-0.6,2-1.8,4.3-3.1,5.3
				c-0.8-0.8-2.4-2.5-3-3.6c-1-0.6-7.1-5.7-8.4-9.8c-0.9-1-2-2-2-2.6c1.4-1.1,3.1-1.7,4.1-1.8C436.6,305.5,443.3,295.8,444.9,295.6z
				"/>
		</g>
	</g>
	<line class="st5" x1="84.6" y1="518.2" x2="49.3" y2="518.2"/>
	<g>
		<g>
			<line class="st23" x1="457.3" y1="333" x2="457.3" y2="336.3"/>
			<line class="st24" x1="457.3" y1="343.7" x2="457.3" y2="369.8"/>
			<line class="st25" x1="457.3" y1="373.5" x2="457.3" y2="414.5"/>
			<polyline class="st23" points="457.3,418.2 457.3,421.5 453.9,421.5 			"/>
			<line class="st26" x1="446.5" y1="421.5" x2="420.6" y2="421.5"/>
			<line class="st27" x1="416.9" y1="421.5" x2="376.2" y2="421.5"/>
			<polyline class="st23" points="372.5,421.5 369.2,421.5 369.2,418.2 			"/>
			<line class="st24" x1="369.2" y1="410.7" x2="369.2" y2="384.7"/>
			<line class="st25" x1="369.2" y1="381" x2="369.2" y2="340"/>
			<line class="st23" x1="369.2" y1="336.3" x2="369.2" y2="333"/>
		</g>
	</g>
	<g>
		<g>
			<g class="st10">
				<path class="st11" d="M136.5,157.2v-21.9H172v21.9c0,4.1-3.3,7.4-7.4,7.4h-20.8C139.8,164.6,136.5,161.3,136.5,157.2z"/>
				<path class="st12" d="M136.5,157.2v-21.9H172v21.9c0,4.1-3.3,7.4-7.4,7.4h-20.8C139.8,164.6,136.5,161.3,136.5,157.2z"/>
			</g>
			<g>
				<path class="st1" d="M131.5,152.2v-21.9H167v21.9c0,4.1-3.3,7.4-7.4,7.4h-20.8C134.8,159.6,131.5,156.3,131.5,152.2z"/>
				<path class="st5" d="M131.5,152.2v-21.9H167v21.9c0,4.1-3.3,7.4-7.4,7.4h-20.8C134.8,159.6,131.5,156.3,131.5,152.2z"/>
			</g>
		</g>
		<path class="st9" d="M134.8,154.1v-13.9c0-1.4,1.1-2.6,2.6-2.6h24c1.4,0,2.6,1.1,2.6,2.6v13.9c0,1.4-1.1,2.6-2.6,2.6h-24
			C136,156.7,134.8,155.5,134.8,154.1z"/>
		<circle class="st9" cx="149.4" cy="141.4" r="1.6"/>
	</g>
	<g>
		<g>
			<rect x="54.4" y="135.2" class="st9" width="36.8" height="36.8"/>
		</g>
		<g>
			<circle class="st28" cx="72.8" cy="153.6" r="8.6"/>
			<path class="st28" d="M71.9,159.2c3.3,0,6-2.7,6-6"/>
		</g>
	</g>
</g>
<g id="Ouvertures">
	<g>
		<path class="st29" d="M186.7,220.8c26.3,0,47.7-21.7,47.7-48.6"/>
		<line class="st5" x1="186.7" y1="172.2" x2="234.4" y2="172.2"/>
	</g>
	<g>
		<path class="st29" d="M194.2,132.3c0,30.9,25.5,55.9,57,55.9"/>
		<line class="st5" x1="251.2" y1="132.3" x2="251.2" y2="188.2"/>
	</g>
	<g>
		<g>
			<rect x="524" y="295.4" class="st1" width="14.7" height="277.5"/>
			<path class="st13" d="M538.5,295.7v277h-14.2v-277H538.5 M539,295.2h-15.2v278H539V295.2L539,295.2z"/>
		</g>
		<g>
			<rect x="531.6" y="295.4" class="st1" width="7.1" height="138.5"/>
			<path class="st13" d="M538.5,295.7v138h-6.6v-138H538.5 M539,295.2h-7.6v139h7.6V295.2L539,295.2z"/>
		</g>
		<g>
			<rect x="524" y="435.7" class="st1" width="6.5" height="137.3"/>
			<path class="st13" d="M530.2,435.9v136.7h-6V435.9H530.2 M530.7,435.4h-7v137.8h7V435.4L530.7,435.4z"/>
		</g>
		<g>
			<g>
				<line class="st30" x1="516.6" y1="384.1" x2="516.6" y2="350.3"/>
				<g>
					<polygon class="st13" points="518.6,352 518.3,352.4 516.6,350.5 514.9,352.4 514.5,352 516.6,349.8 					"/>
				</g>
			</g>
		</g>
		<rect x="523.7" y="431" class="st13" width="7" height="8.8"/>
		<rect x="531.3" y="431" class="st13" width="7.6" height="8.8"/>
		
			<rect x="523.9" y="566.5" transform="matrix(-1.836970e-16 1 -1 -1.836970e-16 1097.0853 42.7532)" class="st13" width="6.5" height="6.9"/>
		
			<rect x="531.1" y="295.4" transform="matrix(-1.836970e-16 1 -1 -1.836970e-16 834.3953 -235.9281)" class="st13" width="8.1" height="7.6"/>
		<line class="st31" x1="535" y1="431.7" x2="535" y2="295.8"/>
		<line class="st31" x1="527.2" y1="569.9" x2="527.2" y2="434"/>
	</g>
</g>
<g id="Étiquettes" class="st32">
	<text transform="matrix(1 0 0 1 753.0684 725.3735)" class="st33 st34 st35">Jardin</text>
	<text transform="matrix(1 0 0 1 752.4072 739.3959)" class="st33 st36 st35">57.75 m</text>
	<text transform="matrix(0.583 0 0 0.583 794.1807 735.5043)" class="st33 st36 st35">2</text>
	<text transform="matrix(1 0 0 1 430.7158 521.0688)" class="st33 st34 st37">Espace Jour </text>
	<text transform="matrix(1 0 0 1 448.3896 535.6713)" class="st33 st36 st37">35.70 m</text>
	<text transform="matrix(0.583 0 0 0.583 491.8916 531.6196)" class="st33 st36 st37">2</text>
	<text transform="matrix(1 0 0 1 200.4765 236.7465)" class="st33 st34 st37">entrée </text>
	<text transform="matrix(1 0 0 1 203.7129 251.349)" class="st33 st36 st37">3.20 m</text>
	<text transform="matrix(0.583 0 0 0.583 240.1572 247.2968)" class="st33 st36 st37">2</text>
	<text transform="matrix(1 0 0 1 109.7319 178.5688)" class="st33 st34 st37">WC/</text>
	<text transform="matrix(1 0 0 1 96.2978 193.1713)" class="st33 st34 st37">douche </text>
	<text transform="matrix(1 0 0 1 102.7651 207.7738)" class="st33 st36 st37">4.80 m</text>
	<text transform="matrix(0.583 0 0 0.583 139.2095 203.7216)" class="st33 st36 st37">2</text>
	<text transform="matrix(1 0 0 1 705.8477 582.3129)" class="st33 st34 st37">Terrasse </text>
	<text transform="matrix(1 0 0 1 713.0078 596.9155)" class="st33 st36 st37">20.70 m</text>
	<text transform="matrix(0.583 0 0 0.583 756.5098 592.8637)" class="st33 st36 st37">2</text>
</g>
<g id="Murs">
	
		<rect x="-188.6" y="339.7" transform="matrix(-1.836970e-16 1 -1 -1.836970e-16 389.0839 305.5539)" class="st13" width="460.8" height="15.1"/>
	
		<rect x="158.3" y="145.1" transform="matrix(-1.836970e-16 1 -1 -1.836970e-16 330.9628 -34.8849)" class="st13" width="49.3" height="5.8"/>
	
		<rect x="155.4" y="244.9" transform="matrix(-1.836970e-16 1 -1 -1.836970e-16 430.7734 64.9257)" class="st13" width="55.1" height="5.8"/>
	
		<rect x="35.1" y="565.8" transform="matrix(-0.9986 -5.233612e-02 5.233612e-02 -0.9986 552.8371 1170.8253)" class="st13" width="513.3" height="24.8"/>
	
		<rect x="110.2" y="46.5" transform="matrix(-1.836970e-16 1 -1 -1.836970e-16 240.5213 6.7114)" class="st13" width="13.4" height="154.3"/>
	
		<rect x="256.2" y="111.9" transform="matrix(-1.836970e-16 1 -1 -1.836970e-16 386.4903 -139.2576)" class="st13" width="13.4" height="23.4"/>
	<rect x="258.8" y="123.4" class="st13" width="15.7" height="161.1"/>
	
		<rect x="390.3" y="137.3" transform="matrix(-1.836970e-16 1 -1 -1.836970e-16 674.8077 -121.5195)" class="st13" width="15.7" height="278.7"/>
	
		<rect x="105.1" y="203.8" transform="matrix(-1.836970e-16 1 -1 -1.836970e-16 389.6527 163.6355)" class="st13" width="15.7" height="145.6"/>
	
		<rect x="518.1" y="275.7" transform="matrix(-1.836970e-16 1 -1 -1.836970e-16 813.225 -248.1633)" class="st13" width="25.2" height="13.6"/>
	
		<rect x="531.6" y="282.5" transform="matrix(-1 -1.224647e-16 1.224647e-16 -1 1226.2494 578.6983)" class="st13" width="163.1" height="13.6"/>
	<polygon class="st13" points="523.9,602.7 523.9,573.2 551,573.2 551,604.2 	"/>
	
		<rect x="64" y="538.8" transform="matrix(-1.836970e-16 1 -1 -1.836970e-16 623.8712 489.6927)" class="st13" width="6.2" height="35.9"/>
</g>
<g id="Entree">
</g>
<g id="Nord">
	<polygon class="st38" points="231.8,120.9 222.7,128.8 213.5,120.9 	"/>
	<circle class="st39" cx="94.6" cy="705.5" r="19.9"/>
	<line class="st40" x1="107.4" y1="701.3" x2="119.8" y2="697.4"/>
	<text transform="matrix(1 0 0 1 84.2749 715.1078)" class="st13 st34 st41">N</text>
</g>
</svg>
