<?xml version="1.0" encoding="utf-8"?>
<!-- Generator: Adobe Illustrator 22.0.1, SVG Export Plug-In . SVG Version: 6.00 Build 0)  -->
<svg version="1.1" xmlns="http://www.w3.org/2000/svg" xmlns:xlink="http://www.w3.org/1999/xlink" x="0px" y="0px"
	 viewBox="0 0 595.3 633" style="enable-background:new 0 0 595.3 633;" xml:space="preserve">
<style type="text/css">
	.st0{fill:none;}
	.st1{fill:#FFFFFF;}
	.st2{fill:#E3E3E3;}
	.st3{fill:#EAF6FE;}
	.st4{fill:none;stroke:#707E85;stroke-width:0.3;stroke-miterlimit:10;}
	.st5{opacity:0.8;fill:#FFFFFF;}
	.st6{fill:url(#SVGID_1_);stroke:#707E85;stroke-width:0.3;stroke-miterlimit:10;}
	.st7{fill:url(#SVGID_2_);stroke:#707E85;stroke-width:0.3;stroke-miterlimit:10;}
	.st8{fill:url(#SVGID_3_);stroke:#707E85;stroke-width:0.3;stroke-miterlimit:10;}
	.st9{opacity:5.000000e-02;}
	.st10{fill:#707E85;}
	.st11{fill:none;stroke:#CBD3D7;stroke-width:0.3;stroke-miterlimit:10;}
	.st12{fill:#EAF6FE;stroke:#CBD3D7;stroke-width:0.3;stroke-miterlimit:10;}
	.st13{fill:#EAF6FE;stroke:#CBD3D7;stroke-width:0.3;stroke-linecap:round;stroke-miterlimit:10;}
	.st14{fill:#CBD3D7;}
	.st15{opacity:0.2;}
	.st16{fill:#708793;}
	.st17{fill:none;stroke:#708793;stroke-width:0.3;stroke-miterlimit:10;}
	.st18{fill:#FFFFFF;stroke:#707E85;stroke-width:0.3;stroke-miterlimit:10;}
	.st19{fill:none;stroke:#000000;stroke-width:0.12;stroke-linecap:square;stroke-linejoin:bevel;stroke-miterlimit:10;}
	.st20{fill:#EAF6FE;stroke:#CBD3D7;stroke-width:0.2953;stroke-miterlimit:10;}
	.st21{fill:#EAF6FE;stroke:#CBD3D7;stroke-width:0.3;stroke-linecap:round;stroke-linejoin:round;stroke-miterlimit:10;}
	.st22{fill:none;stroke:#707E85;stroke-width:0.6204;stroke-miterlimit:10;}
	.st23{fill:none;stroke:#707E85;stroke-width:0.5;stroke-miterlimit:10;}
	.st24{fill:#EAF6FE;stroke:#707E85;stroke-width:0.3;stroke-miterlimit:10;}
	.st25{fill:none;stroke:#707E85;stroke-width:0.3;stroke-linecap:round;stroke-linejoin:round;stroke-miterlimit:10;}
	.st26{fill:none;stroke:#CBD3D7;stroke-width:0.3;stroke-linecap:round;stroke-linejoin:round;stroke-miterlimit:10;}
	.st27{fill:#EAF6FE;stroke:#CBD3D7;stroke-width:0.3033;stroke-miterlimit:10;}
	.st28{fill:#707E85;stroke:#707E85;stroke-width:0.3;stroke-miterlimit:10;}
	.st29{fill:#707E85;stroke:#707E85;stroke-width:0.3033;stroke-miterlimit:10;}
	.st30{fill:#707E85;stroke:#707E85;stroke-width:0.3;stroke-linecap:round;stroke-linejoin:round;stroke-miterlimit:10;}
	.st31{fill:none;stroke:#707E85;stroke-width:0.3;stroke-miterlimit:1;}
	.st32{fill:none;stroke:#707E85;stroke-width:0.1;stroke-miterlimit:1;}
	.st33{fill:none;stroke:#707E85;stroke-width:0.3;stroke-miterlimit:10;stroke-dasharray:2,2;}
	.st34{display:none;}
	.st35{display:inline;fill:#3A3A39;}
	.st36{font-family:'Lato-Black';}
	.st37{font-size:6.5098px;}
	.st38{font-family:'Lato-Italic';}
	.st39{font-size:6.8939px;}
	.st40{fill:none;stroke:#82929B;stroke-width:2;stroke-miterlimit:10;}
	.st41{fill:none;stroke:#A5B8C4;stroke-miterlimit:10;}
	.st42{fill:#3A3A39;}
	.st43{fill:none;stroke:#707E85;stroke-miterlimit:10;}
	.st44{fill:none;stroke:#707E85;stroke-width:2;stroke-miterlimit:10;}
	.st45{font-size:16.4252px;}
</style>
<pattern  width="3.8" height="3.4" patternUnits="userSpaceOnUse" id="Nouvelle_nuance_de_motif_7" viewBox="0 -3.4 3.8 3.4" style="overflow:visible;">
	<g>
		<rect y="-3.4" class="st0" width="3.8" height="3.4"/>
		<rect x="0.1" y="-3.4" class="st1" width="3.7" height="3.4"/>
		<rect x="3.7" y="-3.4" class="st2" width="0.1" height="3.4"/>
		<rect x="0" y="-3.4" class="st2" width="0.1" height="3.4"/>
	</g>
</pattern>
<g id="Jardin">
</g>
<g id="Fond">
	
		<rect x="266.3" y="338.5" transform="matrix(4.490192e-11 -1 1 4.490192e-11 -175.6204 848.4112)" class="st3" width="140.2" height="347"/>
	
		<rect x="300.2" y="526.1" transform="matrix(4.488771e-11 -1 1 4.488771e-11 -240.0969 881.5242)" class="st3" width="41" height="69.3"/>
	
		<rect x="266.8" y="201.4" transform="matrix(4.490103e-11 -1 1 4.490103e-11 -75.6545 712.2104)" class="st3" width="102.9" height="385"/>
	<polygon class="st3" points="160.9,13.6 160.9,251.4 510.8,251.4 510.8,33.6 	"/>
	<polygon class="st3" points="284.7,434.3 284.7,21 121.3,11 121.3,434.3 	"/>
	
		<rect x="266.3" y="342.4" transform="matrix(4.491103e-11 -1 1 4.491103e-11 -66.5179 690.1654)" class="st3" width="91" height="71.9"/>
	<polygon class="st4" points="522.4,584.2 522.4,342.2 349.7,342.2 349.7,326.3 289.7,326.3 289.7,296.8 80.3,296.8 80.3,439.4 
		80.3,584.2 	"/>
</g>
<g id="Sol">
	
		<rect x="349.5" y="182.1" transform="matrix(-7.811246e-12 -1 1 -7.811246e-12 177.5475 599.7568)" class="st5" width="78.2" height="58"/>
	
		<rect x="284.2" y="394.4" transform="matrix(-2.163064e-11 -1 1 -2.163064e-11 -108.8356 721.1099)" class="st5" width="43.8" height="41"/>
	
		<rect x="275.8" y="50.4" transform="matrix(2.681028e-12 -1 1 2.681028e-12 244.8193 402.4693)" class="st5" width="95.7" height="56.9"/>
	<pattern  id="SVGID_1_" xlink:href="#Nouvelle_nuance_de_motif_7" patternTransform="matrix(1 0 0 -1 -9.0416 -14541.6748)">
	</pattern>
	<polygon class="st6" points="214.8,439.3 119.6,439.3 119.6,11.2 78.7,8.5 78.7,584.1 215.3,584.1 	"/>
	<pattern  id="SVGID_2_" xlink:href="#Nouvelle_nuance_de_motif_7" patternTransform="matrix(1 0 0 -1 -9.0416 -14541.6748)">
	</pattern>
	<polygon class="st7" points="401.1,500.2 401.1,584.1 523.1,584.1 523.1,500.2 	"/>
	<pattern  id="SVGID_3_" xlink:href="#Nouvelle_nuance_de_motif_7" patternTransform="matrix(1 0 0 -1 -9.7245 -14542.9082)">
	</pattern>
	<polygon class="st8" points="480.5,28.4 480.5,246 522.4,246 522.4,32.9 	"/>
</g>
<g id="Installations">
	<g>
		<g>
			<g class="st9">
				<path class="st10" d="M278.9,84.4V30.5c0-0.6-0.4-1-1-1h-16.5c-0.6,0-1,0.4-1,1v53.9c0,0.6,0.4,1,1,1h16.5
					C278.4,85.4,278.9,85,278.9,84.4z"/>
				<path class="st4" d="M278.9,84.4V30.5c0-0.6-0.4-1-1-1h-16.5c-0.6,0-1,0.4-1,1v53.9c0,0.6,0.4,1,1,1h16.5
					C278.4,85.4,278.9,85,278.9,84.4z"/>
			</g>
			<g>
				<path class="st3" d="M275.9,81.4V27.5c0-0.6-0.4-1-1-1h-16.5c-0.6,0-1,0.4-1,1v53.9c0,0.6,0.4,1,1,1h16.5
					C275.4,82.4,275.9,82,275.9,81.4z"/>
				<path class="st11" d="M275.9,81.4V27.5c0-0.6-0.4-1-1-1h-16.5c-0.6,0-1,0.4-1,1v53.9c0,0.6,0.4,1,1,1h16.5
					C275.4,82.4,275.9,82,275.9,81.4z"/>
			</g>
		</g>
		<line class="st12" x1="259.9" y1="26.5" x2="259.9" y2="82.4"/>
		<line class="st12" x1="259.9" y1="54.5" x2="257.4" y2="54.5"/>
		<polyline class="st11" points="257.4,48.4 256,48.4 256,50.5 257.4,50.5 		"/>
		<polyline class="st11" points="257.4,58.5 256,58.5 256,60.6 257.4,60.6 		"/>
	</g>
	<g>
		<g>
			<g class="st9">
				<path class="st10" d="M508.8,356.4h-50.1c-0.6,0-1,0.4-1,1v16.5c0,0.6,0.4,1,1,1h50.1c0.6,0,1-0.4,1-1v-16.5
					C509.8,356.9,509.4,356.4,508.8,356.4z"/>
				<path class="st4" d="M508.8,356.4h-50.1c-0.6,0-1,0.4-1,1v16.5c0,0.6,0.4,1,1,1h50.1c0.6,0,1-0.4,1-1v-16.5
					C509.8,356.9,509.4,356.4,508.8,356.4z"/>
			</g>
			<g>
				<path class="st3" d="M505.8,353.4h-50.1c-0.6,0-1,0.4-1,1v16.5c0,0.6,0.4,1,1,1h50.1c0.6,0,1-0.4,1-1v-16.5
					C506.8,353.9,506.4,353.4,505.8,353.4z"/>
				<path class="st11" d="M505.8,353.4h-50.1c-0.6,0-1,0.4-1,1v16.5c0,0.6,0.4,1,1,1h50.1c0.6,0,1-0.4,1-1v-16.5
					C506.8,353.9,506.4,353.4,505.8,353.4z"/>
			</g>
		</g>
		<line class="st12" x1="454.8" y1="369.4" x2="506.8" y2="369.4"/>
		<line class="st12" x1="480.8" y1="369.4" x2="480.8" y2="371.9"/>
		<polyline class="st11" points="475.1,371.9 475.1,373.3 477.1,373.3 477.1,371.9 		"/>
		<polyline class="st11" points="484.5,371.9 484.5,373.3 486.5,373.3 486.5,371.9 		"/>
	</g>
	<g>
		<g>
			<g class="st9">
				<path class="st10" d="M454.1,356.4h-50.1c-0.6,0-1,0.4-1,1v16.5c0,0.6,0.4,1,1,1h50.1c0.6,0,1-0.4,1-1v-16.5
					C455.1,356.9,454.7,356.4,454.1,356.4z"/>
				<path class="st4" d="M454.1,356.4h-50.1c-0.6,0-1,0.4-1,1v16.5c0,0.6,0.4,1,1,1h50.1c0.6,0,1-0.4,1-1v-16.5
					C455.1,356.9,454.7,356.4,454.1,356.4z"/>
			</g>
			<g>
				<path class="st3" d="M451.1,353.4h-50.1c-0.6,0-1,0.4-1,1v16.5c0,0.6,0.4,1,1,1h50.1c0.6,0,1-0.4,1-1v-16.5
					C452.1,353.9,451.7,353.4,451.1,353.4z"/>
				<path class="st11" d="M451.1,353.4h-50.1c-0.6,0-1,0.4-1,1v16.5c0,0.6,0.4,1,1,1h50.1c0.6,0,1-0.4,1-1v-16.5
					C452.1,353.9,451.7,353.4,451.1,353.4z"/>
			</g>
		</g>
		<line class="st12" x1="400.1" y1="369.4" x2="452.1" y2="369.4"/>
		<line class="st12" x1="426.1" y1="369.4" x2="426.1" y2="371.9"/>
		<polyline class="st11" points="420.4,371.9 420.4,373.3 422.4,373.3 422.4,371.9 		"/>
		<polyline class="st11" points="429.8,371.9 429.8,373.3 431.8,373.3 431.8,371.9 		"/>
	</g>
	<g>
		<g>
			<g class="st9">
				<path class="st10" d="M424.6,60.8l-60-0.3c-0.6,0-1,0.4-1,1l-0.3,47.5c0,0.6,0.4,1,1,1l60,0.3c0.6,0,1-0.4,1-1l0.3-47.5
					C425.5,61.2,425.1,60.8,424.6,60.8z"/>
				<path class="st4" d="M424.6,60.8l-60-0.3c-0.6,0-1,0.4-1,1l-0.3,47.5c0,0.6,0.4,1,1,1l60,0.3c0.6,0,1-0.4,1-1l0.3-47.5
					C425.5,61.2,425.1,60.8,424.6,60.8z"/>
			</g>
			<g>
				<path class="st3" d="M421.6,57.8l-60-0.3c-0.6,0-1,0.4-1,1l-0.3,47.5c0,0.6,0.4,1,1,1l60,0.3c0.6,0,1-0.4,1-1l0.3-47.5
					C422.5,58.2,422.1,57.8,421.6,57.8z"/>
				<path class="st11" d="M421.6,57.8l-60-0.3c-0.6,0-1,0.4-1,1l-0.3,47.5c0,0.6,0.4,1,1,1l60,0.3c0.6,0,1-0.4,1-1l0.3-47.5
					C422.5,58.2,422.1,57.8,421.6,57.8z"/>
			</g>
		</g>
		<path class="st12" d="M418.2,61.1l-53.4-0.3c-0.6,0-1,0.4-1,1l-0.2,40.8c0,0.6,0.4,1,1,1l53.4,0.3c0.6,0,1-0.4,1-1l0.2-40.8
			C419.2,61.5,418.8,61.1,418.2,61.1z"/>
		<path class="st12" d="M366.9,63.6c-1.1,1.8-1.4,14.7-0.2,16.7c0.1,0.1,6.2,0.9,9.4,0.4c0.6-0.1,1.3-0.6,1.7-1.6
			c1.2-3.3,0.8-10.9-0.3-14.5c-0.4-1.3-1.7-1.2-2.2-1.3C372.9,62.9,367.2,63,366.9,63.6z"/>
		<path class="st12" d="M366.6,84c-1.4,3.7-1,16-0.4,16.7c0.3,0.3,6.2,1,9,0.4c0.4-0.1,0.8-0.2,0.9-0.4c1.1-1.6,2-15.9,1.8-16.2
			s-1.3-0.1-1.9-0.4C374.6,83.3,366.8,83.4,366.6,84z"/>
		<g>
			<path class="st12" d="M386.2,101.6c0,0,1.7-17,1.7-19.1c0-2.3-1.5-19.2-1.5-19.2c0-1.6,2.7-2.9,1.1-2.9l-9-0.1
				c-1.6,0-2.9,1.3-2.9,2.9c0,0,0.8,16.5,0.7,19c0,2.6-1,19.3-1,19.3c0,1.6,1.3,2.9,2.9,2.9l9,0.1
				C388.9,104.5,386.2,103.2,386.2,101.6z"/>
			<path class="st13" d="M377.9,66.6c0.3-2,3-6.2,3.9-6.3"/>
			<path class="st13" d="M378.7,87.4c0.1-0.3,4.5-9.3,6.6-8.2c0.8,0.4,0.3,1.8-0.2,2.5"/>
			<path class="st13" d="M376.7,101.8c1.2-1.2,4.7-6.5,7.5-13.6"/>
		</g>
		<g>
			<g>
				<g class="st9">
					<path class="st10" d="M363.2,113.1l0,8.4c0,0.6,0.4,1,1,1l7.4,0c0.6,0,1-0.4,1-1l0-8.4c0-0.6-0.4-1-1-1l-7.4,0
						C363.7,112.1,363.2,112.5,363.2,113.1z"/>
					<path class="st4" d="M363.2,113.1l0,8.4c0,0.6,0.4,1,1,1l7.4,0c0.6,0,1-0.4,1-1l0-8.4c0-0.6-0.4-1-1-1l-7.4,0
						C363.7,112.1,363.2,112.5,363.2,113.1z"/>
				</g>
				<g>
					<path class="st3" d="M360.2,110.1l0,8.4c0,0.6,0.4,1,1,1l7.4,0c0.6,0,1-0.4,1-1l0-8.4c0-0.6-0.4-1-1-1l-7.4,0
						C360.7,109.1,360.2,109.5,360.2,110.1z"/>
					<path class="st11" d="M360.2,110.1l0,8.4c0,0.6,0.4,1,1,1l7.4,0c0.6,0,1-0.4,1-1l0-8.4c0-0.6-0.4-1-1-1l-7.4,0
						C360.7,109.1,360.2,109.5,360.2,110.1z"/>
				</g>
			</g>
			<path class="st12" d="M367.1,115.3l-1.3-3.4c-0.2-0.5-0.8-0.8-1.3-0.6l-1.2,0.5c-0.5,0.2-0.8,0.8-0.6,1.3l1.3,3.4
				c0.2,0.5,0.8,0.8,1.3,0.6l1.2-0.5C367.1,116.4,367.3,115.8,367.1,115.3z"/>
			<circle class="st12" cx="365" cy="114.2" r="0.5"/>
		</g>
		<g>
			<g>
				<g class="st9">
					<path class="st10" d="M373,57.3l0-8.4c0-0.6-0.4-1-1-1l-7.4,0c-0.6,0-1,0.4-1,1l0,8.4c0,0.6,0.4,1,1,1l7.4,0
						C372.5,58.3,373,57.9,373,57.3z"/>
					<path class="st4" d="M373,57.3l0-8.4c0-0.6-0.4-1-1-1l-7.4,0c-0.6,0-1,0.4-1,1l0,8.4c0,0.6,0.4,1,1,1l7.4,0
						C372.5,58.3,373,57.9,373,57.3z"/>
				</g>
				<g>
					<path class="st3" d="M370,54.3l0-8.4c0-0.6-0.4-1-1-1l-7.4,0c-0.6,0-1,0.4-1,1l0,8.4c0,0.6,0.4,1,1,1l7.4,0
						C369.5,55.3,370,54.9,370,54.3z"/>
					<path class="st11" d="M370,54.3l0-8.4c0-0.6-0.4-1-1-1l-7.4,0c-0.6,0-1,0.4-1,1l0,8.4c0,0.6,0.4,1,1,1l7.4,0
						C369.5,55.3,370,54.9,370,54.3z"/>
				</g>
			</g>
			<path class="st12" d="M365.9,47.8l0-0.4c0-0.1-0.1-0.2-0.2-0.2l-5.1,0l0,0.8l5.1,0C365.8,48.1,365.9,48,365.9,47.8z"/>
			<path class="st12" d="M365.1,49.5l0-0.4c0-0.1-0.1-0.2-0.2-0.2l-4.3,0l0,0.8l4.3,0C365,49.7,365.1,49.6,365.1,49.5z"/>
			<path class="st12" d="M366.4,48.7l0-0.4c0-0.1-0.1-0.2-0.2-0.2l-5.6,0l0,0.8l5.6,0C366.3,48.9,366.4,48.8,366.4,48.7z"/>
		</g>
	</g>
	<g>
		<g>
			<g class="st9">
				<path class="st10" d="M449.3,463.7l60,0.3c0.6,0,1-0.4,1-1l0.3-47.5c0-0.6-0.4-1-1-1l-60-0.3c-0.6,0-1,0.4-1,1l-0.3,47.5
					C448.3,463.2,448.8,463.7,449.3,463.7z"/>
				<path class="st4" d="M449.3,463.7l60,0.3c0.6,0,1-0.4,1-1l0.3-47.5c0-0.6-0.4-1-1-1l-60-0.3c-0.6,0-1,0.4-1,1l-0.3,47.5
					C448.3,463.2,448.8,463.7,449.3,463.7z"/>
			</g>
			<g>
				<path class="st3" d="M446.3,460.7l60,0.3c0.6,0,1-0.4,1-1l0.3-47.5c0-0.6-0.4-1-1-1l-60-0.3c-0.6,0-1,0.4-1,1l-0.3,47.5
					C445.3,460.2,445.8,460.7,446.3,460.7z"/>
				<path class="st11" d="M446.3,460.7l60,0.3c0.6,0,1-0.4,1-1l0.3-47.5c0-0.6-0.4-1-1-1l-60-0.3c-0.6,0-1,0.4-1,1l-0.3,47.5
					C445.3,460.2,445.8,460.7,446.3,460.7z"/>
			</g>
		</g>
		<path class="st12" d="M449.7,457.4l53.4,0.3c0.6,0,1-0.4,1-1l0.2-40.8c0-0.6-0.4-1-1-1l-53.4-0.3c-0.6,0-1,0.4-1,1l-0.2,40.8
			C448.7,456.9,449.1,457.4,449.7,457.4z"/>
		<path class="st12" d="M501,454.9c1.1-1.8,1.4-14.7,0.2-16.7c-0.1-0.1-6.2-0.9-9.4-0.4c-0.6,0.1-1.3,0.6-1.7,1.6
			c-1.2,3.3-0.8,10.9,0.3,14.5c0.4,1.3,1.7,1.2,2.2,1.3C495,455.6,500.7,455.4,501,454.9z"/>
		<path class="st12" d="M501.3,434.5c1.4-3.7,1-16,0.4-16.7c-0.3-0.3-6.2-1-9-0.4c-0.4,0.1-0.8,0.2-0.9,0.4
			c-1.1,1.6-2,15.9-1.8,16.2s1.3,0.1,1.9,0.4C493.3,435.1,501,435.1,501.3,434.5z"/>
		<g>
			<path class="st12" d="M481.7,416.9c0,0-1.7,17-1.7,19.1c0,2.3,1.5,19.2,1.5,19.2c0,1.6-2.7,2.9-1.1,2.9l9,0.1
				c1.6,0,2.9-1.3,2.9-2.9c0,0-0.8-16.5-0.7-19c0-2.6,1-19.3,1-19.3c0-1.6-1.3-2.9-2.9-2.9l-9-0.1
				C479,413.9,481.7,415.3,481.7,416.9z"/>
			<path class="st13" d="M490,451.9c-0.3,2-3,6.2-3.9,6.3"/>
			<path class="st13" d="M489.2,431.1c-0.1,0.3-4.5,9.3-6.6,8.2c-0.8-0.4-0.3-1.8,0.2-2.5"/>
			<path class="st13" d="M491.2,416.6c-1.2,1.2-4.7,6.5-7.5,13.6"/>
		</g>
		<g>
			<g>
				<g class="st9">
					<path class="st10" d="M510.7,411.4l0-8.4c0-0.6-0.4-1-1-1l-7.4,0c-0.6,0-1,0.4-1,1l0,8.4c0,0.6,0.4,1,1,1l7.4,0
						C510.2,412.4,510.7,412,510.7,411.4z"/>
					<path class="st4" d="M510.7,411.4l0-8.4c0-0.6-0.4-1-1-1l-7.4,0c-0.6,0-1,0.4-1,1l0,8.4c0,0.6,0.4,1,1,1l7.4,0
						C510.2,412.4,510.7,412,510.7,411.4z"/>
				</g>
				<g>
					<path class="st3" d="M507.7,408.4l0-8.4c0-0.6-0.4-1-1-1l-7.4,0c-0.6,0-1,0.4-1,1l0,8.4c0,0.6,0.4,1,1,1l7.4,0
						C507.2,409.4,507.7,409,507.7,408.4z"/>
					<path class="st11" d="M507.7,408.4l0-8.4c0-0.6-0.4-1-1-1l-7.4,0c-0.6,0-1,0.4-1,1l0,8.4c0,0.6,0.4,1,1,1l7.4,0
						C507.2,409.4,507.7,409,507.7,408.4z"/>
				</g>
			</g>
			<path class="st12" d="M500.8,403.2l1.3,3.4c0.2,0.5,0.8,0.8,1.3,0.6l1.2-0.5c0.5-0.2,0.8-0.8,0.6-1.3l-1.3-3.4
				c-0.2-0.5-0.8-0.8-1.3-0.6l-1.2,0.5C500.8,402.1,500.6,402.7,500.8,403.2z"/>
			<circle class="st12" cx="502.9" cy="404.3" r="0.5"/>
		</g>
		<g>
			<g>
				<g class="st9">
					<path class="st10" d="M500.9,467.1l0,8.4c0,0.6,0.4,1,1,1l7.4,0c0.6,0,1-0.4,1-1l0-8.4c0-0.6-0.4-1-1-1l-7.4,0
						C501.4,466.1,500.9,466.6,500.9,467.1z"/>
					<path class="st4" d="M500.9,467.1l0,8.4c0,0.6,0.4,1,1,1l7.4,0c0.6,0,1-0.4,1-1l0-8.4c0-0.6-0.4-1-1-1l-7.4,0
						C501.4,466.1,500.9,466.6,500.9,467.1z"/>
				</g>
				<g>
					<path class="st3" d="M497.9,464.1l0,8.4c0,0.6,0.4,1,1,1l7.4,0c0.6,0,1-0.4,1-1l0-8.4c0-0.6-0.4-1-1-1l-7.4,0
						C498.4,463.1,497.9,463.6,497.9,464.1z"/>
					<path class="st11" d="M497.9,464.1l0,8.4c0,0.6,0.4,1,1,1l7.4,0c0.6,0,1-0.4,1-1l0-8.4c0-0.6-0.4-1-1-1l-7.4,0
						C498.4,463.1,497.9,463.6,497.9,464.1z"/>
				</g>
			</g>
			<path class="st12" d="M502,470.6l0,0.4c0,0.1,0.1,0.2,0.2,0.2l5.1,0l0-0.8l-5.1,0C502.1,470.4,502,470.5,502,470.6z"/>
			<path class="st12" d="M502.8,469l0,0.4c0,0.1,0.1,0.2,0.2,0.2l4.3,0l0-0.8l-4.3,0C502.9,468.7,502.8,468.8,502.8,469z"/>
			<path class="st12" d="M501.5,469.8l0,0.4c0,0.1,0.1,0.2,0.2,0.2l5.6,0l0-0.8l-5.6,0C501.6,469.6,501.5,469.7,501.5,469.8z"/>
		</g>
	</g>
	<g>
		<g>
			<g class="st9">
				<path class="st10" d="M217.8,85.9l3.5-59.9c0-0.6-0.4-1-0.9-1.1l-47.4-2.8c-0.6,0-1,0.4-1.1,0.9L168.4,83c0,0.6,0.4,1,0.9,1.1
					l47.4,2.8C217.3,86.8,217.7,86.4,217.8,85.9z"/>
				<path class="st4" d="M217.8,85.9l3.5-59.9c0-0.6-0.4-1-0.9-1.1l-47.4-2.8c-0.6,0-1,0.4-1.1,0.9L168.4,83c0,0.6,0.4,1,0.9,1.1
					l47.4,2.8C217.3,86.8,217.7,86.4,217.8,85.9z"/>
			</g>
			<g>
				<path class="st3" d="M214.8,82.9l3.5-59.9c0-0.6-0.4-1-0.9-1.1l-47.4-2.8c-0.6,0-1,0.4-1.1,0.9L165.4,80c0,0.6,0.4,1,0.9,1.1
					l47.4,2.8C214.3,83.8,214.7,83.4,214.8,82.9z"/>
				<path class="st11" d="M214.8,82.9l3.5-59.9c0-0.6-0.4-1-0.9-1.1l-47.4-2.8c-0.6,0-1,0.4-1.1,0.9L165.4,80c0,0.6,0.4,1,0.9,1.1
					l47.4,2.8C214.3,83.8,214.7,83.4,214.8,82.9z"/>
			</g>
		</g>
		<path class="st12" d="M211.7,79.4l3.1-53.3c0-0.6-0.4-1-0.9-1.1L173,22.6c-0.6,0-1,0.4-1.1,0.9l-3.1,53.3c0,0.6,0.4,1,0.9,1.1
			l40.8,2.4C211.2,80.3,211.6,79.9,211.7,79.4z"/>
		<path class="st12" d="M211.8,28c-1.8-1.2-14.6-2.1-16.7-1.1c-0.1,0.1-1.2,6.1-0.9,9.4c0,0.6,0.5,1.4,1.5,1.8
			c3.2,1.3,10.8,1.3,14.5,0.5c1.3-0.3,1.3-1.6,1.4-2.1C212.3,34,212.4,28.3,211.8,28z"/>
		<path class="st12" d="M191.5,26.6c-3.6-1.6-15.9-1.9-16.6-1.2c-0.3,0.3-1.3,6.1-0.9,8.9c0.1,0.4,0.2,0.8,0.4,1
			c1.5,1.2,15.8,2.8,16.1,2.7c0.2-0.1,0.2-1.3,0.5-1.9C191.7,34.6,192.1,26.9,191.5,26.6z"/>
		<g>
			<path class="st12" d="M172.9,45.3c0,0,16.9,2.6,19,2.7c2.2,0.1,19.2-0.5,19.2-0.5c1.6,0.1,2.8,2.9,2.9,1.3l0.5-9
				c0.1-1.6-1.1-3-2.8-3.1c0,0-16.5-0.1-19-0.3s-19.2-2-19.2-2c-1.6-0.1-3,1.1-3.1,2.8l-0.5,9C169.8,47.8,171.3,45.2,172.9,45.3z"/>
			<path class="st13" d="M208.3,38.8c2,0.4,6,3.4,6.1,4.2"/>
			<path class="st13" d="M187.5,38.5c0.3,0.2,9,5,7.9,7c-0.4,0.8-1.8,0.2-2.4-0.3"/>
			<path class="st13" d="M173.1,35.8c1.2,1.3,6.2,5.1,13.2,8.2"/>
		</g>
		<g>
			<g>
				<g class="st9">
					<path class="st10" d="M168.8,21.9l-8.4-0.5c-0.6,0-1,0.4-1.1,0.9l-0.4,7.4c0,0.6,0.4,1,0.9,1.1l8.4,0.5c0.6,0,1-0.4,1.1-0.9
						l0.4-7.4C169.8,22.4,169.3,21.9,168.8,21.9z"/>
					<path class="st4" d="M168.8,21.9l-8.4-0.5c-0.6,0-1,0.4-1.1,0.9l-0.4,7.4c0,0.6,0.4,1,0.9,1.1l8.4,0.5c0.6,0,1-0.4,1.1-0.9
						l0.4-7.4C169.8,22.4,169.3,21.9,168.8,21.9z"/>
				</g>
				<g>
					<path class="st3" d="M165.8,18.9l-8.4-0.5c-0.6,0-1,0.4-1.1,0.9l-0.4,7.4c0,0.6,0.4,1,0.9,1.1l8.4,0.5c0.6,0,1-0.4,1.1-0.9
						l0.4-7.4C166.8,19.4,166.3,18.9,165.8,18.9z"/>
					<path class="st11" d="M165.8,18.9l-8.4-0.5c-0.6,0-1,0.4-1.1,0.9l-0.4,7.4c0,0.6,0.4,1,0.9,1.1l8.4,0.5c0.6,0,1-0.4,1.1-0.9
						l0.4-7.4C166.8,19.4,166.3,18.9,165.8,18.9z"/>
				</g>
			</g>
			<path class="st12" d="M160.2,25.5l3.4-1.1c0.5-0.2,0.8-0.7,0.7-1.3l-0.4-1.2c-0.2-0.5-0.7-0.8-1.3-0.7l-3.4,1.1
				c-0.5,0.2-0.8,0.7-0.7,1.3l0.4,1.2C159.1,25.4,159.7,25.7,160.2,25.5z"/>
			<circle class="st12" cx="161.4" cy="23.4" r="0.5"/>
		</g>
		<g>
			<g>
				<g class="st9">
					<path class="st10" d="M223.9,34.5l8.4,0.5c0.6,0,1-0.4,1.1-0.9l0.4-7.4c0-0.6-0.4-1-0.9-1.1l-8.4-0.5c-0.6,0-1,0.4-1.1,0.9
						l-0.4,7.4C223,34,223.4,34.5,223.9,34.5z"/>
					<path class="st4" d="M223.9,34.5l8.4,0.5c0.6,0,1-0.4,1.1-0.9l0.4-7.4c0-0.6-0.4-1-0.9-1.1l-8.4-0.5c-0.6,0-1,0.4-1.1,0.9
						l-0.4,7.4C223,34,223.4,34.5,223.9,34.5z"/>
				</g>
				<g>
					<path class="st3" d="M220.9,31.5l8.4,0.5c0.6,0,1-0.4,1.1-0.9l0.4-7.4c0-0.6-0.4-1-0.9-1.1l-8.4-0.5c-0.6,0-1,0.4-1.1,0.9
						l-0.4,7.4C220,31,220.4,31.5,220.9,31.5z"/>
					<path class="st11" d="M220.9,31.5l8.4,0.5c0.6,0,1-0.4,1.1-0.9l0.4-7.4c0-0.6-0.4-1-0.9-1.1l-8.4-0.5c-0.6,0-1,0.4-1.1,0.9
						l-0.4,7.4C220,31,220.4,31.5,220.9,31.5z"/>
				</g>
			</g>
			<path class="st12" d="M227.6,27.8l0.4,0c0.1,0,0.2-0.1,0.2-0.2l0.3-5.1l-0.8,0l-0.3,5.1C227.4,27.7,227.5,27.8,227.6,27.8z"/>
			<path class="st12" d="M226,26.9l0.4,0c0.1,0,0.2-0.1,0.2-0.2l0.2-4.3l-0.8,0l-0.2,4.3C225.8,26.8,225.9,26.9,226,26.9z"/>
			<path class="st12" d="M226.8,28.3l0.4,0c0.1,0,0.2-0.1,0.2-0.2l0.3-5.6l-0.8,0l-0.3,5.6C226.5,28.1,226.6,28.3,226.8,28.3z"/>
		</g>
	</g>
	<g>
		<rect x="227.8" y="551.9" class="st1" width="166.6" height="18.7"/>
		<path class="st14" d="M394.2,552.1v18.4H254.7h-8.3h-18.5v-18.4h26.8h106.8H394.2 M394.5,551.8L394.5,551.8h-33H254.7h-27.1v19
			h18.8h8.3h139.8V551.8L394.5,551.8z"/>
	</g>
	<g>
		<g>
			<g>
				<path class="st12" d="M339.6,470.4v1.6h-14v-1.6c0-0.6,0.5-1.1,1.1-1.1h11.7C339.1,469.3,339.6,469.8,339.6,470.4z"/>
				
					<rect x="330.4" y="467.2" transform="matrix(4.515303e-11 1 -1 4.515303e-11 806.8323 141.5822)" class="st12" width="4.4" height="14"/>
				<line class="st12" x1="337.7" y1="472" x2="337.7" y2="476.4"/>
				<line class="st12" x1="327.5" y1="476.4" x2="327.5" y2="472"/>
			</g>
			<g>
				<path class="st12" d="M323.1,470.4v1.6h-14v-1.6c0-0.6,0.5-1.1,1.1-1.1h11.7C322.6,469.3,323.1,469.8,323.1,470.4z"/>
				
					<rect x="313.9" y="467.2" transform="matrix(4.473914e-11 1 -1 4.473914e-11 790.2661 158.1484)" class="st12" width="4.4" height="14"/>
				<line class="st12" x1="321.1" y1="472" x2="321.1" y2="476.4"/>
				<line class="st12" x1="311" y1="476.4" x2="311" y2="472"/>
			</g>
			<g>
				<path class="st12" d="M306.5,470.4v1.6h-14v-1.6c0-0.6,0.5-1.1,1.1-1.1h11.7C306,469.3,306.5,469.8,306.5,470.4z"/>
				
					<rect x="297.3" y="467.2" transform="matrix(4.473914e-11 1 -1 4.473914e-11 773.6999 174.7146)" class="st12" width="4.4" height="14"/>
				<line class="st12" x1="304.6" y1="472" x2="304.6" y2="476.4"/>
				<line class="st12" x1="294.4" y1="476.4" x2="294.4" y2="472"/>
			</g>
		</g>
		<g>
			<path class="st12" d="M292.5,509.8v-1.6h14v1.6c0,0.6-0.5,1.1-1.1,1.1h-11.7C293,510.9,292.5,510.4,292.5,509.8z"/>
			
				<rect x="297.3" y="499" transform="matrix(-4.556704e-11 -1 1 -4.556704e-11 -206.5121 805.4974)" class="st12" width="4.4" height="14"/>
			<line class="st12" x1="294.4" y1="508.2" x2="294.4" y2="503.8"/>
			<line class="st12" x1="304.6" y1="503.8" x2="304.6" y2="508.2"/>
		</g>
		<g>
			<path class="st12" d="M309.1,509.8v-1.6h14v1.6c0,0.6-0.5,1.1-1.1,1.1h-11.7C309.6,510.9,309.1,510.4,309.1,509.8z"/>
			
				<rect x="313.9" y="499" transform="matrix(-4.473926e-11 -1 1 -4.473926e-11 -189.9459 822.0635)" class="st12" width="4.4" height="14"/>
			<line class="st12" x1="311" y1="508.2" x2="311" y2="503.8"/>
			<line class="st12" x1="321.1" y1="503.8" x2="321.1" y2="508.2"/>
		</g>
		<g>
			<path class="st12" d="M329.8,513.8l-0.6-1.5l12.9-5.4l0.6,1.5c0.2,0.6,0,1.2-0.6,1.5l-10.8,4.5
				C330.7,514.6,330,514.3,329.8,513.8z"/>
			
				<rect x="327.1" y="496.9" transform="matrix(-0.3873 -0.922 0.922 -0.3873 -2.3071 1006.3258)" class="st12" width="12.3" height="14"/>
			<line class="st12" x1="330.9" y1="511.6" x2="326.2" y2="500.2"/>
			<line class="st12" x1="335.6" y1="496.3" x2="340.3" y2="507.6"/>
		</g>
		<g>
			<g class="st9">
				<path class="st10" d="M290,480.5v25.1c0,0.6,0.5,1.1,1.1,1.1H347c0.6,0,1.1-0.5,1.1-1.1v-25.1c0-0.6-0.5-1.1-1.1-1.1h-55.8
					C290.5,479.4,290,479.9,290,480.5z"/>
				<path class="st4" d="M290,480.5v25.1c0,0.6,0.5,1.1,1.1,1.1H347c0.6,0,1.1-0.5,1.1-1.1v-25.1c0-0.6-0.5-1.1-1.1-1.1h-55.8
					C290.5,479.4,290,479.9,290,480.5z"/>
			</g>
			<g>
				<path class="st3" d="M287,477.5v25.1c0,0.6,0.5,1.1,1.1,1.1H344c0.6,0,1.1-0.5,1.1-1.1v-25.1c0-0.6-0.5-1.1-1.1-1.1h-55.8
					C287.5,476.4,287,476.9,287,477.5z"/>
				<path class="st11" d="M287,477.5v25.1c0,0.6,0.5,1.1,1.1,1.1H344c0.6,0,1.1-0.5,1.1-1.1v-25.1c0-0.6-0.5-1.1-1.1-1.1h-55.8
					C287.5,476.4,287,476.9,287,477.5z"/>
			</g>
		</g>
		<path class="st12" d="M295.4,488.7l1.8,2.4c0.3,0.4,1,0.5,1.4,0.2l4.4-3.2c0.4-0.3,0.5-1,0.2-1.4l-1.8-2.4c-0.3-0.4-1-0.5-1.4-0.2
			l-4.4,3.2C295.1,487.6,295,488.2,295.4,488.7z"/>
	</g>
	<g>
		<g>
			<g class="st15">
				<path class="st16" d="M372.6,194.9c-1,0-6.7-0.1-7.6-0.2c-0.8-0.1-1.6-0.2-2.3-0.3v-10.9c0.6-0.1,1.3-0.2,2-0.3
					c1.1-0.1,7.6-0.1,8.8-0.1c2.5,0,7.7,2,7.7,5.9C381.1,193,375.5,194.9,372.6,194.9z"/>
				<path class="st17" d="M372.6,194.9c-1,0-6.7-0.1-7.6-0.2c-0.8-0.1-1.6-0.2-2.3-0.3v-10.9c0.6-0.1,1.3-0.2,2-0.3
					c1.1-0.1,7.6-0.1,8.8-0.1c2.5,0,7.7,2,7.7,5.9C381.1,193,375.5,194.9,372.6,194.9z"/>
			</g>
			<g>
				<path class="st1" d="M369.6,191.9c-1,0-6.7-0.1-7.6-0.2c-0.8-0.1-1.6-0.2-2.3-0.3v-10.9c0.6-0.1,1.3-0.2,2-0.3
					c1.1-0.1,7.6-0.1,8.8-0.1c2.5,0,7.7,2,7.7,5.9C378.1,190,372.5,191.9,369.6,191.9z"/>
				<path class="st4" d="M369.6,191.9c-1,0-6.7-0.1-7.6-0.2c-0.8-0.1-1.6-0.2-2.3-0.3v-10.9c0.6-0.1,1.3-0.2,2-0.3
					c1.1-0.1,7.6-0.1,8.8-0.1c2.5,0,7.7,2,7.7,5.9C378.1,190,372.5,191.9,369.6,191.9z"/>
			</g>
		</g>
		<g>
			<circle class="st18" cx="362.3" cy="188.6" r="0.4"/>
			<circle class="st18" cx="362.3" cy="183.4" r="0.4"/>
		</g>
		<path class="st18" d="M376.6,186c0-2.5-3.8-4.5-6.3-4.5c-2.5,0-4.5,2-4.5,4.5c0,2.5,2,4.5,4.5,4.5
			C372.8,190.5,376.6,188.5,376.6,186z"/>
		<path class="st18" d="M369.2,187.5h-1.7c-0.5,0-0.5-0.7-0.5-1.5c0-0.9,0.1-1.5,0.5-1.5h1.7c0.9,0,1.5,0.7,1.5,1.5
			C370.8,186.9,370.1,187.5,369.2,187.5z"/>
		<path class="st4" d="M362.2,191.7c-0.9-1.4-1.4-3.6-1.4-6.1c0-2.1,0.4-4,1.1-5.4"/>
	</g>
	<g>
		<g>
			<g class="st15">
				<path class="st16" d="M307.9,79c-1,0-6.7-0.1-7.6-0.2c-0.8-0.1-1.6-0.2-2.3-0.3V67.7c0.6-0.1,1.3-0.2,2-0.3
					c1.1-0.1,7.6-0.1,8.8-0.1c2.5,0,7.7,2,7.7,5.9C316.5,77.1,310.9,79,307.9,79z"/>
				<path class="st17" d="M307.9,79c-1,0-6.7-0.1-7.6-0.2c-0.8-0.1-1.6-0.2-2.3-0.3V67.7c0.6-0.1,1.3-0.2,2-0.3
					c1.1-0.1,7.6-0.1,8.8-0.1c2.5,0,7.7,2,7.7,5.9C316.5,77.1,310.9,79,307.9,79z"/>
			</g>
			<g>
				<path class="st1" d="M304.9,76c-1,0-6.7-0.1-7.6-0.2c-0.8-0.1-1.6-0.2-2.3-0.3V64.7c0.6-0.1,1.3-0.2,2-0.3
					c1.1-0.1,7.6-0.1,8.8-0.1c2.5,0,7.7,2,7.7,5.9C313.5,74.1,307.9,76,304.9,76z"/>
				<path class="st4" d="M304.9,76c-1,0-6.7-0.1-7.6-0.2c-0.8-0.1-1.6-0.2-2.3-0.3V64.7c0.6-0.1,1.3-0.2,2-0.3
					c1.1-0.1,7.6-0.1,8.8-0.1c2.5,0,7.7,2,7.7,5.9C313.5,74.1,307.9,76,304.9,76z"/>
			</g>
		</g>
		<g>
			<circle class="st18" cx="297.6" cy="72.7" r="0.4"/>
			<circle class="st18" cx="297.6" cy="67.5" r="0.4"/>
		</g>
		<path class="st18" d="M311.9,70.1c0-2.5-3.8-4.5-6.3-4.5s-4.5,2-4.5,4.5c0,2.5,2,4.5,4.5,4.5S311.9,72.6,311.9,70.1z"/>
		<path class="st18" d="M304.5,71.7h-1.7c-0.5,0-0.5-0.7-0.5-1.5s0.1-1.5,0.5-1.5h1.7c0.9,0,1.5,0.7,1.5,1.5S305.4,71.7,304.5,71.7z
			"/>
		<path class="st4" d="M297.6,75.9c-0.9-1.4-1.4-3.6-1.4-6.1c0-2.1,0.4-4,1.1-5.4"/>
	</g>
	<g>
		<g>
			<g class="st15">
				<path class="st16" d="M309.2,430c0,1-0.1,6.7-0.2,7.6c-0.1,0.8-0.2,1.6-0.3,2.3h-10.9c-0.1-0.6-0.2-1.3-0.3-2
					c-0.1-1.1-0.1-7.6-0.1-8.8c0-2.5,2-7.7,5.9-7.7C307.2,421.4,309.2,427,309.2,430z"/>
				<path class="st17" d="M309.2,430c0,1-0.1,6.7-0.2,7.6c-0.1,0.8-0.2,1.6-0.3,2.3h-10.9c-0.1-0.6-0.2-1.3-0.3-2
					c-0.1-1.1-0.1-7.6-0.1-8.8c0-2.5,2-7.7,5.9-7.7C307.2,421.4,309.2,427,309.2,430z"/>
			</g>
			<g>
				<path class="st1" d="M306.2,427c0,1-0.1,6.7-0.2,7.6c-0.1,0.8-0.2,1.6-0.3,2.3h-10.9c-0.1-0.6-0.2-1.3-0.3-2
					c-0.1-1.1-0.1-7.6-0.1-8.8c0-2.5,2-7.7,5.9-7.7C304.2,418.4,306.2,424,306.2,427z"/>
				<path class="st4" d="M306.2,427c0,1-0.1,6.7-0.2,7.6c-0.1,0.8-0.2,1.6-0.3,2.3h-10.9c-0.1-0.6-0.2-1.3-0.3-2
					c-0.1-1.1-0.1-7.6-0.1-8.8c0-2.5,2-7.7,5.9-7.7C304.2,418.4,306.2,424,306.2,427z"/>
			</g>
		</g>
		<g>
			<circle class="st18" cx="302.9" cy="434.3" r="0.4"/>
			<circle class="st18" cx="297.7" cy="434.3" r="0.4"/>
		</g>
		<path class="st18" d="M300.3,419.9c-2.5,0-4.5,3.8-4.5,6.3s2,4.5,4.5,4.5s4.5-2,4.5-4.5S302.8,419.9,300.3,419.9z"/>
		<path class="st18" d="M301.8,427.3v1.7c0,0.5-0.7,0.5-1.5,0.5c-0.9,0-1.5-0.1-1.5-0.5v-1.7c0-0.9,0.7-1.5,1.5-1.5
			C301.1,425.8,301.8,426.5,301.8,427.3z"/>
		<path class="st4" d="M306,434.3c-1.4,0.9-3.6,1.4-6.1,1.4c-2.1,0-4-0.4-5.4-1.1"/>
	</g>
	<g>
		<g>
			<g class="st15">
				<path class="st16" d="M374.3,198h-11.8v19.2h11.8c2.2,0,4-1.8,4-4V202C378.3,199.8,376.5,198,374.3,198z"/>
				<path class="st17" d="M374.3,198h-11.8v19.2h11.8c2.2,0,4-1.8,4-4V202C378.3,199.8,376.5,198,374.3,198z"/>
			</g>
			<g>
				<path class="st1" d="M371.3,195h-11.8v19.2h11.8c2.2,0,4-1.8,4-4V199C375.3,196.8,373.5,195,371.3,195z"/>
				<path class="st4" d="M371.3,195h-11.8v19.2h11.8c2.2,0,4-1.8,4-4V199C375.3,196.8,373.5,195,371.3,195z"/>
			</g>
		</g>
		<path class="st18" d="M371.2,196.8H366c-1.4,0-2.6,1.1-2.6,2.6V210c0,1.4,1.1,2.6,2.6,2.6h5.2c1.4,0,2.6-1.1,2.6-2.6v-10.6
			C373.7,197.9,372.6,196.8,371.2,196.8z"/>
		<circle class="st18" cx="365.5" cy="204.7" r="0.9"/>
	</g>
	<g>
		<g>
			<g class="st15">
				<path class="st16" d="M309.7,92h-11.8v19.2h11.8c2.2,0,4-1.8,4-4V96C313.7,93.8,311.9,92,309.7,92z"/>
				<path class="st17" d="M309.7,92h-11.8v19.2h11.8c2.2,0,4-1.8,4-4V96C313.7,93.8,311.9,92,309.7,92z"/>
			</g>
			<g>
				<path class="st1" d="M306.7,89h-11.8v19.2h11.8c2.2,0,4-1.8,4-4V93C310.7,90.8,308.9,89,306.7,89z"/>
				<path class="st4" d="M306.7,89h-11.8v19.2h11.8c2.2,0,4-1.8,4-4V93C310.7,90.8,308.9,89,306.7,89z"/>
			</g>
		</g>
		<path class="st18" d="M306.6,90.8h-5.2c-1.4,0-2.6,1.1-2.6,2.6V104c0,1.4,1.1,2.6,2.6,2.6h5.2c1.4,0,2.6-1.1,2.6-2.6V93.3
			C309.1,91.9,308,90.8,306.6,90.8z"/>
		<circle class="st18" cx="300.9" cy="98.7" r="0.9"/>
	</g>
	<line class="st4" x1="375" y1="551.7" x2="375" y2="570.9"/>
	<g>
		<polyline class="st19" points="387.4,563.3 386.5,563.3 386.5,564.1 		"/>
		<polyline class="st19" points="382.8,558.7 382.8,559.5 382,559.5 		"/>
		<line class="st19" x1="382.2" y1="559" x2="387" y2="563.9"/>
		<polyline class="st19" points="382.8,564.1 382.8,563.3 382,563.3 		"/>
		<polyline class="st19" points="387.4,559.5 386.5,559.5 386.5,558.7 		"/>
		<line class="st19" x1="387" y1="559" x2="382.2" y2="563.9"/>
		<polyline class="st19" points="385.2,564.7 384.7,564.1 384.1,564.7 		"/>
		<polyline class="st19" points="385.2,558.2 384.7,558.7 384.1,558.2 		"/>
		<polyline class="st19" points="381.5,562 382,561.4 381.5,560.9 		"/>
		<polyline class="st19" points="387.8,562 387.3,561.4 387.8,560.9 		"/>
		<line class="st19" x1="384.7" y1="558" x2="384.7" y2="564.9"/>
		<line class="st19" x1="388" y1="561.4" x2="381.2" y2="561.4"/>
		<polyline class="st4" points="387.4,563.3 386.5,563.3 386.5,564.1 		"/>
		<polyline class="st4" points="382.8,558.7 382.8,559.5 382,559.5 		"/>
		<line class="st4" x1="382.2" y1="559" x2="387" y2="563.9"/>
		<polyline class="st4" points="382.8,564.1 382.8,563.3 382,563.3 		"/>
		<polyline class="st4" points="387.4,559.5 386.5,559.5 386.5,558.7 		"/>
		<line class="st4" x1="387" y1="559" x2="382.2" y2="563.9"/>
		<polyline class="st4" points="385.2,564.7 384.7,564.1 384.1,564.7 		"/>
		<polyline class="st4" points="385.2,558.2 384.7,558.7 384.1,558.2 		"/>
		<polyline class="st4" points="381.5,562 382,561.4 381.5,560.9 		"/>
		<polyline class="st4" points="387.8,562 387.3,561.4 387.8,560.9 		"/>
		<line class="st4" x1="384.7" y1="558" x2="384.7" y2="564.9"/>
		<line class="st4" x1="388" y1="561.4" x2="381.2" y2="561.4"/>
	</g>
	<g>
		<rect x="283.3" y="553.5" class="st4" width="16.2" height="16.2"/>
		<path class="st18" d="M291.8,558.2c0-1.6,1.3-2.9,2.9-2.9c1.6,0,2.9,1.3,2.9,2.9c0,1.6-1.3,2.9-2.9,2.9
			C293.1,561.1,291.8,559.8,291.8,558.2"/>
		<path class="st18" d="M285.2,565c0-1.6,1.3-2.9,2.9-2.9c1.6,0,2.9,1.3,2.9,2.9c0,1.6-1.3,2.9-2.9,2.9
			C286.6,568,285.2,566.7,285.2,565"/>
		<path class="st18" d="M292.6,565.6c0-1.3,1.1-2.4,2.4-2.4c1.3,0,2.4,1.1,2.4,2.4s-1.1,2.4-2.4,2.4
			C293.7,568,292.6,566.9,292.6,565.6"/>
		<path class="st18" d="M285.2,557.8c0-1.3,1.1-2.4,2.4-2.4s2.4,1.1,2.4,2.4s-1.1,2.4-2.4,2.4S285.2,559.1,285.2,557.8"/>
	</g>
	<g>
		
			<rect x="337.6" y="545.8" transform="matrix(-1.793838e-10 1 -1 -1.793838e-10 907.7504 216.4256)" class="st4" width="16.2" height="32.7"/>
		<g>
			<path class="st18" d="M346,566.5v-8.7c0-1.3-1.1-2.4-2.4-2.4h-10.3c-1.3,0-2.4,1.1-2.4,2.4v8.7c0,1.3,1.1,2.4,2.4,2.4h10.3
				C344.9,568.9,346,567.8,346,566.5z"/>
			<circle class="st18" cx="338.2" cy="566.2" r="1.1"/>
		</g>
		<g>
			
				<rect x="353.6" y="552.2" transform="matrix(-1.784601e-10 1 -1 -1.784601e-10 911.4459 203.6446)" class="st10" width="0.6" height="10.7"/>
			
				<rect x="353.6" y="554.5" transform="matrix(-1.846143e-10 1 -1 -1.846143e-10 913.7145 205.9133)" class="st10" width="0.6" height="10.7"/>
			
				<rect x="353.6" y="556.7" transform="matrix(-1.846143e-10 1 -1 -1.846143e-10 915.9832 208.1819)" class="st10" width="0.6" height="10.7"/>
			
				<rect x="353.6" y="559" transform="matrix(-1.723068e-10 1 -1 -1.723068e-10 918.2518 210.4506)" class="st10" width="0.6" height="10.7"/>
			
				<rect x="353.6" y="561.3" transform="matrix(-1.815376e-10 1 -1 -1.815376e-10 920.5205 212.7192)" class="st10" width="0.6" height="10.7"/>
		</g>
	</g>
	<g>
		<path class="st18" d="M360.4,224.8H417c0.4,0,0.7,0.3,0.7,0.7v24.1c0,0.4-0.3,0.7-0.7,0.7h-56.6c-0.4,0-0.7-0.3-0.7-0.7v-24.1
			C359.7,225.1,360,224.8,360.4,224.8z"/>
		<path class="st18" d="M363.7,226.5h49.7c1.1,0,2,0.9,2,2v17.9c0,1.1-0.9,2-2,2h-49.7c-1.1,0-2-0.9-2-2v-17.9
			C361.7,227.4,362.6,226.5,363.7,226.5z"/>
		<path class="st18" d="M365.6,228h46c1.1,0,2,0.9,2,2v15c0,1.1-0.9,2-2,2h-46c-1.1,0-2-0.9-2-2v-15
			C363.6,228.9,364.5,228,365.6,228z"/>
		<circle class="st18" cx="367.8" cy="242.7" r="1.6"/>
	</g>
	<g>
		<g>
			<g class="st9">
				<path class="st10" d="M150.8,251.4H201c0.6,0,1-0.4,1-0.9v-11.3c0-0.5-0.5-0.9-1-0.9h-50.2c-0.6,0-1,0.4-1,0.9v11.3
					C149.7,251,150.2,251.4,150.8,251.4z"/>
				<path class="st4" d="M150.8,251.4H201c0.6,0,1-0.4,1-0.9v-11.3c0-0.5-0.5-0.9-1-0.9h-50.2c-0.6,0-1,0.4-1,0.9v11.3
					C149.7,251,150.2,251.4,150.8,251.4z"/>
			</g>
			<g>
				<path class="st3" d="M147.8,248.4H198c0.6,0,1-0.4,1-0.9v-11.3c0-0.5-0.5-0.9-1-0.9h-50.2c-0.6,0-1,0.4-1,0.9v11.3
					C146.7,248,147.2,248.4,147.8,248.4z"/>
				<path class="st11" d="M147.8,248.4H198c0.6,0,1-0.4,1-0.9v-11.3c0-0.5-0.5-0.9-1-0.9h-50.2c-0.6,0-1,0.4-1,0.9v11.3
					C146.7,248,147.2,248.4,147.8,248.4z"/>
			</g>
		</g>
		<path class="st12" d="M179.7,241.8v-4.2c0-0.6-0.4-1-1-1h-11.6c-0.6,0-1,0.4-1,1v4.2c0,0.6,0.4,1,1,1h11.6
			C179.3,242.8,179.7,242.4,179.7,241.8z"/>
		<path class="st20" d="M178.5,237.2h-11.2c-0.3,0-0.6,0.3-0.6,0.6v4c0,0.3,0.3,0.6,0.6,0.6h11.2c0.3,0,0.6-0.3,0.6-0.6v-4
			C179.1,237.5,178.8,237.2,178.5,237.2z"/>
		
			<rect x="172.2" y="219.4" transform="matrix(-4.442953e-11 1 -1 -4.442953e-11 413.3137 67.5371)" class="st12" width="1.3" height="42"/>
	</g>
	<g>
		<g>
			<g>
				<g class="st9">
					<path class="st10" d="M181.6,325.1c-2-10.9-2-21.9,0-32.8c0.1-0.4,0.5-0.8,0.9-0.8h12.9c0.4,0,0.8,0.3,0.9,0.8
						c2,10.9,2,21.9,0,32.8c-0.1,0.4-0.5,0.8-0.9,0.8h-12.9C182.1,325.8,181.7,325.5,181.6,325.1z"/>
					<path class="st4" d="M181.6,325.1c-2-10.9-2-21.9,0-32.8c0.1-0.4,0.5-0.8,0.9-0.8h12.9c0.4,0,0.8,0.3,0.9,0.8
						c2,10.9,2,21.9,0,32.8c-0.1,0.4-0.5,0.8-0.9,0.8h-12.9C182.1,325.8,181.7,325.5,181.6,325.1z"/>
				</g>
				<g>
					<path class="st3" d="M178.6,322.1c-2-10.9-2-21.9,0-32.8c0.1-0.4,0.5-0.8,0.9-0.8h12.9c0.4,0,0.8,0.3,0.9,0.8
						c2,10.9,2,21.9,0,32.8c-0.1,0.4-0.5,0.8-0.9,0.8h-12.9C179.1,322.8,178.7,322.5,178.6,322.1z"/>
					<path class="st11" d="M178.6,322.1c-2-10.9-2-21.9,0-32.8c0.1-0.4,0.5-0.8,0.9-0.8h12.9c0.4,0,0.8,0.3,0.9,0.8
						c2,10.9,2,21.9,0,32.8c-0.1,0.4-0.5,0.8-0.9,0.8h-12.9C179.1,322.8,178.7,322.5,178.6,322.1z"/>
				</g>
			</g>
			<path class="st12" d="M185.8,307.5l-1.6-1.2c-0.4-0.3-0.5-1-0.2-1.4l2.4-3.2c0.3-0.4,1-0.5,1.4-0.2l1.6,1.2
				c0.4,0.3,0.5,1,0.2,1.4l-2.4,3.2C186.8,307.7,186.2,307.8,185.8,307.5z"/>
			<path class="st12" d="M183.7,309.3l-0.9-1.8c-0.3-0.5-0.1-1.1,0.4-1.3l3.6-1.8c0.5-0.3,1.1-0.1,1.3,0.4l0.9,1.8
				c0.3,0.5,0.1,1.1-0.4,1.3l-3.6,1.8C184.6,310,184,309.8,183.7,309.3z"/>
			<circle class="st12" cx="182.9" cy="316" r="4"/>
			<path class="st21" d="M185.3,314.9c3.2,2.1-0.3,5.8-3.2,4C183,319.6,186.5,316.3,185.3,314.9z"/>
			<circle class="st12" cx="185.6" cy="311.9" r="0.5"/>
			<circle class="st12" cx="184.4" cy="311.8" r="0.5"/>
			<circle class="st12" cx="184.3" cy="312.7" r="0.5"/>
			<circle class="st12" cx="185.3" cy="312.7" r="0.5"/>
			<circle class="st12" cx="186.5" cy="312.6" r="0.5"/>
			<circle class="st12" cx="186.8" cy="313.4" r="0.5"/>
			<circle class="st12" cx="186.6" cy="314.5" r="0.5"/>
			<circle class="st12" cx="185.9" cy="313.4" r="0.5"/>
			<circle class="st12" cx="184.8" cy="313.7" r="0.5"/>
			<circle class="st12" cx="185.7" cy="314.4" r="0.5"/>
			<circle class="st12" cx="181.8" cy="314.1" r="1.4"/>
			<circle class="st12" cx="184.1" cy="314.7" r="1"/>
			
				<ellipse transform="matrix(0.9642 -0.2653 0.2653 0.9642 -77.272 59.721)" class="st12" cx="182.4" cy="315.9" rx="1.3" ry="0.8"/>
			<path class="st21" d="M185.2,314.7c1.9,3.3-2.9,5-4.7,2.1C181.1,317.9,185.7,316.5,185.2,314.7z"/>
		</g>
		<g>
			<g>
				<path class="st21" d="M184.9,295c0,0,2.6-1.1,4.1-0.1C189,294.9,188.1,296.1,184.9,295z"/>
				<path class="st21" d="M184.9,295c0,0,2.7,0.1,3.8,1.6C188.7,296.6,187.3,297.4,184.9,295z"/>
				<path class="st21" d="M188.2,292.3c0,0-2.7,0-3.3,2.8C184.9,295,188.1,294.3,188.2,292.3z"/>
				<path class="st21" d="M180.8,292c0,0,3.3,0.6,4.2,3.1C184.9,295,182.3,295.3,180.8,292z"/>
				<path class="st21" d="M185.6,290.5c0,0,0.6,1.8-0.7,4.5C184.9,295,184,292.5,185.6,290.5z"/>
				<path class="st21" d="M179.8,294.9c0,0,3.4-1.4,5.3,0.1C185,294.9,184.7,296,179.8,294.9z"/>
				<path class="st21" d="M187.8,298.4c0,0-1.1-2.9-2.8-3.4C184.9,295,185.7,296.9,187.8,298.4z"/>
				<path class="st21" d="M180.6,297.6c0,0,1.7-2.3,4.3-2.6C184.9,295,183.6,297.3,180.6,297.6z"/>
				<path class="st21" d="M185.9,299.5c0,0,0.5-2.8-0.9-4.6C185,294.9,184,296.8,185.9,299.5z"/>
				<path class="st21" d="M183.3,290.5c0,0,1.9,1.3,1.8,4.4C185,294.9,182.9,293.1,183.3,290.5z"/>
				<path class="st21" d="M182,298.9c0,0,1-3.5,3.1-4C185.1,294.9,184.8,297.4,182,298.9z"/>
				<path class="st21" d="M183.8,299.7c0,0-0.5-2.9,1.2-4.7C185,294.9,185.9,297,183.8,299.7z"/>
				<path class="st21" d="M185.1,294.8c0,0-0.1-1.7,1.9-3.7C186.9,291.1,186.8,292.9,185.1,294.8z"/>
				<path class="st21" d="M182.2,291.2c0,0,2.2,1.5,2.7,3.6C184.9,294.8,183.1,294.5,182.2,291.2z"/>
			</g>
			<g>
				<path class="st21" d="M184.7,295.1c0,0,1.6,0,2.2,0.9C187,296,186.1,296.5,184.7,295.1z"/>
				<path class="st21" d="M186.7,293.4c0,0-1.6,0-2,1.6C184.7,295.1,186.6,294.6,186.7,293.4z"/>
				<path class="st21" d="M182.2,293.2c0,0,2,0.4,2.5,1.8C184.7,295.1,183.1,295.3,182.2,293.2z"/>
				<path class="st21" d="M185.1,292.4c0,0,0.3,1.1-0.4,2.7C184.7,295.1,184.2,293.6,185.1,292.4z"/>
				<path class="st21" d="M182.1,296.6c0,0,1-1.4,2.6-1.5C184.7,295.1,183.9,296.4,182.1,296.6z"/>
				<path class="st21" d="M185.3,297.7c0,0,0.3-1.7-0.5-2.7C184.8,295,184.2,296.1,185.3,297.7z"/>
				<path class="st21" d="M183.7,292.4c0,0,1.1,0.8,1,2.6C184.8,295,183.5,293.9,183.7,292.4z"/>
				<path class="st21" d="M184,297.8c0,0-0.3-1.7,0.7-2.8C184.8,295,185.3,296.2,184,297.8z"/>
			</g>
		</g>
	</g>
	<g>
		<g>
			
				<rect x="306.1" y="228.9" transform="matrix(4.500915e-11 1 -1 4.500915e-11 554.939 -77.1787)" class="st18" width="19.9" height="19.9"/>
		</g>
		<g>
			<circle class="st22" cx="316.1" cy="238.9" r="4.6"/>
			<path class="st22" d="M319.1,238.4c0,1.8-1.4,3.2-3.2,3.2"/>
		</g>
	</g>
	<g>
		<g>
			<rect x="282.1" y="172.1" class="st1" width="18.7" height="38.9"/>
			<path class="st10" d="M300.7,172.3v38.6h-18.4v-38.6H300.7 M301,172h-19v39.2h19V172L301,172z"/>
		</g>
		<line class="st23" x1="297.7" y1="177.3" x2="285.3" y2="178.1"/>
		<line class="st23" x1="297.6" y1="180.2" x2="285.3" y2="179.2"/>
		<line class="st23" x1="297.7" y1="181.2" x2="285.3" y2="182"/>
		<line class="st23" x1="297.6" y1="184.1" x2="285.3" y2="183.2"/>
		<line class="st23" x1="297.7" y1="199.1" x2="285.3" y2="199.8"/>
		<line class="st23" x1="297.6" y1="201.9" x2="285.3" y2="201"/>
		<line class="st23" x1="297.7" y1="203" x2="285.3" y2="203.8"/>
		<line class="st23" x1="297.6" y1="205.9" x2="285.3" y2="205"/>
		<line class="st24" x1="283.4" y1="172" x2="283.4" y2="211"/>
		<line class="st24" x1="283.4" y1="191.5" x2="282.1" y2="191.5"/>
		<polyline class="st4" points="282.1,187.2 281.4,187.2 281.4,188.7 282.1,188.7 		"/>
		<polyline class="st4" points="282.1,194.3 281.4,194.3 281.4,195.8 282.1,195.8 		"/>
		<line class="st4" x1="291.5" y1="172" x2="291.5" y2="211"/>
	</g>
	<g>
		<g>
			<rect x="262.9" y="393.2" class="st1" width="19.1" height="51.6"/>
			<path class="st10" d="M281.8,393.4v51.3H263v-51.3H281.8 M282.1,393.1h-19.4v51.9h19.4V393.1L282.1,393.1z"/>
		</g>
		<line class="st23" x1="278.7" y1="400.1" x2="266.1" y2="401.1"/>
		<line class="st23" x1="278.7" y1="403.9" x2="266.1" y2="402.7"/>
		<line class="st23" x1="278.7" y1="405.3" x2="266.1" y2="406.3"/>
		<line class="st23" x1="278.7" y1="409.1" x2="266.1" y2="407.9"/>
		<line class="st23" x1="278.7" y1="428.9" x2="266.1" y2="429.9"/>
		<line class="st23" x1="278.7" y1="432.7" x2="266.1" y2="431.5"/>
		<line class="st23" x1="278.7" y1="434.1" x2="266.1" y2="435.1"/>
		<line class="st23" x1="278.7" y1="437.9" x2="266.1" y2="436.7"/>
		<line class="st24" x1="264.1" y1="393.1" x2="264.1" y2="444.7"/>
		<line class="st24" x1="264.1" y1="418.9" x2="262.9" y2="418.9"/>
		<polyline class="st4" points="262.9,413.3 262.1,413.3 262.1,415.2 262.9,415.2 		"/>
		<polyline class="st4" points="262.9,422.6 262.1,422.6 262.1,424.5 262.9,424.5 		"/>
		<line class="st4" x1="272.4" y1="393.1" x2="272.4" y2="444.7"/>
	</g>
	<g>
		<g>
			<rect x="336.6" y="403.5" class="st1" width="19.1" height="41.3"/>
			<path class="st10" d="M355.5,403.6v41h-18.8v-41H355.5 M355.8,403.3h-19.4v41.6h19.4V403.3L355.8,403.3z"/>
		</g>
		<line class="st23" x1="339.8" y1="439.3" x2="352.4" y2="438.5"/>
		<line class="st23" x1="339.8" y1="436.3" x2="352.4" y2="437.2"/>
		<line class="st23" x1="339.8" y1="435.1" x2="352.4" y2="434.3"/>
		<line class="st23" x1="339.8" y1="432.1" x2="352.4" y2="433.1"/>
		<line class="st23" x1="339.8" y1="416.2" x2="352.4" y2="415.4"/>
		<line class="st23" x1="339.8" y1="413.1" x2="352.4" y2="414.1"/>
		<line class="st23" x1="339.8" y1="412" x2="352.4" y2="411.2"/>
		<line class="st23" x1="339.8" y1="409" x2="352.4" y2="409.9"/>
		<line class="st24" x1="354.4" y1="444.9" x2="354.4" y2="403.5"/>
		<line class="st24" x1="354.4" y1="424.2" x2="355.7" y2="424.2"/>
		<polyline class="st4" points="355.7,428.7 356.4,428.7 356.4,427.2 355.7,427.2 		"/>
		<polyline class="st4" points="355.7,421.3 356.4,421.3 356.4,419.7 355.7,419.7 		"/>
		<line class="st4" x1="346.1" y1="444.9" x2="346.1" y2="403.5"/>
	</g>
	<g>
		<g>
			<rect x="336.6" y="393" class="st1" width="19.1" height="10.7"/>
			<path class="st10" d="M355.5,393.1v10.4h-18.8v-10.4H355.5 M355.8,392.8h-19.4v11h19.4V392.8L355.8,392.8z"/>
		</g>
		<line class="st24" x1="354.4" y1="434.4" x2="354.4" y2="393"/>
		<polyline class="st4" points="355.7,401.8 356.4,401.8 356.4,400.2 355.7,400.2 		"/>
	</g>
	<g>
		<g>
			<rect x="282.1" y="211.2" class="st1" width="18.7" height="38.9"/>
			<path class="st10" d="M300.7,211.3v38.6h-18.4v-38.6H300.7 M301,211h-19v39.2h19V211L301,211z"/>
		</g>
		<line class="st23" x1="297.7" y1="216.3" x2="285.3" y2="217.1"/>
		<line class="st23" x1="297.6" y1="219.2" x2="285.3" y2="218.3"/>
		<line class="st23" x1="297.7" y1="220.3" x2="285.3" y2="221"/>
		<line class="st23" x1="297.6" y1="223.1" x2="285.3" y2="222.2"/>
		<line class="st23" x1="297.7" y1="238.1" x2="285.3" y2="238.9"/>
		<line class="st23" x1="297.6" y1="241" x2="285.3" y2="240.1"/>
		<line class="st23" x1="297.7" y1="242" x2="285.3" y2="242.8"/>
		<line class="st23" x1="297.6" y1="244.9" x2="285.3" y2="244"/>
		<line class="st24" x1="283.4" y1="211" x2="283.4" y2="250.1"/>
		<line class="st24" x1="283.4" y1="230.5" x2="282.1" y2="230.5"/>
		<polyline class="st4" points="282.1,226.3 281.4,226.3 281.4,227.7 282.1,227.7 		"/>
		<polyline class="st4" points="282.1,233.3 281.4,233.3 281.4,234.8 282.1,234.8 		"/>
		<line class="st4" x1="291.5" y1="211" x2="291.5" y2="250.1"/>
	</g>
	<g>
		<g>
			<rect x="419.6" y="211.2" class="st1" width="20.2" height="38.9"/>
			<path class="st10" d="M439.6,211.3v38.6h-19.9v-38.6H439.6 M439.9,211h-20.5v39.2h20.5V211L439.9,211z"/>
		</g>
		<line class="st23" x1="423" y1="244.9" x2="436.3" y2="244.1"/>
		<line class="st23" x1="423" y1="242" x2="436.3" y2="243"/>
		<line class="st23" x1="423" y1="241" x2="436.3" y2="240.2"/>
		<line class="st23" x1="423" y1="238.1" x2="436.3" y2="239"/>
		<line class="st23" x1="423" y1="223.1" x2="436.3" y2="222.4"/>
		<line class="st23" x1="423" y1="220.3" x2="436.3" y2="221.2"/>
		<line class="st23" x1="423" y1="219.2" x2="436.3" y2="218.4"/>
		<line class="st23" x1="423" y1="216.3" x2="436.3" y2="217.3"/>
		<line class="st24" x1="438.4" y1="250.2" x2="438.4" y2="211.2"/>
		<line class="st24" x1="438.4" y1="230.7" x2="439.8" y2="230.7"/>
		<polyline class="st4" points="439.8,227.9 440.5,227.9 440.5,226.5 439.8,226.5 		"/>
		<line class="st4" x1="429.6" y1="250.2" x2="429.6" y2="211.2"/>
	</g>
	<g>
		<g>
			<rect x="439.9" y="230.9" class="st1" width="37.5" height="19.5"/>
			<path class="st10" d="M477.2,231v19.2h-37.2V231H477.2 M477.5,230.7h-37.8v19.8h37.8V230.7L477.5,230.7z"/>
		</g>
		<line class="st23" x1="472.4" y1="247.1" x2="471.6" y2="234.2"/>
		<line class="st23" x1="469.6" y1="247.1" x2="470.5" y2="234.2"/>
		<line class="st23" x1="468.6" y1="247.1" x2="467.9" y2="234.2"/>
		<line class="st23" x1="465.9" y1="247.1" x2="466.7" y2="234.2"/>
		<line class="st23" x1="451.4" y1="247.1" x2="450.7" y2="234.2"/>
		<line class="st23" x1="448.7" y1="247.1" x2="449.5" y2="234.2"/>
		<line class="st23" x1="447.6" y1="247.1" x2="446.9" y2="234.2"/>
		<line class="st23" x1="444.9" y1="247.1" x2="445.8" y2="234.2"/>
		<line class="st24" x1="477.5" y1="232.2" x2="439.9" y2="232.2"/>
		<line class="st24" x1="458.7" y1="232.2" x2="458.7" y2="230.9"/>
		<polyline class="st4" points="462.8,230.9 462.8,230.1 461.4,230.1 461.4,230.9 		"/>
		<polyline class="st4" points="456,230.9 456,230.1 454.6,230.1 454.6,230.9 		"/>
		<line class="st4" x1="477.5" y1="240.6" x2="439.9" y2="240.6"/>
	</g>
	<g>
		<g>
			<rect x="419.6" y="172.1" class="st1" width="20.2" height="38.9"/>
			<path class="st10" d="M439.6,172.3v38.6h-19.9v-38.6H439.6 M439.9,172h-20.5v39.2h20.5V172L439.9,172z"/>
		</g>
		<line class="st23" x1="423" y1="205.9" x2="436.3" y2="205.1"/>
		<line class="st23" x1="423" y1="203" x2="436.3" y2="203.9"/>
		<line class="st23" x1="423" y1="201.9" x2="436.3" y2="201.2"/>
		<line class="st23" x1="423" y1="199.1" x2="436.3" y2="200"/>
		<line class="st23" x1="423" y1="184.1" x2="436.3" y2="183.3"/>
		<line class="st23" x1="423" y1="181.2" x2="436.3" y2="182.2"/>
		<line class="st23" x1="423" y1="180.2" x2="436.3" y2="179.4"/>
		<line class="st23" x1="423" y1="177.3" x2="436.3" y2="178.2"/>
		<line class="st24" x1="438.4" y1="211.2" x2="438.4" y2="172.2"/>
		<line class="st24" x1="438.4" y1="191.7" x2="439.8" y2="191.7"/>
		<polyline class="st4" points="439.8,195.9 440.5,195.9 440.5,194.5 439.8,194.5 		"/>
		<polyline class="st4" points="439.8,188.9 440.5,188.9 440.5,187.4 439.8,187.4 		"/>
		<line class="st4" x1="429.6" y1="211.2" x2="429.6" y2="172.2"/>
	</g>
	<g>
		<g>
			<g class="st9">
				<path class="st10" d="M241,135.1h-36.5c-0.6,0-1,0.4-1,1v15.1c0,0.6,0.4,1,1,1H241c0.6,0,1-0.4,1-1v-15.1
					C242,135.6,241.5,135.1,241,135.1z"/>
				<path class="st4" d="M241,135.1h-36.5c-0.6,0-1,0.4-1,1v15.1c0,0.6,0.4,1,1,1H241c0.6,0,1-0.4,1-1v-15.1
					C242,135.6,241.5,135.1,241,135.1z"/>
			</g>
			<g>
				<path class="st3" d="M238,132.1h-36.5c-0.6,0-1,0.4-1,1v15.1c0,0.6,0.4,1,1,1H238c0.6,0,1-0.4,1-1v-15.1
					C239,132.6,238.5,132.1,238,132.1z"/>
				<path class="st11" d="M238,132.1h-36.5c-0.6,0-1,0.4-1,1v15.1c0,0.6,0.4,1,1,1H238c0.6,0,1-0.4,1-1v-15.1
					C239,132.6,238.5,132.1,238,132.1z"/>
			</g>
		</g>
		<line class="st12" x1="200.5" y1="147" x2="239" y2="147"/>
		<line class="st12" x1="219.8" y1="147" x2="219.8" y2="149.3"/>
		<polyline class="st11" points="215.6,149.3 215.6,150.5 217,150.5 217,149.3 		"/>
		<polyline class="st11" points="222.5,149.3 222.5,150.5 224,150.5 224,149.3 		"/>
	</g>
	<g>
		<g>
			<g>
				<g class="st9">
					<path class="st10" d="M242.3,191.2v8.8c0,0.6-0.4,1-1,1h-7.8c-0.6,0-1-0.4-1-1v-8.8c0-0.6,0.4-1,1-1h7.8
						C241.8,190.2,242.3,190.6,242.3,191.2z"/>
					<path class="st4" d="M242.3,191.2v8.8c0,0.6-0.4,1-1,1h-7.8c-0.6,0-1-0.4-1-1v-8.8c0-0.6,0.4-1,1-1h7.8
						C241.8,190.2,242.3,190.6,242.3,191.2z"/>
				</g>
				<g>
					<path class="st3" d="M239.3,188.2v8.8c0,0.6-0.4,1-1,1h-7.8c-0.6,0-1-0.4-1-1v-8.8c0-0.6,0.4-1,1-1h7.8
						C238.8,187.2,239.3,187.6,239.3,188.2z"/>
					<path class="st11" d="M239.3,188.2v8.8c0,0.6-0.4,1-1,1h-7.8c-0.6,0-1-0.4-1-1v-8.8c0-0.6,0.4-1,1-1h7.8
						C238.8,187.2,239.3,187.6,239.3,188.2z"/>
				</g>
			</g>
			<path class="st12" d="M232,193.6l1.4-3.6c0.2-0.5,0.8-0.8,1.3-0.6l1.3,0.5c0.5,0.2,0.8,0.8,0.6,1.3l-1.4,3.6
				c-0.2,0.5-0.8,0.8-1.3,0.6l-1.3-0.5C232.1,194.7,231.8,194.2,232,193.6z"/>
			<circle class="st12" cx="234.3" cy="192.5" r="0.5"/>
		</g>
		<g>
			<g class="st9">
				<path class="st10" d="M178.7,203.5h62.5c0.6,0,1,0.4,1,1v27.2c0,0.6-0.4,1-1,1h-62.5c-0.6,0-1-0.4-1-1v-27.2
					C177.7,203.9,178.2,203.5,178.7,203.5z"/>
				<path class="st4" d="M178.7,203.5h62.5c0.6,0,1,0.4,1,1v27.2c0,0.6-0.4,1-1,1h-62.5c-0.6,0-1-0.4-1-1v-27.2
					C177.7,203.9,178.2,203.5,178.7,203.5z"/>
			</g>
			<g>
				<path class="st3" d="M175.7,200.5h62.5c0.6,0,1,0.4,1,1v27.2c0,0.6-0.4,1-1,1h-62.5c-0.6,0-1-0.4-1-1v-27.2
					C174.7,200.9,175.2,200.5,175.7,200.5z"/>
				<path class="st11" d="M175.7,200.5h62.5c0.6,0,1,0.4,1,1v27.2c0,0.6-0.4,1-1,1h-62.5c-0.6,0-1-0.4-1-1v-27.2
					C174.7,200.9,175.2,200.5,175.7,200.5z"/>
			</g>
		</g>
		<path class="st12" d="M179.2,203.9h55.6c0.6,0,1,0.4,1,1v20.3c0,0.6-0.4,1-1,1h-55.6c-0.6,0-1-0.4-1-1v-20.3
			C178.2,204.4,178.6,203.9,179.2,203.9z"/>
		<path class="st12" d="M232.8,206.9c0.2,0.5-0.1,0.9-0.1,1.7c1.5,7.1-0.4,14.9-0.7,15c-0.3,0.2-0.2-0.2-1.9-0.5
			c-1.7-0.1-5.6,0.3-7,0.1c-0.4-0.1-0.6-0.2-0.7-0.3c-1-1.3-0.6-15.4-0.5-15.6c0.1-0.2,0.7-0.7,1.3-0.8
			C224.8,206.3,232.6,206.4,232.8,206.9z"/>
		<g>
			<g>
				<path class="st12" d="M212.3,223.9c0,0-0.9-6.7-0.9-8.9c0-2.3,0.9-8.9,0.9-8.9c0-1.7-2.8-3-1.1-3h9.4c1.7,0,3,1.4,3,3
					c0,0-0.9,6.1-0.9,8.7c0,2.7,0.9,9,0.9,9c0,1.7-1.4,3-3,3h-9.4C209.5,227,212.3,225.6,212.3,223.9z"/>
			</g>
			<path class="st13" d="M219.5,206.8c-1.3-0.2-4.7,1.3-5.3,3.7"/>
			<path class="st13" d="M219.9,214.2c-1.8,1.8-4.1,6.1-3.9,8.9"/>
		</g>
	</g>
	<g>
		<g>
			<g class="st9">
				<path class="st10" d="M172.8,229.9v-20.1c0-0.5-0.4-0.9-0.9-0.9h-43.6c-0.5,0-0.9,0.4-0.9,0.9v20.1c0,0.5,0.4,0.9,0.9,0.9h43.6
					C172.4,230.8,172.8,230.4,172.8,229.9z"/>
				<path class="st4" d="M172.8,229.9v-20.1c0-0.5-0.4-0.9-0.9-0.9h-43.6c-0.5,0-0.9,0.4-0.9,0.9v20.1c0,0.5,0.4,0.9,0.9,0.9h43.6
					C172.4,230.8,172.8,230.4,172.8,229.9z"/>
			</g>
			<g>
				<path class="st3" d="M169.8,226.9v-20.1c0-0.5-0.4-0.9-0.9-0.9h-43.6c-0.5,0-0.9,0.4-0.9,0.9v20.1c0,0.5,0.4,0.9,0.9,0.9h43.6
					C169.4,227.8,169.8,227.4,169.8,226.9z"/>
				<path class="st11" d="M169.8,226.9v-20.1c0-0.5-0.4-0.9-0.9-0.9h-43.6c-0.5,0-0.9,0.4-0.9,0.9v20.1c0,0.5,0.4,0.9,0.9,0.9h43.6
					C169.4,227.8,169.8,227.4,169.8,226.9z"/>
			</g>
		</g>
		<g>
			<g>
				<path class="st12" d="M154.9,196.8v1.8h-15.5v-1.8c0-0.7,0.6-1.3,1.3-1.3h13C154.3,195.5,154.9,196.1,154.9,196.8z"/>
				
					<rect x="143.4" y="194.5" transform="matrix(-4.486385e-11 1 -1 -4.486385e-11 349.3557 55.0944)" class="st12" width="7.4" height="15.5"/>
				<line class="st12" x1="152.8" y1="198.5" x2="152.8" y2="205.9"/>
				<line class="st12" x1="141.5" y1="205.9" x2="141.5" y2="198.5"/>
			</g>
		</g>
	</g>
	<g>
		<path class="st18" d="M295.2,32.3v21.9c0,0.5,0.4,0.9,0.9,0.9h54.5c0.5,0,0.9-0.4,0.9-0.9V32.3c0-0.5-0.4-0.9-0.9-0.9h-54.5
			C295.6,31.4,295.2,31.8,295.2,32.3z"/>
		<path class="st18" d="M349.4,43.3c0,7.1-4.4,9.6-6.5,9.6h-42.2c-2.1,0-3.8-1.7-3.8-3.9V37.4c0-2.1,1.7-3.9,3.8-3.9H343
			C345.1,33.6,349.4,36.2,349.4,43.3z"/>
		<path class="st18" d="M340.7,43.3c0,6-3.5,8.1-5.2,8.1h-34.1c-1.7,0-3.1-1.5-3.1-3.3v-9.8c0-1.8,1.4-3.3,3.1-3.3h34.1
			C337.2,35.1,340.7,37.2,340.7,43.3z"/>
		<circle class="st18" cx="304.6" cy="43.2" r="1"/>
	</g>
	<g>
		<g>
			<g class="st15">
				<path class="st16" d="M323.5,415.3h6.4v-13.6h-6.4c-1.2,0-2.2,1.3-2.2,2.8v8C321.3,414.1,322.3,415.3,323.5,415.3z"/>
				<path class="st17" d="M323.5,415.3h6.4v-13.6h-6.4c-1.2,0-2.2,1.3-2.2,2.8v8C321.3,414.1,322.3,415.3,323.5,415.3z"/>
			</g>
			<g>
				<path class="st1" d="M320.5,412.3h6.4v-13.6h-6.4c-1.2,0-2.2,1.3-2.2,2.8v8C318.3,411.1,319.3,412.3,320.5,412.3z"/>
				<path class="st4" d="M320.5,412.3h6.4v-13.6h-6.4c-1.2,0-2.2,1.3-2.2,2.8v8C318.3,411.1,319.3,412.3,320.5,412.3z"/>
			</g>
		</g>
		<path class="st18" d="M321.8,411.6h1.9c1.4,0,2.6-1.1,2.6-2.6v-4.4c0-1.4-1.1-2.6-2.6-2.6h-1.9c-1.4,0-2.6,1.1-2.6,2.6v4.4
			C319.2,410.4,320.4,411.6,321.8,411.6z"/>
		<circle class="st18" cx="323" cy="403.5" r="0.5"/>
	</g>
	<g>
		<g>
			<g class="st9">
				<path class="st10" d="M161.3,325.2c0.7,0,1.3,0.6,1.3,1.3v0.2c0,0.7-0.6,1.3-1.3,1.3h-22.4c-3.1,0-5.6-2.5-5.6-5.6v-16.1
					c0-3.1,2.5-5.6,5.6-5.6h22.4c0.7,0,1.3,0.6,1.3,1.3v0.2c0,0.7-0.6,1.3-1.3,1.3l-0.8,0c0.8,0,1.4,0.6,1.4,1.4v18.9
					c0,0.8-0.6,1.4-1.4,1.4L161.3,325.2z"/>
				<path class="st25" d="M161.3,325.2c0.7,0,1.3,0.6,1.3,1.3v0.2c0,0.7-0.6,1.3-1.3,1.3h-22.4c-3.1,0-5.6-2.5-5.6-5.6v-16.1
					c0-3.1,2.5-5.6,5.6-5.6h22.4c0.7,0,1.3,0.6,1.3,1.3v0.2c0,0.7-0.6,1.3-1.3,1.3l-0.8,0c0.8,0,1.4,0.6,1.4,1.4v18.9
					c0,0.8-0.6,1.4-1.4,1.4L161.3,325.2z"/>
			</g>
			<g>
				<path class="st3" d="M158.3,322.2c0.7,0,1.3,0.6,1.3,1.3v0.2c0,0.7-0.6,1.3-1.3,1.3h-22.4c-3.1,0-5.6-2.5-5.6-5.6v-16.1
					c0-3.1,2.5-5.6,5.6-5.6h22.4c0.7,0,1.3,0.6,1.3,1.3v0.2c0,0.7-0.6,1.3-1.3,1.3l-0.8,0c0.8,0,1.4,0.6,1.4,1.4v18.9
					c0,0.8-0.6,1.4-1.4,1.4L158.3,322.2z"/>
				<path class="st26" d="M158.3,322.2c0.7,0,1.3,0.6,1.3,1.3v0.2c0,0.7-0.6,1.3-1.3,1.3h-22.4c-3.1,0-5.6-2.5-5.6-5.6v-16.1
					c0-3.1,2.5-5.6,5.6-5.6h22.4c0.7,0,1.3,0.6,1.3,1.3v0.2c0,0.7-0.6,1.3-1.3,1.3l-0.8,0c0.8,0,1.4,0.6,1.4,1.4v18.9
					c0,0.8-0.6,1.4-1.4,1.4L158.3,322.2z"/>
			</g>
		</g>
		<g>
			<path class="st27" d="M130.4,319.4v-16.1c0-3.1,2.5-5.6,5.6-5.6h22.4c0.7,0,1.3,0.6,1.3,1.3v0.2c0,0.7-0.6,1.3-1.3,1.3h-19.2
				v21.8h19.2c0.7,0,1.3,0.6,1.3,1.3v0.2c0,0.7-0.6,1.3-1.3,1.3h-22.4C132.8,324.9,130.4,322.5,130.4,319.4z"/>
			<g>
				<path class="st12" d="M141.3,302.3c-0.6,6-0.6,12,0,18.1c0.1,1.3-0.8,2.6-2.1,2.7c-1,0.1-2,0.2-3,0.4c-1.3,0.2-2.6-0.9-2.7-2.3
					c-0.6-6.5-0.6-13.1,0-19.6c0.1-1.5,1.4-2.5,2.7-2.3c1,0.1,2,0.2,3,0.4C140.5,299.8,141.5,301,141.3,302.3z"/>
				<path class="st21" d="M139.3,301.8c-0.6,0.1-0.6,18.9,0,19.1"/>
			</g>
		</g>
	</g>
	<g>
		<g>
			<g class="st9">
				<path class="st10" d="M216.5,267.8c-0.7,0-1.3-0.6-1.3-1.3v-0.2c0-0.7,0.6-1.3,1.3-1.3h22.4c3.1,0,5.6,2.5,5.6,5.6v16.1
					c0,3.1-2.5,5.6-5.6,5.6h-22.4c-0.7,0-1.3-0.6-1.3-1.3v-0.2c0-0.7,0.6-1.3,1.3-1.3l0.8,0c-0.8,0-1.4-0.6-1.4-1.4v-18.9
					c0-0.8,0.6-1.4,1.4-1.4L216.5,267.8z"/>
				<path class="st25" d="M216.5,267.8c-0.7,0-1.3-0.6-1.3-1.3v-0.2c0-0.7,0.6-1.3,1.3-1.3h22.4c3.1,0,5.6,2.5,5.6,5.6v16.1
					c0,3.1-2.5,5.6-5.6,5.6h-22.4c-0.7,0-1.3-0.6-1.3-1.3v-0.2c0-0.7,0.6-1.3,1.3-1.3l0.8,0c-0.8,0-1.4-0.6-1.4-1.4v-18.9
					c0-0.8,0.6-1.4,1.4-1.4L216.5,267.8z"/>
			</g>
			<g>
				<path class="st3" d="M213.5,264.8c-0.7,0-1.3-0.6-1.3-1.3v-0.2c0-0.7,0.6-1.3,1.3-1.3h22.4c3.1,0,5.6,2.5,5.6,5.6v16.1
					c0,3.1-2.5,5.6-5.6,5.6h-22.4c-0.7,0-1.3-0.6-1.3-1.3v-0.2c0-0.7,0.6-1.3,1.3-1.3l0.8,0c-0.8,0-1.4-0.6-1.4-1.4v-18.9
					c0-0.8,0.6-1.4,1.4-1.4L213.5,264.8z"/>
				<path class="st26" d="M213.5,264.8c-0.7,0-1.3-0.6-1.3-1.3v-0.2c0-0.7,0.6-1.3,1.3-1.3h22.4c3.1,0,5.6,2.5,5.6,5.6v16.1
					c0,3.1-2.5,5.6-5.6,5.6h-22.4c-0.7,0-1.3-0.6-1.3-1.3v-0.2c0-0.7,0.6-1.3,1.3-1.3l0.8,0c-0.8,0-1.4-0.6-1.4-1.4v-18.9
					c0-0.8,0.6-1.4,1.4-1.4L213.5,264.8z"/>
			</g>
		</g>
		<g>
			<path class="st27" d="M241.5,267.7v16.1c0,3.1-2.5,5.6-5.6,5.6h-22.4c-0.7,0-1.3-0.6-1.3-1.3v-0.2c0-0.7,0.6-1.3,1.3-1.3h19.2
				v-21.8h-19.2c-0.7,0-1.3-0.6-1.3-1.3v-0.2c0-0.7,0.6-1.3,1.3-1.3h22.4C239,262.1,241.5,264.6,241.5,267.7z"/>
			<g>
				<path class="st12" d="M230.5,284.8c0.6-6,0.6-12,0-18.1c-0.1-1.3,0.8-2.6,2.1-2.7c1-0.1,2-0.2,3-0.4c1.3-0.2,2.6,0.9,2.7,2.3
					c0.6,6.5,0.6,13.1,0,19.6c-0.1,1.5-1.4,2.5-2.7,2.3c-1-0.1-2-0.2-3-0.4C231.3,287.3,230.4,286.1,230.5,284.8z"/>
				<path class="st21" d="M232.5,285.3c0.6-0.1,0.6-18.9,0-19.1"/>
			</g>
		</g>
	</g>
	<g>
		<g class="st9">
			<path class="st28" d="M169,374.8c0,0,0-0.7,0-1.5v-17.5v-2.5c0-0.8,0.7-1.5,1.5-1.5h18.8c0.8,0,1.5,0.6,1.5,1.4
				c0-0.8,0.7-1.4,1.5-1.4l18.8,0c0.8,0,1.5,0.6,1.5,1.4c0-0.8,0.7-1.4,1.5-1.4c-0.8,0-1.5-0.7-1.5-1.5v-21c0-0.8,0.7-1.5,1.5-1.5
				h-0.8c-0.7,0-1.3-0.6-1.3-1.3v-0.2c0-0.7,0.6-1.3,1.3-1.3h23.7c3.2,0,5.9,2.6,5.9,5.9v41c0,3.2-2.6,5.9-5.9,5.9h-69.7
				c-0.7,0-1.3-0.6-1.3-1.3v-0.2c0-0.7,0.6-1.3,1.3-1.3h1.2L169,374.8z"/>
			<path class="st29" d="M233.6,374.8v-47.1h-20.3c-0.7,0-1.3-0.6-1.3-1.3v-0.2c0-0.7,0.6-1.3,1.3-1.3h23.6c3.2,0,5.9,2.6,5.9,5.9
				v44.9c0,3.2-2.6,5.9-5.9,5.9l-2.2,0l-62.8-0.2c-3.2,0-5.9-2.6-5.9-5.9v-23.7c0-0.7,0.6-1.3,1.3-1.3h0.2c0.7,0,1.3,0.6,1.3,1.3
				v20.3h68.9"/>
			<path class="st28" d="M231.2,329.7c0.6,6.3,0.6,12.7,0,19.1c-0.1,1.4,0.9,2.7,2.3,2.9c1,0.1,2.1,0.3,3.1,0.4
				c1.4,0.2,2.7-0.9,2.9-2.5c0.7-6.9,0.7-13.8,0-20.7c-0.2-1.5-1.5-2.7-2.9-2.5c-1,0.1-2.1,0.3-3.1,0.4
				C232,327,231.1,328.3,231.2,329.7z"/>
			<path class="st30" d="M233.3,329.1c0.7,0.2,0.7,20,0,20.2"/>
			<line class="st28" x1="234.7" y1="351.8" x2="214.1" y2="351.8"/>
			<line class="st28" x1="212.6" y1="374.8" x2="212.6" y2="353"/>
			<path class="st28" d="M236.6,328.6c-0.6,0.9-4.2,4.2-4.5,4.5c0,1.8-0.9,4.8-1.6,5.3c-0.5-0.3-0.4-0.4-1-0.9
				c-0.9-0.2-5.4-1.3-7.8-3.4c1.1-1.3,1.8-7.7,3.8-9.5c0.5-1,0.7-1.9,1.5-2.6c0.6,0.2,2.7,2.7,2.9,3.7
				C231.1,326.4,235.8,327.3,236.6,328.6z"/>
			<line class="st28" x1="190.8" y1="374.8" x2="190.8" y2="353"/>
			<path class="st28" d="M231.2,353.5c0.6,5.9,0.6,11.8,0,17.7c-0.1,1.3,0.9,2.5,2.3,2.7c1,0.1,2.1,0.2,3.1,0.4
				c1.4,0.2,2.7-0.9,2.9-2.3c0.7-6.4,0.7-12.8,0-19.2c-0.2-1.4-1.5-2.5-2.9-2.3c-1,0.1-2.1,0.2-3.1,0.4
				C232,351,231.1,352.2,231.2,353.5z"/>
			<path class="st30" d="M233.3,353c0.7,0.1,0.7,18.6,0,18.7"/>
			<path class="st28" d="M187.8,371.5c-6.3,0.6-12.7,0.6-19.1,0c-1.4-0.1-2.7,0.9-2.9,2.3c-0.1,1-0.3,2.1-0.4,3.1
				c-0.2,1.4,0.9,2.7,2.5,2.9c6.9,0.7,13.8,0.7,20.7,0c1.5-0.2,2.7-1.5,2.5-2.9c-0.1-1-0.3-2.1-0.4-3.1
				C190.5,372.3,189.2,371.3,187.8,371.5z"/>
			<path class="st30" d="M188.3,373.6c-0.2,0.7-20,0.7-20.2,0"/>
			<path class="st28" d="M231.8,371.5c-5.8,0.6-11.6,0.6-17.4,0c-1.3-0.1-2.5,0.9-2.6,2.3c-0.1,1-0.2,2.1-0.4,3.1
				c-0.2,1.4,0.8,2.7,2.2,2.9c6.3,0.7,12.6,0.7,18.8,0c1.4-0.2,2.4-1.5,2.2-2.9c-0.1-1-0.2-2.1-0.4-3.1
				C234.3,372.3,233.1,371.3,231.8,371.5z"/>
			<path class="st30" d="M232.3,373.6c-0.1,0.7-18.2,0.7-18.4,0"/>
			<path class="st28" d="M210.8,371.5c-6.3,0.6-12.7,0.6-19.1,0c-1.4-0.1-2.7,0.9-2.9,2.3c-0.1,1-0.3,2.1-0.4,3.1
				c-0.2,1.4,0.9,2.7,2.5,2.9c6.9,0.7,13.8,0.7,20.7,0c1.5-0.2,2.7-1.5,2.5-2.9c-0.1-1-0.3-2.1-0.4-3.1
				C213.5,372.3,212.2,371.3,210.8,371.5z"/>
			<path class="st30" d="M211.4,373.6c-0.2,0.7-20,0.7-20.2,0"/>
			<path class="st28" d="M241,372.2c-0.7,0.9-8.1,6.3-8.7,6.7c-1.7-0.4-4.3-3.9-4.8-4.9c-1.2-0.4-2.5-1.1-3.1-1.8
				c0.5-0.5,1.5-1.4,2.1-1.7c0.3-0.6,3.3-4.1,5.7-4.9c0.6-0.5,1.2-1.2,1.5-1.1c0.6,0.8,1,1.8,1.1,2.4
				C235.3,367.4,240.9,371.3,241,372.2z"/>
			<path class="st28" d="M178.7,373.2c-1,0.2-6,0-6.3,0c-1.2,1.3-4.1,2.8-4.8,2.6c-0.2-0.5,0.1-0.6-0.1-1.3
				c-0.5-0.8-2.9-4.8-3.2-7.9c1.7-0.1,6.8-4.2,9.4-4.1c1-0.4,1.8-0.8,2.9-0.8c0.2,0.6,0,3.8-0.6,4.7
				C176.4,367.7,179,371.7,178.7,373.2z"/>
		</g>
		<g>
			<g>
				<path class="st12" d="M166,371.8c0,0,0-0.7,0-1.5v-17.5v-2.5c0-0.8,0.7-1.5,1.5-1.5h18.8c0.8,0,1.5,0.6,1.5,1.4
					c0-0.8,0.7-1.4,1.5-1.4l18.8,0c0.8,0,1.5,0.6,1.5,1.4c0-0.8,0.7-1.4,1.5-1.4c-0.8,0-1.5-0.7-1.5-1.5v-21c0-0.8,0.7-1.5,1.5-1.5
					h-0.8c-0.7,0-1.3-0.6-1.3-1.3v-0.2c0-0.7,0.6-1.3,1.3-1.3h23.7c3.2,0,5.9,2.6,5.9,5.9v41c0,3.2-2.6,5.9-5.9,5.9h-69.7
					c-0.7,0-1.3-0.6-1.3-1.3v-0.2c0-0.7,0.6-1.3,1.3-1.3h1.2L166,371.8z"/>
				<path class="st27" d="M230.6,371.8v-47.1h-20.3c-0.7,0-1.3-0.6-1.3-1.3v-0.2c0-0.7,0.6-1.3,1.3-1.3h23.6c3.2,0,5.9,2.6,5.9,5.9
					v44.9c0,3.2-2.6,5.9-5.9,5.9l-2.2,0l-62.8-0.2c-3.2,0-5.9-2.6-5.9-5.9v-23.7c0-0.7,0.6-1.3,1.3-1.3h0.2c0.7,0,1.3,0.6,1.3,1.3
					v20.3h68.9"/>
				<path class="st12" d="M228.2,326.7c0.6,6.3,0.6,12.7,0,19.1c-0.1,1.4,0.9,2.7,2.3,2.9c1,0.1,2.1,0.3,3.1,0.4
					c1.4,0.2,2.7-0.9,2.9-2.5c0.7-6.9,0.7-13.8,0-20.7c-0.2-1.5-1.5-2.7-2.9-2.5c-1,0.1-2.1,0.3-3.1,0.4
					C229,324,228.1,325.3,228.2,326.7z"/>
				<path class="st21" d="M230.3,326.1c0.7,0.2,0.7,20,0,20.2"/>
				<line class="st12" x1="231.7" y1="348.8" x2="211.1" y2="348.8"/>
				<line class="st12" x1="209.6" y1="371.8" x2="209.6" y2="350"/>
				<path class="st12" d="M233.6,325.6c-0.6,0.9-4.2,4.2-4.5,4.5c0,1.8-0.9,4.8-1.6,5.3c-0.5-0.3-0.4-0.4-1-0.9
					c-0.9-0.2-5.4-1.3-7.8-3.4c1.1-1.3,1.8-7.7,3.8-9.5c0.5-1,0.7-1.9,1.5-2.6c0.6,0.2,2.7,2.7,2.9,3.7
					C228.1,323.4,232.8,324.3,233.6,325.6z"/>
				<line class="st12" x1="187.8" y1="371.8" x2="187.8" y2="350"/>
				<path class="st12" d="M228.2,350.5c0.6,5.9,0.6,11.8,0,17.7c-0.1,1.3,0.9,2.5,2.3,2.7c1,0.1,2.1,0.2,3.1,0.4
					c1.4,0.2,2.7-0.9,2.9-2.3c0.7-6.4,0.7-12.8,0-19.2c-0.2-1.4-1.5-2.5-2.9-2.3c-1,0.1-2.1,0.2-3.1,0.4
					C229,348,228.1,349.2,228.2,350.5z"/>
				<path class="st21" d="M230.3,350c0.7,0.1,0.7,18.6,0,18.7"/>
				<path class="st12" d="M184.8,368.5c-6.3,0.6-12.7,0.6-19.1,0c-1.4-0.1-2.7,0.9-2.9,2.3c-0.1,1-0.3,2.1-0.4,3.1
					c-0.2,1.4,0.9,2.7,2.5,2.9c6.9,0.7,13.8,0.7,20.7,0c1.5-0.2,2.7-1.5,2.5-2.9c-0.1-1-0.3-2.1-0.4-3.1
					C187.5,369.3,186.2,368.3,184.8,368.5z"/>
				<path class="st21" d="M185.3,370.6c-0.2,0.7-20,0.7-20.2,0"/>
				<path class="st12" d="M228.8,368.5c-5.8,0.6-11.6,0.6-17.4,0c-1.3-0.1-2.5,0.9-2.6,2.3c-0.1,1-0.2,2.1-0.4,3.1
					c-0.2,1.4,0.8,2.7,2.2,2.9c6.3,0.7,12.6,0.7,18.8,0c1.4-0.2,2.4-1.5,2.2-2.9c-0.1-1-0.2-2.1-0.4-3.1
					C231.3,369.3,230.1,368.3,228.8,368.5z"/>
				<path class="st21" d="M229.3,370.6c-0.1,0.7-18.2,0.7-18.4,0"/>
				<path class="st12" d="M207.8,368.5c-6.3,0.6-12.7,0.6-19.1,0c-1.4-0.1-2.7,0.9-2.9,2.3c-0.1,1-0.3,2.1-0.4,3.1
					c-0.2,1.4,0.9,2.7,2.5,2.9c6.9,0.7,13.8,0.7,20.7,0c1.5-0.2,2.7-1.5,2.5-2.9c-0.1-1-0.3-2.1-0.4-3.1
					C210.5,369.3,209.2,368.3,207.8,368.5z"/>
				<path class="st21" d="M208.4,370.6c-0.2,0.7-20,0.7-20.2,0"/>
				<path class="st12" d="M238,369.2c-0.7,0.9-8.1,6.3-8.7,6.7c-1.7-0.4-4.3-3.9-4.8-4.9c-1.2-0.4-2.5-1.1-3.1-1.8
					c0.5-0.5,1.5-1.4,2.1-1.7c0.3-0.6,3.3-4.1,5.7-4.9c0.6-0.5,1.2-1.2,1.5-1.1c0.6,0.8,1,1.8,1.1,2.4
					C232.3,364.4,237.9,368.3,238,369.2z"/>
				<path class="st12" d="M175.7,370.2c-1,0.2-6,0-6.3,0c-1.2,1.3-4.1,2.8-4.8,2.6c-0.2-0.5,0.1-0.6-0.1-1.3
					c-0.5-0.8-2.9-4.8-3.2-7.9c1.7-0.1,6.8-4.2,9.4-4.1c1-0.4,1.8-0.8,2.9-0.8c0.2,0.6,0,3.8-0.6,4.7
					C173.4,364.7,176,368.7,175.7,370.2z"/>
			</g>
		</g>
	</g>
</g>
<g id="Ouvertures">
	<g>
		<g>
			<rect x="214.1" y="444.4" class="st1" width="6.8" height="106.1"/>
			<path class="st10" d="M220.8,444.5v105.8h-6.5V444.5H220.8 M221.1,444.2h-7.1v106.4h7.1V444.2L221.1,444.2z"/>
		</g>
		<g>
			<rect x="214.1" y="497.6" class="st1" width="3.3" height="52.9"/>
			<path class="st10" d="M217.2,497.7v52.6h-3v-52.6H217.2 M217.5,497.4h-3.6v53.2h3.6V497.4L217.5,497.4z"/>
		</g>
		<g>
			<rect x="217.9" y="444.4" class="st1" width="3" height="52.4"/>
			<path class="st10" d="M220.8,444.5v52.1h-2.7v-52.1H220.8 M221.1,444.2h-3.3v52.7h3.3V444.2L221.1,444.2z"/>
		</g>
		<g>
			<g>
				<line class="st31" x1="224.4" y1="516.6" x2="224.4" y2="529.4"/>
				<g>
					<polygon class="st10" points="223.2,528.4 223.4,528.2 224.4,529.3 225.4,528.2 225.6,528.4 224.4,529.7 					"/>
				</g>
			</g>
		</g>
		<rect x="217.8" y="495.3" class="st10" width="3.3" height="3.4"/>
		<rect x="213.9" y="495.3" class="st10" width="3.6" height="3.4"/>
		
			<rect x="218.2" y="443.8" transform="matrix(-5.697836e-11 -1 1 -5.697836e-11 -226.009 664.9061)" class="st10" width="2.5" height="3.2"/>
		
			<rect x="214.1" y="547.3" transform="matrix(-5.487693e-11 -1 1 -5.487693e-11 -333.3819 764.782)" class="st10" width="3.1" height="3.6"/>
		<line class="st32" x1="215.8" y1="498.4" x2="215.8" y2="550.4"/>
		<line class="st32" x1="219.4" y1="445.5" x2="219.4" y2="497.5"/>
	</g>
	<g>
		<g>
			<rect x="407.8" y="496.2" class="st1" width="99.4" height="6.8"/>
			<path class="st10" d="M507.1,496.4v6.5H408v-6.5H507.1 M507.4,496.1h-99.7v7.1h99.7V496.1L507.4,496.1z"/>
		</g>
		<g>
			<rect x="457.7" y="499.8" class="st1" width="49.6" height="3.3"/>
			<path class="st10" d="M507.1,500v3h-49.3v-3H507.1 M507.4,499.7h-49.9v3.6h49.9V499.7L507.4,499.7z"/>
		</g>
		<g>
			<rect x="407.8" y="496.2" class="st1" width="49.1" height="3"/>
			<path class="st10" d="M456.8,496.4v2.7H408v-2.7H456.8 M457.1,496.1h-49.4v3.3h49.4V496.1L457.1,496.1z"/>
		</g>
		<g>
			<g>
				<line class="st31" x1="475.5" y1="492.7" x2="487.5" y2="492.7"/>
				<g>
					<polygon class="st10" points="486.5,494 486.3,493.7 487.4,492.7 486.3,491.7 486.5,491.5 487.8,492.7 					"/>
				</g>
			</g>
		</g>
		<rect x="455.5" y="496.1" class="st10" width="3.1" height="3.3"/>
		<rect x="455.5" y="499.7" class="st10" width="3.1" height="3.6"/>
		
			<rect x="407.7" y="496.1" transform="matrix(-1 6.391408e-11 -6.391408e-11 -1 817.7275 995.3865)" class="st10" width="2.3" height="3.2"/>
		
			<rect x="504.5" y="499.7" transform="matrix(-1 6.229227e-11 -6.229227e-11 -1 1011.9604 1002.8835)" class="st10" width="2.9" height="3.6"/>
		<line class="st32" x1="458.5" y1="501.4" x2="507.2" y2="501.4"/>
		<line class="st32" x1="408.9" y1="497.7" x2="457.6" y2="497.7"/>
	</g>
	<g>
		<g>
			<rect x="480" y="191.3" class="st1" width="1.5" height="29.2"/>
			<path class="st10" d="M481.3,191.4v28.9h-1.2v-28.9H481.3 M481.6,191.1h-1.8v29.5h1.8V191.1L481.6,191.1z"/>
		</g>
		<rect x="479.9" y="191.1" class="st10" width="1.8" height="4.7"/>
		<rect x="479.9" y="220.4" class="st10" width="1.8" height="4.3"/>
		<g>
			<path class="st33" d="M479.9,193.5c-12.7,0-28.3,12.1-28.3,28.1"/>
			<line class="st4" x1="479.9" y1="221.6" x2="451.5" y2="221.6"/>
		</g>
	</g>
	<g>
		<g>
			<rect x="480" y="56" class="st1" width="1.5" height="72.1"/>
			<path class="st10" d="M481.3,56.1v71.8h-1.2V56.1H481.3 M481.6,55.8h-1.8v72.4h1.8V55.8L481.6,55.8z"/>
		</g>
		<rect x="479.9" y="98.6" class="st10" width="1.8" height="4.7"/>
		<rect x="479.9" y="53.5" class="st10" width="1.8" height="4.7"/>
		<rect x="479.9" y="127.9" class="st10" width="1.8" height="4.3"/>
		<g>
			<path class="st33" d="M479.9,101c-12.7,0-28.3,12.1-28.3,28.1"/>
			<line class="st4" x1="479.9" y1="129.1" x2="451.5" y2="129.1"/>
		</g>
	</g>
	<g>
		<g>
			<rect x="119.8" y="25" class="st1" width="1.5" height="72.1"/>
			<path class="st10" d="M121.2,25.2v71.8H120V25.2H121.2 M121.5,24.9h-1.8v72.4h1.8V24.9L121.5,24.9z"/>
		</g>
		<rect x="119.7" y="67.7" class="st10" width="1.8" height="4.7"/>
		<rect x="119.7" y="22.5" class="st10" width="1.8" height="4.7"/>
		<rect x="119.7" y="97" class="st10" width="1.8" height="4.3"/>
		<g>
			<path class="st33" d="M121.5,70c12.7,0,28.3,12.1,28.3,28.1"/>
			<line class="st4" x1="121.5" y1="98.2" x2="149.8" y2="98.2"/>
		</g>
	</g>
	<g>
		<g>
			<rect x="130" y="438.8" class="st1" width="83.1" height="1.5"/>
			<path class="st10" d="M212.9,439v1.2h-82.8V439H212.9 M213.2,438.7h-83.4v1.8h83.4V438.7L213.2,438.7z"/>
		</g>
		<rect x="154.6" y="438.7" class="st10" width="4.7" height="1.8"/>
		<rect x="210.8" y="438.7" class="st10" width="4.7" height="1.8"/>
		<rect x="125.8" y="438.7" class="st10" width="4.3" height="1.8"/>
		<g>
			<path class="st33" d="M157,438.7c0-12.7-12.1-28.3-28.1-28.3"/>
			<line class="st4" x1="128.9" y1="438.7" x2="128.9" y2="410.4"/>
		</g>
	</g>
	<g>
		<g>
			<rect x="119.8" y="164.4" class="st1" width="1.5" height="270.1"/>
			<path class="st10" d="M121.2,164.5v269.8H120V164.5H121.2 M121.5,164.2h-1.8v270.4h1.8V164.2L121.5,164.2z"/>
		</g>
		<rect x="119.7" y="189" class="st10" width="1.8" height="4.7"/>
		<rect x="119.7" y="230.5" class="st10" width="1.8" height="4.7"/>
		<rect x="119.7" y="298.4" class="st10" width="1.8" height="4.7"/>
		<rect x="119.7" y="366.4" class="st10" width="1.8" height="4.7"/>
		<rect x="119.7" y="433.2" class="st10" width="1.8" height="4.7"/>
		<rect x="119.7" y="160.2" class="st10" width="1.8" height="4.3"/>
		<g>
			<path class="st33" d="M121.5,191.5c12.7,0,28.3-12.1,28.3-28.1"/>
			<line class="st4" x1="121.5" y1="163.3" x2="149.8" y2="163.3"/>
		</g>
	</g>
	<g>
		<path class="st33" d="M320.9,126c0-14.7,11.8-26.7,26.5-26.7"/>
		<line class="st4" x1="347.4" y1="126" x2="347.4" y2="99.3"/>
	</g>
	<g>
		<path class="st33" d="M239.1,180.8c-14.7,0-26.7-11.8-26.7-26.5"/>
		<line class="st4" x1="239.1" y1="154.3" x2="212.5" y2="154.3"/>
	</g>
	<g>
		<path class="st33" d="M247,125.4c0-14.7,11.8-26.7,26.5-26.7"/>
		<line class="st4" x1="273.5" y1="125.4" x2="273.5" y2="98.8"/>
	</g>
	<g>
		<path class="st33" d="M361,136.6c14.7,0,26.7,11.8,26.7,26.5"/>
		<line class="st4" x1="361" y1="163.1" x2="387.7" y2="163.1"/>
	</g>
	<g>
		<path class="st33" d="M317.1,172.9c0,14.7,11.8,26.7,26.5,26.7"/>
		<line class="st4" x1="343.6" y1="172.9" x2="343.6" y2="199.6"/>
	</g>
	<g>
		<path class="st33" d="M397.7,443.5c14.7,0,26.7-11.8,26.7-26.5"/>
		<line class="st4" x1="397.7" y1="417" x2="424.4" y2="417"/>
	</g>
	<g>
		<path class="st33" d="M387.1,172.9c0,14.7,11.8,26.7,26.5,26.7"/>
		<line class="st4" x1="413.6" y1="172.9" x2="413.6" y2="199.6"/>
	</g>
	<g>
		<path class="st33" d="M359.4,352.3c0,17.5,14.1,31.7,31.5,31.7"/>
		<line class="st4" x1="390.9" y1="352.3" x2="390.9" y2="384"/>
	</g>
	<g>
		<path class="st33" d="M313,393.2c0,12.8-10.3,23.1-23,23.1"/>
		<line class="st4" x1="290" y1="393.2" x2="290" y2="416.4"/>
	</g>
	<g>
		<path class="st33" d="M400.9,548.6c-18.3,0-33-14.7-33-32.8"/>
		<line class="st4" x1="400.9" y1="515.8" x2="367.9" y2="515.8"/>
	</g>
</g>
<g id="Étiquettes" class="st34">
	<text transform="matrix(1 0 0 1 430.0635 146.6301)" class="st35 st36 st37">Chambre 1/ </text>
	<text transform="matrix(1 0 0 1 434.5035 154.4417)" class="st35 st36 st37">DRESSING </text>
	<text transform="matrix(1 0 0 1 438.2169 162.2537)" class="st35 st38 st37">20.50 m</text>
	<text transform="matrix(0.583 0 0 0.583 461.4888 160.0857)" class="st35 st38 st37">2</text>
	<text transform="matrix(1 0 0 1 319.4431 75.1589)" class="st35 st36 st37">Salle </text>
	<text transform="matrix(1 0 0 1 313.8479 82.9705)" class="st35 st36 st37">De Bains </text>
	<text transform="matrix(1 0 0 1 318.3654 90.7825)" class="st35 st38 st37">5.40 m</text>
	<text transform="matrix(0.583 0 0 0.583 337.8615 88.6145)" class="st35 st38 st37">2</text>
	<text transform="matrix(1 0 0 1 223.8858 108.2964)" class="st35 st36 st37">Chambre 2 </text>
	<text transform="matrix(1 0 0 1 230.7911 116.1079)" class="st35 st38 st37">16.20 m</text>
	<text transform="matrix(0.583 0 0 0.583 253.7603 113.9399)" class="st35 st38 st37">2</text>
	<text transform="matrix(1 0 0 1 193.7715 214.4155)" class="st35 st36 st37">Chambre 4 </text>
	<text transform="matrix(1 0 0 1 200.6767 222.2271)" class="st35 st38 st37">11.60 m</text>
	<text transform="matrix(0.583 0 0 0.583 223.646 220.0591)" class="st35 st38 st37">2</text>
	<text transform="matrix(1 0 0 1 335.2025 534.8514)" class="st35 st36 st37">Espace Jour </text>
	<text transform="matrix(1 0 0 1 344.6575 542.663)" class="st35 st38 st37">52.90 m</text>
	<text transform="matrix(0.583 0 0 0.583 367.9295 540.495)" class="st35 st38 st37">2</text>
	<text transform="matrix(1 0 0 1 297.1613 409.8901)" class="st35 st36 st37">WC </text>
	<text transform="matrix(1 0 0 1 292.0348 417.7017)" class="st35 st38 st37">2.00 m</text>
	<text transform="matrix(0.583 0 0 0.583 311.5309 415.5337)" class="st35 st38 st37">2</text>
	<text transform="matrix(1 0 0 1 318.4805 377.0402)" class="st35 st36 st37">Dégagement </text>
	<text transform="matrix(1 0 0 1 330.9429 384.8517)" class="st35 st38 st37">7.50 m</text>
	<text transform="matrix(0.583 0 0 0.583 350.439 382.6838)" class="st35 st38 st37">2</text>
	<text transform="matrix(1 0 0 1 462.16 479.5371)" class="st35 st36 st37">Chambre 3 </text>
	<text transform="matrix(1 0 0 1 468.9139 487.3486)" class="st35 st38 st37">15.80 m</text>
	<text transform="matrix(0.583 0 0 0.583 492.1859 485.1807)" class="st35 st38 st37">2</text>
	<text transform="matrix(1 0 0 1 483.9168 561.9385)" class="st35 st36 st37">Terrasse </text>
	<text transform="matrix(1 0 0 1 489.6355 569.75)" class="st35 st38 st37">9.20 m</text>
	<text transform="matrix(0.583 0 0 0.583 509.1316 567.582)" class="st35 st38 st37">2</text>
	<text transform="matrix(1.0211 0 0 1 482.8226 209.8647)" class="st35 st36 st39">Terrasse </text>
	<text transform="matrix(1.0211 0 0 1 489.0062 218.1377)" class="st35 st38 st39">7.40 m</text>
	<text transform="matrix(0.5953 0 0 0.583 510.0882 215.8418)" class="st35 st38 st39">2</text>
	<text transform="matrix(1 0 0 1 163.4562 560.5896)" class="st35 st36 st37">Terrasse </text>
	<text transform="matrix(1 0 0 1 167.2873 568.4011)" class="st35 st38 st37">34.40 m</text>
	<text transform="matrix(0.583 0 0 0.583 190.5593 566.2332)" class="st35 st38 st37">2</text>
	<text transform="matrix(1 0 0 1 381.2473 202.1218)" class="st35 st36 st37">WC/ </text>
	<text transform="matrix(1 0 0 1 374.0608 209.9333)" class="st35 st36 st37">Douche </text>
	<text transform="matrix(1 0 0 1 377.5203 217.7454)" class="st35 st38 st37">4.40 m</text>
	<text transform="matrix(0.583 0 0 0.583 397.0164 215.5774)" class="st35 st38 st37">2</text>
	<text transform="matrix(1 0 0 1 307.6174 215.3628)" class="st35 st36 st37">Buanderie </text>
	<text transform="matrix(1 0 0 1 316.2068 223.1743)" class="st35 st38 st37">3.40 m</text>
	<text transform="matrix(0.583 0 0 0.583 335.7029 221.0063)" class="st35 st38 st37">2</text>
</g>
<g id="Murs">
	
		<rect x="88.2" y="124.5" transform="matrix(4.489304e-11 -1 1 4.489304e-11 -12.499 249.9883)" class="st10" width="61" height="13.5"/>
	
		<rect x="111.4" y="11.7" transform="matrix(4.486284e-11 -1 1 4.486284e-11 100.2613 137.228)" class="st10" width="14.6" height="13.5"/>
	
		<rect x="123.6" y="297.6" transform="matrix(4.500229e-11 -1 1 4.500229e-11 -175.2891 426.2321)" class="st10" width="3.8" height="6.4"/>
	
		<rect x="119.5" y="433.5" transform="matrix(4.472784e-11 -1 1 4.472784e-11 -315.0681 560.3759)" class="st10" width="6.2" height="8.5"/>
	
		<rect x="212.7" y="435.8" transform="matrix(4.489926e-11 -1 1 4.489926e-11 -221.9245 656.8988)" class="st10" width="9.6" height="7.1"/>
	
		<rect x="204.1" y="560.5" transform="matrix(4.490459e-11 -1 1 4.490459e-11 -346.593 788.137)" class="st10" width="33.4" height="13.7"/>
	
		<rect x="307.7" y="483.9" transform="matrix(4.489304e-11 -1 1 4.489304e-11 -263.1587 891.7817)" class="st10" width="13.2" height="187.1"/>
	
		<rect x="389.9" y="553.4" transform="matrix(4.489859e-11 -1 1 4.489859e-11 -158.9534 961.2991)" class="st10" width="22.5" height="13.4"/>
	
		<rect x="391.3" y="499" transform="matrix(4.489992e-11 -1 1 4.489992e-11 -104.7053 906.8362)" class="st10" width="19.4" height="13.6"/>
	
		<rect x="508.6" y="494.9" transform="matrix(4.494211e-11 -1 1 4.494211e-11 12.5446 1017.9968)" class="st10" width="13.4" height="15.7"/>
	
		<rect x="434.1" y="418" transform="matrix(4.489326e-11 -1 1 4.489326e-11 91.4924 941.1261)" class="st10" width="164.3" height="13.6"/>
	
		<rect x="449" y="284" transform="matrix(4.507756e-11 -1 1 4.507756e-11 106.3653 800.2927)" class="st10" width="8.6" height="126"/>
	
		<rect x="346.3" y="337.9" transform="matrix(4.486706e-11 -1 1 4.486706e-11 3.6151 697.5425)" class="st10" width="8.6" height="18.1"/>
	
		<rect x="303.3" y="228.9" transform="matrix(4.485019e-11 -1 1 4.485019e-11 53.0775 579.0402)" class="st10" width="25.5" height="68.2"/>
	
		<rect x="257.1" y="296.8" transform="matrix(4.489393e-11 -1 1 4.489393e-11 -14.8792 587.2156)" class="st10" width="58.1" height="8.4"/>
	
		<rect x="333.9" y="258.1" transform="matrix(4.493767e-11 -1 1 4.493767e-11 83.6811 608.2178)" class="st10" width="24.1" height="8.4"/>
	
		<rect x="341.7" y="250.2" transform="matrix(-1 -4.488999e-11 4.488999e-11 -1 864.8491 508.855)" class="st10" width="181.4" height="8.4"/>
	
		<rect x="282" y="326.1" transform="matrix(-1 -4.492507e-11 4.492507e-11 -1 632.1177 677.3825)" class="st10" width="68.2" height="25.2"/>
	
		<rect x="493" y="228.5" transform="matrix(4.474383e-11 -1 1 4.474383e-11 248.9866 751.6091)" class="st10" width="14.6" height="45.6"/>
	
		<rect x="470.1" y="230.1" transform="matrix(4.491169e-11 -1 1 4.491169e-11 247.3447 720.8657)" class="st10" width="28" height="13.2"/>
	
		<rect x="453.3" y="155.4" transform="matrix(4.491702e-11 -1 1 4.491702e-11 322.0962 646.1143)" class="st10" width="61.6" height="13.2"/>
	
		<rect x="471.1" y="37.1" transform="matrix(4.491880e-11 -1 1 4.491880e-11 440.4032 527.8073)" class="st10" width="25.9" height="13.2"/>
	
		<rect x="362.4" y="382" transform="matrix(2.683282e-11 -1 1 2.683282e-11 12.2462 779.7631)" class="st10" width="67.1" height="3.4"/>
	
		<rect x="312.6" y="389.6" transform="matrix(-1 -4.492996e-11 4.492996e-11 -1 668.3832 782.6835)" class="st10" width="43.2" height="3.4"/>
	
		<rect x="262.7" y="389.6" transform="matrix(-1 -4.488333e-11 4.488333e-11 -1 552.7605 782.6835)" class="st10" width="27.3" height="3.4"/>
	
		<rect x="282" y="168.5" transform="matrix(-1 -4.490109e-11 4.490109e-11 -1 599.8264 340.5169)" class="st10" width="35.9" height="3.4"/>
	
		<rect x="343.6" y="168.5" transform="matrix(-1 -4.489843e-11 4.489843e-11 -1 730.9785 340.5169)" class="st10" width="43.8" height="3.4"/>
	
		<rect x="413.2" y="168.5" transform="matrix(-1 -4.488244e-11 4.488244e-11 -1 853.667 340.5169)" class="st10" width="27.4" height="3.4"/>
	
		<rect x="347.4" y="126.7" transform="matrix(-1 -4.473722e-11 4.473722e-11 -1 706.1646 256.7669)" class="st10" width="11.4" height="3.4"/>
	
		<rect x="273.6" y="126.7" transform="matrix(-1 -4.491175e-11 4.491175e-11 -1 595.4067 256.7669)" class="st10" width="48.1" height="3.4"/>
	
		<rect x="121.3" y="126.7" transform="matrix(-1 -4.489266e-11 4.489266e-11 -1 369.3311 256.7669)" class="st10" width="126.7" height="3.4"/>
	
		<rect x="119.7" y="231.2" transform="matrix(-1 -4.488555e-11 4.488555e-11 -1 363.3578 465.7669)" class="st10" width="124" height="3.4"/>
	
		<rect x="214.7" y="205.6" transform="matrix(4.488061e-11 -1 1 4.488061e-11 34.565 449.3095)" class="st10" width="54.5" height="3.4"/>
	
		<rect x="229" y="139.6" transform="matrix(4.490814e-11 -1 1 4.490814e-11 100.5925 383.2821)" class="st10" width="25.9" height="3.4"/>
	
		<rect x="262.7" y="444.6" transform="matrix(-1 -4.490420e-11 4.490420e-11 -1 618.5333 892.6835)" class="st10" width="93.1" height="3.4"/>
	
		<rect x="367.5" y="469.9" transform="matrix(6.612939e-11 -1 1 6.612939e-11 -75.6246 867.6339)" class="st10" width="57.1" height="3.4"/>
	
		<rect x="305.7" y="413.5" transform="matrix(4.490281e-11 -1 1 4.490281e-11 -86.7178 750.6445)" class="st10" width="52.5" height="10.3"/>
	
		<rect x="257.5" y="416.9" transform="matrix(4.486817e-11 -1 1 4.486817e-11 -134.8906 702.4717)" class="st10" width="52.5" height="3.6"/>
	
		<rect x="262.5" y="209.8" transform="matrix(4.488682e-11 -1 1 4.488682e-11 91.1198 514.4613)" class="st10" width="80.5" height="3.6"/>
	
		<rect x="314.2" y="206.5" transform="matrix(4.488682e-11 -1 1 4.488682e-11 142.8212 566.1627)" class="st10" width="80.5" height="10.3"/>
	
		<rect x="317.6" y="201.4" transform="matrix(4.488682e-11 -1 1 4.488682e-11 154.7314 561.0729)" class="st10" width="80.5" height="3.5"/>
	
		<rect x="379.1" y="209.9" transform="matrix(4.488682e-11 -1 1 4.488682e-11 207.7314 631.0729)" class="st10" width="80.5" height="3.5"/>
	
		<rect x="317.6" y="95.2" transform="matrix(4.486462e-11 -1 1 4.486462e-11 260.9814 454.8229)" class="st10" width="80.5" height="3.5"/>
	
		<rect x="304.5" y="72.6" transform="matrix(4.489215e-11 -1 1 4.489215e-11 279.4331 432.2461)" class="st10" width="102.7" height="7.6"/>
	
		<rect x="111.6" y="17.3" transform="matrix(0.9986 5.233596e-02 -5.233596e-02 0.9986 1.5178 -15.7454)" class="st10" width="379.6" height="7.6"/>
	
		<rect x="233.4" y="66.1" transform="matrix(4.490459e-11 -1 1 4.490459e-11 212.3053 361.0958)" class="st10" width="106.7" height="16.6"/>
	
		<rect x="314.2" y="-9" transform="matrix(4.483353e-11 -1 1 4.483353e-11 293.1718 344.9623)" class="st10" width="9.7" height="69.7"/>
	
		<rect x="304.3" y="416.6" transform="matrix(4.472784e-11 -1 1 4.472784e-11 -132.5409 749.2692)" class="st10" width="8.1" height="48.5"/>
	<line class="st40" x1="85.5" y1="13.2" x2="109.4" y2="14.6"/>
	<line class="st40" x1="494.5" y1="33.8" x2="518.2" y2="36.3"/>
	<polyline class="st41" points="208.4,579.5 82.4,579.5 82.4,13.6 	"/>
	<line class="st41" x1="518.2" y1="239" x2="518.2" y2="42.2"/>
	<polyline class="st41" points="518.2,514.2 518.2,579.5 411.1,579.5 	"/>
</g>
<g id="Entree">
	<polygon class="st42" points="366.7,346.2 372.2,350.9 377.6,346.2 	"/>
</g>
<g id="Nord">
	<circle class="st43" cx="97" cy="608" r="11.9"/>
	<line class="st44" x1="104.7" y1="605.5" x2="112" y2="603.2"/>
	<text transform="matrix(1 0 0 1 90.791 613.7809)" class="st10 st36 st45">N</text>
</g>
</svg>
