<?xml version="1.0" encoding="utf-8"?>
<!-- Generator: Adobe Illustrator 22.0.1, SVG Export Plug-In . SVG Version: 6.00 Build 0)  -->
<svg version="1.1" xmlns="http://www.w3.org/2000/svg" xmlns:xlink="http://www.w3.org/1999/xlink" x="0px" y="0px"
	 viewBox="0 0 595.3 595.3" style="enable-background:new 0 0 595.3 595.3;" xml:space="preserve">
<style type="text/css">
	.st0{fill:none;}
	.st1{fill:#FFFFFF;}
	.st2{fill:#E3E3E3;}
	.st3{fill:#DBEBD0;}
	.st4{fill:#ABBBA1;}
	.st5{fill:#EAF6FE;}
	.st6{fill:none;stroke:#707E85;stroke-width:0.3638;stroke-miterlimit:10;}
	.st7{fill:url(#SVGID_1_);}
	.st8{fill:#707E85;}
	.st9{opacity:0.8;fill:#FFFFFF;}
	.st10{opacity:5.000000e-02;}
	.st11{fill:none;stroke:#CBD3D7;stroke-width:0.3638;stroke-miterlimit:10;}
	.st12{fill:#EAF6FE;stroke:#CBD3D7;stroke-width:0.3638;stroke-miterlimit:10;}
	.st13{fill:#EAF6FE;stroke:#CBD3D7;stroke-width:0.3638;stroke-linecap:round;stroke-miterlimit:10;}
	.st14{fill:#CBD3D7;}
	.st15{fill:none;stroke:#707E85;stroke-width:0.6063;stroke-miterlimit:10;}
	.st16{fill:#EAF6FE;stroke:#707E85;stroke-width:0.3638;stroke-miterlimit:10;}
	.st17{opacity:0.2;}
	.st18{fill:#708793;}
	.st19{fill:none;stroke:#708793;stroke-width:0.3638;stroke-miterlimit:10;}
	.st20{fill:#FFFFFF;stroke:#707E85;stroke-width:0.3638;stroke-miterlimit:10;}
	.st21{fill:none;stroke:#000000;stroke-width:0.1455;stroke-linecap:square;stroke-linejoin:bevel;stroke-miterlimit:10;}
	.st22{fill:#EAF6FE;stroke:#CBD3D7;stroke-width:0.3581;stroke-miterlimit:10;}
	.st23{fill:#EAF6FE;stroke:#CBD3D7;stroke-width:0.3638;stroke-linecap:round;stroke-linejoin:round;stroke-miterlimit:10;}
	.st24{fill:#707E85;stroke:#707E85;stroke-width:0.3638;stroke-miterlimit:10;}
	.st25{fill:#707E85;stroke:#707E85;stroke-width:0.3677;stroke-miterlimit:10;}
	.st26{fill:#707E85;stroke:#707E85;stroke-width:0.3638;stroke-linecap:round;stroke-linejoin:round;stroke-miterlimit:10;}
	.st27{fill:#EAF6FE;stroke:#CBD3D7;stroke-width:0.3677;stroke-miterlimit:10;}
	.st28{fill:none;stroke:#707E85;stroke-width:0.7523;stroke-miterlimit:10;}
	.st29{fill:none;stroke:#707E85;stroke-width:0.3638;stroke-miterlimit:1;}
	.st30{fill:none;stroke:#707E85;stroke-width:0.1213;stroke-miterlimit:1;}
	.st31{fill:none;stroke:#707E85;stroke-width:0.3638;stroke-miterlimit:10;stroke-dasharray:2.4251,2.4251;}
	.st32{display:none;}
	.st33{display:inline;fill:#3A3A39;}
	.st34{font-family:'Lato-Black';}
	.st35{font-size:7.8936px;}
	.st36{font-family:'Lato-Italic';}
	.st37{fill:#3A3A39;}
	.st38{fill:none;stroke:#707E85;stroke-width:1.2126;stroke-miterlimit:10;}
	.st39{fill:none;stroke:#707E85;stroke-width:2.4251;stroke-miterlimit:10;}
	.st40{font-size:19.9167px;}
</style>
<pattern  width="3.8" height="3.4" patternUnits="userSpaceOnUse" id="Nouvelle_nuance_de_motif_7" viewBox="0 -3.4 3.8 3.4" style="overflow:visible;">
	<g>
		<rect y="-3.4" class="st0" width="3.8" height="3.4"/>
		<rect x="0.1" y="-3.4" class="st1" width="3.7" height="3.4"/>
		<rect x="3.7" y="-3.4" class="st2" width="0.1" height="3.4"/>
		<rect x="0" y="-3.4" class="st2" width="0.1" height="3.4"/>
	</g>
</pattern>
<g id="Jardin">
	
		<rect x="-147.4" y="248.2" transform="matrix(-1.836970e-16 1 -1 -1.836970e-16 347.3897 230.2822)" class="st3" width="412" height="81.4"/>
	
		<rect x="281.8" y="-148.9" transform="matrix(-1.836970e-16 1 -1 -1.836970e-16 428.0091 -198.9215)" class="st3" width="63.4" height="526.8"/>
	<path class="st4" d="M74.6,114c0.1,0.1,0.1,0.1,0.1,0.2c0.2,0.3,0.2,0.7-0.3,0.8c0,0.2,0,0.5,0.1,0.8c0.1,0.2,0.3,0.4,0.4,0.6
		c0.1,0.3,0.1,0.6,0.2,1c0,0.3-0.2,0.6-0.1,0.8c0.1,0.4,0.5,0.5,0.5,0.9c0,0.4-0.4,0.8-0.2,1.1c0.2,0.4,0.8,0.4,1,0.8
		c0.3,0.4,0.1,1,0.5,1.3c0.4,0.4,1.1,0,1.2,0.7c0.2,0.8,0.7,1.3,1.3,1.9c0.3,0.2,0.4,0.1,0.7,0.3c0.3,0.1,0.2,0.2,0.4,0.5
		c0.2,0.3,0,0.2,0.4,0.3c0.2,0,0.5,0,0.7,0c0,0.2-0.1,0.6,0.2,0.7c0.2,0.1,0.5-0.3,0.8-0.3c0.5-0.1,0.5,0.4,0.7,0.6
		c0.3,0.3,0.8,0.4,1.2,0.6c0.4,0.3,0.4,0.2,0.8,0.1c0.3-0.1,0.6-0.1,0.8,0.1c0.2,0.2,0,0.5,0.5,0.5c0.3,0,0.5-0.5,0.8-0.5
		c0.3-0.1,0.4,0,0.6,0.1c0.2,0.1,0.3,0.3,0.6,0.4c0.7,0.1,1.1-0.4,1.8-0.4c0.2,0,0.4,0.1,0.6,0.1c0.3-0.1,0.4-0.2,0.7-0.4
		c0.5-0.3,0.9,0.2,1.3-0.2c0.3-0.3,0.2-0.4,0.6-0.5c0.2,0,0.4,0,0.5,0c0.1-0.3,0.3-0.7,0.6-0.8c0.6-0.1,1.4,0.4,1.8-0.4
		c0.4-0.7,0.3-0.1,0.8-0.2c0-0.2,0.1-0.4,0.2-0.7c0.2,0,0.5,0.1,0.7,0c0.4-0.2,0.2-0.8,0.2-1.1c0-0.8,0.3-0.3,0.7-0.5
		c0.4-0.1,0.6-1.1,0.6-1.5c0-0.1-0.1-0.3-0.1-0.5c0.1-0.2,0.2-0.1,0.3-0.2c0.3-0.4,0.2-0.4,0.3-0.8c0.1-0.4,0.4-0.3,0.7-0.6
		c0.2-0.2,0.1-0.4,0.1-0.7c0.1-0.3,0.2-0.3,0.2-0.7c0-0.3-0.5-0.7-0.4-0.9c0.1-0.2,0.6-0.1,0.8-0.3c0.1-0.1,0.3-0.5,0.4-0.7
		c0-0.2-0.1-0.4-0.1-0.6c0-0.3,0.1-0.4,0.2-0.7c0-0.3-0.3-0.5-0.3-0.8c0-0.3,0.3-0.4,0.4-0.6c0.1-0.3-0.1-0.7-0.1-1
		c0-0.4,0-0.7-0.2-1.1c-0.2-0.3-0.6-0.2-0.8-0.5c-0.3-0.4,0.4-0.9,0.4-1.2c0-0.4-0.7-0.6-1.1-0.5c-0.1-0.6,0.6-1.1,0.4-1.6
		c-0.4,0-1,0.1-1.1-0.2c-0.1-0.3,0.2-0.9-0.1-1.1c-0.3-0.3-0.8,0.1-1.1-0.2c-0.1-0.1,0-0.8,0-1c-0.3,0-0.6,0-0.8-0.1
		c0,0-0.4-0.5-0.3-0.6c-0.6-0.1-1.5-0.2-1.5-0.9c0-0.3,0.2-0.6,0-0.8c-0.2-0.4-0.5-0.1-0.9-0.2c-0.3-0.1-0.1-0.2-0.3-0.3
		c-0.2-0.2-0.1-0.2-0.4-0.2c-0.2,0-0.4,0.2-0.5,0.1c-0.3-0.1-0.3-0.6-0.7-0.8c-0.3-0.2-0.9-0.5-1.2-0.3c-0.3,0.1-0.3,0.5-0.7,0.4
		c-0.1,0-0.2-0.2-0.2-0.3c-0.1-0.1-0.4-0.2-0.5-0.3c-0.4-0.2-0.7-0.3-1,0c-0.2,0.2-0.3,0.5-0.6,0.4c-0.4-0.1-0.8-0.3-1.2-0.4
		c-0.3-0.1-0.7-0.4-1-0.2c-0.3,0.1-0.3,0.6-0.6,0.7c-0.7,0.3-1.4-0.1-2.1,0.1c-0.3,0.1-0.5,0.4-0.8,0.4c-0.4,0-0.7-0.3-1-0.2
		c-0.6,0.1-1,0.7-1.1,1.2c-0.1,0.3,0.1,0.3-0.2,0.5c-0.3,0.1-0.6-0.3-0.8-0.3c-0.6,0-0.1,0.9-0.5,1.1c-0.3,0.3-0.7,0-0.9,0.3
		c-0.2,0.2-0.1,0.8-0.1,1c-0.6-0.1-0.5,0.6-0.6,1c-0.2,0.5-0.5,0.6-1,0.6c-0.3,0-0.6,0-0.8,0.2c-0.4,0.4,0.1,0.7,0,1.1
		c-0.1,0.2-0.3,0.1-0.3,0.2c-0.1,0.2-0.1,0.4-0.1,0.6c0,0.3,0,0.6-0.1,0.9c-0.2,0.6-0.9,1-1.2,1.6c-0.1,0.4,0.2,0.6,0.2,0.9
		c0,0.4-0.1,0.2-0.3,0.4C74,113.4,74.3,113.6,74.6,114z"/>
	<path class="st4" d="M36.9,119.2c0.1,0.1,0.1,0.1,0.1,0.2c0.2,0.3,0.2,0.7-0.3,0.8c0,0.2,0,0.5,0.1,0.8c0.1,0.2,0.3,0.4,0.4,0.6
		c0.1,0.3,0.1,0.6,0.2,1c0,0.3-0.2,0.6-0.1,0.8c0.1,0.4,0.5,0.5,0.5,0.9c0,0.4-0.4,0.8-0.2,1.1c0.2,0.4,0.8,0.4,1,0.8
		c0.3,0.4,0.1,1,0.5,1.3c0.4,0.4,1.1,0,1.2,0.7c0.2,0.8,0.7,1.3,1.3,1.9c0.3,0.2,0.4,0.1,0.7,0.3c0.3,0.1,0.2,0.2,0.4,0.5
		c0.2,0.3,0,0.2,0.4,0.3c0.2,0,0.5,0,0.7,0c0,0.2-0.1,0.6,0.2,0.7c0.2,0.1,0.5-0.3,0.8-0.3c0.5-0.1,0.5,0.4,0.7,0.6
		c0.3,0.3,0.8,0.4,1.2,0.6c0.4,0.3,0.4,0.2,0.8,0.1c0.3-0.1,0.6-0.1,0.8,0.1c0.2,0.2,0,0.5,0.5,0.5c0.3,0,0.5-0.5,0.8-0.5
		c0.3-0.1,0.4,0,0.6,0.1c0.2,0.1,0.3,0.3,0.6,0.4c0.7,0.1,1.1-0.4,1.8-0.4c0.2,0,0.4,0.1,0.6,0.1c0.3-0.1,0.4-0.2,0.7-0.4
		c0.5-0.3,0.9,0.2,1.3-0.2c0.3-0.3,0.2-0.4,0.6-0.5c0.2,0,0.4,0,0.5,0c0.1-0.3,0.3-0.7,0.6-0.8c0.6-0.1,1.4,0.4,1.8-0.4
		c0.4-0.7,0.3-0.1,0.8-0.2c0-0.2,0.1-0.4,0.2-0.7c0.2,0,0.5,0.1,0.7,0c0.4-0.2,0.2-0.8,0.2-1.1c0-0.8,0.3-0.3,0.7-0.5
		c0.4-0.1,0.6-1.1,0.6-1.5c0-0.1-0.1-0.3-0.1-0.5c0.1-0.2,0.2-0.1,0.3-0.2c0.3-0.4,0.2-0.4,0.3-0.8c0.1-0.4,0.4-0.3,0.7-0.6
		c0.2-0.2,0.1-0.4,0.1-0.7c0.1-0.3,0.2-0.3,0.2-0.7c0-0.3-0.5-0.7-0.4-0.9c0.1-0.2,0.6-0.1,0.8-0.3c0.1-0.1,0.3-0.5,0.4-0.7
		c0-0.2-0.1-0.4-0.1-0.6c0-0.3,0.1-0.4,0.2-0.7c0-0.3-0.3-0.5-0.3-0.8c0-0.3,0.3-0.4,0.4-0.6c0.1-0.3-0.1-0.7-0.1-1
		c0-0.4,0-0.7-0.2-1.1c-0.2-0.3-0.6-0.2-0.8-0.5c-0.3-0.4,0.4-0.9,0.4-1.2c0-0.4-0.7-0.6-1.1-0.5c-0.1-0.6,0.6-1.1,0.4-1.6
		c-0.4,0-1,0.1-1.1-0.2c-0.1-0.3,0.2-0.9-0.1-1.1c-0.3-0.3-0.8,0.1-1.1-0.2c-0.1-0.1,0-0.8,0-1c-0.3,0-0.6,0-0.8-0.1
		c0,0-0.4-0.5-0.3-0.6c-0.6-0.1-1.5-0.2-1.5-0.9c0-0.3,0.2-0.6,0-0.8c-0.2-0.4-0.5-0.1-0.9-0.2c-0.3-0.1-0.1-0.2-0.3-0.3
		c-0.2-0.2-0.1-0.2-0.4-0.2c-0.2,0-0.4,0.2-0.5,0.1c-0.3-0.1-0.3-0.6-0.7-0.8c-0.3-0.2-0.9-0.5-1.2-0.3c-0.3,0.1-0.3,0.5-0.7,0.4
		c-0.1,0-0.2-0.2-0.2-0.3c-0.1-0.1-0.4-0.2-0.5-0.3c-0.4-0.2-0.7-0.3-1,0c-0.2,0.2-0.3,0.5-0.6,0.4c-0.4-0.1-0.8-0.3-1.2-0.4
		c-0.3-0.1-0.7-0.4-1-0.2c-0.3,0.1-0.3,0.6-0.6,0.7c-0.7,0.3-1.4-0.1-2.1,0.1c-0.3,0.1-0.5,0.4-0.8,0.4c-0.4,0-0.7-0.3-1-0.2
		c-0.6,0.1-1,0.7-1.1,1.2c-0.1,0.3,0.1,0.3-0.2,0.5c-0.3,0.1-0.6-0.3-0.8-0.3c-0.6,0-0.1,0.9-0.5,1.1c-0.3,0.3-0.7,0-0.9,0.3
		c-0.2,0.2-0.1,0.8-0.1,1c-0.6-0.1-0.5,0.6-0.6,1c-0.2,0.5-0.5,0.6-1,0.6c-0.3,0-0.6,0-0.8,0.2c-0.4,0.4,0.1,0.7,0,1.1
		c-0.1,0.2-0.3,0.1-0.3,0.2c-0.1,0.2-0.1,0.4-0.1,0.6c0,0.3,0,0.6-0.1,0.9c-0.2,0.6-0.9,1-1.2,1.6c-0.1,0.4,0.2,0.6,0.2,0.9
		c0,0.4-0.1,0.2-0.3,0.4C36.2,118.6,36.5,118.8,36.9,119.2z"/>
</g>
<g id="Fond">
	
		<rect x="308" y="47.5" transform="matrix(-1.836970e-16 1 -1 -1.836970e-16 624.3865 -149.3916)" class="st5" width="157.8" height="380"/>
	
		<rect x="363.4" y="130.2" transform="matrix(-1.836970e-16 1 -1 -1.836970e-16 560.5161 -216.0287)" class="st5" width="49.7" height="84.1"/>
	
		<rect x="359.5" y="147.3" transform="matrix(-1.836970e-16 1 -1 -1.836970e-16 709.3284 -47.253)" class="st5" width="37.7" height="367.5"/>
	
		<rect x="146.3" y="291.7" transform="matrix(-1.836970e-16 1 -1 -1.836970e-16 636.2923 181.7673)" class="st5" width="162" height="234.6"/>
	
		<rect x="324.7" y="347.5" transform="matrix(-1.836970e-16 1 -1 -1.836970e-16 773.3915 13.6093)" class="st5" width="110.4" height="92"/>
	<polygon class="st6" points="576.9,146.3 576.9,320.9 568.9,320.9 568.9,359.7 425.9,358.9 425.9,458.3 353,459.1 353,494.8 
		99.2,494.8 99.2,322 35.2,322 35.2,146.8 	"/>
</g>
<g id="Sol">
	<g>
		<pattern  id="SVGID_1_" xlink:href="#Nouvelle_nuance_de_motif_7" patternTransform="matrix(1 0 0 1 -3.5133 14.6055)">
		</pattern>
		<polygon class="st7" points="114.3,321.8 35.4,321.8 35.4,146.9 194.4,146.9 194.4,327.3 114.3,327.9 		"/>
		<path class="st8" d="M194.2,147.1v180l-79.7,0.6V322v-0.4h-0.4H35.6V147.1H194.2 M194.6,146.8H35.2V322h78.9v6.1l80.5-0.7V146.8
			L194.6,146.8z"/>
	</g>
	
		<rect x="341" y="141.7" transform="matrix(-8.214780e-11 1 -1 -8.214780e-11 580.6467 -192.1783)" class="st9" width="90.9" height="105.1"/>
</g>
<g id="Installations">
	<g>
		<g>
			<g class="st10">
				<path class="st8" d="M560.9,350.5h-65.8c-0.6,0-1-0.4-1-1v-20.4c0-0.6,0.4-1,1-1h65.8c0.6,0,1,0.4,1,1v20.4
					C561.9,350,561.4,350.5,560.9,350.5z"/>
				<path class="st6" d="M560.9,350.5h-65.8c-0.6,0-1-0.4-1-1v-20.4c0-0.6,0.4-1,1-1h65.8c0.6,0,1,0.4,1,1v20.4
					C561.9,350,561.4,350.5,560.9,350.5z"/>
			</g>
			<g>
				<path class="st5" d="M557.2,346.8h-65.8c-0.6,0-1-0.4-1-1v-20.4c0-0.6,0.4-1,1-1h65.8c0.6,0,1,0.4,1,1v20.4
					C558.2,346.4,557.8,346.8,557.2,346.8z"/>
				<path class="st11" d="M557.2,346.8h-65.8c-0.6,0-1-0.4-1-1v-20.4c0-0.6,0.4-1,1-1h65.8c0.6,0,1,0.4,1,1v20.4
					C558.2,346.4,557.8,346.8,557.2,346.8z"/>
			</g>
		</g>
		<line class="st12" x1="490.5" y1="327.5" x2="558.2" y2="327.5"/>
		<line class="st12" x1="524.3" y1="327.5" x2="524.3" y2="324.5"/>
		<polyline class="st11" points="517,324.5 517,322.8 519.5,322.8 519.5,324.5 		"/>
		<polyline class="st11" points="529.2,324.5 529.2,322.8 531.7,322.8 531.7,324.5 		"/>
	</g>
	<g>
		<g>
			<g class="st10">
				<path class="st8" d="M488.3,212.6l73.2-0.4c0.6,0,1,0.4,1,1l0.3,58c0,0.6-0.4,1-1,1l-73.2,0.4c-0.6,0-1-0.4-1-1l-0.3-58
					C487.3,213,487.8,212.6,488.3,212.6z"/>
				<path class="st6" d="M488.3,212.6l73.2-0.4c0.6,0,1,0.4,1,1l0.3,58c0,0.6-0.4,1-1,1l-73.2,0.4c-0.6,0-1-0.4-1-1l-0.3-58
					C487.3,213,487.8,212.6,488.3,212.6z"/>
			</g>
			<g>
				<path class="st5" d="M484.7,208.9l73.2-0.4c0.6,0,1,0.4,1,1l0.3,58c0,0.6-0.4,1-1,1l-73.2,0.4c-0.6,0-1-0.4-1-1l-0.3-58
					C483.7,209.4,484.1,208.9,484.7,208.9z"/>
				<path class="st11" d="M484.7,208.9l73.2-0.4c0.6,0,1,0.4,1,1l0.3,58c0,0.6-0.4,1-1,1l-73.2,0.4c-0.6,0-1-0.4-1-1l-0.3-58
					C483.7,209.4,484.1,208.9,484.7,208.9z"/>
			</g>
		</g>
		<path class="st12" d="M488.7,212.9l65.2-0.4c0.6,0,1,0.4,1,1l0.3,49.9c0,0.6-0.4,1-1,1l-65.2,0.4c-0.6,0-1-0.4-1-1l-0.3-49.9
			C487.7,213.4,488.2,212.9,488.7,212.9z"/>
		<path class="st12" d="M551.2,216c1.3,2.2,1.6,17.8,0.3,20.3c-0.1,0.2-7.5,1-11.5,0.5c-0.7-0.1-1.6-0.7-2.1-1.9
			c-1.4-4-0.9-13.2,0.3-17.6c0.5-1.6,2-1.5,2.6-1.6C544,215.1,550.8,215.3,551.2,216z"/>
		<path class="st12" d="M551.5,240.6c1.7,4.5,1.3,19.4,0.4,20.2c-0.3,0.3-7.5,1.2-10.9,0.5c-0.5-0.1-1-0.3-1.1-0.5
			c-1.3-1.9-2.4-19.3-2.2-19.6c0.2-0.3,1.6-0.1,2.3-0.5C541.8,239.9,551.2,239.9,551.5,240.6z"/>
		<g>
			<path class="st12" d="M527.8,262c0,0-2.1-20.7-2.1-23.2c0-2.7,1.8-23.2,1.8-23.2c0-2-3.3-3.5-1.3-3.5l10.9-0.1
				c2,0,3.6,1.6,3.6,3.5c0,0-0.9,20-0.9,23.1c0,3.1,1.2,23.4,1.2,23.4c0,2-1.6,3.6-3.5,3.6l-10.9,0.1
				C524.5,265.6,527.8,264,527.8,262z"/>
			<path class="st13" d="M537.8,219.6c-0.3-2.5-3.7-7.5-4.7-7.6"/>
			<path class="st13" d="M536.9,244.8c-0.2-0.4-5.4-11.2-7.9-10c-1,0.5-0.3,2.2,0.2,3"/>
			<path class="st13" d="M539.3,262.3c-1.5-1.5-5.7-7.8-9-16.5"/>
		</g>
		<g>
			<g>
				<g class="st10">
					<path class="st8" d="M562.9,275.7l0.1,10.6c0,0.6-0.4,1-1,1l-9.4,0.1c-0.6,0-1-0.4-1-1l-0.1-10.6c0-0.6,0.4-1,1-1l9.4-0.1
						C562.4,274.7,562.9,275.2,562.9,275.7z"/>
					<path class="st6" d="M562.9,275.7l0.1,10.6c0,0.6-0.4,1-1,1l-9.4,0.1c-0.6,0-1-0.4-1-1l-0.1-10.6c0-0.6,0.4-1,1-1l9.4-0.1
						C562.4,274.7,562.9,275.2,562.9,275.7z"/>
				</g>
				<g>
					<path class="st5" d="M559.3,272.1l0.1,10.6c0,0.6-0.4,1-1,1l-9.4,0.1c-0.6,0-1-0.4-1-1l-0.1-10.6c0-0.6,0.4-1,1-1l9.4-0.1
						C558.8,271.1,559.3,271.5,559.3,272.1z"/>
					<path class="st11" d="M559.3,272.1l0.1,10.6c0,0.6-0.4,1-1,1l-9.4,0.1c-0.6,0-1-0.4-1-1l-0.1-10.6c0-0.6,0.4-1,1-1l9.4-0.1
						C558.8,271.1,559.3,271.5,559.3,272.1z"/>
				</g>
			</g>
			<path class="st12" d="M550.8,278.8l1.7-4.5c0.2-0.5,0.8-0.8,1.3-0.6l1.9,0.7c0.5,0.2,0.8,0.8,0.6,1.3l-1.7,4.5
				c-0.2,0.5-0.8,0.8-1.3,0.6l-1.9-0.7C550.9,279.9,550.6,279.3,550.8,278.8z"/>
			<circle class="st12" cx="553.5" cy="277.3" r="0.6"/>
		</g>
		<g>
			<g>
				<g class="st10">
					<path class="st8" d="M551.1,208.5L551,198c0-0.6,0.4-1,1-1l9.4-0.1c0.6,0,1,0.4,1,1l0.1,10.6c0,0.6-0.4,1-1,1l-9.4,0.1
						C551.6,209.5,551.1,209.1,551.1,208.5z"/>
					<path class="st6" d="M551.1,208.5L551,198c0-0.6,0.4-1,1-1l9.4-0.1c0.6,0,1,0.4,1,1l0.1,10.6c0,0.6-0.4,1-1,1l-9.4,0.1
						C551.6,209.5,551.1,209.1,551.1,208.5z"/>
				</g>
				<g>
					<path class="st5" d="M547.5,204.9l-0.1-10.6c0-0.6,0.4-1,1-1l9.4-0.1c0.6,0,1,0.4,1,1l0.1,10.6c0,0.6-0.4,1-1,1l-9.4,0.1
						C547.9,205.9,547.5,205.5,547.5,204.9z"/>
					<path class="st11" d="M547.5,204.9l-0.1-10.6c0-0.6,0.4-1,1-1l9.4-0.1c0.6,0,1,0.4,1,1l0.1,10.6c0,0.6-0.4,1-1,1l-9.4,0.1
						C547.9,205.9,547.5,205.5,547.5,204.9z"/>
				</g>
			</g>
			<path class="st12" d="M552.4,196.8l0-0.5c0-0.2,0.1-0.3,0.3-0.3l6.1,0l0,1l-6.1,0C552.5,197.1,552.4,197,552.4,196.8z"/>
			<path class="st12" d="M553.4,198.8l0-0.5c0-0.2,0.1-0.3,0.3-0.3l5.2,0l0,1l-5.2,0C553.5,199.1,553.4,199,553.4,198.8z"/>
			<path class="st12" d="M551.8,197.8l0-0.5c0-0.2,0.1-0.3,0.3-0.3l6.8,0l0,1l-6.8,0C551.9,198.1,551.8,198,551.8,197.8z"/>
		</g>
	</g>
	<g>
		<polygon class="st1" points="294.2,239.5 294.2,185.7 199.1,185.7 199.1,163 317.3,163 317.3,239.5 		"/>
		<path class="st14" d="M317.1,163.2l0,22.7v42.4v11h-22.7v-7.6v-3.5v-42.4v-0.4H294h-75.9h-18.9v-22.4h13h5.9H317.1 M317.5,162.8
			h-99.3h-5.9h-13.4v23.1h19.2H294v42.4v3.5v7.9h23.4v-11.4v-42.4h0V162.8L317.5,162.8z"/>
	</g>
	<g>
		<g>
			<g>
				<path class="st12" d="M266.3,252.6h-1.9v17h1.9c0.8,0,1.4-0.6,1.4-1.4V254C267.7,253.2,267.1,252.6,266.3,252.6z"/>
				
					<rect x="259.1" y="252.6" transform="matrix(-1 -9.019065e-11 9.019065e-11 -1 523.5378 522.1755)" class="st12" width="5.3" height="17"/>
				<line class="st12" x1="264.4" y1="254.9" x2="259.1" y2="254.9"/>
				<line class="st12" x1="259.1" y1="267.3" x2="264.4" y2="267.3"/>
			</g>
			<g>
				<path class="st12" d="M266.3,272.7h-1.9v17h1.9c0.8,0,1.4-0.6,1.4-1.4v-14.2C267.7,273.3,267.1,272.7,266.3,272.7z"/>
				
					<rect x="259.1" y="272.7" transform="matrix(-1 -8.984870e-11 8.984870e-11 -1 523.5378 562.3509)" class="st12" width="5.3" height="17"/>
				<line class="st12" x1="264.4" y1="275" x2="259.1" y2="275"/>
				<line class="st12" x1="259.1" y1="287.3" x2="264.4" y2="287.3"/>
			</g>
			<g>
				<path class="st12" d="M266.3,292.8h-1.9v17h1.9c0.8,0,1.4-0.6,1.4-1.4v-14.2C267.7,293.4,267.1,292.8,266.3,292.8z"/>
				
					<rect x="259.1" y="292.8" transform="matrix(-1 -9.019065e-11 9.019065e-11 -1 523.5378 602.5263)" class="st12" width="5.3" height="17"/>
				<line class="st12" x1="264.4" y1="295.1" x2="259.1" y2="295.1"/>
				<line class="st12" x1="259.1" y1="307.4" x2="264.4" y2="307.4"/>
			</g>
		</g>
		<g>
			<path class="st12" d="M218.6,309.8h1.9v-17h-1.9c-0.8,0-1.4,0.6-1.4,1.4v14.2C217.3,309.1,217.9,309.8,218.6,309.8z"/>
			<rect x="220.5" y="292.8" class="st12" width="5.3" height="17"/>
			<line class="st12" x1="220.5" y1="307.4" x2="225.9" y2="307.4"/>
			<line class="st12" x1="225.9" y1="295.1" x2="220.5" y2="295.1"/>
		</g>
		<g>
			<path class="st12" d="M218.6,289.7h1.9v-17h-1.9c-0.8,0-1.4,0.6-1.4,1.4v14.2C217.3,289,217.9,289.7,218.6,289.7z"/>
			<rect x="220.5" y="272.7" class="st12" width="5.3" height="17"/>
			<line class="st12" x1="220.5" y1="287.3" x2="225.9" y2="287.3"/>
			<line class="st12" x1="225.9" y1="275" x2="220.5" y2="275"/>
		</g>
		<g>
			<path class="st12" d="M213.8,264.5l1.8,0.7l6.6-15.7l-1.8-0.7c-0.7-0.3-1.5,0-1.8,0.7l-5.5,13.1
				C212.8,263.4,213.1,264.2,213.8,264.5z"/>
			
				<rect x="218.3" y="251.8" transform="matrix(0.922 0.3873 -0.3873 0.922 118.4362 -67.1029)" class="st12" width="14.9" height="17"/>
			<line class="st12" x1="216.5" y1="263.1" x2="230.2" y2="268.9"/>
			<line class="st12" x1="235" y1="257.5" x2="221.2" y2="251.8"/>
		</g>
		<g>
			<g class="st10">
				<path class="st8" d="M261.4,320h-30.5c-0.8,0-1.4-0.6-1.4-1.4V251c0-0.8,0.6-1.4,1.4-1.4h30.5c0.8,0,1.4,0.6,1.4,1.4v67.7
					C262.7,319.4,262.1,320,261.4,320z"/>
				<path class="st6" d="M261.4,320h-30.5c-0.8,0-1.4-0.6-1.4-1.4V251c0-0.8,0.6-1.4,1.4-1.4h30.5c0.8,0,1.4,0.6,1.4,1.4v67.7
					C262.7,319.4,262.1,320,261.4,320z"/>
			</g>
			<g>
				<path class="st5" d="M257.7,316.4h-30.5c-0.8,0-1.4-0.6-1.4-1.4v-67.7c0-0.8,0.6-1.4,1.4-1.4h30.5c0.8,0,1.4,0.6,1.4,1.4V315
					C259.1,315.8,258.5,316.4,257.7,316.4z"/>
				<path class="st11" d="M257.7,316.4h-30.5c-0.8,0-1.4-0.6-1.4-1.4v-67.7c0-0.8,0.6-1.4,1.4-1.4h30.5c0.8,0,1.4,0.6,1.4,1.4V315
					C259.1,315.8,258.5,316.4,257.7,316.4z"/>
			</g>
		</g>
		<path class="st12" d="M244.4,306.4l-3.3-2.4c-0.4-0.3-0.5-1-0.2-1.4l4.1-5.6c0.3-0.4,1-0.5,1.4-0.2l3.3,2.4c0.4,0.3,0.5,1,0.2,1.4
			l-4.1,5.6C245.4,306.6,244.8,306.7,244.4,306.4z"/>
	</g>
	<g>
		<g>
			<rect x="347.2" y="407.2" class="st1" width="67.8" height="23.6"/>
			<path class="st8" d="M414.8,407.4v23.2h-67.5v-23.2H414.8 M415.2,407H347v23.9h68.2V407L415.2,407z"/>
		</g>
		<line class="st15" x1="356.3" y1="426.8" x2="357.6" y2="411.2"/>
		<line class="st15" x1="361.2" y1="426.8" x2="359.6" y2="411.2"/>
		<line class="st15" x1="363.1" y1="426.8" x2="364.4" y2="411.2"/>
		<line class="st15" x1="368.1" y1="426.8" x2="366.5" y2="411.2"/>
		<line class="st15" x1="394.1" y1="426.8" x2="395.5" y2="411.2"/>
		<line class="st15" x1="399.1" y1="426.8" x2="397.5" y2="411.2"/>
		<line class="st15" x1="401" y1="426.8" x2="402.3" y2="411.2"/>
		<line class="st15" x1="405.9" y1="426.8" x2="404.3" y2="411.2"/>
		<line class="st16" x1="347" y1="408.8" x2="414.9" y2="408.8"/>
		<line class="st16" x1="380.9" y1="408.8" x2="380.9" y2="407.2"/>
		<polyline class="st6" points="373.5,407.2 373.5,406.3 376.1,406.3 376.1,407.2 		"/>
		<polyline class="st6" points="385.8,407.2 385.8,406.3 388.3,406.3 388.3,407.2 		"/>
		<line class="st6" x1="347" y1="419" x2="414.9" y2="419"/>
	</g>
	<g>
		<g>
			<g class="st17">
				<path class="st18" d="M349.7,176.4c-1.3,0-8.1,0.1-9.3,0.2c-1,0.1-1.9,0.2-2.8,0.4v13.2c0.8,0.1,1.6,0.2,2.4,0.3
					c1.3,0.1,9.3,0.2,10.7,0.2c3,0,9.4-2.5,9.4-7.1C360,178.7,353.2,176.4,349.7,176.4z"/>
				<path class="st19" d="M349.7,176.4c-1.3,0-8.1,0.1-9.3,0.2c-1,0.1-1.9,0.2-2.8,0.4v13.2c0.8,0.1,1.6,0.2,2.4,0.3
					c1.3,0.1,9.3,0.2,10.7,0.2c3,0,9.4-2.5,9.4-7.1C360,178.7,353.2,176.4,349.7,176.4z"/>
			</g>
			<g>
				<path class="st1" d="M346,172.7c-1.3,0-8.1,0.1-9.3,0.2c-1,0.1-1.9,0.2-2.8,0.4v13.2c0.8,0.1,1.6,0.2,2.4,0.3
					c1.3,0.1,9.3,0.2,10.7,0.2c3,0,9.4-2.5,9.4-7.1C356.4,175.1,349.6,172.7,346,172.7z"/>
				<path class="st6" d="M346,172.7c-1.3,0-8.1,0.1-9.3,0.2c-1,0.1-1.9,0.2-2.8,0.4v13.2c0.8,0.1,1.6,0.2,2.4,0.3
					c1.3,0.1,9.3,0.2,10.7,0.2c3,0,9.4-2.5,9.4-7.1C356.4,175.1,349.6,172.7,346,172.7z"/>
			</g>
		</g>
		<g>
			<circle class="st20" cx="337.2" cy="176.7" r="0.5"/>
			<circle class="st20" cx="337.2" cy="183.1" r="0.5"/>
		</g>
		<path class="st20" d="M354.5,179.9c0,3-4.6,5.5-7.7,5.5s-5.5-2.5-5.5-5.5c0-3,2.5-5.5,5.5-5.5S354.5,176.9,354.5,179.9z"/>
		<path class="st20" d="M345.6,178h-2c-0.6,0-0.6,0.8-0.6,1.9s0.2,1.9,0.6,1.9h2c1,0,1.9-0.8,1.9-1.9S346.6,178,345.6,178z"/>
		<path class="st6" d="M337.1,172.9c-1.1,1.8-1.8,4.4-1.8,7.4c0,2.6,0.5,4.9,1.3,6.6"/>
	</g>
	<g>
		<g>
			<g class="st17">
				<path class="st18" d="M428.2,186h14.4v23.3h-14.4c-2.7,0-4.8-2.2-4.8-4.8v-13.6C423.4,188.2,425.6,186,428.2,186z"/>
				<path class="st19" d="M428.2,186h14.4v23.3h-14.4c-2.7,0-4.8-2.2-4.8-4.8v-13.6C423.4,188.2,425.6,186,428.2,186z"/>
			</g>
			<g>
				<path class="st1" d="M424.6,182.4h14.4v23.3h-14.4c-2.7,0-4.8-2.2-4.8-4.8v-13.6C419.8,184.5,421.9,182.4,424.6,182.4z"/>
				<path class="st6" d="M424.6,182.4h14.4v23.3h-14.4c-2.7,0-4.8-2.2-4.8-4.8v-13.6C419.8,184.5,421.9,182.4,424.6,182.4z"/>
			</g>
		</g>
		<path class="st20" d="M424.2,184.5h7.4c1.4,0,2.6,1.1,2.6,2.6v14c0,1.4-1.1,2.6-2.6,2.6h-7.4c-1.4,0-2.6-1.1-2.6-2.6v-14
			C421.7,185.7,422.8,184.5,424.2,184.5z"/>
		<circle class="st20" cx="431.7" cy="194.1" r="1.1"/>
	</g>
	<line class="st6" x1="294.4" y1="215.9" x2="317.6" y2="215.9"/>
	<g>
		<polyline class="st21" points="308.5,230.9 308.5,229.8 309.4,229.8 		"/>
		<polyline class="st21" points="302.9,225.3 303.9,225.3 303.9,224.4 		"/>
		<line class="st21" x1="303.2" y1="224.7" x2="309.1" y2="230.5"/>
		<polyline class="st21" points="309.4,225.3 308.5,225.3 308.5,224.4 		"/>
		<polyline class="st21" points="303.9,230.9 303.9,229.8 302.9,229.8 		"/>
		<line class="st21" x1="303.2" y1="230.5" x2="309.1" y2="224.7"/>
		<polyline class="st21" points="310.1,228.3 309.4,227.6 310.1,227 		"/>
		<polyline class="st21" points="302.2,228.3 302.9,227.6 302.2,227 		"/>
		<polyline class="st21" points="306.8,223.7 306.2,224.4 305.5,223.7 		"/>
		<polyline class="st21" points="306.8,231.4 306.2,230.8 305.5,231.4 		"/>
		<line class="st21" x1="302" y1="227.6" x2="310.4" y2="227.6"/>
		<line class="st21" x1="306.2" y1="231.7" x2="306.2" y2="223.4"/>
		<polyline class="st6" points="308.5,230.9 308.5,229.8 309.4,229.8 		"/>
		<polyline class="st6" points="302.9,225.3 303.9,225.3 303.9,224.4 		"/>
		<line class="st6" x1="303.2" y1="224.7" x2="309.1" y2="230.5"/>
		<polyline class="st6" points="309.4,225.3 308.5,225.3 308.5,224.4 		"/>
		<polyline class="st6" points="303.9,230.9 303.9,229.8 302.9,229.8 		"/>
		<line class="st6" x1="303.2" y1="230.5" x2="309.1" y2="224.7"/>
		<polyline class="st6" points="310.1,228.3 309.4,227.6 310.1,227 		"/>
		<polyline class="st6" points="302.2,228.3 302.9,227.6 302.2,227 		"/>
		<polyline class="st6" points="306.8,223.7 306.2,224.4 305.5,223.7 		"/>
		<polyline class="st6" points="306.8,231.4 306.2,230.8 305.5,231.4 		"/>
		<line class="st6" x1="302" y1="227.6" x2="310.4" y2="227.6"/>
		<line class="st6" x1="306.2" y1="231.7" x2="306.2" y2="223.4"/>
	</g>
	<g>
		<rect x="230.3" y="164.3" class="st6" width="19.6" height="19.6"/>
		<path class="st20" d="M240.6,178.2c0,2,1.6,3.6,3.6,3.6c2,0,3.6-1.6,3.6-3.6c0-2-1.6-3.6-3.6-3.6
			C242.2,174.6,240.6,176.2,240.6,178.2"/>
		<path class="st20" d="M232.6,169.9c0,2,1.6,3.6,3.6,3.6c2,0,3.6-1.6,3.6-3.6c0-2-1.6-3.6-3.6-3.6
			C234.2,166.3,232.6,167.9,232.6,169.9"/>
		<path class="st20" d="M241.6,169.2c0,1.6,1.3,2.9,2.9,2.9c1.6,0,2.9-1.3,2.9-2.9c0-1.6-1.3-2.9-2.9-2.9
			C242.9,166.3,241.6,167.6,241.6,169.2"/>
		<path class="st20" d="M232.6,178.7c0,1.6,1.3,2.9,2.9,2.9c1.6,0,2.9-1.3,2.9-2.9c0-1.6-1.3-2.9-2.9-2.9
			C233.9,175.8,232.6,177.1,232.6,178.7"/>
	</g>
	<g>
		<rect x="295.8" y="172.9" class="st6" width="19.7" height="39.6"/>
		<g>
			<path class="st20" d="M311.5,192.3h-11.6c-1.3,0-2.4,1.1-2.4,2.4v13.6c0,1.3,1.1,2.4,2.4,2.4h11.6c1.3,0,2.4-1.1,2.4-2.4v-13.6
				C313.9,193.4,312.8,192.3,311.5,192.3z"/>
			<circle class="st20" cx="310.7" cy="201.8" r="1.3"/>
		</g>
		<g>
			<rect x="299.8" y="176.2" class="st8" width="0.7" height="13"/>
			<rect x="302.5" y="176.2" class="st8" width="0.7" height="13"/>
			<rect x="305.3" y="176.2" class="st8" width="0.7" height="13"/>
			<rect x="308" y="176.2" class="st8" width="0.7" height="13"/>
			<rect x="310.8" y="176.2" class="st8" width="0.7" height="13"/>
		</g>
	</g>
	<g>
		<path class="st20" d="M368.5,237.9v-40.9c0-0.4-0.3-0.7-0.7-0.7h-32c-0.4,0-0.7,0.3-0.7,0.7v40.9c0,0.4,0.3,0.7,0.7,0.7h32
			C368.2,238.5,368.5,238.2,368.5,237.9z"/>
		<path class="st20" d="M366.4,234.1V201c0-1.1-0.9-2-2-2h-25c-1.1,0-2,0.9-2,2v33.1c0,1.1,0.9,2,2,2h25
			C365.5,236.1,366.4,235.2,366.4,234.1z"/>
		<path class="st20" d="M364.7,231.8v-28.6c0-1.1-0.9-2-2-2h-21.5c-1.1,0-2,0.9-2,2v28.6c0,1.1,0.9,2,2,2h21.5
			C363.8,233.8,364.7,232.9,364.7,231.8z"/>
		<circle class="st20" cx="344.3" cy="228.7" r="1.9"/>
	</g>
	<g>
		<g>
			<g class="st10">
				<path class="st8" d="M329.7,477.7v-60.9c0-0.7,0.5-1.2,1.1-1.2h13.7c0.6,0,1.1,0.6,1.1,1.2v60.9c0,0.7-0.5,1.2-1.1,1.2h-13.7
					C330.1,478.9,329.7,478.4,329.7,477.7z"/>
				<path class="st6" d="M329.7,477.7v-60.9c0-0.7,0.5-1.2,1.1-1.2h13.7c0.6,0,1.1,0.6,1.1,1.2v60.9c0,0.7-0.5,1.2-1.1,1.2h-13.7
					C330.1,478.9,329.7,478.4,329.7,477.7z"/>
			</g>
			<g>
				<path class="st5" d="M326,474.1v-60.9c0-0.7,0.5-1.2,1.1-1.2h13.7c0.6,0,1.1,0.6,1.1,1.2v60.9c0,0.7-0.5,1.2-1.1,1.2h-13.7
					C326.5,475.3,326,474.7,326,474.1z"/>
				<path class="st11" d="M326,474.1v-60.9c0-0.7,0.5-1.2,1.1-1.2h13.7c0.6,0,1.1,0.6,1.1,1.2v60.9c0,0.7-0.5,1.2-1.1,1.2h-13.7
					C326.5,475.3,326,474.7,326,474.1z"/>
			</g>
		</g>
		<path class="st12" d="M333.7,435.3h5.5c0.6,0,1,0.4,1,1v14.5c0,0.6-0.4,1-1,1h-5.5c-0.6,0-1-0.4-1-1v-14.5
			C332.7,435.8,333.2,435.3,333.7,435.3z"/>
		<path class="st22" d="M339.6,436.6v13.9c0,0.3-0.3,0.6-0.6,0.6h-5.1c-0.3,0-0.6-0.3-0.6-0.6v-13.9c0-0.3,0.3-0.6,0.6-0.6h5.1
			C339.3,436.1,339.6,436.3,339.6,436.6z"/>
		
			<rect x="334.9" y="418.1" transform="matrix(-1 -1.224647e-16 1.224647e-16 -1 671.3063 887.1865)" class="st12" width="1.6" height="50.9"/>
	</g>
	<g>
		<g>
			<g>
				<g class="st10">
					<path class="st8" d="M284.8,420c-2.4,13.3-2.4,26.5,0,39.8c0.1,0.5,0.6,0.9,1.1,0.9h15.7c0.5,0,1-0.4,1.1-0.9
						c2.4-13.3,2.4-26.5,0-39.8c-0.1-0.5-0.6-0.9-1.1-0.9h-15.7C285.4,419.1,284.9,419.5,284.8,420z"/>
					<path class="st6" d="M284.8,420c-2.4,13.3-2.4,26.5,0,39.8c0.1,0.5,0.6,0.9,1.1,0.9h15.7c0.5,0,1-0.4,1.1-0.9
						c2.4-13.3,2.4-26.5,0-39.8c-0.1-0.5-0.6-0.9-1.1-0.9h-15.7C285.4,419.1,284.9,419.5,284.8,420z"/>
				</g>
				<g>
					<path class="st5" d="M281.2,416.4c-2.4,13.3-2.4,26.5,0,39.8c0.1,0.5,0.6,0.9,1.1,0.9H298c0.5,0,1-0.4,1.1-0.9
						c2.4-13.3,2.4-26.5,0-39.8c-0.1-0.5-0.6-0.9-1.1-0.9h-15.7C281.8,415.4,281.3,415.8,281.2,416.4z"/>
					<path class="st11" d="M281.2,416.4c-2.4,13.3-2.4,26.5,0,39.8c0.1,0.5,0.6,0.9,1.1,0.9H298c0.5,0,1-0.4,1.1-0.9
						c2.4-13.3,2.4-26.5,0-39.8c-0.1-0.5-0.6-0.9-1.1-0.9h-15.7C281.8,415.4,281.3,415.8,281.2,416.4z"/>
				</g>
			</g>
			<path class="st12" d="M290,433.9l-2.3,1.8c-0.4,0.3-0.5,1-0.2,1.4l3.2,4.2c0.3,0.4,1,0.5,1.4,0.2l2.3-1.8c0.4-0.3,0.5-1,0.2-1.4
				l-3.2-4.2C291.1,433.7,290.5,433.6,290,433.9z"/>
			<path class="st12" d="M287.5,431.6l-1.3,2.6c-0.3,0.5-0.1,1.1,0.4,1.3l4.7,2.4c0.5,0.3,1.1,0.1,1.3-0.4l1.3-2.6
				c0.3-0.5,0.1-1.1-0.4-1.3l-4.7-2.4C288.3,431,287.7,431.1,287.5,431.6z"/>
			<circle class="st12" cx="286.3" cy="423.8" r="4.8"/>
			<path class="st23" d="M289.3,425c3.9-2.5-0.4-7-3.9-4.9C286.4,419.4,290.8,423.4,289.3,425z"/>
			<circle class="st12" cx="289.6" cy="428.7" r="0.6"/>
			<circle class="st12" cx="288.2" cy="428.8" r="0.6"/>
			<circle class="st12" cx="288.1" cy="427.7" r="0.6"/>
			<circle class="st12" cx="289.2" cy="427.7" r="0.6"/>
			<circle class="st12" cx="290.7" cy="427.9" r="0.6"/>
			<circle class="st12" cx="291.1" cy="426.9" r="0.6"/>
			<circle class="st12" cx="290.9" cy="425.6" r="0.6"/>
			<circle class="st12" cx="290" cy="426.9" r="0.6"/>
			<circle class="st12" cx="288.7" cy="426.6" r="0.6"/>
			<circle class="st12" cx="289.7" cy="425.7" r="0.6"/>
			<circle class="st12" cx="285.1" cy="426" r="1.7"/>
			<circle class="st12" cx="287.8" cy="425.2" r="1.3"/>
			
				<ellipse transform="matrix(0.2653 -0.9642 0.9642 0.2653 -198.6475 586.9449)" class="st12" cx="285.8" cy="423.8" rx="1" ry="1.5"/>
			<path class="st23" d="M289.2,425.2c2.3-4-3.5-6.1-5.7-2.6C284.1,421.4,289.8,423.1,289.2,425.2z"/>
		</g>
		<g>
			<g>
				<path class="st23" d="M288.8,449.1c0,0,3.1,1.3,5,0.2C293.8,449.3,292.6,447.8,288.8,449.1z"/>
				<path class="st23" d="M288.8,449.1c0,0,3.2-0.1,4.6-1.9C293.4,447.2,291.7,446.3,288.8,449.1z"/>
				<path class="st23" d="M292.8,452.5c0,0-3.3,0-4-3.4C288.8,449.1,292.7,450.1,292.8,452.5z"/>
				<path class="st23" d="M283.8,452.9c0,0,4-0.7,5.1-3.7C288.8,449.1,285.6,448.8,283.8,452.9z"/>
				<path class="st23" d="M289.6,454.6c0,0,0.7-2.2-0.8-5.5C288.8,449.1,287.7,452.2,289.6,454.6z"/>
				<path class="st23" d="M282.5,449.3c0,0,4.1,1.6,6.4-0.1C288.9,449.2,288.5,448,282.5,449.3z"/>
				<path class="st23" d="M292.3,445c0,0-1.4,3.5-3.4,4.1C288.8,449.1,289.8,446.8,292.3,445z"/>
				<path class="st23" d="M283.6,446c0,0,2.1,2.8,5.3,3.1C288.8,449.1,287.2,446.4,283.6,446z"/>
				<path class="st23" d="M290,443.7c0,0,0.6,3.4-1.1,5.6C288.9,449.2,287.7,447,290,443.7z"/>
				<path class="st23" d="M286.8,454.6c0,0,2.3-1.6,2.1-5.4C288.9,449.2,286.4,451.4,286.8,454.6z"/>
				<path class="st23" d="M285.2,444.4c0,0,1.3,4.2,3.8,4.9C289,449.3,288.7,446.3,285.2,444.4z"/>
				<path class="st23" d="M287.4,443.5c0,0-0.6,3.5,1.5,5.8C288.9,449.2,290,446.8,287.4,443.5z"/>
				<path class="st23" d="M289,449.5c0,0-0.1,2,2.3,4.5C291.3,453.9,291.1,451.8,289,449.5z"/>
				<path class="st23" d="M285.5,453.8c0,0,2.7-1.8,3.3-4.4C288.8,449.4,286.6,449.7,285.5,453.8z"/>
			</g>
			<g>
				<path class="st23" d="M288.6,449.1c0,0,1.9-0.1,2.7-1.1C291.3,448,290.2,447.4,288.6,449.1z"/>
				<path class="st23" d="M290.9,451.1c0,0-1.9,0-2.4-2C288.6,449.1,290.8,449.6,290.9,451.1z"/>
				<path class="st23" d="M285.6,451.3c0,0,2.4-0.4,3-2.2C288.6,449.1,286.6,448.9,285.6,451.3z"/>
				<path class="st23" d="M289,452.3c0,0,0.4-1.3-0.5-3.2C288.6,449.1,287.9,450.9,289,452.3z"/>
				<path class="st23" d="M285.4,447.3c0,0,1.2,1.7,3.1,1.9C288.6,449.1,287.6,447.5,285.4,447.3z"/>
				<path class="st23" d="M289.3,445.9c0,0,0.3,2-0.6,3.3C288.6,449.2,287.9,447.8,289.3,445.9z"/>
				<path class="st23" d="M287.3,452.3c0,0,1.3-1,1.3-3.2C288.6,449.2,287.1,450.5,287.3,452.3z"/>
				<path class="st23" d="M287.7,445.7c0,0-0.3,2.1,0.9,3.4C288.6,449.2,289.3,447.7,287.7,445.7z"/>
			</g>
		</g>
	</g>
	<g>
		<g class="st10">
			<path class="st24" d="M228.8,380c0,0,0,0.7,0,1.5v18.4v2.6c0,0.9-0.7,1.6-1.6,1.6l-19.6,0c-0.8,0-1.5-0.7-1.6-1.5
				c0,0.8-0.7,1.5-1.6,1.5c0.9,0,1.6,0.7,1.6,1.6v21c0,0.9-0.7,1.6-1.6,1.6c0.9,0,1.6,0.7,1.6,1.6v21c0,0.9-0.7,1.6-1.6,1.6h0.9
				c0.8,0,1.4,0.6,1.4,1.4v0.2c0,0.8-0.6,1.4-1.4,1.4h-24.8c-3.4,0-6.2-2.8-6.2-6.2v-66.2c0-3.4,2.8-6.2,6.2-6.2h50.2
				c0.8,0,1.4,0.6,1.4,1.4v0.2c0,0.8-0.6,1.4-1.4,1.4h-1.3L228.8,380z"/>
			<path class="st25" d="M184,380v72.5h21.3c0.8,0,1.4,0.6,1.4,1.4v0.2c0,0.8-0.6,1.4-1.4,1.4h-24.8c-3.4,0-6.2-2.8-6.2-6.2v-70.2
				c0-3.4,2.8-6.2,6.2-6.2l2.3,0l42.9,0.2c3.4,0,6.2,2.8,6.2,6.2v24.8c0,0.8-0.6,1.4-1.4,1.4h-0.2c-0.8,0-1.4-0.6-1.4-1.4v-21.4
				h-49.3"/>
			<path class="st24" d="M186.6,450.4c-0.7-6.7-0.7-13.4,0-20c0.1-1.5-0.9-2.8-2.4-3c-1.1-0.1-2.2-0.3-3.3-0.4c-1.5-0.2-2.8,1-3,2.6
				c-0.7,7.2-0.7,14.5,0,21.7c0.2,1.6,1.5,2.8,3,2.6c1.1-0.1,2.2-0.3,3.3-0.4C185.7,453.3,186.7,451.9,186.6,450.4z"/>
			<path class="st26" d="M184.3,451c-0.7-0.2-0.7-21,0-21.2"/>
			<line class="st24" x1="182.9" y1="428.3" x2="204.5" y2="428.3"/>
			<line class="st24" x1="182.9" y1="404.2" x2="204.5" y2="404.2"/>
			<line class="st24" x1="206" y1="380" x2="206" y2="402.9"/>
			<path class="st24" d="M180.8,451.5c0.6-0.9,4.4-4.4,4.7-4.7c0-1.9,1-5.1,1.6-5.6c0.5,0.3,0.4,0.5,1.1,0.9
				c0.9,0.2,5.7,1.4,8.2,3.5c-1.2,1.3-1.9,8.1-3.9,10c-0.5,1-0.7,1.9-1.6,2.8c-0.6-0.3-2.8-2.8-3-3.9
				C186.7,453.9,181.8,452.9,180.8,451.5z"/>
			<path class="st24" d="M186.6,402.3c-0.7-6.2-0.7-12.4,0-18.6c0.1-1.4-0.9-2.6-2.4-2.8c-1.1-0.1-2.2-0.3-3.3-0.4
				c-1.5-0.2-2.8,0.9-3,2.4c-0.7,6.7-0.7,13.5,0,20.2c0.2,1.5,1.5,2.6,3,2.4c1.1-0.1,2.2-0.3,3.3-0.4
				C185.7,405,186.7,403.7,186.6,402.3z"/>
			<path class="st26" d="M184.3,402.9c-0.7-0.2-0.7-19.5,0-19.6"/>
			<path class="st24" d="M186.6,426.3c-0.7-6.7-0.7-13.4,0-20c0.1-1.5-0.9-2.8-2.4-3c-1.1-0.1-2.2-0.3-3.3-0.4c-1.5-0.2-2.8,1-3,2.6
				c-0.7,7.2-0.7,14.5,0,21.7c0.2,1.6,1.5,2.8,3,2.6c1.1-0.1,2.2-0.3,3.3-0.4C185.7,429.1,186.7,427.8,186.6,426.3z"/>
			<path class="st26" d="M184.3,426.8c-0.7-0.2-0.7-21,0-21.2"/>
			<path class="st24" d="M209.1,383.5c6.7-0.7,13.4-0.7,20,0c1.5,0.1,2.8-0.9,3-2.4c0.1-1.1,0.3-2.2,0.4-3.3c0.2-1.5-1-2.8-2.6-3
				c-7.2-0.7-14.5-0.7-21.7,0c-1.6,0.2-2.8,1.5-2.6,3c0.1,1.1,0.3,2.2,0.4,3.3C206.2,382.6,207.6,383.6,209.1,383.5z"/>
			<path class="st26" d="M208.5,381.2c0.2-0.7,21-0.7,21.2,0"/>
			<path class="st24" d="M185.9,383.5c6.1-0.7,12.2-0.7,18.2,0c1.4,0.1,2.6-0.9,2.8-2.4c0.1-1.1,0.2-2.2,0.4-3.3
				c0.2-1.5-0.9-2.8-2.4-3c-6.6-0.7-13.2-0.7-19.8,0c-1.5,0.2-2.5,1.5-2.4,3c0.1,1.1,0.2,2.2,0.4,3.3
				C183.3,382.6,184.5,383.6,185.9,383.5z"/>
			<path class="st26" d="M185.4,381.2c0.2-0.7,19.1-0.7,19.3,0"/>
			<path class="st24" d="M176.3,382.7c0.7-1,8.5-6.7,9.1-7c1.8,0.4,4.5,4.1,5.1,5.2c1.2,0.4,2.6,1.1,3.2,1.9
				c-0.5,0.5-1.6,1.5-2.2,1.8c-0.4,0.6-3.5,4.3-5.9,5.1c-0.6,0.5-1.2,1.2-1.6,1.2c-0.7-0.8-1.1-1.9-1.1-2.5
				C182.3,387.7,176.4,383.6,176.3,382.7z"/>
			<path class="st24" d="M218.6,381.7c1.1-0.2,6.3,0,6.7,0c1.3-1.3,4.3-2.9,5.1-2.8c0.2,0.6-0.1,0.6,0.1,1.4c0.5,0.8,3,5,3.3,8.3
				c-1.8,0.1-7.1,4.4-9.8,4.3c-1.1,0.4-1.9,0.9-3.1,0.8c-0.2-0.6,0-4,0.6-4.9C221.1,387.4,218.2,383.3,218.6,381.7z"/>
		</g>
		<g>
			<g>
				<path class="st12" d="M225.2,376.4c0,0,0,0.7,0,1.5v18.4v2.6c0,0.9-0.7,1.6-1.6,1.6l-19.6,0c-0.8,0-1.5-0.7-1.6-1.5
					c0,0.8-0.7,1.5-1.6,1.5c0.9,0,1.6,0.7,1.6,1.6v21c0,0.9-0.7,1.6-1.6,1.6c0.9,0,1.6,0.7,1.6,1.6v21c0,0.9-0.7,1.6-1.6,1.6h0.9
					c0.8,0,1.4,0.6,1.4,1.4v0.2c0,0.8-0.6,1.4-1.4,1.4h-24.8c-3.4,0-6.2-2.8-6.2-6.2v-66.2c0-3.4,2.8-6.2,6.2-6.2h50.2
					c0.8,0,1.4,0.6,1.4,1.4v0.2c0,0.8-0.6,1.4-1.4,1.4h-1.3L225.2,376.4z"/>
				<path class="st27" d="M180.4,376.4v72.5h21.3c0.8,0,1.4,0.6,1.4,1.4v0.2c0,0.8-0.6,1.4-1.4,1.4h-24.8c-3.4,0-6.2-2.8-6.2-6.2
					v-70.2c0-3.4,2.8-6.2,6.2-6.2l2.3,0l42.9,0.2c3.4,0,6.2,2.8,6.2,6.2v24.8c0,0.8-0.6,1.4-1.4,1.4h-0.2c-0.8,0-1.4-0.6-1.4-1.4
					v-21.4H176"/>
				<path class="st12" d="M182.9,446.8c-0.7-6.7-0.7-13.4,0-20c0.1-1.5-0.9-2.8-2.4-3c-1.1-0.1-2.2-0.3-3.3-0.4
					c-1.5-0.2-2.8,1-3,2.6c-0.7,7.2-0.7,14.5,0,21.7c0.2,1.6,1.5,2.8,3,2.6c1.1-0.1,2.2-0.3,3.3-0.4
					C182,449.6,183.1,448.3,182.9,446.8z"/>
				<path class="st23" d="M180.7,447.4c-0.7-0.2-0.7-21,0-21.2"/>
				<line class="st12" x1="179.2" y1="424.7" x2="200.9" y2="424.7"/>
				<line class="st12" x1="179.2" y1="400.5" x2="200.9" y2="400.5"/>
				<line class="st12" x1="202.4" y1="376.4" x2="202.4" y2="399.3"/>
				<path class="st12" d="M177.2,447.9c0.6-0.9,4.4-4.4,4.7-4.7c0-1.9,1-5.1,1.6-5.6c0.5,0.3,0.4,0.5,1.1,0.9
					c0.9,0.2,5.7,1.4,8.2,3.5c-1.2,1.3-1.9,8.1-3.9,10c-0.5,1-0.7,1.9-1.6,2.8c-0.6-0.3-2.8-2.8-3-3.9
					C183,450.2,178.1,449.3,177.2,447.9z"/>
				<path class="st12" d="M182.9,398.7c-0.7-6.2-0.7-12.4,0-18.6c0.1-1.4-0.9-2.6-2.4-2.8c-1.1-0.1-2.2-0.3-3.3-0.4
					c-1.5-0.2-2.8,0.9-3,2.4c-0.7,6.7-0.7,13.5,0,20.2c0.2,1.5,1.5,2.6,3,2.4c1.1-0.1,2.2-0.3,3.3-0.4
					C182,401.3,183.1,400.1,182.9,398.7z"/>
				<path class="st23" d="M180.7,399.2c-0.7-0.2-0.7-19.5,0-19.6"/>
				<path class="st12" d="M182.9,422.6c-0.7-6.7-0.7-13.4,0-20c0.1-1.5-0.9-2.8-2.4-3c-1.1-0.1-2.2-0.3-3.3-0.4
					c-1.5-0.2-2.8,1-3,2.6c-0.7,7.2-0.7,14.5,0,21.7c0.2,1.6,1.5,2.8,3,2.6c1.1-0.1,2.2-0.3,3.3-0.4
					C182,425.5,183.1,424.1,182.9,422.6z"/>
				<path class="st23" d="M180.7,423.2c-0.7-0.2-0.7-21,0-21.2"/>
				<path class="st12" d="M205.4,379.8c6.7-0.7,13.4-0.7,20,0c1.5,0.1,2.8-0.9,3-2.4c0.1-1.1,0.3-2.2,0.4-3.3c0.2-1.5-1-2.8-2.6-3
					c-7.2-0.7-14.5-0.7-21.7,0c-1.6,0.2-2.8,1.5-2.6,3c0.1,1.1,0.3,2.2,0.4,3.3C202.6,378.9,203.9,380,205.4,379.8z"/>
				<path class="st23" d="M204.9,377.6c0.2-0.7,21-0.7,21.2,0"/>
				<path class="st12" d="M182.2,379.8c6.1-0.7,12.2-0.7,18.2,0c1.4,0.1,2.6-0.9,2.8-2.4c0.1-1.1,0.2-2.2,0.4-3.3
					c0.2-1.5-0.9-2.8-2.4-3c-6.6-0.7-13.2-0.7-19.8,0c-1.5,0.2-2.5,1.5-2.4,3c0.1,1.1,0.2,2.2,0.4,3.3
					C179.7,378.9,180.9,380,182.2,379.8z"/>
				<path class="st23" d="M181.7,377.6c0.2-0.7,19.1-0.7,19.3,0"/>
				<path class="st12" d="M172.6,379c0.7-1,8.5-6.7,9.1-7c1.8,0.4,4.5,4.1,5.1,5.2c1.2,0.4,2.6,1.1,3.2,1.9
					c-0.5,0.5-1.6,1.5-2.2,1.8c-0.4,0.6-3.5,4.3-5.9,5.1c-0.6,0.5-1.2,1.2-1.6,1.2c-0.7-0.8-1.1-1.9-1.1-2.5
					C178.6,384.1,172.7,380,172.6,379z"/>
				<path class="st12" d="M214.9,378c1.1-0.2,6.3,0,6.7,0c1.3-1.3,4.3-2.9,5.1-2.8c0.2,0.6-0.1,0.6,0.1,1.4c0.5,0.8,3,5,3.3,8.3
					c-1.8,0.1-7.1,4.4-9.8,4.3c-1.1,0.4-1.9,0.9-3.1,0.8c-0.2-0.6,0-4,0.6-4.9C217.4,383.8,214.6,379.6,214.9,378z"/>
			</g>
		</g>
	</g>
	<g>
		<g>
			<rect x="325.6" y="245.9" class="st20" width="24.2" height="24.2"/>
		</g>
		<g>
			<circle class="st28" cx="337.7" cy="257.9" r="5.6"/>
			<path class="st28" d="M337.1,261.6c2.2,0,3.9-1.7,3.9-3.9"/>
		</g>
	</g>
	<g>
		<g>
			<g class="st17">
				<path class="st18" d="M308.9,325h-7.7v-19h7.7c1.4,0,2.6,1.8,2.6,3.9v11.1C311.5,323.2,310.3,325,308.9,325z"/>
				<path class="st19" d="M308.9,325h-7.7v-19h7.7c1.4,0,2.6,1.8,2.6,3.9v11.1C311.5,323.2,310.3,325,308.9,325z"/>
			</g>
			<g>
				<path class="st1" d="M305.3,321.4h-7.7v-19h7.7c1.4,0,2.6,1.8,2.6,3.9v11.1C307.9,319.6,306.7,321.4,305.3,321.4z"/>
				<path class="st6" d="M305.3,321.4h-7.7v-19h7.7c1.4,0,2.6,1.8,2.6,3.9v11.1C307.9,319.6,306.7,321.4,305.3,321.4z"/>
			</g>
		</g>
		<path class="st20" d="M304.2,320.3h-3.4c-1.4,0-2.6-1.1-2.6-2.6v-8.2c0-1.4,1.1-2.6,2.6-2.6h3.4c1.4,0,2.6,1.1,2.6,2.6v8.2
			C306.8,319.2,305.6,320.3,304.2,320.3z"/>
		<circle class="st20" cx="302.2" cy="309.7" r="0.7"/>
	</g>
</g>
<g id="Ouvertures">
	<g>
		<g>
			<rect x="190.4" y="188.6" class="st1" width="8.3" height="127.6"/>
			<path class="st8" d="M198.5,188.8V316h-7.9V188.8H198.5 M198.9,188.4h-8.7v128h8.7V188.4L198.9,188.4z"/>
		</g>
		<g>
			<rect x="190.4" y="188.6" class="st1" width="4" height="63.6"/>
			<path class="st8" d="M194.2,188.8V252h-3.6v-63.3H194.2 M194.6,188.4h-4.3v64h4.3V188.4L194.6,188.4z"/>
		</g>
		<g>
			<rect x="195.1" y="253.2" class="st1" width="3.6" height="63.1"/>
			<path class="st8" d="M198.5,253.3V316h-3.3v-62.7H198.5 M198.9,253h-4v63.4h4V253L198.9,253z"/>
		</g>
		<g>
			<g>
				<line class="st29" x1="203" y1="229.3" x2="203" y2="213.9"/>
				<g>
					<polygon class="st8" points="204.5,215.1 204.2,215.4 203,214.1 201.8,215.4 201.5,215.1 203,213.5 					"/>
				</g>
			</g>
		</g>
		<rect x="194.9" y="250.9" class="st8" width="4" height="4"/>
		<rect x="190.2" y="250.9" class="st8" width="4.3" height="4"/>
		
			<rect x="195.5" y="312.9" transform="matrix(-1.020386e-10 1 -1 -1.020386e-10 511.8435 117.945)" class="st8" width="3" height="3.9"/>
		
			<rect x="190.5" y="188.1" transform="matrix(-1.009656e-10 1 -1 -1.009656e-10 382.669 -2.1389)" class="st8" width="3.7" height="4.3"/>
		<line class="st30" x1="192.5" y1="251.3" x2="192.5" y2="188.7"/>
		<line class="st30" x1="196.9" y1="314.9" x2="196.9" y2="252.3"/>
	</g>
	<g>
		<rect x="108.8" y="358.8" class="st8" width="2.3" height="4.2"/>
		<g>
			<rect x="109" y="362" class="st1" width="1.9" height="92.1"/>
			<path class="st8" d="M110.8,362.1v91.7h-1.6v-91.7H110.8 M111.1,361.8h-2.3v92.5h2.3V361.8L111.1,361.8z"/>
		</g>
		<rect x="108.8" y="393.3" class="st8" width="2.3" height="4.3"/>
		<g>
			<path class="st31" d="M111.1,395.4c19.3,0,33.4-14,33.4-33.4"/>
			<line class="st6" x1="111.1" y1="362.1" x2="144.5" y2="362.1"/>
		</g>
		<rect x="108.8" y="453.3" class="st8" width="2.3" height="5.8"/>
		<rect x="108.8" y="362.1" class="st8" width="2.3" height="1.5"/>
	</g>
	<g>
		<rect x="182" y="326.9" class="st8" width="2" height="2.3"/>
		<g>
			<rect x="117.3" y="327.1" class="st1" width="65.8" height="1.9"/>
			<path class="st8" d="M182.9,327.3v1.6h-65.4v-1.6H182.9 M183.3,326.9h-66.1v2.3h66.1V326.9L183.3,326.9z"/>
		</g>
		<rect x="114.1" y="326.9" class="st8" width="6.3" height="2.3"/>
		<rect x="178.3" y="326.9" class="st8" width="6.6" height="2.3"/>
	</g>
	<g>
		<rect x="429.7" y="146.3" class="st8" width="1.9" height="2.2"/>
		<g>
			<rect x="369.1" y="146.5" class="st1" width="61.7" height="1.8"/>
			<path class="st8" d="M430.6,146.7v1.4h-61.4v-1.4H430.6 M431,146.3h-62.1v2.2H431V146.3L431,146.3z"/>
		</g>
		<rect x="366" y="146.3" class="st8" width="5.9" height="2.2"/>
		<rect x="426.3" y="146.3" class="st8" width="6.2" height="2.2"/>
	</g>
	<g>
		<g>
			<rect x="461.7" y="157.7" class="st1" width="52.3" height="1.8"/>
			<path class="st8" d="M513.8,157.9v1.4h-51.9v-1.4H513.8 M514.2,157.5h-52.7v2.1h52.7V157.5L514.2,157.5z"/>
		</g>
		<path class="st31" d="M494.5,159.7c0,0,5.6,15.3,5.9,15.6l15.6-15.6"/>
		<rect x="491.5" y="157.5" class="st8" width="4.3" height="2.1"/>
		<rect x="513.8" y="157.5" class="st8" width="4.3" height="2.1"/>
		<rect x="456.6" y="157.5" class="st8" width="5.2" height="2.1"/>
		<g>
			<path class="st31" d="M494.5,159.7c0,15.4-14.7,34.3-34.1,34.3"/>
			<line class="st6" x1="460.4" y1="159.7" x2="460.4" y2="194"/>
		</g>
	</g>
	<g>
		<path class="st31" d="M357.6,290.7c17,0,30.7,13.7,30.7,30.6"/>
		<line class="st6" x1="357.6" y1="321.2" x2="388.3" y2="321.2"/>
	</g>
	<g>
		<path class="st31" d="M444.4,290c17,0,30.7,13.7,30.7,30.6"/>
		<line class="st6" x1="444.4" y1="320.6" x2="475.1" y2="320.6"/>
	</g>
	<g>
		<path class="st31" d="M413.7,363.4c-20.8,0-37.6,16.7-37.6,37.3"/>
		<line class="st6" x1="413.7" y1="400.8" x2="376.1" y2="400.8"/>
	</g>
	<g>
		<path class="st31" d="M410.7,238.9c0-17.9-14.4-32.3-32.1-32.3"/>
		<line class="st6" x1="378.6" y1="238.9" x2="378.6" y2="206.6"/>
	</g>
</g>
<g id="Étiquettes" class="st32">
	<text transform="matrix(1 0 0 1 271.8441 465.9229)" class="st33 st34 st35">Espace Jour</text>
	<text transform="matrix(1 0 0 1 283.309 475.3955)" class="st33 st36 st35">35.40 m</text>
	<text transform="matrix(0.583 0 0 0.583 311.5282 472.7666)" class="st33 st36 st35">2</text>
	<text transform="matrix(1 0 0 1 54.3109 474.3252)" class="st33 st34 st35">Jardin</text>
	<text transform="matrix(1 0 0 1 51.5756 483.7979)" class="st33 st36 st35">350.30 m</text>
	<text transform="matrix(0.583 0 0 0.583 84.3725 481.1689)" class="st33 st36 st35">2</text>
	<text transform="matrix(1 0 0 1 361.6727 358.084)" class="st33 st34 st35">Dégagement </text>
	<text transform="matrix(1 0 0 1 376.7841 367.5566)" class="st33 st36 st35">9.90 m</text>
	<text transform="matrix(0.583 0 0 0.583 400.4247 364.9277)" class="st33 st36 st35">2</text>
	<text transform="matrix(1 0 0 1 509.9745 325.8184)" class="st33 st34 st35">Chambre </text>
	<text transform="matrix(1 0 0 1 515.0594 335.291)" class="st33 st36 st35">14.60 m</text>
	<text transform="matrix(0.583 0 0 0.583 542.911 332.6621)" class="st33 st36 st35">2</text>
	<text transform="matrix(1 0 0 1 400.1395 213.4082)" class="st33 st34 st35">WC/ </text>
	<text transform="matrix(1 0 0 1 391.4257 222.8804)" class="st33 st34 st35">Douche </text>
	<text transform="matrix(1 0 0 1 395.62 232.3525)" class="st33 st36 st35">5.30 m</text>
	<text transform="matrix(0.583 0 0 0.583 419.2606 229.7241)" class="st33 st36 st35">2</text>
	<text transform="matrix(1 0 0 1 304.2909 281.4058)" class="st33 st34 st35">Buanderie </text>
	<text transform="matrix(1 0 0 1 314.7059 290.8779)" class="st33 st36 st35">3.00 m</text>
	<text transform="matrix(0.583 0 0 0.583 338.3466 288.2495)" class="st33 st36 st35">2</text>
	<text transform="matrix(1 0 0 1 137.7782 301.9951)" class="st33 st34 st35">Terrasse </text>
	<text transform="matrix(1 0 0 1 142.4232 311.4678)" class="st33 st36 st35">17.90 m</text>
	<text transform="matrix(0.583 0 0 0.583 170.642 308.8389)" class="st33 st36 st35">2</text>
</g>
<g id="Murs">
	
		<rect x="481.5" y="225.5" transform="matrix(-1.836970e-16 1 -1 -1.836970e-16 802.3914 -335.2719)" class="st8" width="174.6" height="16.1"/>
	
		<rect x="477.9" y="268" transform="matrix(-1.836970e-16 1 -1 -1.836970e-16 837.5703 -292.8463)" class="st8" width="174.6" height="8.8"/>
	<rect x="415.2" y="349.6" class="st8" width="153.7" height="10"/>
	<rect x="517.9" y="146.3" class="st8" width="51" height="16.6"/>
	<rect x="428.2" y="146.3" class="st8" width="29.3" height="16.6"/>
	<rect x="439.2" y="160" class="st8" width="3.6" height="130"/>
	<rect x="439.2" y="321.5" class="st8" width="3.6" height="33.5"/>
	<rect x="352.3" y="321.5" class="st8" width="3.6" height="5.1"/>
	<rect x="343.4" y="406.8" class="st8" width="3.6" height="47.6"/>
	<rect x="294" y="241.5" class="st8" width="3.6" height="85.2"/>
	<rect x="352.3" y="239.7" class="st8" width="3.6" height="50.3"/>
	
		<rect x="425" y="225.4" transform="matrix(-1.836970e-16 1 -1 -1.836970e-16 668.2458 -185.303)" class="st8" width="3.6" height="32.1"/>
	
		<rect x="335.2" y="198.6" transform="matrix(-1.836970e-16 1 -1 -1.836970e-16 578.4265 -95.4836)" class="st8" width="3.6" height="85.8"/>
	
		<rect x="323.2" y="296.5" transform="matrix(-1.836970e-16 1 -1 -1.836970e-16 652.4439 2.4821)" class="st8" width="3.6" height="61.9"/>
	<rect x="190.2" y="146.3" class="st8" width="179.1" height="16.6"/>
	
		<rect x="284.9" y="191.9" transform="matrix(-1.836970e-16 1 -1 -1.836970e-16 526.396 -125.5311)" class="st8" width="82.1" height="17"/>
	
		<rect x="413.7" y="351.2" transform="matrix(-1.836970e-16 1 -1 -1.836970e-16 777.0596 -64.0288)" class="st8" width="13.8" height="10.7"/>
	
		<rect x="391.6" y="424.8" transform="matrix(-1.836970e-16 1 -1 -1.836970e-16 850.6515 9.5631)" class="st8" width="57.9" height="10.7"/>
	
		<rect x="343.4" y="430.6" transform="matrix(-1 -1.224647e-16 1.224647e-16 -1 769.2885 889.689)" class="st8" width="82.5" height="28.4"/>
	
		<rect x="343.4" y="436.2" transform="matrix(-1 -1.224647e-16 1.224647e-16 -1 696.4382 931.0804)" class="st8" width="9.7" height="58.6"/>
	
		<rect x="221.3" y="363.1" transform="matrix(-1.836970e-16 1 -1 -1.836970e-16 716.1523 263.8646)" class="st8" width="9.7" height="253.8"/>
	
		<rect x="88.5" y="469.2" transform="matrix(-1.836970e-16 1 -1 -1.836970e-16 583.343 369.9876)" class="st8" width="36.3" height="14.9"/>
	
		<rect x="88.1" y="333" transform="matrix(-1.836970e-16 1 -1 -1.836970e-16 447.1191 233.7637)" class="st8" width="37.2" height="14.9"/>
	
		<rect x="185.3" y="315.6" transform="matrix(-1.836970e-16 1 -1 -1.836970e-16 514.4886 131.1045)" class="st8" width="12.8" height="14.5"/>
	
		<rect x="179.5" y="169.3" transform="matrix(-1.836970e-16 1 -1 -1.836970e-16 368.2452 -20.9292)" class="st8" width="30.1" height="8.7"/>
</g>
<g id="Entree">
	<polygon class="st37" points="421.6,388.9 415.8,382.3 421.6,375.6 	"/>
</g>
<g id="Nord">
	<circle class="st38" cx="557.5" cy="473.5" r="14.5"/>
	<line class="st39" x1="566.8" y1="470.5" x2="575.8" y2="467.6"/>
	<text transform="matrix(1 0 0 1 549.9833 480.5)" class="st8 st34 st40">N</text>
</g>
</svg>
