<?xml version="1.0" encoding="utf-8"?>
<!-- Generator: Adobe Illustrator 22.0.1, SVG Export Plug-In . SVG Version: 6.00 Build 0)  -->
<svg version="1.1" xmlns="http://www.w3.org/2000/svg" xmlns:xlink="http://www.w3.org/1999/xlink" x="0px" y="0px"
	 viewBox="0 0 595.3 595.3" style="enable-background:new 0 0 595.3 595.3;" xml:space="preserve">
<style type="text/css">
	.st0{fill:none;}
	.st1{fill:#FFFFFF;}
	.st2{fill:#E3E3E3;}
	.st3{fill:#707E85;}
	.st4{fill:#EAF6FE;}
	.st5{opacity:0.8;fill:#FFFFFF;}
	.st6{fill:url(#SVGID_1_);}
	.st7{fill:#FFFFFF;stroke:#707E85;stroke-width:0.3;stroke-miterlimit:10;}
	.st8{fill:none;stroke:#707E85;stroke-width:0.3;stroke-miterlimit:10;}
	.st9{fill:none;stroke:#000000;stroke-width:0.12;stroke-linecap:square;stroke-linejoin:bevel;stroke-miterlimit:10;}
	.st10{opacity:5.000000e-02;}
	.st11{fill:none;stroke:#CBD3D7;stroke-width:0.3;stroke-miterlimit:10;}
	.st12{fill:#EAF6FE;stroke:#CBD3D7;stroke-width:0.3;stroke-miterlimit:10;}
	.st13{fill:#EAF6FE;stroke:#CBD3D7;stroke-width:0.3;stroke-linecap:round;stroke-miterlimit:10;}
	.st14{opacity:0.2;}
	.st15{fill:#708793;}
	.st16{fill:none;stroke:#708793;stroke-width:0.3;stroke-miterlimit:10;}
	.st17{fill:none;stroke:#707E85;stroke-width:0.3;stroke-linecap:round;stroke-linejoin:round;stroke-miterlimit:10;}
	.st18{fill:none;stroke:#CBD3D7;stroke-width:0.3;stroke-linecap:round;stroke-linejoin:round;stroke-miterlimit:10;}
	.st19{fill:#EAF6FE;stroke:#CBD3D7;stroke-width:0.3033;stroke-miterlimit:10;}
	.st20{fill:#EAF6FE;stroke:#CBD3D7;stroke-width:0.3;stroke-linecap:round;stroke-linejoin:round;stroke-miterlimit:10;}
	.st21{fill:#EAF6FE;stroke:#CBD3D7;stroke-width:0.2953;stroke-miterlimit:10;}
	.st22{fill:none;stroke:#707E85;stroke-width:0.5;stroke-miterlimit:10;}
	.st23{fill:#EAF6FE;stroke:#707E85;stroke-width:0.3;stroke-miterlimit:10;}
	.st24{fill:none;stroke:#707E85;stroke-width:0.6204;stroke-miterlimit:10;}
	.st25{fill:none;stroke:#707E85;stroke-width:0.3;stroke-miterlimit:10;stroke-dasharray:2,2;}
	.st26{fill:none;stroke:#707E85;stroke-width:0.3;stroke-miterlimit:1;}
	.st27{fill:none;stroke:#707E85;stroke-width:0.1;stroke-miterlimit:1;}
	.st28{display:none;}
	.st29{display:inline;fill:#3A3A39;}
	.st30{font-family:'Lato-Black';}
	.st31{font-size:7px;}
	.st32{font-family:'Lato-Italic';}
	.st33{fill:none;stroke:#A5B8C4;stroke-miterlimit:10;}
	.st34{fill:none;stroke:#A5B8C4;stroke-width:1.4;stroke-miterlimit:10;}
	.st35{fill:#3A3A39;}
	.st36{fill:none;stroke:#707E85;stroke-miterlimit:10;}
	.st37{fill:none;stroke:#707E85;stroke-width:2;stroke-miterlimit:10;}
	.st38{font-size:16.4252px;}
</style>
<pattern  width="3.8" height="3.4" patternUnits="userSpaceOnUse" id="Nouvelle_nuance_de_motif_7" viewBox="0 -3.4 3.8 3.4" style="overflow:visible;">
	<g>
		<rect y="-3.4" class="st0" width="3.8" height="3.4"/>
		<rect x="0.1" y="-3.4" class="st1" width="3.7" height="3.4"/>
		<rect x="3.7" y="-3.4" class="st2" width="0.1" height="3.4"/>
		<rect x="0" y="-3.4" class="st2" width="0.1" height="3.4"/>
	</g>
</pattern>
<g id="Jardin">
</g>
<g id="Fond">
	<g>
		<polygon class="st1" points="154.2,569.9 120.5,23.5 500.4,23.5 500.4,126.9 500.6,126.9 500.6,279.7 586.8,279.7 586.8,347.2 
			485.4,355.4 485,569.9 		"/>
		<path class="st3" d="M500.3,23.7v103.1v0.3h0.2v152.5v0.3h0.3h85.9v67.2l-101.2,8.2l-0.3,0l0,0.3l-0.4,214.2H154.4L120.7,23.7
			H500.3 M500.6,23.4H120.4l33.7,546.7h331.1l0.4-214.5l101.5-8.2v-67.8h-86.2V126.8h-0.2V23.4L500.6,23.4z"/>
	</g>
	<polygon class="st4" points="116.9,36.8 151.7,555.1 478.9,555.1 478.9,357.4 571.9,357.4 571.9,289 478.9,289 478.9,124.1 
		283.1,124.1 283.1,36.8 	"/>
</g>
<g id="Sol">
	
		<rect x="151.7" y="215" transform="matrix(-1 -6.384239e-11 6.384239e-11 -1 379.478 550.4242)" class="st5" width="76.1" height="120.4"/>
	
		<pattern  id="SVGID_1_" xlink:href="#Nouvelle_nuance_de_motif_7" patternTransform="matrix(1.3126 0 0 1.3126 2461.0886 2299.8562)">
	</pattern>
	<polygon class="st6" points="301,23.8 481.7,23.8 481.7,124.2 301,124.2 	"/>
</g>
<g id="Installations">
	<rect x="453.5" y="132.9" class="st7" width="25.3" height="154.6"/>
	<g>
		<rect x="456.4" y="214.9" class="st8" width="19.8" height="39.8"/>
		<g>
			<path class="st7" d="M472.1,235.3h-11.7c-1.3,0-2.4-1.1-2.4-2.4v-13.7c0-1.3,1.1-2.4,2.4-2.4h11.7c1.3,0,2.4,1.1,2.4,2.4v13.7
				C474.6,234.2,473.5,235.3,472.1,235.3z"/>
			<circle class="st7" cx="471.3" cy="225.7" r="1.3"/>
		</g>
		<g>
			<rect x="460.4" y="238.4" class="st3" width="0.7" height="13.1"/>
			<rect x="463.1" y="238.4" class="st3" width="0.7" height="13.1"/>
			<rect x="465.9" y="238.4" class="st3" width="0.7" height="13.1"/>
			<rect x="468.7" y="238.4" class="st3" width="0.7" height="13.1"/>
			<rect x="471.4" y="238.4" class="st3" width="0.7" height="13.1"/>
		</g>
	</g>
	<g>
		<polyline class="st9" points="470.1,277.1 468.9,277.1 468.9,278.2 		"/>
		<polyline class="st9" points="463.7,270.6 463.7,271.7 462.6,271.7 		"/>
		<line class="st9" x1="462.9" y1="271" x2="469.6" y2="277.9"/>
		<polyline class="st9" points="463.7,278.2 463.7,277.1 462.6,277.1 		"/>
		<polyline class="st9" points="470.1,271.7 468.9,271.7 468.9,270.6 		"/>
		<line class="st9" x1="469.6" y1="271" x2="462.9" y2="277.9"/>
		<polyline class="st9" points="467.1,279 466.3,278.2 465.6,279 		"/>
		<polyline class="st9" points="467.1,269.9 466.3,270.6 465.6,269.9 		"/>
		<polyline class="st9" points="461.8,275.2 462.6,274.4 461.8,273.6 		"/>
		<polyline class="st9" points="470.8,275.2 470,274.4 470.8,273.6 		"/>
		<line class="st9" x1="466.3" y1="269.5" x2="466.3" y2="279.3"/>
		<line class="st9" x1="471.1" y1="274.4" x2="461.5" y2="274.4"/>
		<polyline class="st8" points="470.1,277.1 468.9,277.1 468.9,278.2 		"/>
		<polyline class="st8" points="463.7,270.6 463.7,271.7 462.6,271.7 		"/>
		<line class="st8" x1="462.9" y1="271" x2="469.6" y2="277.9"/>
		<polyline class="st8" points="463.7,278.2 463.7,277.1 462.6,277.1 		"/>
		<polyline class="st8" points="470.1,271.7 468.9,271.7 468.9,270.6 		"/>
		<line class="st8" x1="469.6" y1="271" x2="462.9" y2="277.9"/>
		<polyline class="st8" points="467.1,279 466.3,278.2 465.6,279 		"/>
		<polyline class="st8" points="467.1,269.9 466.3,270.6 465.6,269.9 		"/>
		<polyline class="st8" points="461.8,275.2 462.6,274.4 461.8,273.6 		"/>
		<polyline class="st8" points="470.8,275.2 470,274.4 470.8,273.6 		"/>
		<line class="st8" x1="466.3" y1="269.5" x2="466.3" y2="279.3"/>
		<line class="st8" x1="471.1" y1="274.4" x2="461.5" y2="274.4"/>
	</g>
	<g>
		<rect x="455.4" y="179.8" class="st8" width="21.5" height="21.5"/>
		<path class="st7" d="M466.8,186.1c0-2.2,1.8-3.9,3.9-3.9c2.2,0,3.9,1.8,3.9,3.9c0,2.2-1.8,3.9-3.9,3.9
			C468.5,190,466.8,188.3,466.8,186.1"/>
		<path class="st7" d="M458,195.2c0-2.2,1.8-3.9,3.9-3.9c2.2,0,3.9,1.8,3.9,3.9c0,2.2-1.8,3.9-3.9,3.9
			C459.8,199.1,458,197.4,458,195.2"/>
		<path class="st7" d="M467.9,196c0-1.8,1.4-3.2,3.2-3.2c1.8,0,3.2,1.4,3.2,3.2c0,1.8-1.4,3.2-3.2,3.2
			C469.3,199.1,467.9,197.7,467.9,196"/>
		<path class="st7" d="M458,185.6c0-1.8,1.4-3.2,3.2-3.2s3.2,1.4,3.2,3.2c0,1.8-1.4,3.2-3.2,3.2S458,187.3,458,185.6"/>
	</g>
	<line class="st8" x1="453.5" y1="260.9" x2="478.9" y2="260.9"/>
	<g>
		<g>
			<g class="st10">
				<path class="st3" d="M218.7,144.2l-83.3,5.3c-0.6,0-1-0.4-1.1-0.9l-4.2-66.1c0-0.6,0.4-1,0.9-1.1l83.3-5.3c0.6,0,1,0.4,1.1,0.9
					l4.2,66.1C219.6,143.7,219.2,144.2,218.7,144.2z"/>
				<path class="st8" d="M218.7,144.2l-83.3,5.3c-0.6,0-1-0.4-1.1-0.9l-4.2-66.1c0-0.6,0.4-1,0.9-1.1l83.3-5.3c0.6,0,1,0.4,1.1,0.9
					l4.2,66.1C219.6,143.7,219.2,144.2,218.7,144.2z"/>
			</g>
			<g>
				<path class="st4" d="M215.7,141.2l-83.3,5.3c-0.6,0-1-0.4-1.1-0.9l-4.2-66.1c0-0.6,0.4-1,0.9-1.1l83.3-5.3c0.6,0,1,0.4,1.1,0.9
					l4.2,66.1C216.6,140.7,216.2,141.2,215.7,141.2z"/>
				<path class="st11" d="M215.7,141.2l-83.3,5.3c-0.6,0-1-0.4-1.1-0.9l-4.2-66.1c0-0.6,0.4-1,0.9-1.1l83.3-5.3c0.6,0,1,0.4,1.1,0.9
					l4.2,66.1C216.6,140.7,216.2,141.2,215.7,141.2z"/>
			</g>
		</g>
		<path class="st12" d="M210.8,136.9l-74.2,4.7c-0.6,0-1-0.4-1.1-0.9l-3.6-56.9c0-0.6,0.4-1,0.9-1.1l74.2-4.7c0.6,0,1,0.4,1.1,0.9
			l3.6,56.9C211.8,136.4,211.4,136.9,210.8,136.9z"/>
		<path class="st12" d="M139.6,137.6c-1.6-2.4-3-20.1-1.6-23c0.1-0.2,8.4-1.7,13-1.3c0.8,0.1,1.9,0.7,2.5,2c1.9,4.4,1.9,14.9,0.8,20
			c-0.4,1.9-2.2,1.8-2.9,2C147.9,138.1,140.1,138.3,139.6,137.6z"/>
		<path class="st12" d="M137.6,109.6c-2.3-4.9-2.7-22-1.8-22.9c0.3-0.4,8.5-1.9,12.3-1.3c0.6,0.1,1.1,0.3,1.3,0.5
			c1.6,2,4,21.8,3.8,22.1c-0.2,0.3-1.8,0.3-2.6,0.7C148.6,109.8,138,110.4,137.6,109.6z"/>
		<g>
			<path class="st12" d="M163.1,83.8c0,0,3.7,23.3,3.9,26.2c0.2,3.1-0.5,26.5-0.5,26.5c0.1,2.2,4,3.8,1.7,3.9l-12.4,0.8
				c-2.2,0.1-4.1-1.5-4.3-3.8c0,0-0.3-22.7-0.5-26.3c-0.2-3.5-2.9-26.4-2.9-26.4c-0.1-2.2,1.5-4.1,3.8-4.3l12.4-0.8
				C166.6,79.5,163,81.6,163.1,83.8z"/>
			<path class="st13" d="M154.5,132.6c0.5,2.8,4.7,8.2,5.8,8.4"/>
			<path class="st13" d="M153.9,103.9c0.2,0.5,6.9,12.4,9.7,10.8c1.1-0.6,0.2-2.5-0.4-3.4"/>
			<path class="st13" d="M150.1,84.2c1.8,1.6,7,8.5,11.3,18.2"/>
		</g>
		<g>
			<g>
				<g class="st10">
					<path class="st3" d="M129.8,77.6L129,65.3c0-0.6,0.4-1,0.9-1.1l11-0.7c0.6,0,1,0.4,1.1,0.9l0.8,12.3c0,0.6-0.4,1-0.9,1.1
						l-11,0.7C130.3,78.5,129.8,78.1,129.8,77.6z"/>
					<path class="st8" d="M129.8,77.6L129,65.3c0-0.6,0.4-1,0.9-1.1l11-0.7c0.6,0,1,0.4,1.1,0.9l0.8,12.3c0,0.6-0.4,1-0.9,1.1
						l-11,0.7C130.3,78.5,129.8,78.1,129.8,77.6z"/>
				</g>
				<g>
					<path class="st4" d="M126.8,74.6L126,62.3c0-0.6,0.4-1,0.9-1.1l11-0.7c0.6,0,1,0.4,1.1,0.9l0.8,12.3c0,0.6-0.4,1-0.9,1.1
						l-11,0.7C127.3,75.5,126.8,75.1,126.8,74.6z"/>
					<path class="st11" d="M126.8,74.6L126,62.3c0-0.6,0.4-1,0.9-1.1l11-0.7c0.6,0,1,0.4,1.1,0.9l0.8,12.3c0,0.6-0.4,1-0.9,1.1
						l-11,0.7C127.3,75.5,126.8,75.1,126.8,74.6z"/>
				</g>
			</g>
			<path class="st12" d="M135.9,66.1l-1.7,5.5c-0.2,0.5-0.7,0.8-1.3,0.7l-2.4-0.8c-0.5-0.2-0.8-0.7-0.7-1.3l1.7-5.5
				c0.2-0.5,0.7-0.8,1.3-0.7l2.4,0.8C135.8,65,136.1,65.6,135.9,66.1z"/>
			<circle class="st12" cx="132.9" cy="68.1" r="0.7"/>
		</g>
		<g>
			<g>
				<g class="st10">
					<path class="st3" d="M147.5,152.8l0.8,12.3c0,0.6-0.4,1-0.9,1.1l-11,0.7c-0.6,0-1-0.4-1.1-0.9l-0.8-12.3c0-0.6,0.4-1,0.9-1.1
						l11-0.7C147,151.8,147.5,152.2,147.5,152.8z"/>
					<path class="st8" d="M147.5,152.8l0.8,12.3c0,0.6-0.4,1-0.9,1.1l-11,0.7c-0.6,0-1-0.4-1.1-0.9l-0.8-12.3c0-0.6,0.4-1,0.9-1.1
						l11-0.7C147,151.8,147.5,152.2,147.5,152.8z"/>
				</g>
				<g>
					<path class="st4" d="M144.5,149.8l0.8,12.3c0,0.6-0.4,1-0.9,1.1l-11,0.7c-0.6,0-1-0.4-1.1-0.9l-0.8-12.3c0-0.6,0.4-1,0.9-1.1
						l11-0.7C144,148.8,144.5,149.2,144.5,149.8z"/>
					<path class="st11" d="M144.5,149.8l0.8,12.3c0,0.6-0.4,1-0.9,1.1l-11,0.7c-0.6,0-1-0.4-1.1-0.9l-0.8-12.3c0-0.6,0.4-1,0.9-1.1
						l11-0.7C144,148.8,144.5,149.2,144.5,149.8z"/>
				</g>
			</g>
			<path class="st12" d="M139.5,159.4l0,0.5c0,0.2-0.1,0.3-0.3,0.3l-7,0.4l-0.1-1.1l7-0.4C139.3,159.1,139.5,159.2,139.5,159.4z"/>
			<path class="st12" d="M138.2,157.2l0,0.5c0,0.2-0.1,0.3-0.3,0.3l-5.9,0.4l-0.1-1.1l5.9-0.4C138.1,156.9,138.2,157,138.2,157.2z"
				/>
			<path class="st12" d="M140.1,158.2l0,0.5c0,0.2-0.1,0.3-0.3,0.3l-7.7,0.5l-0.1-1.1l7.7-0.5C140,157.9,140.1,158,140.1,158.2z"/>
		</g>
	</g>
	<g>
		<g>
			<g class="st10">
				<path class="st3" d="M210.6,211h-71.3c-0.6,0-1-0.4-1-1v-22.4c0-0.6,0.4-1,1-1h71.3c0.6,0,1,0.4,1,1V210
					C211.6,210.5,211.1,211,210.6,211z"/>
				<path class="st8" d="M210.6,211h-71.3c-0.6,0-1-0.4-1-1v-22.4c0-0.6,0.4-1,1-1h71.3c0.6,0,1,0.4,1,1V210
					C211.6,210.5,211.1,211,210.6,211z"/>
			</g>
			<g>
				<path class="st4" d="M207.6,208h-71.3c-0.6,0-1-0.4-1-1v-22.4c0-0.6,0.4-1,1-1h71.3c0.6,0,1,0.4,1,1V207
					C208.6,207.5,208.1,208,207.6,208z"/>
				<path class="st11" d="M207.6,208h-71.3c-0.6,0-1-0.4-1-1v-22.4c0-0.6,0.4-1,1-1h71.3c0.6,0,1,0.4,1,1V207
					C208.6,207.5,208.1,208,207.6,208z"/>
			</g>
		</g>
		<line class="st12" x1="135.3" y1="186.9" x2="208.6" y2="186.9"/>
		<line class="st12" x1="171.9" y1="186.9" x2="171.9" y2="183.6"/>
		<polyline class="st11" points="163.9,183.6 163.9,181.8 166.7,181.8 166.7,183.6 		"/>
		<polyline class="st11" points="177.2,183.6 177.2,181.8 179.9,181.8 179.9,183.6 		"/>
	</g>
	<g>
		<path class="st12" d="M242.7,531.7h2.2V512h-2.2c-0.9,0-1.6,0.7-1.6,1.6v16.5C241.2,531,241.9,531.7,242.7,531.7z"/>
		<rect x="245" y="512" class="st12" width="9.4" height="19.7"/>
		<line class="st12" x1="245" y1="529" x2="254.4" y2="529"/>
		<line class="st12" x1="254.4" y1="514.7" x2="245" y2="514.7"/>
		<g>
			<g class="st10">
				<path class="st3" d="M284,553.7h-25.5c-0.6,0-1.2-0.5-1.2-1.1v-55.4c0-0.6,0.5-1.1,1.2-1.1H284c0.6,0,1.2,0.5,1.2,1.1v55.4
					C285.2,553.2,284.7,553.7,284,553.7z"/>
				<path class="st8" d="M284,553.7h-25.5c-0.6,0-1.2-0.5-1.2-1.1v-55.4c0-0.6,0.5-1.1,1.2-1.1H284c0.6,0,1.2,0.5,1.2,1.1v55.4
					C285.2,553.2,284.7,553.7,284,553.7z"/>
			</g>
			<g>
				<path class="st4" d="M281,550.7h-25.5c-0.6,0-1.2-0.5-1.2-1.1v-55.4c0-0.6,0.5-1.1,1.2-1.1H281c0.6,0,1.2,0.5,1.2,1.1v55.4
					C282.2,550.2,281.7,550.7,281,550.7z"/>
				<path class="st11" d="M281,550.7h-25.5c-0.6,0-1.2-0.5-1.2-1.1v-55.4c0-0.6,0.5-1.1,1.2-1.1H281c0.6,0,1.2,0.5,1.2,1.1v55.4
					C282.2,550.2,281.7,550.7,281,550.7z"/>
			</g>
		</g>
	</g>
	<g>
		<g>
			<g class="st10">
				<path class="st3" d="M194.2,500.3l-4.1-86.4c0-0.6-0.5-1-1-1l-38,1.8c-0.6,0-1,0.5-1,1l4.1,86.4c0,0.6,0.5,1,1,1l38-1.8
					C193.8,501.3,194.2,500.8,194.2,500.3z"/>
				<path class="st8" d="M194.2,500.3l-4.1-86.4c0-0.6-0.5-1-1-1l-38,1.8c-0.6,0-1,0.5-1,1l4.1,86.4c0,0.6,0.5,1,1,1l38-1.8
					C193.8,501.3,194.2,500.8,194.2,500.3z"/>
			</g>
			<g>
				<path class="st4" d="M191.2,497.3l-4.1-86.4c0-0.6-0.5-1-1-1l-38,1.8c-0.6,0-1,0.5-1,1l4.1,86.4c0,0.6,0.5,1,1,1l38-1.8
					C190.8,498.3,191.2,497.8,191.2,497.3z"/>
				<path class="st11" d="M191.2,497.3l-4.1-86.4c0-0.6-0.5-1-1-1l-38,1.8c-0.6,0-1,0.5-1,1l4.1,86.4c0,0.6,0.5,1,1,1l38-1.8
					C190.8,498.3,191.2,497.8,191.2,497.3z"/>
			</g>
		</g>
		<g>
			<g>
				<g class="st10">
					<path class="st3" d="M207.2,412.1l-12.8,0.6c-0.6,0-1,0.5-1,1l0.5,11.4c0,0.6,0.5,1,1,1l12.8-0.6c0.6,0,1-0.5,1-1l-0.5-11.4
						C208.3,412.5,207.8,412,207.2,412.1z"/>
					<path class="st8" d="M207.2,412.1l-12.8,0.6c-0.6,0-1,0.5-1,1l0.5,11.4c0,0.6,0.5,1,1,1l12.8-0.6c0.6,0,1-0.5,1-1l-0.5-11.4
						C208.3,412.5,207.8,412,207.2,412.1z"/>
				</g>
				<g>
					<path class="st4" d="M204.2,409.1l-12.8,0.6c-0.6,0-1,0.5-1,1l0.5,11.4c0,0.6,0.5,1,1,1l12.8-0.6c0.6,0,1-0.5,1-1l-0.5-11.4
						C205.3,409.5,204.8,409,204.2,409.1z"/>
					<path class="st11" d="M204.2,409.1l-12.8,0.6c-0.6,0-1,0.5-1,1l0.5,11.4c0,0.6,0.5,1,1,1l12.8-0.6c0.6,0,1-0.5,1-1l-0.5-11.4
						C205.3,409.5,204.8,409,204.2,409.1z"/>
				</g>
			</g>
			<path class="st12" d="M196.5,419.5l5.5-2.4c0.5-0.2,0.7-0.8,0.5-1.3l-1.1-2.5c-0.2-0.5-0.8-0.7-1.3-0.5l-5.5,2.4
				c-0.5,0.2-0.7,0.8-0.5,1.3l1.1,2.5C195.4,419.5,196,419.7,196.5,419.5z"/>
			
				<ellipse transform="matrix(0.9525 -0.3047 0.3047 0.9525 -117.3573 80.21)" class="st12" cx="198.3" cy="416.1" rx="0.7" ry="0.7"/>
		</g>
		<path class="st12" d="M186.2,492.8l-3.7-77c0-0.6-0.5-1-1-1l-28.5,1.4c-0.6,0-1,0.5-1,1l3.7,77c0,0.6,0.5,1,1,1l28.5-1.4
			C185.8,493.8,186.2,493.3,186.2,492.8z"/>
		<path class="st12" d="M178.6,419.1c-0.7-0.2-1.2,0.2-2.3,0.2c-9.9-1.6-20.3,1.5-20.6,1.9c-0.2,0.4,0.2,0.3,0.8,2.5
			c0.3,2.3-0.1,7.7,0.4,9.6c0.1,0.5,0.3,0.8,0.5,1c1.9,1.3,21.1-0.1,21.4-0.4s0.9-0.9,1-1.8C180,430,179.3,419.3,178.6,419.1z"/>
		<g>
			<g>
				<path class="st12" d="M156.6,448.3c0,0,9.2,0.8,12.2,0.7c3.2-0.2,12.1-1.8,12.1-1.8c2.3-0.1,4.4,3.7,4.3,1.3l-0.6-12.8
					c-0.1-2.3-2.1-4.1-4.4-4c0,0-8.3,1.6-11.9,1.8c-3.6,0.2-12.4-0.6-12.4-0.6c-2.3,0.1-4.1,2.1-4,4.4l0.6,12.8
					C152.6,452.4,154.3,448.4,156.6,448.3z"/>
			</g>
			<path class="st13" d="M179.6,437.3c0.4,1.8-1.5,6.5-4.8,7.5"/>
			<path class="st13" d="M169.4,437.3c-2.4,2.6-8.1,6.1-12,6"/>
		</g>
	</g>
	<g>
		<g>
			<g class="st10">
				<path class="st3" d="M158.5,553.6l-2.9-48c0-0.6,0.4-1,0.9-1.1l21.5-1.3c0.6,0,1,0.4,1.1,0.9l2.9,48c0,0.6-0.4,1-0.9,1.1
					l-21.5,1.3C159,554.6,158.6,554.2,158.5,553.6z"/>
				<path class="st8" d="M158.5,553.6l-2.9-48c0-0.6,0.4-1,0.9-1.1l21.5-1.3c0.6,0,1,0.4,1.1,0.9l2.9,48c0,0.6-0.4,1-0.9,1.1
					l-21.5,1.3C159,554.6,158.6,554.2,158.5,553.6z"/>
			</g>
			<g>
				<path class="st4" d="M155.5,550.6l-2.9-48c0-0.6,0.4-1,0.9-1.1l21.5-1.3c0.6,0,1,0.4,1.1,0.9l2.9,48c0,0.6-0.4,1-0.9,1.1
					l-21.5,1.3C156,551.6,155.6,551.2,155.5,550.6z"/>
				<path class="st11" d="M155.5,550.6l-2.9-48c0-0.6,0.4-1,0.9-1.1l21.5-1.3c0.6,0,1,0.4,1.1,0.9l2.9,48c0,0.6-0.4,1-0.9,1.1
					l-21.5,1.3C156,551.6,155.6,551.2,155.5,550.6z"/>
			</g>
		</g>
		<line class="st12" x1="172.9" y1="500.4" x2="175.9" y2="550.4"/>
		<line class="st12" x1="174.4" y1="525.4" x2="177.6" y2="525.2"/>
		<polyline class="st11" points="177.2,519.7 179,519.6 179.1,521.5 177.3,521.6 		"/>
		<polyline class="st11" points="177.8,528.7 179.5,528.6 179.7,530.5 177.9,530.6 		"/>
	</g>
	<g>
		<g>
			<g class="st14">
				<path class="st15" d="M171.1,289.6h-16v-25.9h16c3,0,5.4,2.4,5.4,5.4v15.2C176.4,287.2,174,289.6,171.1,289.6z"/>
				<path class="st16" d="M171.1,289.6h-16v-25.9h16c3,0,5.4,2.4,5.4,5.4v15.2C176.4,287.2,174,289.6,171.1,289.6z"/>
			</g>
			<g>
				<path class="st1" d="M168.1,286.6h-16v-25.9h16c3,0,5.4,2.4,5.4,5.4v15.2C173.4,284.2,171,286.6,168.1,286.6z"/>
				<path class="st8" d="M168.1,286.6h-16v-25.9h16c3,0,5.4,2.4,5.4,5.4v15.2C173.4,284.2,171,286.6,168.1,286.6z"/>
			</g>
		</g>
		<path class="st7" d="M168.7,284.2H160c-1.4,0-2.6-1.1-2.6-2.6v-16.1c0-1.4,1.1-2.6,2.6-2.6h8.8c1.4,0,2.6,1.1,2.6,2.6v16.1
			C171.3,283,170.2,284.2,168.7,284.2z"/>
		<circle class="st7" cx="160.2" cy="273.6" r="1.2"/>
	</g>
	<g>
		<g>
			<g class="st14">
				<path class="st15" d="M168,227.2c-1.3,0-8.6,0.1-9.8,0.2c-1,0.1-2,0.2-3,0.4v14c0.8,0.2,1.7,0.3,2.5,0.3
					c1.4,0.2,9.8,0.2,11.3,0.2c3.2,0,9.9-2.6,9.9-7.5C179,229.8,171.8,227.2,168,227.2z"/>
				<path class="st16" d="M168,227.2c-1.3,0-8.6,0.1-9.8,0.2c-1,0.1-2,0.2-3,0.4v14c0.8,0.2,1.7,0.3,2.5,0.3
					c1.4,0.2,9.8,0.2,11.3,0.2c3.2,0,9.9-2.6,9.9-7.5C179,229.8,171.8,227.2,168,227.2z"/>
			</g>
			<g>
				<path class="st1" d="M165,224.2c-1.3,0-8.6,0.1-9.8,0.2c-1,0.1-2,0.2-3,0.4v14c0.8,0.2,1.7,0.3,2.5,0.3
					c1.4,0.2,9.8,0.2,11.3,0.2c3.2,0,9.9-2.6,9.9-7.5C176,226.8,168.8,224.2,165,224.2z"/>
				<path class="st8" d="M165,224.2c-1.3,0-8.6,0.1-9.8,0.2c-1,0.1-2,0.2-3,0.4v14c0.8,0.2,1.7,0.3,2.5,0.3
					c1.4,0.2,9.8,0.2,11.3,0.2c3.2,0,9.9-2.6,9.9-7.5C176,226.8,168.8,224.2,165,224.2z"/>
			</g>
		</g>
		<g>
			<circle class="st7" cx="155.6" cy="228.5" r="0.5"/>
			<circle class="st7" cx="155.6" cy="235.2" r="0.5"/>
		</g>
		<path class="st7" d="M174,231.9c0,3.2-4.9,5.8-8.1,5.8s-5.8-2.6-5.8-5.8c0-3.2,2.6-5.8,5.8-5.8S174,228.6,174,231.9z"/>
		<path class="st7" d="M164.5,229.9h-2.2c-0.6,0-0.7,0.9-0.7,2c0,1.1,0.2,2,0.7,2h2.2c1.1,0,2-0.9,2-2
			C166.5,230.8,165.6,229.9,164.5,229.9z"/>
		<path class="st8" d="M155.5,224.5c-1.1,1.9-1.9,4.7-1.9,7.8c0,2.7,0.5,5.2,1.4,7"/>
	</g>
	<g>
		<g>
			<g>
				<path class="st12" d="M379.1,212.5v-2.1h-18.7v2.1c0,0.8,0.7,1.5,1.5,1.5h15.7C378.5,214,379.1,213.3,379.1,212.5z"/>
				
					<rect x="366.9" y="198.1" transform="matrix(-4.405359e-11 -1 1 -4.405359e-11 162.343 577.2505)" class="st12" width="5.9" height="18.7"/>
				<line class="st12" x1="376.6" y1="210.4" x2="376.6" y2="204.5"/>
				<line class="st12" x1="363" y1="204.5" x2="363" y2="210.4"/>
			</g>
			<g>
				<path class="st12" d="M357,212.5v-2.1h-18.7v2.1c0,0.8,0.7,1.5,1.5,1.5h15.7C356.3,214,357,213.3,357,212.5z"/>
				
					<rect x="344.7" y="198.1" transform="matrix(-4.405359e-11 -1 1 -4.405359e-11 140.2228 555.1304)" class="st12" width="5.9" height="18.7"/>
				<line class="st12" x1="354.5" y1="210.4" x2="354.5" y2="204.5"/>
				<line class="st12" x1="340.9" y1="204.5" x2="340.9" y2="210.4"/>
			</g>
			<g>
				<path class="st12" d="M334.9,212.5v-2.1h-18.7v2.1c0,0.8,0.7,1.5,1.5,1.5h15.7C334.2,214,334.9,213.3,334.9,212.5z"/>
				
					<rect x="322.6" y="198.1" transform="matrix(-4.467442e-11 -1 1 -4.467442e-11 118.1027 533.0103)" class="st12" width="5.9" height="18.7"/>
				<line class="st12" x1="332.3" y1="210.4" x2="332.3" y2="204.5"/>
				<line class="st12" x1="318.8" y1="204.5" x2="318.8" y2="210.4"/>
			</g>
		</g>
		<g>
			<path class="st12" d="M316.2,160v2.1h18.7V160c0-0.8-0.7-1.5-1.5-1.5h-15.7C316.9,158.4,316.2,159.1,316.2,160z"/>
			
				<rect x="322.6" y="155.6" transform="matrix(4.529514e-11 1 -1 4.529514e-11 490.5524 -160.5605)" class="st12" width="5.9" height="18.7"/>
			<line class="st12" x1="318.8" y1="162.1" x2="318.8" y2="167.9"/>
			<line class="st12" x1="332.3" y1="167.9" x2="332.3" y2="162.1"/>
		</g>
		<g>
			<path class="st12" d="M338.3,160v2.1H357V160c0-0.8-0.7-1.5-1.5-1.5h-15.7C339,158.4,338.3,159.1,338.3,160z"/>
			
				<rect x="344.7" y="155.6" transform="matrix(4.467430e-11 1 -1 4.467430e-11 512.6725 -182.6806)" class="st12" width="5.9" height="18.7"/>
			<line class="st12" x1="340.9" y1="162.1" x2="340.9" y2="167.9"/>
			<line class="st12" x1="354.5" y1="167.9" x2="354.5" y2="162.1"/>
		</g>
		<g>
			<path class="st12" d="M366,154.6l-0.8,1.9l17.2,7.2l0.8-1.9c0.3-0.8,0-1.7-0.8-2l-14.4-6.1C367.2,153.5,366.3,153.9,366,154.6z"
				/>
			
				<rect x="362.4" y="158.4" transform="matrix(-0.3873 0.922 -0.922 -0.3873 668.8286 -108.9625)" class="st12" width="16.4" height="18.7"/>
			<line class="st12" x1="367.5" y1="157.6" x2="361.2" y2="172.7"/>
			<line class="st12" x1="373.7" y1="178" x2="380.1" y2="162.8"/>
		</g>
		<g>
			<g class="st10">
				<path class="st3" d="M311.9,206v-33.6c0-0.8,0.7-1.5,1.5-1.5h74.5c0.8,0,1.5,0.7,1.5,1.5V206c0,0.8-0.7,1.5-1.5,1.5h-74.5
					C312.6,207.5,311.9,206.8,311.9,206z"/>
				<path class="st8" d="M311.9,206v-33.6c0-0.8,0.7-1.5,1.5-1.5h74.5c0.8,0,1.5,0.7,1.5,1.5V206c0,0.8-0.7,1.5-1.5,1.5h-74.5
					C312.6,207.5,311.9,206.8,311.9,206z"/>
			</g>
			<g>
				<path class="st4" d="M308.9,203v-33.6c0-0.8,0.7-1.5,1.5-1.5h74.5c0.8,0,1.5,0.7,1.5,1.5V203c0,0.8-0.7,1.5-1.5,1.5h-74.5
					C309.6,204.5,308.9,203.8,308.9,203z"/>
				<path class="st11" d="M308.9,203v-33.6c0-0.8,0.7-1.5,1.5-1.5h74.5c0.8,0,1.5,0.7,1.5,1.5V203c0,0.8-0.7,1.5-1.5,1.5h-74.5
					C309.6,204.5,308.9,203.8,308.9,203z"/>
			</g>
		</g>
		<path class="st12" d="M319.9,188.4l2.7-3.7c0.3-0.4,1-0.5,1.4-0.2l6.4,4.6c0.4,0.3,0.5,1,0.2,1.4l-2.7,3.7c-0.3,0.4-1,0.5-1.4,0.2
			l-6.4-4.6C319.6,189.5,319.5,188.8,319.9,188.4z"/>
	</g>
	<g>
		<g>
			<g class="st10">
				<path class="st3" d="M395.2,386.3c0,0.8,0.6,1.4,1.4,1.4h0.2c0.8,0,1.4-0.6,1.4-1.4v-24.6c0-3.4-2.7-6.1-6.1-6.1h-17.7
					c-3.4,0-6.1,2.7-6.1,6.1v24.6c0,0.8,0.6,1.4,1.4,1.4h0.2c0.8,0,1.4-0.6,1.4-1.4l0-0.9c0,0.9,0.7,1.6,1.6,1.6h20.8
					c0.9,0,1.6-0.7,1.6-1.6L395.2,386.3z"/>
				<path class="st17" d="M395.2,386.3c0,0.8,0.6,1.4,1.4,1.4h0.2c0.8,0,1.4-0.6,1.4-1.4v-24.6c0-3.4-2.7-6.1-6.1-6.1h-17.7
					c-3.4,0-6.1,2.7-6.1,6.1v24.6c0,0.8,0.6,1.4,1.4,1.4h0.2c0.8,0,1.4-0.6,1.4-1.4l0-0.9c0,0.9,0.7,1.6,1.6,1.6h20.8
					c0.9,0,1.6-0.7,1.6-1.6L395.2,386.3z"/>
			</g>
			<g>
				<path class="st4" d="M392.2,383.3c0,0.8,0.6,1.4,1.4,1.4h0.2c0.8,0,1.4-0.6,1.4-1.4v-24.6c0-3.4-2.7-6.1-6.1-6.1h-17.7
					c-3.4,0-6.1,2.7-6.1,6.1v24.6c0,0.8,0.6,1.4,1.4,1.4h0.2c0.8,0,1.4-0.6,1.4-1.4l0-0.9c0,0.9,0.7,1.6,1.6,1.6h20.8
					c0.9,0,1.6-0.7,1.6-1.6L392.2,383.3z"/>
				<path class="st18" d="M392.2,383.3c0,0.8,0.6,1.4,1.4,1.4h0.2c0.8,0,1.4-0.6,1.4-1.4v-24.6c0-3.4-2.7-6.1-6.1-6.1h-17.7
					c-3.4,0-6.1,2.7-6.1,6.1v24.6c0,0.8,0.6,1.4,1.4,1.4h0.2c0.8,0,1.4-0.6,1.4-1.4l0-0.9c0,0.9,0.7,1.6,1.6,1.6h20.8
					c0.9,0,1.6-0.7,1.6-1.6L392.2,383.3z"/>
			</g>
		</g>
		<g>
			<path class="st19" d="M389,352.6h-17.7c-3.4,0-6.1,2.7-6.1,6.1v24.6c0,0.8,0.6,1.4,1.4,1.4h0.2c0.8,0,1.4-0.6,1.4-1.4v-21.2h24
				v21.2c0,0.8,0.6,1.4,1.4,1.4h0.2c0.8,0,1.4-0.6,1.4-1.4v-24.6C395.1,355.3,392.4,352.6,389,352.6z"/>
			<g>
				<path class="st12" d="M370.2,364.7c6.6-0.6,13.3-0.6,19.9,0c1.5,0.1,2.8-0.9,3-2.4c0.1-1.1,0.3-2.2,0.4-3.2c0.2-1.5-1-2.8-2.6-3
					c-7.2-0.7-14.4-0.7-21.5,0c-1.6,0.2-2.8,1.5-2.6,3c0.1,1.1,0.3,2.2,0.4,3.2C367.4,363.8,368.8,364.8,370.2,364.7z"/>
				<path class="st20" d="M369.7,362.4c0.2-0.7,20.8-0.7,21,0"/>
			</g>
		</g>
	</g>
	<g>
		<g>
			<g class="st10">
				<path class="st3" d="M371.2,485.1c0-0.8-0.6-1.4-1.4-1.4h-0.2c-0.8,0-1.4,0.6-1.4,1.4v24.6c0,3.4,2.7,6.1,6.1,6.1H392
					c3.4,0,6.1-2.7,6.1-6.1v-24.6c0-0.8-0.6-1.4-1.4-1.4h-0.2c-0.8,0-1.4,0.6-1.4,1.4l0,0.9c0-0.9-0.7-1.6-1.6-1.6h-20.8
					c-0.9,0-1.6,0.7-1.6,1.6L371.2,485.1z"/>
				<path class="st17" d="M371.2,485.1c0-0.8-0.6-1.4-1.4-1.4h-0.2c-0.8,0-1.4,0.6-1.4,1.4v24.6c0,3.4,2.7,6.1,6.1,6.1H392
					c3.4,0,6.1-2.7,6.1-6.1v-24.6c0-0.8-0.6-1.4-1.4-1.4h-0.2c-0.8,0-1.4,0.6-1.4,1.4l0,0.9c0-0.9-0.7-1.6-1.6-1.6h-20.8
					c-0.9,0-1.6,0.7-1.6,1.6L371.2,485.1z"/>
			</g>
			<g>
				<path class="st4" d="M368.2,482.1c0-0.8-0.6-1.4-1.4-1.4h-0.2c-0.8,0-1.4,0.6-1.4,1.4v24.6c0,3.4,2.7,6.1,6.1,6.1H389
					c3.4,0,6.1-2.7,6.1-6.1v-24.6c0-0.8-0.6-1.4-1.4-1.4h-0.2c-0.8,0-1.4,0.6-1.4,1.4l0,0.9c0-0.9-0.7-1.6-1.6-1.6h-20.8
					c-0.9,0-1.6,0.7-1.6,1.6L368.2,482.1z"/>
				<path class="st18" d="M368.2,482.1c0-0.8-0.6-1.4-1.4-1.4h-0.2c-0.8,0-1.4,0.6-1.4,1.4v24.6c0,3.4,2.7,6.1,6.1,6.1H389
					c3.4,0,6.1-2.7,6.1-6.1v-24.6c0-0.8-0.6-1.4-1.4-1.4h-0.2c-0.8,0-1.4,0.6-1.4,1.4l0,0.9c0-0.9-0.7-1.6-1.6-1.6h-20.8
					c-0.9,0-1.6,0.7-1.6,1.6L368.2,482.1z"/>
			</g>
		</g>
		<g>
			<path class="st19" d="M371.3,512.9H389c3.4,0,6.1-2.7,6.1-6.1v-24.6c0-0.8-0.6-1.4-1.4-1.4h-0.2c-0.8,0-1.4,0.6-1.4,1.4v21.2h-24
				v-21.2c0-0.8-0.6-1.4-1.4-1.4h-0.2c-0.8,0-1.4,0.6-1.4,1.4v24.6C365.2,510.1,367.9,512.9,371.3,512.9z"/>
			<g>
				<path class="st12" d="M390.1,500.8c-6.6,0.6-13.3,0.6-19.9,0c-1.5-0.1-2.8,0.9-3,2.4c-0.1,1.1-0.3,2.2-0.4,3.2
					c-0.2,1.5,1,2.8,2.6,3c7.2,0.7,14.4,0.7,21.5,0c1.6-0.2,2.8-1.5,2.6-3c-0.1-1.1-0.3-2.2-0.4-3.2
					C392.9,501.7,391.6,500.7,390.1,500.8z"/>
				<path class="st20" d="M390.6,503c-0.2,0.7-20.8,0.7-21,0"/>
			</g>
		</g>
	</g>
	<g>
		<g>
			<g>
				<g class="st10">
					<path class="st3" d="M382.9,409.4c2.9,16.2,2.9,32.4,0,48.6c-0.1,0.7-0.7,1.1-1.4,1.1h-19.2c-0.7,0-1.2-0.5-1.4-1.1
						c-2.9-16.2-2.9-32.4,0-48.6c0.1-0.7,0.7-1.1,1.4-1.1h19.2C382.2,408.3,382.8,408.8,382.9,409.4z"/>
					<path class="st8" d="M382.9,409.4c2.9,16.2,2.9,32.4,0,48.6c-0.1,0.7-0.7,1.1-1.4,1.1h-19.2c-0.7,0-1.2-0.5-1.4-1.1
						c-2.9-16.2-2.9-32.4,0-48.6c0.1-0.7,0.7-1.1,1.4-1.1h19.2C382.2,408.3,382.8,408.8,382.9,409.4z"/>
				</g>
				<g>
					<path class="st4" d="M379.9,406.4c2.9,16.2,2.9,32.4,0,48.6c-0.1,0.7-0.7,1.1-1.4,1.1h-19.2c-0.7,0-1.2-0.5-1.4-1.1
						c-2.9-16.2-2.9-32.4,0-48.6c0.1-0.7,0.7-1.1,1.4-1.1h19.2C379.2,405.3,379.8,405.8,379.9,406.4z"/>
					<path class="st11" d="M379.9,406.4c2.9,16.2,2.9,32.4,0,48.6c-0.1,0.7-0.7,1.1-1.4,1.1h-19.2c-0.7,0-1.2-0.5-1.4-1.1
						c-2.9-16.2-2.9-32.4,0-48.6c0.1-0.7,0.7-1.1,1.4-1.1h19.2C379.2,405.3,379.8,405.8,379.9,406.4z"/>
				</g>
			</g>
			<path class="st12" d="M368.9,427.8l3.2,2.4c0.4,0.3,0.5,1,0.2,1.4l-4.2,5.5c-0.3,0.4-1,0.5-1.4,0.2l-3.2-2.4
				c-0.4-0.3-0.5-1-0.2-1.4l4.2-5.5C367.9,427.5,368.5,427.4,368.9,427.8z"/>
			<path class="st12" d="M372.1,424.9l1.8,3.6c0.3,0.5,0.1,1.1-0.4,1.3l-6.2,3.2c-0.5,0.3-1.1,0.1-1.3-0.4l-1.8-3.6
				c-0.3-0.5-0.1-1.1,0.4-1.3l6.2-3.2C371.3,424.2,371.9,424.4,372.1,424.9z"/>
			<circle class="st12" cx="373.6" cy="415.5" r="5.9"/>
			<path class="st20" d="M370,417.1c-4.7-3.1,0.5-8.6,4.8-6C373.5,410.1,368.2,415,370,417.1z"/>
			<circle class="st12" cx="369.6" cy="421.6" r="0.8"/>
			<circle class="st12" cx="371.3" cy="421.7" r="0.8"/>
			<circle class="st12" cx="371.5" cy="420.3" r="0.8"/>
			<circle class="st12" cx="370.1" cy="420.3" r="0.8"/>
			<circle class="st12" cx="368.3" cy="420.5" r="0.8"/>
			<circle class="st12" cx="367.8" cy="419.3" r="0.8"/>
			<circle class="st12" cx="368" cy="417.7" r="0.8"/>
			<circle class="st12" cx="369.1" cy="419.3" r="0.8"/>
			<circle class="st12" cx="370.7" cy="418.9" r="0.8"/>
			<circle class="st12" cx="369.5" cy="417.8" r="0.8"/>
			<circle class="st12" cx="375.1" cy="418.3" r="2.1"/>
			<circle class="st12" cx="371.8" cy="417.3" r="1.5"/>
			
				<ellipse transform="matrix(0.9642 -0.2653 0.2653 0.9642 -96.8357 114.1747)" class="st12" cx="374.2" cy="415.6" rx="1.9" ry="1.2"/>
			<path class="st20" d="M370.1,417.3c-2.8-4.9,4.3-7.4,7-3.1C376.3,412.7,369.4,414.7,370.1,417.3z"/>
		</g>
		<g>
			<g>
				<path class="st20" d="M370.5,446.5c0,0-3.8,1.6-6.1,0.2C364.5,446.7,365.9,444.9,370.5,446.5z"/>
				<path class="st20" d="M370.5,446.5c0,0-4-0.1-5.6-2.4C364.9,444.2,367.1,443.1,370.5,446.5z"/>
				<path class="st20" d="M365.7,450.6c0,0,4,0,4.9-4.1C370.5,446.5,365.9,447.7,365.7,450.6z"/>
				<path class="st20" d="M376.7,451.1c0,0-4.9-0.9-6.2-4.5C370.5,446.5,374.5,446.1,376.7,451.1z"/>
				<path class="st20" d="M369.6,453.2c0,0-0.8-2.7,1-6.7C370.5,446.5,371.9,450.2,369.6,453.2z"/>
				<path class="st20" d="M378.2,446.7c0,0-5,2-7.8-0.1C370.4,446.7,370.9,445.1,378.2,446.7z"/>
				<path class="st20" d="M366.4,441.5c0,0,1.7,4.2,4.2,5C370.5,446.5,369.4,443.7,366.4,441.5z"/>
				<path class="st20" d="M377,442.7c0,0-2.5,3.5-6.4,3.8C370.5,446.5,372.5,443.2,377,442.7z"/>
				<path class="st20" d="M369.1,439.8c0,0-0.7,4.2,1.3,6.8C370.4,446.7,371.9,444,369.1,439.8z"/>
				<path class="st20" d="M373,453.2c0,0-2.8-2-2.6-6.6C370.4,446.7,373.5,449.3,373,453.2z"/>
				<path class="st20" d="M375,440.8c0,0-1.5,5.1-4.6,6C370.3,446.8,370.7,443,375,440.8z"/>
				<path class="st20" d="M372.3,439.6c0,0,0.7,4.3-1.9,7C370.4,446.7,369.1,443.6,372.3,439.6z"/>
				<path class="st20" d="M370.4,446.9c0,0,0.2,2.5-2.8,5.5C367.6,452.4,367.7,449.8,370.4,446.9z"/>
				<path class="st20" d="M374.6,452.2c0,0-3.3-2.3-4.1-5.3C370.5,446.9,373.3,447.3,374.6,452.2z"/>
			</g>
			<g>
				<path class="st20" d="M370.9,446.5c0,0-2.4-0.1-3.3-1.4C367.5,445.1,368.8,444.4,370.9,446.5z"/>
				<path class="st20" d="M368,448.9c0,0,2.4,0,2.9-2.4C370.9,446.5,368.1,447.2,368,448.9z"/>
				<path class="st20" d="M374.5,449.2c0,0-2.9-0.5-3.7-2.7C370.9,446.5,373.2,446.2,374.5,449.2z"/>
				<path class="st20" d="M370.3,450.5c0,0-0.5-1.6,0.6-4C370.9,446.5,371.7,448.7,370.3,450.5z"/>
				<path class="st20" d="M374.7,444.2c0,0-1.5,2.1-3.8,2.3C370.9,446.5,372.1,444.5,374.7,444.2z"/>
				<path class="st20" d="M370,442.5c0,0-0.4,2.5,0.8,4C370.8,446.6,371.7,445,370,442.5z"/>
				<path class="st20" d="M372.4,450.5c0,0-1.6-1.2-1.5-3.9C370.8,446.6,372.6,448.1,372.4,450.5z"/>
				<path class="st20" d="M371.9,442.4c0,0,0.4,2.6-1.1,4.2C370.8,446.6,370,444.8,371.9,442.4z"/>
			</g>
		</g>
	</g>
	<g>
		<g>
			<g class="st10">
				<path class="st3" d="M298.5,400.3v71.5c0,3.7,3,6.7,6.7,6.7H332c0.8,0,1.5-0.7,1.5-1.5v-0.2c0-0.8-0.7-1.5-1.5-1.5h-1
					c0.9,0,1.7-0.8,1.7-1.7v-22.7c0-0.9-0.8-1.7-1.7-1.7c0.9,0,1.7-0.8,1.7-1.7v-22.7c0-0.9-0.8-1.7-1.7-1.7c0.9,0,1.7-0.8,1.7-1.7
					v-22.7c0-0.9-0.7-1.6-1.6-1.7h0.8c0.8,0,1.5-0.7,1.5-1.5v-0.2c0-0.8-0.7-1.5-1.5-1.5h-26.8C301.5,393.6,298.5,396.6,298.5,400.3
					z"/>
				<path class="st8" d="M298.5,400.3v71.5c0,3.7,3,6.7,6.7,6.7H332c0.8,0,1.5-0.7,1.5-1.5v-0.2c0-0.8-0.7-1.5-1.5-1.5h-1
					c0.9,0,1.7-0.8,1.7-1.7v-22.7c0-0.9-0.8-1.7-1.7-1.7c0.9,0,1.7-0.8,1.7-1.7v-22.7c0-0.9-0.8-1.7-1.7-1.7c0.9,0,1.7-0.8,1.7-1.7
					v-22.7c0-0.9-0.7-1.6-1.6-1.7h0.8c0.8,0,1.5-0.7,1.5-1.5v-0.2c0-0.8-0.7-1.5-1.5-1.5h-26.8C301.5,393.6,298.5,396.6,298.5,400.3
					z"/>
			</g>
			<g>
				<path class="st4" d="M295.5,397.3v71.5c0,3.7,3,6.7,6.7,6.7H329c0.8,0,1.5-0.7,1.5-1.5v-0.2c0-0.8-0.7-1.5-1.5-1.5h-1
					c0.9,0,1.7-0.8,1.7-1.7v-22.7c0-0.9-0.8-1.7-1.7-1.7c0.9,0,1.7-0.8,1.7-1.7v-22.7c0-0.9-0.8-1.7-1.7-1.7c0.9,0,1.7-0.8,1.7-1.7
					v-22.7c0-0.9-0.7-1.6-1.6-1.7h0.8c0.8,0,1.5-0.7,1.5-1.5v-0.2c0-0.8-0.7-1.5-1.5-1.5h-26.8C298.5,390.6,295.5,393.6,295.5,397.3
					z"/>
				<path class="st11" d="M295.5,397.3v71.5c0,3.7,3,6.7,6.7,6.7H329c0.8,0,1.5-0.7,1.5-1.5v-0.2c0-0.8-0.7-1.5-1.5-1.5h-1
					c0.9,0,1.7-0.8,1.7-1.7v-22.7c0-0.9-0.8-1.7-1.7-1.7c0.9,0,1.7-0.8,1.7-1.7v-22.7c0-0.9-0.8-1.7-1.7-1.7c0.9,0,1.7-0.8,1.7-1.7
					v-22.7c0-0.9-0.7-1.6-1.6-1.7h0.8c0.8,0,1.5-0.7,1.5-1.5v-0.2c0-0.8-0.7-1.5-1.5-1.5h-26.8C298.5,390.6,295.5,393.6,295.5,397.3
					z"/>
			</g>
		</g>
		<g>
			<path class="st19" d="M295.5,397.3v71.5c0,3.7,3,6.7,6.7,6.7H329c0.8,0,1.5-0.7,1.5-1.5v-0.2c0-0.8-0.7-1.5-1.5-1.5h-23.1v-78.3
				H329c0.8,0,1.5-0.7,1.5-1.5v-0.2c0-0.8-0.7-1.5-1.5-1.5h-26.8C298.5,390.6,295.5,393.6,295.5,397.3z"/>
			<g>
				<g>
					<path class="st12" d="M308.7,470c-0.7-7.2-0.7-14.4,0-21.6c0.2-1.6-1-3.1-2.6-3.3c-1.2-0.1-2.4-0.3-3.5-0.4
						c-1.6-0.2-3.1,1-3.2,2.8c-0.8,7.8-0.8,15.7,0,23.5c0.2,1.8,1.6,3,3.2,2.8c1.2-0.1,2.4-0.3,3.5-0.4
						C307.7,473.1,308.8,471.6,308.7,470z"/>
					<path class="st20" d="M306.2,470.6c-0.8-0.2-0.8-22.7,0-22.9"/>
				</g>
			</g>
			<g>
				<g>
					<path class="st12" d="M308.7,417.7c-0.7-7.2-0.7-14.4,0-21.6c0.2-1.6-1-3.1-2.6-3.3c-1.2-0.1-2.4-0.3-3.5-0.4
						c-1.6-0.2-3.1,1-3.2,2.8c-0.8,7.8-0.8,15.7,0,23.5c0.2,1.8,1.6,3,3.2,2.8c1.2-0.1,2.4-0.3,3.5-0.4
						C307.7,420.8,308.8,419.3,308.7,417.7z"/>
					<path class="st20" d="M306.2,418.4c-0.8-0.2-0.8-22.7,0-22.9"/>
				</g>
			</g>
			<g>
				<line class="st12" x1="304.7" y1="446.1" x2="328.1" y2="446.1"/>
				<line class="st12" x1="328.1" y1="420" x2="304.7" y2="420"/>
				<g>
					<path class="st12" d="M308.7,443.9c-0.7-7.2-0.7-14.4,0-21.6c0.2-1.6-1-3.1-2.6-3.3c-1.2-0.1-2.4-0.3-3.5-0.4
						c-1.6-0.2-3.1,1-3.2,2.8c-0.8,7.8-0.8,15.7,0,23.5c0.2,1.8,1.6,3,3.2,2.8c1.2-0.1,2.4-0.3,3.5-0.4
						C307.7,446.9,308.8,445.5,308.7,443.9z"/>
					<path class="st20" d="M306.2,444.5c-0.8-0.2-0.8-22.7,0-22.9"/>
				</g>
			</g>
			<path class="st12" d="M302.5,471.2c0.6-1,4.8-4.8,5.1-5.1c0-2,1-5.5,1.8-6c0.6,0.3,0.4,0.5,1.2,1c1,0.3,6.2,1.5,8.9,3.8
				c-1.3,1.4-2.1,8.8-4.3,10.8c-0.5,1.1-0.8,2.1-1.7,3c-0.6-0.3-3-3.1-3.3-4.2C308.8,473.7,303.5,472.7,302.5,471.2z"/>
			<path class="st12" d="M301.5,398.8c0.7-1,9.2-7.2,9.9-7.6c2,0.5,4.8,4.4,5.5,5.6c1.3,0.4,2.8,1.2,3.5,2c-0.5,0.5-1.7,1.6-2.4,2
				c-0.4,0.6-3.8,4.7-6.4,5.5c-0.7,0.6-1.3,1.3-1.7,1.3c-0.7-0.9-1.1-2.1-1.2-2.7C308,404.2,301.6,399.8,301.5,398.8z"/>
		</g>
	</g>
	<g>
		<g>
			<g class="st10">
				<path class="st3" d="M461.8,472.4v-74c0-0.8,0.5-1.5,1.2-1.5h14.5c0.6,0,1.2,0.7,1.2,1.5v74c0,0.8-0.5,1.5-1.2,1.5H463
					C462.3,473.9,461.8,473.3,461.8,472.4z"/>
				<path class="st8" d="M461.8,472.4v-74c0-0.8,0.5-1.5,1.2-1.5h14.5c0.6,0,1.2,0.7,1.2,1.5v74c0,0.8-0.5,1.5-1.2,1.5H463
					C462.3,473.9,461.8,473.3,461.8,472.4z"/>
			</g>
			<g>
				<path class="st4" d="M458.8,469.4v-74c0-0.8,0.5-1.5,1.2-1.5h14.5c0.6,0,1.2,0.7,1.2,1.5v74c0,0.8-0.5,1.5-1.2,1.5H460
					C459.3,470.9,458.8,470.3,458.8,469.4z"/>
				<path class="st11" d="M458.8,469.4v-74c0-0.8,0.5-1.5,1.2-1.5h14.5c0.6,0,1.2,0.7,1.2,1.5v74c0,0.8-0.5,1.5-1.2,1.5H460
					C459.3,470.9,458.8,470.3,458.8,469.4z"/>
			</g>
		</g>
		<path class="st12" d="M466.9,422.4h5.9c0.6,0,1,0.4,1,1v18.1c0,0.6-0.4,1-1,1h-5.9c-0.6,0-1-0.4-1-1v-18.1
			C465.9,422.8,466.3,422.4,466.9,422.4z"/>
		<path class="st21" d="M473.1,423.9V441c0,0.3-0.3,0.6-0.6,0.6h-5.4c-0.3,0-0.6-0.3-0.6-0.6v-17.1c0-0.3,0.3-0.6,0.6-0.6h5.4
			C472.9,423.3,473.1,423.6,473.1,423.9z"/>
		
			<rect x="468.1" y="401.5" transform="matrix(-1 -1.454140e-10 1.454140e-10 -1 937.9759 864.8843)" class="st12" width="1.7" height="61.8"/>
	</g>
	<g>
		<g>
			<rect x="546.5" y="290.3" class="st1" width="23.4" height="56.9"/>
			<path class="st3" d="M569.8,290.5V347h-23.1v-56.6H569.8 M570.1,290.2h-23.7v57.2h23.7V290.2L570.1,290.2z"/>
		</g>
		<line class="st22" x1="565.9" y1="339.6" x2="550.5" y2="338.5"/>
		<line class="st22" x1="565.9" y1="335.4" x2="550.5" y2="336.8"/>
		<line class="st22" x1="565.9" y1="333.8" x2="550.5" y2="332.7"/>
		<line class="st22" x1="565.9" y1="329.7" x2="550.5" y2="331"/>
		<line class="st22" x1="565.9" y1="307.8" x2="550.5" y2="306.7"/>
		<line class="st22" x1="565.9" y1="303.7" x2="550.5" y2="305"/>
		<line class="st22" x1="565.9" y1="302.1" x2="550.5" y2="301"/>
		<line class="st22" x1="565.9" y1="297.9" x2="550.5" y2="299.3"/>
		<line class="st23" x1="548.1" y1="347.3" x2="548.1" y2="290.4"/>
		<line class="st23" x1="548.1" y1="318.9" x2="546.5" y2="318.9"/>
		<polyline class="st8" points="546.5,325.1 545.6,325.1 545.6,322.9 546.5,322.9 		"/>
		<polyline class="st8" points="546.5,314.8 545.6,314.8 545.6,312.7 546.5,312.7 		"/>
		<line class="st8" x1="558.2" y1="347.3" x2="558.2" y2="290.4"/>
	</g>
	<g>
		<g>
			<g>
				
					<rect x="381.3" y="289.1" transform="matrix(-0.9535 0.3014 -0.3014 -0.9535 835.2159 460.7703)" class="st11" width="1.5" height="11.4"/>
				
					<rect x="387.1" y="287.3" transform="matrix(0.9535 -0.3014 0.3014 0.9535 -70.2668 130.5209)" class="st11" width="1.5" height="11.4"/>
				<g>
					<g class="st10">
						<path class="st3" d="M393,283l3.7,11.6c0.3,0.9-0.2,1.9-1.1,2.2l-14.1,4.5c-0.9,0.3-1.9-0.2-2.2-1.1l-3.7-11.6L393,283z"/>
						<path class="st8" d="M393,283l3.7,11.6c0.3,0.9-0.2,1.9-1.1,2.2l-14.1,4.5c-0.9,0.3-1.9-0.2-2.2-1.1l-3.7-11.6L393,283z"/>
					</g>
					<g>
						<path class="st4" d="M390,280l3.7,11.6c0.3,0.9-0.2,1.9-1.1,2.2l-14.1,4.5c-0.9,0.3-1.9-0.2-2.2-1.1l-3.7-11.6L390,280z"/>
						<path class="st11" d="M390,280l3.7,11.6c0.3,0.9-0.2,1.9-1.1,2.2l-14.1,4.5c-0.9,0.3-1.9-0.2-2.2-1.1l-3.7-11.6L390,280z"/>
					</g>
				</g>
			</g>
			<g>
				<path class="st12" d="M381.5,299.8c3.5,0.6,6.9-0.4,9.4-3c0.2-0.2,0.6-0.1,0.8,0.3c0.2,0.4,0.4,0.9,0.6,1.3
					c-2.9,3.3-6.9,4.5-11.2,3.5c-0.1-0.5-0.1-0.9-0.2-1.4C380.9,300.1,381.2,299.8,381.5,299.8z"/>
				<path class="st12" d="M381.2,302c4,0.9,8.5-0.5,11.2-3.5c0.2,0.5,0.5,1,0.7,1.5c0.2,0.3,0.1,0.7-0.1,0.9
					c-2.8,2.9-7.1,4.2-11,3.5c-0.3-0.1-0.5-0.4-0.6-0.7C381.4,303.1,381.3,302.5,381.2,302z"/>
			</g>
		</g>
		<g>
			<g>
				
					<rect x="356.4" y="288.3" transform="matrix(-1 3.031786e-04 -3.031786e-04 -1 714.2919 587.9611)" class="st11" width="1.5" height="11.4"/>
				<rect x="362.4" y="288.3" class="st11" width="1.5" height="11.4"/>
				<g>
					<g class="st10">
						<path class="st3" d="M372.2,285.3l0,12.2c0,1-0.8,1.8-1.8,1.8l-14.8,0c-1,0-1.8-0.8-1.8-1.8l0-12.2L372.2,285.3z"/>
						<path class="st8" d="M372.2,285.3l0,12.2c0,1-0.8,1.8-1.8,1.8l-14.8,0c-1,0-1.8-0.8-1.8-1.8l0-12.2L372.2,285.3z"/>
					</g>
					<g>
						<path class="st4" d="M369.2,282.3l0,12.2c0,1-0.8,1.8-1.8,1.8l-14.8,0c-1,0-1.8-0.8-1.8-1.8l0-12.2L369.2,282.3z"/>
						<path class="st11" d="M369.2,282.3l0,12.2c0,1-0.8,1.8-1.8,1.8l-14.8,0c-1,0-1.8-0.8-1.8-1.8l0-12.2L369.2,282.3z"/>
					</g>
				</g>
			</g>
			<g>
				<path class="st12" d="M355.1,298.7c3.2,1.7,6.7,1.7,9.9,0c0.3-0.2,0.6,0.1,0.7,0.5c0.1,0.5,0.1,0.9,0.2,1.4
					c-3.7,2.2-8,2.2-11.7,0c0.1-0.5,0.1-0.9,0.2-1.4C354.4,298.7,354.8,298.5,355.1,298.7z"/>
				<path class="st12" d="M354.1,300.6c3.5,2.1,8.2,2.1,11.7,0c0.1,0.6,0.2,1.1,0.3,1.7c0.1,0.4-0.1,0.7-0.3,0.8
					c-3.5,1.9-8,1.9-11.6,0c-0.2-0.1-0.4-0.5-0.3-0.8C354,301.7,354.1,301.2,354.1,300.6z"/>
			</g>
		</g>
	</g>
	<g>
		<rect x="333.9" y="249.8" class="st1" width="76.8" height="38.7"/>
		<path class="st3" d="M410.5,250v38.4h-76.5V250H410.5 M410.8,249.7h-77.1v39h77.1V249.7L410.8,249.7z"/>
	</g>
	<g>
		<path class="st7" d="M153.3,301.1h42.3c0.4,0,0.7,0.3,0.7,0.7v33c0,0.4-0.3,0.7-0.7,0.7h-42.3c-0.4,0-0.7-0.3-0.7-0.7v-33
			C152.6,301.4,152.9,301.1,153.3,301.1z"/>
		<path class="st7" d="M157.2,303.2h34.3c1.1,0,2,0.9,2,2v26c0,1.1-0.9,2-2,2h-34.3c-1.1,0-2-0.9-2-2v-26
			C155.2,304.1,156.1,303.2,157.2,303.2z"/>
		<path class="st7" d="M159.5,305.1h29.6c1.1,0,2,0.9,2,2v22.3c0,1.1-0.9,2-2,2h-29.6c-1.1,0-2-0.9-2-2v-22.3
			C157.5,306,158.4,305.1,159.5,305.1z"/>
		<circle class="st7" cx="162.8" cy="326.1" r="2"/>
	</g>
	<g>
		<g>
			
				<rect x="158.2" y="344.8" transform="matrix(8.993790e-11 -1 1 8.993790e-11 -186.5995 526.8416)" class="st7" width="23.8" height="23.8"/>
		</g>
		<g>
			<circle class="st24" cx="170.1" cy="356.7" r="5.6"/>
			<path class="st24" d="M173.7,357.3c0-2.1-1.7-3.9-3.9-3.9"/>
		</g>
	</g>
	<g>
		<g>
			<g class="st14">
				<path class="st15" d="M220.5,400.5v5.6h-13.7v-5.6c0-1,1.3-1.9,2.8-1.9h8C219.3,398.6,220.5,399.4,220.5,400.5z"/>
				<path class="st16" d="M220.5,400.5v5.6h-13.7v-5.6c0-1,1.3-1.9,2.8-1.9h8C219.3,398.6,220.5,399.4,220.5,400.5z"/>
			</g>
			<g>
				<path class="st1" d="M217.5,397.5v5.6h-13.7v-5.6c0-1,1.3-1.9,2.8-1.9h8C216.3,395.6,217.5,396.4,217.5,397.5z"/>
				<path class="st8" d="M217.5,397.5v5.6h-13.7v-5.6c0-1,1.3-1.9,2.8-1.9h8C216.3,395.6,217.5,396.4,217.5,397.5z"/>
			</g>
		</g>
		<path class="st7" d="M216.8,399v1c0,1.4-1.1,2.6-2.6,2.6h-4.5c-1.4,0-2.6-1.1-2.6-2.6v-1c0-1.4,1.1-2.6,2.6-2.6h4.5
			C215.7,396.4,216.8,397.5,216.8,399z"/>
		<circle class="st7" cx="209.2" cy="399.6" r="0.5"/>
	</g>
	<g>
		<g>
			<g class="st14">
				<path class="st15" d="M171.1,387.6c-1.2,0-7.9,0.1-9,0.2c-0.9,0.1-1.9,0.2-2.7,0.4v12.9c0.7,0.1,1.5,0.2,2.3,0.3
					c1.3,0.1,9,0.2,10.4,0.2c3,0,9.1-2.4,9.1-6.9C181.2,390,174.6,387.6,171.1,387.6z"/>
				<path class="st16" d="M171.1,387.6c-1.2,0-7.9,0.1-9,0.2c-0.9,0.1-1.9,0.2-2.7,0.4v12.9c0.7,0.1,1.5,0.2,2.3,0.3
					c1.3,0.1,9,0.2,10.4,0.2c3,0,9.1-2.4,9.1-6.9C181.2,390,174.6,387.6,171.1,387.6z"/>
			</g>
			<g>
				<path class="st1" d="M168.1,384.6c-1.2,0-7.9,0.1-9,0.2c-0.9,0.1-1.9,0.2-2.7,0.4v12.9c0.7,0.1,1.5,0.2,2.3,0.3
					c1.3,0.1,9,0.2,10.4,0.2c3,0,9.1-2.4,9.1-6.9C178.2,387,171.6,384.6,168.1,384.6z"/>
				<path class="st8" d="M168.1,384.6c-1.2,0-7.9,0.1-9,0.2c-0.9,0.1-1.9,0.2-2.7,0.4v12.9c0.7,0.1,1.5,0.2,2.3,0.3
					c1.3,0.1,9,0.2,10.4,0.2c3,0,9.1-2.4,9.1-6.9C178.2,387,171.6,384.6,168.1,384.6z"/>
			</g>
		</g>
		<g>
			<circle class="st7" cx="159.5" cy="388.6" r="0.4"/>
			<circle class="st7" cx="159.5" cy="394.8" r="0.4"/>
		</g>
		<path class="st7" d="M176.4,391.7c0,3-4.5,5.4-7.5,5.4c-3,0-5.4-2.4-5.4-5.4s2.4-5.4,5.4-5.4C171.9,386.3,176.4,388.7,176.4,391.7
			z"/>
		<path class="st7" d="M167.7,389.8h-2c-0.6,0-0.6,0.8-0.6,1.8c0,1,0.2,1.8,0.6,1.8h2c1,0,1.8-0.8,1.8-1.8
			C169.5,390.6,168.7,389.8,167.7,389.8z"/>
		<path class="st8" d="M159.4,384.9c-1,1.7-1.7,4.3-1.7,7.2c0,2.5,0.5,4.8,1.3,6.4"/>
	</g>
</g>
<g id="Ouvertures">
	<g>
		<path class="st25" d="M241.9,209.3c0-19.8,16.3-37.1,36.5-37.1"/>
		<line class="st8" x1="278.4" y1="208" x2="278.4" y2="172.2"/>
	</g>
	<g>
		<path class="st25" d="M279.3,393"/>
	</g>
	<g>
		<g>
			<rect x="301.1" y="124.3" class="st1" width="145.6" height="8.5"/>
			<path class="st3" d="M446.6,124.5v8.2H301.3v-8.2H446.6 M446.9,124.2H301v8.8h145.9V124.2L446.9,124.2z"/>
		</g>
		<g>
			<rect x="301.1" y="124.3" class="st1" width="72.7" height="4.1"/>
			<path class="st3" d="M373.7,124.5v3.8h-72.4v-3.8H373.7 M374,124.2h-73v4.4h73V124.2L374,124.2z"/>
		</g>
		<g>
			<rect x="374.8" y="129.1" class="st1" width="72" height="3.7"/>
			<path class="st3" d="M446.6,129.2v3.4h-71.7v-3.4H446.6 M446.9,128.9h-72.3v4h72.3V128.9L446.9,128.9z"/>
		</g>
		<g>
			<g>
				<line class="st26" x1="347.7" y1="137" x2="330" y2="137"/>
				<g>
					<polygon class="st3" points="331,135.8 331.2,136 330.1,137 331.2,138.1 331,138.3 329.7,137 					"/>
				</g>
			</g>
		</g>
		<rect x="372.3" y="128.9" class="st3" width="4.6" height="4"/>
		<rect x="372.3" y="124.2" class="st3" width="4.6" height="4.4"/>
		<rect x="443.5" y="129" class="st3" width="3.4" height="4"/>
		<rect x="301" y="124.2" class="st3" width="4.3" height="4.4"/>
		<line class="st27" x1="372.7" y1="126.5" x2="301.3" y2="126.5"/>
		<line class="st27" x1="445.2" y1="130.9" x2="373.9" y2="130.9"/>
	</g>
	<g>
		<path class="st25" d="M227.2,289.2c-20.2,0-36.5-16.7-36.5-37.3"/>
		<line class="st8" x1="227.2" y1="252" x2="190.7" y2="252"/>
	</g>
	<g>
		<path class="st25" d="M233.1,355.2c18.3,0,33.1,15.1,33.1,33.8"/>
		<line class="st8" x1="233.1" y1="389" x2="266.2" y2="389"/>
	</g>
	<g>
		<path class="st25" d="M240.6,408.5c0,19.3,16,35,35.7,35"/>
		<line class="st8" x1="276.2" y1="408.5" x2="276.2" y2="443.5"/>
	</g>
	<g>
		<path class="st25" d="M492.1,345.8c0-22.9,18.9-41.4,42.2-41.4"/>
		<line class="st8" x1="534.3" y1="345.8" x2="534.3" y2="304.4"/>
	</g>
	<g>
		<g>
			<rect x="139.7" y="35" class="st1" width="57.3" height="2.5"/>
			<path class="st3" d="M196.8,35.2v2.2h-57v-2.2H196.8 M197.1,34.9h-57.6v2.8h57.6V34.9L197.1,34.9z"/>
		</g>
		<path class="st25" d="M173.3,37.6c0,0,0.5,14.1-10.1,24.8l-23-24.8"/>
		<rect x="171.3" y="34.9" class="st3" width="3.1" height="2.8"/>
		<g>
			<path class="st25" d="M173.3,37.6c0,13.1,10.5,23.7,23.5,23.7"/>
			<line class="st8" x1="196.8" y1="37.6" x2="196.8" y2="61.4"/>
		</g>
	</g>
	<g>
		<g>
			<rect x="192" y="555.2" class="st1" width="57.3" height="2.5"/>
			<path class="st3" d="M249.1,555.3v2.2h-57v-2.2H249.1 M249.4,555h-57.6v2.8h57.6V555L249.4,555z"/>
		</g>
		<path class="st25" d="M215.7,555c0,0-0.5-14.1,10.1-24.8l23,24.8"/>
		<rect x="214.5" y="555" class="st3" width="3.1" height="2.8"/>
		<g>
			<path class="st25" d="M215.7,555c0-13.1-10.5-23.7-23.5-23.7"/>
			<line class="st8" x1="192.2" y1="555" x2="192.2" y2="531.3"/>
		</g>
	</g>
	<g>
		<g>
			<rect x="297.3" y="555.2" class="st1" width="149.5" height="6.8"/>
			<path class="st3" d="M446.6,555.4v6.5H297.5v-6.5H446.6 M446.9,555.1H297.2v7.1h149.8V555.1L446.9,555.1z"/>
		</g>
		<g>
			<rect x="297.3" y="558.8" class="st1" width="74.6" height="3.2"/>
			<path class="st3" d="M371.7,558.9v2.9h-74.3v-2.9H371.7 M372,558.6h-74.9v3.5H372V558.6L372,558.6z"/>
		</g>
		<g>
			<rect x="372.9" y="555.2" class="st1" width="73.9" height="2.9"/>
			<path class="st3" d="M446.6,555.4v2.6H373v-2.6H446.6 M446.9,555.1h-74.2v3.2h74.2V555.1L446.9,555.1z"/>
		</g>
		<g>
			<g>
				<line class="st26" x1="345.1" y1="551.8" x2="326.9" y2="551.8"/>
				<g>
					<polygon class="st3" points="327.9,550.5 328.1,550.8 327,551.8 328.1,552.8 327.9,553 326.6,551.8 					"/>
				</g>
			</g>
		</g>
		<rect x="370.4" y="555.1" class="st3" width="4.7" height="3.2"/>
		<rect x="370.4" y="558.6" class="st3" width="4.7" height="3.5"/>
		<rect x="443.4" y="555.1" class="st3" width="3.5" height="3.2"/>
		<rect x="297.2" y="558.6" class="st3" width="4.4" height="3.5"/>
		<line class="st27" x1="370.7" y1="560.3" x2="297.5" y2="560.3"/>
		<line class="st27" x1="445.2" y1="556.7" x2="372" y2="556.7"/>
	</g>
</g>
<g id="Étiquettes" class="st28">
	<text transform="matrix(1 0 0 1 233.9691 188.7388)" class="st29 st30 st31">Chambre 1</text>
	<text transform="matrix(1 0 0 1 241.2318 197.1387)" class="st29 st32 st31">14.80 m</text>
	<text transform="matrix(0.583 0 0 0.583 266.2562 194.8076)" class="st29 st32 st31">2</text>
	<text transform="matrix(1 0 0 1 232.4893 526.6528)" class="st29 st30 st31">Chambre 2</text>
	<text transform="matrix(1 0 0 1 239.752 535.0527)" class="st29 st32 st31">11.00 m</text>
	<text transform="matrix(0.583 0 0 0.583 264.7764 532.7217)" class="st29 st32 st31">2</text>
	<text transform="matrix(1 0 0 1 186.7227 364.5483)" class="st29 st30 st31">Buanderie</text>
	<text transform="matrix(1 0 0 1 195.958 372.9482)" class="st29 st32 st31">2.70 m</text>
	<text transform="matrix(0.583 0 0 0.583 216.9229 370.6172)" class="st29 st32 st31">2</text>
	<text transform="matrix(1 0 0 1 449.4404 312.0278)" class="st29 st30 st31">Dégagement </text>
	<text transform="matrix(1 0 0 1 462.8408 320.4277)" class="st29 st32 st31">3.30 m</text>
	<text transform="matrix(0.583 0 0 0.583 483.8057 318.0967)" class="st29 st32 st31">2</text>
	<text transform="matrix(1 0 0 1 247.6104 323.1587)" class="st29 st30 st31">Dégagement </text>
	<text transform="matrix(1 0 0 1 261.0107 331.5586)" class="st29 st32 st31">5.90 m</text>
	<text transform="matrix(0.583 0 0 0.583 281.9756 329.2275)" class="st29 st32 st31">2</text>
	<text transform="matrix(1 0 0 1 193.6823 277.5269)" class="st29 st30 st31">WC/ </text>
	<text transform="matrix(1 0 0 1 185.9547 285.9268)" class="st29 st30 st31">Douche </text>
	<text transform="matrix(1 0 0 1 189.6744 294.3267)" class="st29 st32 st31">5.30 m</text>
	<text transform="matrix(0.583 0 0 0.583 210.6393 291.9956)" class="st29 st32 st31">2</text>
	<text transform="matrix(1 0 0 1 445.7305 105.4233)" class="st29 st30 st31">LOGGIA </text>
	<text transform="matrix(1 0 0 1 445.8604 113.8232)" class="st29 st32 st31">10.20 m</text>
	<text transform="matrix(0.583 0 0 0.583 470.8848 111.4922)" class="st29 st32 st31">2</text>
	<text transform="matrix(1 0 0 1 418.2676 520.9956)" class="st29 st30 st31">ESPACE JOUR </text>
	<text transform="matrix(1 0 0 1 428.4346 529.3955)" class="st29 st32 st31">44.20 m</text>
	<text transform="matrix(0.583 0 0 0.583 453.459 527.0645)" class="st29 st32 st31">2</text>
</g>
<g id="Murs">
	<line class="st33" x1="196.7" y1="26.8" x2="139.9" y2="26.8"/>
	<line class="st34" x1="478.9" y1="32.4" x2="303.9" y2="32.4"/>
	<line class="st33" x1="446.6" y1="566.8" x2="297.2" y2="566.8"/>
	<line class="st33" x1="249" y1="566.8" x2="192.2" y2="566.8"/>
	
		<rect x="479.9" y="279.5" transform="matrix(-1 -8.978430e-11 8.978430e-11 -1 1066.8912 569.9393)" class="st3" width="107.1" height="10.8"/>
	
		<rect x="453.5" y="287.5" transform="matrix(-1 -8.980207e-11 8.980207e-11 -1 1016.0638 577.9296)" class="st3" width="109" height="2.9"/>
	
		<rect x="570.1" y="284.6" transform="matrix(-1 -9.000679e-11 9.000679e-11 -1 1157.0477 631.9654)" class="st3" width="16.9" height="62.7"/>
	
		<rect x="478.9" y="128.4" transform="matrix(-1 -8.992197e-11 8.992197e-11 -1 979.4663 418.8207)" class="st3" width="21.7" height="162"/>
	
		<rect x="275.2" y="210.1" transform="matrix(-1 -8.986291e-11 8.986291e-11 -1 563.1906 425.0678)" class="st3" width="12.9" height="4.9"/>
	
		<rect x="482" y="23.4" transform="matrix(-1 -8.980074e-11 8.980074e-11 -1 982.5362 153.5432)" class="st3" width="18.6" height="106.8"/>
	
		<rect x="446.9" y="124.1" transform="matrix(-1 -8.986246e-11 8.986246e-11 -1 941.5634 256.9747)" class="st3" width="47.7" height="8.8"/>
	
		<rect x="283.1" y="120.6" transform="matrix(-1 -8.967861e-11 8.967861e-11 -1 584.0945 253.5196)" class="st3" width="17.9" height="12.3"/>
	
		<rect x="197.1" y="23.4" transform="matrix(-1 -4.008184e-11 4.008184e-11 -1 495.3687 61.0272)" class="st3" width="101.1" height="14.3"/>
	
		<rect x="117" y="23.4" transform="matrix(-1 -3.054287e-10 3.054287e-10 -1 257.3211 61.0272)" class="st3" width="23.3" height="14.3"/>
	
		<rect x="201.1" y="26.8" transform="matrix(-1 -3.805945e-11 3.805945e-11 -1 499.3155 67.9183)" class="st3" width="97.2" height="14.3"/>
	
		<rect x="118.7" y="26.8" transform="matrix(-1 -3.737078e-10 3.737078e-10 -1 255.1071 67.9183)" class="st3" width="17.7" height="14.3"/>
	
		<rect x="283.1" y="131" transform="matrix(-1 -8.993530e-11 8.993530e-11 -1 576.0645 421.0265)" class="st3" width="9.9" height="159.1"/>
	
		<rect x="283.1" y="23.4" transform="matrix(-1 -8.962799e-11 8.962799e-11 -1 584.0945 147.4373)" class="st3" width="17.9" height="100.7"/>
	<polygon class="st3" points="241.3,407.6 145.7,407.6 154.6,551.6 188.4,551.6 188.4,555.1 192.4,555.1 192.4,570 150.3,570 
		145,570.7 111.6,24.7 116.5,23.4 139.8,23.4 139.8,36.8 135.8,36.8 135.8,40.5 123.2,40.5 134,210.7 227.9,210.7 232.8,210.7 
		243.5,210.7 243.5,215.5 232.8,215.5 232.8,254.4 227.9,254.4 227.9,215.5 152.4,215.5 152.4,402.5 241.3,402.5 	"/>
	<polygon class="st3" points="253.2,551.6 282.9,551.6 282.9,407.3 275.1,407.3 275.1,402.9 282.9,402.9 282.9,346.7 292.5,346.7 
		292.5,410 292.5,570 292.5,570 291.5,570 284.1,570 282.9,570 249.2,570 249.2,555.1 253.2,555.1 	"/>
	
		<rect x="228.2" y="389" transform="matrix(-1 -1.799020e-10 1.799020e-10 -1 461.2963 794.0593)" class="st3" width="4.8" height="16.1"/>
	
		<rect x="228.2" y="288" transform="matrix(-1 -1.012893e-10 1.012893e-10 -1 461.2963 643.1221)" class="st3" width="4.8" height="67.2"/>
	
		<rect x="149.2" y="335.4" transform="matrix(-1 -8.983848e-11 8.983848e-11 -1 378.1312 676.2986)" class="st3" width="79.8" height="5.5"/>
	
		<rect x="147.1" y="338.1" transform="matrix(-1 -1.330368e-10 1.330368e-10 -1 303.3475 743.232)" class="st3" width="9.2" height="66.9"/>
	<rect x="290.4" y="551.6" class="st3" width="2.9" height="18.4"/>
	
		<rect x="446.8" y="555.1" transform="matrix(-1 -1.712953e-11 1.712953e-11 -1 926.8671 1125.1561)" class="st3" width="33.3" height="15"/>
	
		<rect x="451" y="553.3" transform="matrix(-1 -1.952228e-11 1.952228e-11 -1 931.1408 1121.5569)" class="st3" width="29.1" height="15"/>
	
		<rect x="477.8" y="552" transform="matrix(-1 -8.960178e-11 8.960178e-11 -1 964.3826 1122.0438)" class="st3" width="8.7" height="18.1"/>
	
		<rect x="291" y="555.1" transform="matrix(-1 -8.945568e-11 8.945568e-11 -1 588.4342 1125.1561)" class="st3" width="6.3" height="15"/>
	<rect x="534.3" y="347.2" class="st3" width="52.7" height="11.2"/>
	<rect x="532.7" y="347.2" class="st3" width="16.3" height="11.2"/>
	<polygon class="st3" points="477.8,570.1 477.8,358 477.8,352.6 477.8,347.2 493.2,347.2 493.2,358 489.2,358 489.2,570.1 	"/>
</g>
<g id="Entree">
	<polygon class="st35" points="506,352.9 513.2,346.7 520.4,352.9 	"/>
</g>
<g id="Nord">
	<circle class="st36" cx="557" cy="549.7" r="11.9"/>
	<line class="st37" x1="564.7" y1="547.2" x2="572" y2="544.8"/>
	<text transform="matrix(1 0 0 1 550.791 555.4475)" class="st3 st30 st38">N</text>
</g>
</svg>
