<?xml version="1.0" encoding="utf-8"?>
<!-- Generator: Adobe Illustrator 22.0.1, SVG Export Plug-In . SVG Version: 6.00 Build 0)  -->
<svg version="1.1" xmlns="http://www.w3.org/2000/svg" xmlns:xlink="http://www.w3.org/1999/xlink" x="0px" y="0px"
	 viewBox="0 0 595.3 595.3" style="enable-background:new 0 0 595.3 595.3;" xml:space="preserve">
<style type="text/css">
	.st0{fill:none;}
	.st1{fill:#FFFFFF;}
	.st2{fill:#E3E3E3;}
	.st3{fill:#EAF6FE;}
	.st4{opacity:0.8;fill:#FFFFFF;}
	.st5{fill:url(#SVGID_1_);}
	.st6{fill:#FFFFFF;stroke:#717E86;stroke-width:0.3572;stroke-miterlimit:10;}
	.st7{fill:none;stroke:#717E86;stroke-width:0.3572;stroke-miterlimit:10;}
	.st8{fill:#717E86;}
	.st9{fill:none;stroke:#000000;stroke-width:0.1429;stroke-linecap:square;stroke-linejoin:bevel;stroke-miterlimit:10;}
	.st10{opacity:5.000000e-02;}
	.st11{fill:none;stroke:#CCD3D8;stroke-width:0.3572;stroke-miterlimit:10;}
	.st12{fill:#EAF6FE;stroke:#CCD3D8;stroke-width:0.3572;stroke-miterlimit:10;}
	.st13{fill:#EAF6FE;stroke:#CCD3D8;stroke-width:0.3572;stroke-linecap:round;stroke-linejoin:round;stroke-miterlimit:10;}
	.st14{fill:#EAF6FE;stroke:#CCD3D8;stroke-width:0.3517;stroke-miterlimit:10;}
	.st15{opacity:0.2;}
	.st16{fill:#738793;}
	.st17{fill:none;stroke:#738793;stroke-width:0.3572;stroke-miterlimit:10;}
	.st18{fill:#EAF6FE;stroke:#CCD3D8;stroke-width:0.3572;stroke-linecap:round;stroke-miterlimit:10;}
	.st19{fill:none;stroke:#717E86;stroke-width:0.5954;stroke-miterlimit:10;}
	.st20{fill:#EAF6FE;stroke:#717E86;stroke-width:0.3572;stroke-miterlimit:10;}
	.st21{fill:#EAF6FE;stroke:#CCD3D8;stroke-width:0.3611;stroke-miterlimit:10;}
	.st22{fill:none;stroke:#717E86;stroke-width:0.3572;stroke-linecap:round;stroke-linejoin:round;stroke-miterlimit:10;}
	.st23{fill:none;stroke:#CCD3D8;stroke-width:0.3572;stroke-linecap:round;stroke-linejoin:round;stroke-miterlimit:10;}
	.st24{fill:#FFFFFF;stroke:#717E86;stroke-width:0.7388;stroke-miterlimit:10;}
	.st25{fill:none;stroke:#717E86;stroke-width:0.3572;stroke-miterlimit:10;stroke-dasharray:2.3816,2.3816;}
	.st26{fill:none;stroke:#717E86;stroke-width:0.3572;stroke-miterlimit:1;}
	.st27{fill:none;stroke:#717E86;stroke-width:0.1191;stroke-miterlimit:1;}
	.st28{display:none;}
	.st29{display:inline;fill:#3C3C3B;}
	.st30{font-family:'Lato-Black';}
	.st31{font-size:7px;}
	.st32{font-family:'Lato-Italic';}
	.st33{fill:#A5B9C4;}
	.st34{fill:#3C3C3B;}
	.st35{fill:none;stroke:#717E86;stroke-width:1.1908;stroke-miterlimit:10;}
	.st36{fill:none;stroke:#717E86;stroke-width:2.3816;stroke-miterlimit:10;}
	.st37{font-size:19.5593px;}
</style>
<pattern  width="3.8" height="3.4" patternUnits="userSpaceOnUse" id="Nouvelle_nuance_de_motif_7" viewBox="0 -3.4 3.8 3.4" style="overflow:visible;">
	<g>
		<rect y="-3.4" class="st0" width="3.8" height="3.4"/>
		<rect x="0.1" y="-3.4" class="st1" width="3.7" height="3.4"/>
		<rect x="3.7" y="-3.4" class="st2" width="0.1" height="3.4"/>
		<rect x="0" y="-3.4" class="st2" width="0.1" height="3.4"/>
	</g>
</pattern>
<g id="Fond">
	<polygon class="st3" points="29.4,131.8 29.4,251.7 29.4,273.5 29.4,444.1 473.5,466.2 473.7,251.5 275.4,251.6 275.8,131.8 	"/>
</g>
<g id="Sols">
	
		<rect x="26.7" y="155.8" transform="matrix(6.123234e-17 -1 1 6.123234e-17 -115.2938 273.6384)" class="st4" width="104.8" height="77.3"/>
	<pattern  id="SVGID_1_" xlink:href="#Nouvelle_nuance_de_motif_7" patternTransform="matrix(1 0 0 1 -12.1359 6.6289)">
	</pattern>
	<polygon class="st5" points="585.1,257.7 585.1,485.1 466.8,478.9 466.8,368.4 466.8,367.8 466.8,257.7 	"/>
	<g>
		<g>
			<rect x="176" y="246.8" class="st1" width="29.9" height="28.2"/>
		</g>
		<g>
			<ellipse class="st1" cx="191" cy="260.9" rx="7" ry="6.6"/>
			<path class="st1" d="M190.3,265.2c2.7,0,4.8-2,4.8-4.6"/>
		</g>
	</g>
</g>
<g id="Jardin">
</g>
<g id="Installations">
	<polyline class="st6" points="211,447.4 210.9,279.6 185.2,279.6 185.2,446.2 	"/>
	
		<rect x="185.2" y="279.7" transform="matrix(6.123234e-17 -1 1 6.123234e-17 -94.5197 490.5966)" class="st7" width="25.7" height="25.7"/>
	<g>
		
			<rect x="186.5" y="323.3" transform="matrix(-1 -1.224647e-16 1.224647e-16 -1 395.9635 692.8128)" class="st7" width="22.9" height="46.2"/>
		<g>
			<path class="st6" d="M190.8,346.9h14.4c1.3,0,2.4-1.1,2.4-2.4v-16.6c0-1.3-1.1-2.4-2.4-2.4h-14.4c-1.3,0-2.4,1.1-2.4,2.4v16.6
				C188.4,345.8,189.4,346.9,190.8,346.9z"/>
			<circle class="st6" cx="192.1" cy="335.8" r="1.5"/>
		</g>
		<g>
			
				<rect x="204" y="350.5" transform="matrix(-1 -4.353085e-12 4.353085e-12 -1 408.808 716.1061)" class="st8" width="0.8" height="15.2"/>
			
				<rect x="200.8" y="350.5" transform="matrix(-1 -1.224647e-16 1.224647e-16 -1 402.3935 716.1061)" class="st8" width="0.8" height="15.2"/>
			
				<rect x="197.6" y="350.5" transform="matrix(-1 4.352840e-12 -4.352840e-12 -1 395.9789 716.1061)" class="st8" width="0.8" height="15.2"/>
			
				<rect x="194.4" y="350.5" transform="matrix(-1 4.352840e-12 -4.352840e-12 -1 389.5643 716.1061)" class="st8" width="0.8" height="15.2"/>
			
				<rect x="191.2" y="350.5" transform="matrix(-1 4.352840e-12 -4.352840e-12 -1 383.1498 716.1061)" class="st8" width="0.8" height="15.2"/>
		</g>
	</g>
	<g>
		
			<rect x="186.5" y="405.5" transform="matrix(6.123234e-17 -1 1 6.123234e-17 -218.9371 615.0281)" class="st7" width="23.1" height="23.1"/>
		<path class="st6" d="M202.8,416.4c2.3,0,4.2-1.9,4.2-4.2c0-2.3-1.9-4.2-4.2-4.2c-2.3,0-4.2,1.9-4.2,4.2
			C198.6,414.5,200.5,416.4,202.8,416.4"/>
		<path class="st6" d="M193.1,425.8c2.3,0,4.2-1.9,4.2-4.2c0-2.3-1.9-4.2-4.2-4.2c-2.3,0-4.2,1.9-4.2,4.2
			C188.9,423.9,190.7,425.8,193.1,425.8"/>
		<path class="st6" d="M192.3,415.2c1.9,0,3.4-1.5,3.4-3.4c0-1.9-1.5-3.4-3.4-3.4s-3.4,1.5-3.4,3.4
			C188.9,413.7,190.4,415.2,192.3,415.2"/>
		<path class="st6" d="M203.4,425.8c1.9,0,3.4-1.5,3.4-3.4s-1.5-3.4-3.4-3.4s-3.4,1.5-3.4,3.4S201.5,425.8,203.4,425.8"/>
	</g>
	<g>
		<polyline class="st9" points="195.8,289 195.8,290.1 194.8,290.1 		"/>
		<polyline class="st9" points="201.3,294.5 200.3,294.5 200.3,295.4 		"/>
		<line class="st9" x1="201" y1="295.2" x2="195.1" y2="289.4"/>
		<polyline class="st9" points="194.8,294.5 195.8,294.5 195.8,295.4 		"/>
		<polyline class="st9" points="200.3,289 200.3,290.1 201.3,290.1 		"/>
		<line class="st9" x1="201" y1="289.4" x2="195.1" y2="295.2"/>
		<polyline class="st9" points="194.2,291.5 194.8,292.2 194.2,292.9 		"/>
		<polyline class="st9" points="201.9,291.5 201.3,292.2 201.9,292.9 		"/>
		<polyline class="st9" points="197.4,296.1 198,295.4 198.7,296.1 		"/>
		<polyline class="st9" points="197.4,288.5 198,289.1 198.7,288.5 		"/>
		<line class="st9" x1="202.2" y1="292.2" x2="193.9" y2="292.2"/>
		<line class="st9" x1="198" y1="288.2" x2="198" y2="296.4"/>
		<polyline class="st7" points="195.8,289 195.8,290.1 194.8,290.1 		"/>
		<polyline class="st7" points="201.3,294.5 200.3,294.5 200.3,295.4 		"/>
		<line class="st7" x1="201" y1="295.2" x2="195.1" y2="289.4"/>
		<polyline class="st7" points="194.8,294.5 195.8,294.5 195.8,295.4 		"/>
		<polyline class="st7" points="200.3,289 200.3,290.1 201.3,290.1 		"/>
		<line class="st7" x1="201" y1="289.4" x2="195.1" y2="295.2"/>
		<polyline class="st7" points="194.2,291.5 194.8,292.2 194.2,292.9 		"/>
		<polyline class="st7" points="201.9,291.5 201.3,292.2 201.9,292.9 		"/>
		<polyline class="st7" points="197.4,296.1 198,295.4 198.7,296.1 		"/>
		<polyline class="st7" points="197.4,288.5 198,289.1 198.7,288.5 		"/>
		<line class="st7" x1="202.2" y1="292.2" x2="193.9" y2="292.2"/>
		<line class="st7" x1="198" y1="288.2" x2="198" y2="296.4"/>
	</g>
	<g>
		<g>
			<g>
				<g class="st10">
					<path class="st8" d="M399.4,343.2c-16.3,3-32.6,3-48.8,0c-0.7-0.1-1.1-0.7-1.1-1.4v-19.3c0-0.7,0.5-1.2,1.1-1.4
						c16.3-3,32.6-3,48.8,0c0.7,0.1,1.1,0.7,1.1,1.4v19.3C400.6,342.5,400.1,343.1,399.4,343.2z"/>
					<path class="st7" d="M399.4,343.2c-16.3,3-32.6,3-48.8,0c-0.7-0.1-1.1-0.7-1.1-1.4v-19.3c0-0.7,0.5-1.2,1.1-1.4
						c16.3-3,32.6-3,48.8,0c0.7,0.1,1.1,0.7,1.1,1.4v19.3C400.6,342.5,400.1,343.1,399.4,343.2z"/>
				</g>
				<g>
					<path class="st3" d="M395.9,339.6c-16.3,3-32.6,3-48.8,0c-0.7-0.1-1.1-0.7-1.1-1.4V319c0-0.7,0.5-1.2,1.1-1.4
						c16.3-3,32.6-3,48.8,0c0.7,0.1,1.1,0.7,1.1,1.4v19.3C397,338.9,396.5,339.5,395.9,339.6z"/>
					<path class="st11" d="M395.9,339.6c-16.3,3-32.6,3-48.8,0c-0.7-0.1-1.1-0.7-1.1-1.4V319c0-0.7,0.5-1.2,1.1-1.4
						c16.3-3,32.6-3,48.8,0c0.7,0.1,1.1,0.7,1.1,1.4v19.3C397,338.9,396.5,339.5,395.9,339.6z"/>
				</g>
			</g>
			<path class="st12" d="M374.4,328.6l-2.4,3.2c-0.3,0.4-1,0.5-1.4,0.2l-5.6-4.2c-0.4-0.3-0.5-1-0.2-1.4l2.4-3.2
				c0.3-0.4,1-0.5,1.4-0.2l5.6,4.2C374.7,327.5,374.8,328.1,374.4,328.6z"/>
			<path class="st12" d="M377.3,331.8l-3.6,1.8c-0.5,0.3-1.1,0.1-1.3-0.4l-3.2-6.2c-0.3-0.5-0.1-1.1,0.4-1.3l3.6-1.8
				c0.5-0.3,1.1-0.1,1.3,0.4l3.2,6.2C378,331,377.8,331.6,377.3,331.8z"/>
			<circle class="st12" cx="386.8" cy="333.3" r="5.9"/>
			<path class="st13" d="M385.2,329.7c3.1-4.7,8.6,0.5,6,4.8C392.2,333.2,387.2,327.8,385.2,329.7z"/>
			<circle class="st12" cx="380.7" cy="329.3" r="0.8"/>
			<circle class="st12" cx="380.6" cy="331" r="0.8"/>
			<circle class="st12" cx="381.9" cy="331.2" r="0.8"/>
			<circle class="st12" cx="381.9" cy="329.8" r="0.8"/>
			<circle class="st12" cx="381.7" cy="327.9" r="0.8"/>
			<circle class="st12" cx="383" cy="327.5" r="0.8"/>
			<circle class="st12" cx="384.6" cy="327.7" r="0.8"/>
			<circle class="st12" cx="383" cy="328.8" r="0.8"/>
			<circle class="st12" cx="383.3" cy="330.4" r="0.8"/>
			<circle class="st12" cx="384.4" cy="329.1" r="0.8"/>
			<circle class="st12" cx="384" cy="334.8" r="2.1"/>
			<circle class="st12" cx="385" cy="331.5" r="1.5"/>
			
				<ellipse transform="matrix(0.9642 -0.2653 0.2653 0.9642 -74.736 114.5523)" class="st12" cx="386.7" cy="333.9" rx="1.2" ry="1.9"/>
			<path class="st13" d="M385,329.8c4.9-2.8,7.5,4.3,3.2,7C389.6,336,387.6,329,385,329.8z"/>
		</g>
		<g>
			<g>
				<path class="st13" d="M355.6,330.2c0,0-1.6-3.8-0.2-6.1C355.4,324.1,357.2,325.5,355.6,330.2z"/>
				<path class="st13" d="M355.6,330.2c0,0,0.1-4,2.4-5.6C358,324.6,359.1,326.7,355.6,330.2z"/>
				<path class="st13" d="M351.5,325.3c0,0,0,4,4.1,4.9C355.6,330.2,354.5,325.5,351.5,325.3z"/>
				<path class="st13" d="M351,336.4c0,0,0.9-5,4.6-6.2C355.6,330.2,356.1,334.2,351,336.4z"/>
				<path class="st13" d="M348.9,329.2c0,0,2.7-0.9,6.7,1C355.6,330.2,351.9,331.6,348.9,329.2z"/>
				<path class="st13" d="M355.4,337.9c0,0-2-5,0.1-7.8C355.5,330.1,357,330.6,355.4,337.9z"/>
				<path class="st13" d="M360.6,326c0,0-4.2,1.7-5.1,4.2C355.6,330.2,358.4,329.1,360.6,326z"/>
				<path class="st13" d="M359.4,336.7c0,0-3.5-2.5-3.8-6.5C355.6,330.2,358.9,332.2,359.4,336.7z"/>
				<path class="st13" d="M362.3,328.8c0,0-4.2-0.7-6.8,1.3C355.5,330.1,358.2,331.6,362.3,328.8z"/>
				<path class="st13" d="M348.9,332.7c0,0,2-2.8,6.6-2.6C355.5,330.1,352.8,333.2,348.9,332.7z"/>
				<path class="st13" d="M361.4,334.7c0,0-5.1-1.5-6-4.6C355.3,330,359.1,330.4,361.4,334.7z"/>
				<path class="st13" d="M362.5,332c0,0-4.3,0.7-7.1-1.9C355.5,330.1,358.5,328.8,362.5,332z"/>
				<path class="st13" d="M355.2,330.1c0,0-2.5,0.2-5.5-2.8C349.7,327.3,352.3,327.4,355.2,330.1z"/>
				<path class="st13" d="M349.9,334.3c0,0,2.3-3.3,5.4-4.1C355.2,330.2,354.9,333,349.9,334.3z"/>
			</g>
			<g>
				<path class="st13" d="M355.6,330.5c0,0,0.1-2.4,1.4-3.3C357,327.2,357.7,328.5,355.6,330.5z"/>
				<path class="st13" d="M353.2,327.6c0,0,0,2.4,2.4,2.9C355.6,330.5,355,327.8,353.2,327.6z"/>
				<path class="st13" d="M352.9,334.2c0,0,0.5-2.9,2.7-3.7C355.6,330.5,355.9,332.9,352.9,334.2z"/>
				<path class="st13" d="M351.6,330c0,0,1.6-0.5,4,0.6C355.6,330.5,353.4,331.4,351.6,330z"/>
				<path class="st13" d="M357.9,334.4c0,0-2.1-1.5-2.3-3.8C355.6,330.5,357.6,331.7,357.9,334.4z"/>
				<path class="st13" d="M359.6,329.7c0,0-2.5-0.4-4.1,0.8C355.6,330.5,357.2,331.4,359.6,329.7z"/>
				<path class="st13" d="M351.6,332c0,0,1.2-1.6,3.9-1.6C355.6,330.5,354,332.3,351.6,332z"/>
				<path class="st13" d="M359.8,331.6c0,0-2.6,0.4-4.2-1.1C355.6,330.5,357.4,329.7,359.8,331.6z"/>
			</g>
		</g>
	</g>
	<g>
		<g>
			<g class="st10">
				<path class="st8" d="M352.5,441.7l54.7,3c0.6,0,1.1,0.6,1.1,1.2l-0.8,13.8c0,0.6-0.6,1.1-1.2,1.1l-54.7-3
					c-0.6,0-1.1-0.6-1.1-1.2l0.8-13.8C351.3,442.1,351.9,441.6,352.5,441.7z"/>
				<path class="st7" d="M352.5,441.7l54.7,3c0.6,0,1.1,0.6,1.1,1.2l-0.8,13.8c0,0.6-0.6,1.1-1.2,1.1l-54.7-3
					c-0.6,0-1.1-0.6-1.1-1.2l0.8-13.8C351.3,442.1,351.9,441.6,352.5,441.7z"/>
			</g>
			<g>
				<path class="st3" d="M348.9,438.1l54.7,3c0.6,0,1.1,0.6,1.1,1.2l-0.8,13.8c0,0.6-0.6,1.1-1.2,1.1l-54.7-3
					c-0.6,0-1.1-0.6-1.1-1.2l0.8-13.8C347.8,438.5,348.3,438.1,348.9,438.1z"/>
				<path class="st11" d="M348.9,438.1l54.7,3c0.6,0,1.1,0.6,1.1,1.2l-0.8,13.8c0,0.6-0.6,1.1-1.2,1.1l-54.7-3
					c-0.6,0-1.1-0.6-1.1-1.2l0.8-13.8C347.8,438.5,348.3,438.1,348.9,438.1z"/>
			</g>
		</g>
		<path class="st12" d="M383.2,447.8l-0.3,5.5c0,0.6-0.5,1-1.1,0.9l-12.9-0.7c-0.6,0-1-0.5-0.9-1.1l0.3-5.5c0-0.6,0.5-1,1.1-0.9
			l12.9,0.7C382.8,446.7,383.3,447.2,383.2,447.8z"/>
		<path class="st14" d="M381.7,453.6l-12.4-0.7c-0.3,0-0.6-0.3-0.6-0.6l0.3-5.1c0-0.3,0.3-0.6,0.6-0.6l12.4,0.7
			c0.3,0,0.6,0.3,0.6,0.6l-0.3,5.1C382.3,453.4,382,453.6,381.7,453.6z"/>
		
			<rect x="374.9" y="426.4" transform="matrix(5.530595e-02 -0.9985 0.9985 5.530595e-02 -93.7052 799.6016)" class="st12" width="1.6" height="45.8"/>
	</g>
	<g>
		<g>
			<g class="st15">
				<path class="st16" d="M59,213.4H43.8v-25.6H59c2.8,0,5.1,1.7,5.1,3.8v18.1C64.1,211.7,61.8,213.4,59,213.4z"/>
				<path class="st17" d="M59,213.4H43.8v-25.6H59c2.8,0,5.1,1.7,5.1,3.8v18.1C64.1,211.7,61.8,213.4,59,213.4z"/>
			</g>
			<g>
				<path class="st1" d="M55.4,209.8H40.2v-25.6h15.2c2.8,0,5.1,1.7,5.1,3.8V206C60.5,208.1,58.2,209.8,55.4,209.8z"/>
				<path class="st7" d="M55.4,209.8H40.2v-25.6h15.2c2.8,0,5.1,1.7,5.1,3.8V206C60.5,208.1,58.2,209.8,55.4,209.8z"/>
			</g>
		</g>
		<path class="st6" d="M55.9,208.1h-8.1c-1.4,0-2.6-1.1-2.6-2.6v-17.2c0-1.4,1.1-2.6,2.6-2.6h8.1c1.4,0,2.6,1.1,2.6,2.6v17.2
			C58.5,207,57.3,208.1,55.9,208.1z"/>
		<circle class="st6" cx="47.9" cy="197" r="1.1"/>
	</g>
	<g>
		<g>
			<g class="st15">
				<path class="st16" d="M56.4,223.5c-1.3,0-8.5,0.1-9.7,0.2c-1,0.1-2,0.2-2.9,0.4V238c0.8,0.1,1.6,0.2,2.5,0.3
					c1.4,0.2,9.7,0.2,11.2,0.2c3.2,0,9.8-2.6,9.8-7.5C67.2,226,60.1,223.5,56.4,223.5z"/>
				<path class="st17" d="M56.4,223.5c-1.3,0-8.5,0.1-9.7,0.2c-1,0.1-2,0.2-2.9,0.4V238c0.8,0.1,1.6,0.2,2.5,0.3
					c1.4,0.2,9.7,0.2,11.2,0.2c3.2,0,9.8-2.6,9.8-7.5C67.2,226,60.1,223.5,56.4,223.5z"/>
			</g>
			<g>
				<path class="st1" d="M52.8,220c-1.3,0-8.5,0.1-9.7,0.2c-1,0.1-2,0.2-2.9,0.4v13.8c0.8,0.1,1.6,0.2,2.5,0.3
					c1.4,0.2,9.7,0.2,11.2,0.2c3.2,0,9.8-2.6,9.8-7.5C63.6,222.5,56.5,220,52.8,220z"/>
				<path class="st7" d="M52.8,220c-1.3,0-8.5,0.1-9.7,0.2c-1,0.1-2,0.2-2.9,0.4v13.8c0.8,0.1,1.6,0.2,2.5,0.3
					c1.4,0.2,9.7,0.2,11.2,0.2c3.2,0,9.8-2.6,9.8-7.5C63.6,222.5,56.5,220,52.8,220z"/>
			</g>
		</g>
		<g>
			<circle class="st6" cx="43.5" cy="224.2" r="0.5"/>
			<circle class="st6" cx="43.5" cy="230.8" r="0.5"/>
		</g>
		<path class="st6" d="M61.7,227.5c0,3.2-4.9,5.8-8,5.8c-3.2,0-5.8-2.6-5.8-5.8s2.6-5.8,5.8-5.8C56.8,221.7,61.7,224.3,61.7,227.5z"
			/>
		<path class="st6" d="M52.3,225.5h-2.1c-0.6,0-0.7,0.9-0.7,2s0.2,2,0.7,2h2.1c1.1,0,2-0.9,2-2S53.4,225.5,52.3,225.5z"/>
		<path class="st7" d="M43.4,220.2c-1.1,1.8-1.8,4.6-1.8,7.7c0,2.7,0.5,5.1,1.4,6.9"/>
	</g>
	<g>
		<g>
			<g>
				<g class="st10">
					<path class="st8" d="M47,399.9v12.4c0,0.6-0.4,1-1,1H34.9c-0.6,0-1-0.4-1-1v-12.4c0-0.6,0.4-1,1-1H46
						C46.6,398.9,47,399.3,47,399.9z"/>
					<path class="st7" d="M47,399.9v12.4c0,0.6-0.4,1-1,1H34.9c-0.6,0-1-0.4-1-1v-12.4c0-0.6,0.4-1,1-1H46
						C46.6,398.9,47,399.3,47,399.9z"/>
				</g>
				<g>
					<path class="st3" d="M43.5,396.3v12.4c0,0.6-0.4,1-1,1H31.4c-0.6,0-1-0.4-1-1v-12.4c0-0.6,0.4-1,1-1h11.1
						C43,395.3,43.5,395.8,43.5,396.3z"/>
					<path class="st11" d="M43.5,396.3v12.4c0,0.6-0.4,1-1,1H31.4c-0.6,0-1-0.4-1-1v-12.4c0-0.6,0.4-1,1-1h11.1
						C43,395.3,43.5,395.8,43.5,396.3z"/>
				</g>
			</g>
			<path class="st12" d="M37.7,405.7v0.5c0,0.2-0.1,0.3-0.3,0.3h-7v-1.2h7C37.6,405.4,37.7,405.5,37.7,405.7z"/>
			<path class="st12" d="M36.6,403.4v0.5c0,0.2-0.1,0.3-0.3,0.3h-6v-1.2h6C36.5,403.1,36.6,403.2,36.6,403.4z"/>
			<path class="st12" d="M38.5,404.5v0.5c0,0.2-0.1,0.3-0.3,0.3h-7.8v-1.2h7.8C38.3,404.2,38.5,404.4,38.5,404.5z"/>
		</g>
		<g>
			<g class="st10">
				<path class="st8" d="M119.3,395.9H34.9c-0.6,0-1-0.4-1-1V328c0-0.6,0.4-1,1-1h84.3c0.6,0,1,0.4,1,1v66.8
					C120.3,395.4,119.8,395.9,119.3,395.9z"/>
				<path class="st7" d="M119.3,395.9H34.9c-0.6,0-1-0.4-1-1V328c0-0.6,0.4-1,1-1h84.3c0.6,0,1,0.4,1,1v66.8
					C120.3,395.4,119.8,395.9,119.3,395.9z"/>
			</g>
			<g>
				<path class="st3" d="M115.7,392.3H31.4c-0.6,0-1-0.4-1-1v-66.8c0-0.6,0.4-1,1-1h84.3c0.6,0,1,0.4,1,1v66.8
					C116.7,391.8,116.2,392.3,115.7,392.3z"/>
				<path class="st11" d="M115.7,392.3H31.4c-0.6,0-1-0.4-1-1v-66.8c0-0.6,0.4-1,1-1h84.3c0.6,0,1,0.4,1,1v66.8
					C116.7,391.8,116.2,392.3,115.7,392.3z"/>
			</g>
		</g>
		<path class="st12" d="M111.1,387.7H36c-0.6,0-1-0.4-1-1v-57.6c0-0.6,0.4-1,1-1h75.1c0.6,0,1,0.4,1,1v57.6
			C112.1,387.2,111.6,387.7,111.1,387.7z"/>
		<path class="st12" d="M39.3,383.8c-1.5-2.5-1.8-20.5-0.2-23.3c0.1-0.2,8.6-1.2,13.1-0.5c0.8,0.1,1.9,0.8,2.3,2.2
			c1.6,4.6,1,15.1-0.5,20.2c-0.5,1.8-2.3,1.7-3,1.8C47.6,384.8,39.7,384.6,39.3,383.8z"/>
		<path class="st12" d="M39.1,355.4c-2-5.1-1.3-22.3-0.4-23.2c0.4-0.4,8.6-1.3,12.5-0.5c0.6,0.1,1.1,0.3,1.3,0.6
			c1.5,2.2,2.7,22.2,2.4,22.5c-0.2,0.3-1.8,0.2-2.7,0.6C50.2,356.4,39.4,356.3,39.1,355.4z"/>
		<g>
			<path class="st12" d="M66.4,331.1c0,0,2.2,23.7,2.2,26.7c0,3.1-2.2,26.7-2.2,26.7c0,2.3,3.8,4.1,1.5,4.1H55.4
				c-2.3,0-4.1-1.8-4.1-4.1c0,0,1.2-22.9,1.2-26.5s-1.2-26.8-1.2-26.8c0-2.3,1.8-4.1,4.1-4.1h12.5C70.2,327,66.4,328.8,66.4,331.1z"
				/>
			<path class="st18" d="M54.6,379.7c0.3,2.8,4.2,8.6,5.3,8.8"/>
			<path class="st18" d="M55.8,350.8c0.2,0.5,6.2,12.9,9.1,11.5c1.1-0.6,0.4-2.5-0.2-3.4"/>
			<path class="st18" d="M53.2,330.6c1.7,1.7,6.5,9,10.3,19"/>
		</g>
		<g>
			<g>
				<g class="st10">
					<path class="st8" d="M33.9,323v-12.4c0-0.6,0.4-1,1-1H46c0.6,0,1,0.4,1,1V323c0,0.6-0.4,1-1,1H34.9
						C34.4,324,33.9,323.6,33.9,323z"/>
					<path class="st7" d="M33.9,323v-12.4c0-0.6,0.4-1,1-1H46c0.6,0,1,0.4,1,1V323c0,0.6-0.4,1-1,1H34.9
						C34.4,324,33.9,323.6,33.9,323z"/>
				</g>
				<g>
					<path class="st3" d="M30.4,319.5V307c0-0.6,0.4-1,1-1h11.1c0.6,0,1,0.4,1,1v12.4c0,0.6-0.4,1-1,1H31.4
						C30.8,320.5,30.4,320,30.4,319.5z"/>
					<path class="st11" d="M30.4,319.5V307c0-0.6,0.4-1,1-1h11.1c0.6,0,1,0.4,1,1v12.4c0,0.6-0.4,1-1,1H31.4
						C30.8,320.5,30.4,320,30.4,319.5z"/>
				</g>
			</g>
			<path class="st12" d="M40.2,311.5l-2.1,5.4c-0.2,0.5-0.8,0.8-1.3,0.6l-2.4-0.9c-0.5-0.2-0.8-0.8-0.6-1.3l2.1-5.4
				c0.2-0.5,0.8-0.8,1.3-0.6l2.4,0.9C40.1,310.4,40.4,311,40.2,311.5z"/>
			<circle class="st12" cx="37" cy="313.4" r="0.7"/>
		</g>
	</g>
	<g>
		<g>
			<g class="st10">
				<path class="st8" d="M34.9,257.3H110c0.6,0,1,0.4,1,1v22.1c0,0.6-0.4,1-1,1H34.9c-0.6,0-1-0.4-1-1v-22.1
					C33.9,257.7,34.4,257.3,34.9,257.3z"/>
				<path class="st7" d="M34.9,257.3H110c0.6,0,1,0.4,1,1v22.1c0,0.6-0.4,1-1,1H34.9c-0.6,0-1-0.4-1-1v-22.1
					C33.9,257.7,34.4,257.3,34.9,257.3z"/>
			</g>
			<g>
				<path class="st3" d="M31.4,253.7h75.1c0.6,0,1,0.4,1,1v22.1c0,0.6-0.4,1-1,1H31.4c-0.6,0-1-0.4-1-1v-22.1
					C30.4,254.2,30.8,253.7,31.4,253.7z"/>
				<path class="st11" d="M31.4,253.7h75.1c0.6,0,1,0.4,1,1v22.1c0,0.6-0.4,1-1,1H31.4c-0.6,0-1-0.4-1-1v-22.1
					C30.4,254.2,30.8,253.7,31.4,253.7z"/>
			</g>
		</g>
		<line class="st12" x1="107.5" y1="274.6" x2="30.4" y2="274.6"/>
		<line class="st12" x1="68.9" y1="274.6" x2="68.9" y2="277.9"/>
		<polyline class="st11" points="77.3,277.9 77.3,279.7 74.4,279.7 74.4,277.9 		"/>
		<polyline class="st11" points="63.4,277.9 63.4,279.7 60.5,279.7 60.5,277.9 		"/>
	</g>
	<g>
		<path class="st12" d="M253.9,338.9v2h17.7v-2c0-0.8-0.6-1.4-1.4-1.4h-14.8C254.5,337.4,253.9,338.1,253.9,338.9z"/>
		
			<rect x="259.9" y="334.8" transform="matrix(-1.836970e-16 1 -1 -1.836970e-16 606.3413 80.9224)" class="st12" width="5.5" height="17.7"/>
		<line class="st12" x1="256.3" y1="340.9" x2="256.3" y2="346.4"/>
		<line class="st12" x1="269.1" y1="346.4" x2="269.1" y2="340.9"/>
		<path class="st12" d="M274.8,338.9v2h17.7v-2c0-0.8-0.6-1.4-1.4-1.4h-14.8C275.4,337.4,274.8,338.1,274.8,338.9z"/>
		
			<rect x="280.9" y="334.8" transform="matrix(-1.836970e-16 1 -1 -1.836970e-16 627.2763 59.9875)" class="st12" width="5.5" height="17.7"/>
		<line class="st12" x1="277.2" y1="340.9" x2="277.2" y2="346.4"/>
		<line class="st12" x1="290.1" y1="346.4" x2="290.1" y2="340.9"/>
		<g>
			<path class="st12" d="M292.5,388.6v-2h-17.7v2c0,0.8,0.6,1.4,1.4,1.4h14.8C291.9,390,292.5,389.4,292.5,388.6z"/>
			
				<rect x="280.9" y="375" transform="matrix(6.123234e-17 -1 1 6.123234e-17 -100.1704 667.4593)" class="st12" width="5.5" height="17.7"/>
			<line class="st12" x1="290.1" y1="386.6" x2="290.1" y2="381"/>
			<line class="st12" x1="277.2" y1="381" x2="277.2" y2="386.6"/>
		</g>
		<g>
			<path class="st12" d="M266.3,393.6l0.8-1.8l-16.3-6.9l-0.8,1.8c-0.3,0.7,0,1.6,0.8,1.9l13.7,5.7
				C265.2,394.7,266,394.4,266.3,393.6z"/>
			
				<rect x="254.2" y="372.3" transform="matrix(0.3873 -0.922 0.922 0.3873 -190.9553 475.0565)" class="st12" width="15.5" height="17.7"/>
			<line class="st12" x1="264.8" y1="390.8" x2="270.9" y2="376.5"/>
			<line class="st12" x1="259" y1="371.5" x2="253" y2="385.9"/>
		</g>
		<g>
			<g class="st10">
				<path class="st8" d="M302.4,351.4v31.8c0,0.8-0.6,1.4-1.4,1.4h-49c-0.8,0-1.4-0.6-1.4-1.4v-31.8c0-0.8,0.6-1.4,1.4-1.4h49
					C301.7,350,302.4,350.6,302.4,351.4z"/>
				<path class="st7" d="M302.4,351.4v31.8c0,0.8-0.6,1.4-1.4,1.4h-49c-0.8,0-1.4-0.6-1.4-1.4v-31.8c0-0.8,0.6-1.4,1.4-1.4h49
					C301.7,350,302.4,350.6,302.4,351.4z"/>
			</g>
			<g>
				<path class="st3" d="M298.8,347.8v31.8c0,0.8-0.6,1.4-1.4,1.4h-49c-0.8,0-1.4-0.6-1.4-1.4v-31.8c0-0.8,0.6-1.4,1.4-1.4h49
					C298.2,346.4,298.8,347,298.8,347.8z"/>
				<path class="st11" d="M298.8,347.8v31.8c0,0.8-0.6,1.4-1.4,1.4h-49c-0.8,0-1.4-0.6-1.4-1.4v-31.8c0-0.8,0.6-1.4,1.4-1.4h49
					C298.2,346.4,298.8,347,298.8,347.8z"/>
			</g>
		</g>
		<path class="st12" d="M287,361.7l-2.5,3.5c-0.3,0.4-1,0.5-1.4,0.2l-5.9-4.3c-0.4-0.3-0.5-1-0.2-1.4l2.5-3.5c0.3-0.4,1-0.5,1.4-0.2
			l5.9,4.3C287.2,360.7,287.3,361.3,287,361.7z"/>
	</g>
	<g>
		<g>
			<rect x="168.9" y="150.6" class="st1" width="43.7" height="24.8"/>
			<path class="st8" d="M212.4,150.8v24.5H169v-24.5H212.4 M212.7,150.4h-44.1v25.2h44.1V150.4L212.7,150.4z"/>
		</g>
		<line class="st19" x1="206.8" y1="154.8" x2="205.9" y2="171.2"/>
		<line class="st19" x1="203.5" y1="154.8" x2="204.6" y2="171.2"/>
		<line class="st19" x1="202.3" y1="154.8" x2="201.5" y2="171.2"/>
		<line class="st19" x1="199.1" y1="154.8" x2="200.2" y2="171.2"/>
		<line class="st19" x1="182.3" y1="154.8" x2="181.4" y2="171.2"/>
		<line class="st19" x1="179.1" y1="154.8" x2="180.1" y2="171.2"/>
		<line class="st19" x1="177.9" y1="154.8" x2="177" y2="171.2"/>
		<line class="st19" x1="174.7" y1="154.8" x2="175.7" y2="171.2"/>
		<line class="st20" x1="212.7" y1="173.8" x2="168.9" y2="173.8"/>
		<line class="st20" x1="190.8" y1="173.8" x2="190.8" y2="175.5"/>
		<polyline class="st7" points="195.6,175.5 195.6,176.4 193.9,176.4 193.9,175.5 		"/>
		<polyline class="st7" points="187.7,175.5 187.7,176.4 186,176.4 186,175.5 		"/>
		<line class="st7" x1="212.7" y1="163" x2="168.9" y2="163"/>
	</g>
	<g>
		<g>
			<rect x="122.7" y="150.6" class="st1" width="46.3" height="24.8"/>
			<path class="st8" d="M168.7,150.8v24.5h-45.9v-24.5H168.7 M169.1,150.4h-46.6v25.2h46.6V150.4L169.1,150.4z"/>
		</g>
		<line class="st19" x1="162.8" y1="154.8" x2="161.9" y2="171.2"/>
		<line class="st19" x1="159.4" y1="154.8" x2="160.5" y2="171.2"/>
		<line class="st19" x1="158.1" y1="154.8" x2="157.2" y2="171.2"/>
		<line class="st19" x1="154.8" y1="154.8" x2="155.8" y2="171.2"/>
		<line class="st19" x1="136.9" y1="154.8" x2="136" y2="171.2"/>
		<line class="st19" x1="133.5" y1="154.8" x2="134.6" y2="171.2"/>
		<line class="st19" x1="132.3" y1="154.8" x2="131.4" y2="171.2"/>
		<line class="st19" x1="128.9" y1="154.8" x2="130" y2="171.2"/>
		<line class="st20" x1="169.1" y1="173.8" x2="122.7" y2="173.8"/>
		<line class="st20" x1="145.9" y1="173.8" x2="145.9" y2="175.5"/>
		<polyline class="st7" points="151,175.5 151,176.4 149.3,176.4 149.3,175.5 		"/>
		<polyline class="st7" points="142.6,175.5 142.6,176.4 140.9,176.4 140.9,175.5 		"/>
		<line class="st7" x1="169.1" y1="163" x2="122.7" y2="163"/>
	</g>
	<g>
		<g>
			<g class="st10">
				<path class="st8" d="M413.8,257.7h-79.2c-4.1,0-7.4,3.3-7.4,7.4v29.7c0,0.9,0.7,1.7,1.7,1.7h0.3c0.9,0,1.7-0.7,1.7-1.7v-1.1
					c0,1,0.8,1.9,1.9,1.9h25.2c1,0,1.9-0.8,1.9-1.9c0,1,0.8,1.9,1.9,1.9h25.2c1,0,1.9-0.8,1.9-1.9c0,1,0.8,1.9,1.9,1.9h25.2
					c1,0,1.8-0.8,1.9-1.8v0.9c0,0.9,0.7,1.7,1.7,1.7h0.3c0.9,0,1.7-0.7,1.7-1.7v-29.7C421.2,261,417.9,257.7,413.8,257.7z"/>
				<path class="st7" d="M413.8,257.7h-79.2c-4.1,0-7.4,3.3-7.4,7.4v29.7c0,0.9,0.7,1.7,1.7,1.7h0.3c0.9,0,1.7-0.7,1.7-1.7v-1.1
					c0,1,0.8,1.9,1.9,1.9h25.2c1,0,1.9-0.8,1.9-1.9c0,1,0.8,1.9,1.9,1.9h25.2c1,0,1.9-0.8,1.9-1.9c0,1,0.8,1.9,1.9,1.9h25.2
					c1,0,1.8-0.8,1.9-1.8v0.9c0,0.9,0.7,1.7,1.7,1.7h0.3c0.9,0,1.7-0.7,1.7-1.7v-29.7C421.2,261,417.9,257.7,413.8,257.7z"/>
			</g>
			<g>
				<path class="st3" d="M410.2,254.1H331c-4.1,0-7.4,3.3-7.4,7.4v29.7c0,0.9,0.7,1.7,1.7,1.7h0.3c0.9,0,1.7-0.7,1.7-1.7v-1.1
					c0,1,0.8,1.9,1.9,1.9h25.2c1,0,1.9-0.8,1.9-1.9c0,1,0.8,1.9,1.9,1.9h25.2c1,0,1.9-0.8,1.9-1.9c0,1,0.8,1.9,1.9,1.9h25.2
					c1,0,1.8-0.8,1.9-1.8v0.9c0,0.9,0.7,1.7,1.7,1.7h0.3c0.9,0,1.7-0.7,1.7-1.7v-29.7C417.6,257.5,414.3,254.1,410.2,254.1z"/>
				<path class="st11" d="M410.2,254.1H331c-4.1,0-7.4,3.3-7.4,7.4v29.7c0,0.9,0.7,1.7,1.7,1.7h0.3c0.9,0,1.7-0.7,1.7-1.7v-1.1
					c0,1,0.8,1.9,1.9,1.9h25.2c1,0,1.9-0.8,1.9-1.9c0,1,0.8,1.9,1.9,1.9h25.2c1,0,1.9-0.8,1.9-1.9c0,1,0.8,1.9,1.9,1.9h25.2
					c1,0,1.8-0.8,1.9-1.8v0.9c0,0.9,0.7,1.7,1.7,1.7h0.3c0.9,0,1.7-0.7,1.7-1.7v-29.7C417.6,257.5,414.3,254.1,410.2,254.1z"/>
			</g>
		</g>
		<g>
			<path class="st21" d="M410.2,254.1H331c-4.1,0-7.4,3.3-7.4,7.4v29.7c0,0.9,0.7,1.7,1.7,1.7h0.3c0.9,0,1.7-0.7,1.7-1.7v-25.6H414
				v25.6c0,0.9,0.7,1.7,1.7,1.7h0.3c0.9,0,1.7-0.7,1.7-1.7v-29.7C417.6,257.5,414.3,254.1,410.2,254.1z"/>
			<g>
				<g>
					<path class="st12" d="M329.7,268.7c8-0.8,16-0.8,24,0c1.8,0.2,3.4-1.1,3.6-2.8c0.2-1.3,0.3-2.6,0.5-3.9
						c0.2-1.8-1.2-3.4-3.1-3.6c-8.6-0.8-17.4-0.8-26,0c-1.9,0.2-3.3,1.8-3.1,3.6c0.2,1.3,0.3,2.6,0.5,3.9
						C326.3,267.6,327.9,268.9,329.7,268.7z"/>
					<path class="st13" d="M329,266c0.2-0.9,25.1-0.9,25.3,0"/>
				</g>
			</g>
			<g>
				<g>
					<path class="st12" d="M387.6,268.7c8-0.8,16-0.8,24,0c1.8,0.2,3.4-1.1,3.6-2.8c0.2-1.3,0.3-2.6,0.5-3.9
						c0.2-1.8-1.2-3.4-3.1-3.6c-8.6-0.8-17.4-0.8-26,0c-1.9,0.2-3.3,1.8-3.1,3.6c0.2,1.3,0.3,2.6,0.5,3.9
						C384.2,267.6,385.8,268.9,387.6,268.7z"/>
					<path class="st13" d="M386.9,266c0.2-0.9,25.1-0.9,25.3,0"/>
				</g>
			</g>
			<g>
				<line class="st12" x1="356.2" y1="264.3" x2="356.2" y2="290.2"/>
				<line class="st12" x1="385.1" y1="290.2" x2="385.1" y2="264.3"/>
				<g>
					<path class="st12" d="M358.6,268.7c8-0.8,16-0.8,24,0c1.8,0.2,3.4-1.1,3.6-2.8c0.2-1.3,0.3-2.6,0.5-3.9
						c0.2-1.8-1.2-3.4-3.1-3.6c-8.6-0.8-17.4-0.8-26,0c-1.9,0.2-3.3,1.8-3.1,3.6c0.2,1.3,0.3,2.6,0.5,3.9
						C355.2,267.6,356.9,268.9,358.6,268.7z"/>
					<path class="st13" d="M358,266c0.2-0.9,25.1-0.9,25.3,0"/>
				</g>
			</g>
			<path class="st12" d="M328.4,261.9c1.1,0.7,5.3,5.3,5.6,5.6c2.2,0,6.1,1.1,6.7,2c-0.3,0.6-0.6,0.4-1.1,1.3
				c-0.3,1.1-1.7,6.8-4.2,9.8c-1.6-1.4-9.7-2.3-11.9-4.7c-1.3-0.6-2.3-0.8-3.3-1.9c0.3-0.7,3.4-3.3,4.7-3.6
				C325.6,268.9,326.7,263,328.4,261.9z"/>
			<path class="st12" d="M408.6,260.8c1.1,0.8,8,10.2,8.4,10.9c-0.5,2.2-4.9,5.3-6.2,6.1c-0.5,1.5-1.3,3.1-2.2,3.8
				c-0.6-0.6-1.7-1.9-2.2-2.6c-0.7-0.4-5.2-4.2-6.1-7.1c-0.6-0.7-1.5-1.5-1.4-1.9c1-0.8,2.3-1.3,3-1.3
				C402.5,268,407.4,260.9,408.6,260.8z"/>
		</g>
	</g>
	<g>
		<g>
			<g class="st10">
				<path class="st8" d="M423.7,361.4c-0.8,0-1.5,0.7-1.5,1.5v0.2c0,0.8,0.7,1.5,1.5,1.5h26.4c3.6,0,6.6-2.9,6.6-6.6v-19
					c0-3.6-2.9-6.6-6.6-6.6h-26.4c-0.8,0-1.5,0.7-1.5,1.5v0.2c0,0.8,0.7,1.5,1.5,1.5l0.9,0c-0.9,0-1.7,0.8-1.7,1.7v22.4
					c0,0.9,0.8,1.7,1.7,1.7L423.7,361.4z"/>
				<path class="st22" d="M423.7,361.4c-0.8,0-1.5,0.7-1.5,1.5v0.2c0,0.8,0.7,1.5,1.5,1.5h26.4c3.6,0,6.6-2.9,6.6-6.6v-19
					c0-3.6-2.9-6.6-6.6-6.6h-26.4c-0.8,0-1.5,0.7-1.5,1.5v0.2c0,0.8,0.7,1.5,1.5,1.5l0.9,0c-0.9,0-1.7,0.8-1.7,1.7v22.4
					c0,0.9,0.8,1.7,1.7,1.7L423.7,361.4z"/>
			</g>
			<g>
				<path class="st3" d="M420.1,357.9c-0.8,0-1.5,0.7-1.5,1.5v0.2c0,0.8,0.7,1.5,1.5,1.5h26.4c3.6,0,6.6-2.9,6.6-6.6v-19
					c0-3.6-2.9-6.6-6.6-6.6h-26.4c-0.8,0-1.5,0.7-1.5,1.5v0.2c0,0.8,0.7,1.5,1.5,1.5l0.9,0c-0.9,0-1.7,0.8-1.7,1.7v22.4
					c0,0.9,0.8,1.7,1.7,1.7L420.1,357.9z"/>
				<path class="st23" d="M420.1,357.9c-0.8,0-1.5,0.7-1.5,1.5v0.2c0,0.8,0.7,1.5,1.5,1.5h26.4c3.6,0,6.6-2.9,6.6-6.6v-19
					c0-3.6-2.9-6.6-6.6-6.6h-26.4c-0.8,0-1.5,0.7-1.5,1.5v0.2c0,0.8,0.7,1.5,1.5,1.5l0.9,0c-0.9,0-1.7,0.8-1.7,1.7v22.4
					c0,0.9,0.8,1.7,1.7,1.7L420.1,357.9z"/>
			</g>
		</g>
		<g>
			<path class="st21" d="M453.1,354.5v-19c0-3.6-2.9-6.6-6.6-6.6h-26.4c-0.8,0-1.5,0.7-1.5,1.5v0.2c0,0.8,0.7,1.5,1.5,1.5h22.7v25.7
				h-22.7c-0.8,0-1.5,0.7-1.5,1.5v0.2c0,0.8,0.7,1.5,1.5,1.5h26.4C450.1,361.1,453.1,358.1,453.1,354.5z"/>
			<g>
				<path class="st12" d="M440.1,334.4c0.7,7.1,0.7,14.2,0,21.3c-0.2,1.6,1,3,2.5,3.2c1.2,0.1,2.3,0.3,3.5,0.4c1.6,0.2,3-1,3.2-2.8
					c0.8-7.7,0.8-15.4,0-23.1c-0.2-1.7-1.6-3-3.2-2.8c-1.2,0.1-2.3,0.3-3.5,0.4C441.1,331.3,440,332.8,440.1,334.4z"/>
				<path class="st13" d="M442.5,333.8c0.8,0.2,0.8,22.3,0,22.5"/>
			</g>
		</g>
	</g>
	<g>
		<path class="st6" d="M92.9,142.7v36.9c0,0.4-0.3,0.7-0.7,0.7H40.9c-0.4,0-0.7-0.3-0.7-0.7v-36.9c0-0.4,0.3-0.7,0.7-0.7h51.3
			C92.6,142,92.9,142.3,92.9,142.7z"/>
		<path class="st6" d="M90.8,146v30.2c0,1.1-0.9,2-2,2H44.4c-1.1,0-2-0.9-2-2V146c0-1.1,0.9-2,2-2h44.5
			C89.9,144,90.8,144.9,90.8,146z"/>
		<path class="st6" d="M89.1,147.7v26.6c0,1.1-0.9,2-2,2h-41c-1.1,0-2-0.9-2-2v-26.6c0-1.1,0.9-2,2-2h41
			C88.2,145.7,89.1,146.6,89.1,147.7z"/>
		<circle class="st6" cx="49.2" cy="151.2" r="1.9"/>
	</g>
	<g>
		<g>
			<rect x="177.9" y="247" class="st6" width="26.3" height="26.3"/>
		</g>
		<g>
			<circle class="st24" cx="191" cy="260.1" r="6.1"/>
			<path class="st24" d="M190.4,264.1c2.4,0,4.3-1.9,4.3-4.3"/>
		</g>
	</g>
</g>
<g id="Ouvertures">
	<polygon class="st8" points="585.1,473.2 585.1,484.7 563.2,483.2 564.1,471.7 	"/>
	<g>
		<path class="st25" d="M229,141c0,21.8,18,43.3,40.2,43.3"/>
		<line class="st7" x1="269.2" y1="141.6" x2="269.2" y2="184.4"/>
	</g>
	<g>
		<path class="st25" d="M126.2,252.7c0,19.9,16.4,36.1,36.8,36.1"/>
		<line class="st7" x1="163" y1="252.7" x2="163" y2="288.7"/>
	</g>
	<g>
		<polygon class="st8" points="40,445.7 40.1,443.2 37.8,443.1 37.7,445.6 		"/>
		<polygon class="st8" points="129.1,449.7 129.2,447.2 126.3,447.1 126.2,449.6 		"/>
		<g>
			<polygon class="st1" points="39,445.4 39.2,443.3 126.1,447.2 126,449.4 			"/>
			<path class="st8" d="M39.3,443.5l86.6,3.9l-0.1,1.8l-86.6-3.9L39.3,443.5 M39,443.1l-0.1,2.5l87.3,4l0.1-2.5L39,443.1L39,443.1z"
				/>
		</g>
		<polyline class="st25" points="96.5,446.3 96,429.9 40.9,443.2 		"/>
		<polygon class="st8" points="98.1,448.2 98.2,445.7 95.3,445.6 95.2,448.1 		"/>
		<g>
			<path class="st25" d="M96.5,446.3c0.8-17.3,12.4-30.6,29.5-29.8"/>
			<line class="st7" x1="124.6" y1="447.7" x2="126.1" y2="416.5"/>
		</g>
	</g>
	<g>
		<polygon class="st8" points="330.7,459.2 330.8,456.7 333.1,456.8 333,459.3 		"/>
		<polygon class="st8" points="241.7,454.3 241.8,451.8 244.7,452 244.6,454.5 		"/>
		<g>
			<polygon class="st1" points="244.8,454.3 244.9,452.2 331.8,456.9 331.7,459 			"/>
			<path class="st8" d="M245,452.4l86.6,4.7l-0.1,1.8l-86.6-4.7L245,452.4 M244.7,452l-0.1,2.5l87.3,4.7l0.1-2.5L244.7,452
				L244.7,452z"/>
		</g>
		<polyline class="st25" points="274.4,454.2 276.5,437.9 330,456.6 		"/>
		<polygon class="st8" points="272.7,455.9 272.8,453.4 275.7,453.6 275.5,456.1 		"/>
		<g>
			<path class="st25" d="M274.4,454.2c0.9-17.2-9.3-31.7-26.4-32.6"/>
			<line class="st7" x1="246.3" y1="452.8" x2="247.9" y2="421.6"/>
		</g>
	</g>
	<g>
		<g>
			<rect x="464.6" y="259.7" class="st1" width="8.8" height="198.1"/>
			<path class="st8" d="M473.3,259.9v197.7h-8.5V259.9H473.3 M473.7,259.5h-9.2V458h9.2V259.5L473.7,259.5z"/>
		</g>
		<g>
			<rect x="469.2" y="259.7" class="st1" width="4.2" height="107.8"/>
			<path class="st8" d="M473.3,259.9v107.4h-3.9V259.9H473.3 M473.7,259.5h-4.6v108.2h4.6V259.5L473.7,259.5z"/>
		</g>
		<g>
			<rect x="464.6" y="368.5" class="st1" width="3.9" height="89.3"/>
			<path class="st8" d="M468.3,368.7v88.9h-3.5v-88.9H468.3 M468.7,368.3h-4.2V458h4.2V368.3L468.7,368.3z"/>
		</g>
		<g>
			<g>
				<line class="st26" x1="460.2" y1="322.6" x2="460.2" y2="305.1"/>
				<g>
					<polygon class="st8" points="461.6,306.3 461.4,306.6 460.2,305.3 459,306.6 458.7,306.3 460.2,304.8 					"/>
				</g>
			</g>
		</g>
		<rect x="464.5" y="366.1" class="st8" width="4.2" height="4.6"/>
		<rect x="469.1" y="366.1" class="st8" width="4.6" height="4.6"/>
		
			<rect x="464.8" y="454.2" transform="matrix(-1.836970e-16 1 -1 -1.836970e-16 922.8091 -10.2649)" class="st8" width="3.4" height="4.1"/>
		
			<rect x="469.2" y="259.4" transform="matrix(-1.836970e-16 1 -1 -1.836970e-16 733.0106 -209.699)" class="st8" width="4.2" height="4.6"/>
		<line class="st27" x1="471.3" y1="366.4" x2="471.3" y2="259.9"/>
		<line class="st27" x1="466.6" y1="456.3" x2="466.6" y2="367.6"/>
	</g>
	<g>
		<path class="st25" d="M118,205.4c-19.9,0-36.1,16.4-36.1,36.8"/>
		<line class="st7" x1="118" y1="242.1" x2="82" y2="242.1"/>
	</g>
</g>
<g id="Étiquettes" class="st28">
	<text transform="matrix(1 0 0 1 379.6881 408.1255)" class="st29 st30 st31">Espace Jour</text>
	<text transform="matrix(1 0 0 1 389.8551 416.5254)" class="st29 st32 st31">30.80 m</text>
	<text transform="matrix(0.583 0 0 0.583 414.8795 414.1943)" class="st29 st32 st31">2</text>
	<text transform="matrix(1 0 0 1 498.5081 426.1343)" class="st29 st30 st31">Loggia </text>
	<text transform="matrix(1 0 0 1 498.638 434.5342)" class="st29 st32 st31">13.30 m</text>
	<text transform="matrix(0.583 0 0 0.583 523.6624 432.2031)" class="st29 st32 st31">2</text>
	<text transform="matrix(1 0 0 1 215.5145 232.1069)" class="st29 st30 st31">Dégagement</text>
	<text transform="matrix(1 0 0 1 228.9149 240.5068)" class="st29 st32 st31">8.50 m</text>
	<text transform="matrix(0.583 0 0 0.583 249.8798 238.1758)" class="st29 st32 st31">2</text>
	<text transform="matrix(1 0 0 1 116.0958 221.5806)" class="st29 st30 st31">WC/ </text>
	<text transform="matrix(1 0 0 1 108.3683 229.9805)" class="st29 st30 st31">Douche</text>
	<text transform="matrix(1 0 0 1 112.088 238.3804)" class="st29 st32 st31">4.50 m</text>
	<text transform="matrix(0.583 0 0 0.583 133.0529 236.0493)" class="st29 st32 st31">2</text>
	<text transform="matrix(1 0 0 1 143.0995 402.896)" class="st29 st30 st31">Chambre </text>
	<text transform="matrix(1 0 0 1 147.4462 411.2959)" class="st29 st32 st31">14.40 m</text>
	<text transform="matrix(0.583 0 0 0.583 172.4706 408.9648)" class="st29 st32 st31">2</text>
</g>
<g id="Murs">
	
		<rect x="478.4" y="366.9" transform="matrix(-1.836970e-16 1 -1 -1.836970e-16 950.0909 -214.0325)" class="st33" width="207.3" height="2.2"/>
	
		<rect x="484.8" y="477.7" transform="matrix(-0.9989 -4.731387e-02 4.731387e-02 -0.9989 1024.0913 981.7418)" class="st33" width="77.7" height="2.2"/>
	<polygon class="st8" points="276.6,131.8 275.8,131.8 269.2,131.8 269.2,140.4 275.1,140.4 275.1,251.5 464.4,251.5 464.4,259.6 
		586.3,260.5 586.3,240.8 286.3,240.8 286.3,131.8 	"/>
	<polygon class="st8" points="329.5,470.9 330.4,455.3 334.3,455.3 334.5,453.1 464.5,462.2 464.5,457.7 484.1,457.5 484.1,480.4 	
		"/>
	<polygon class="st8" points="17.5,144.6 17.5,455.3 41.1,456.7 41.6,442.9 37.2,442.5 37.3,438.5 29.2,437.8 29.2,251.7 
		126.8,251.7 126.8,247.1 122.9,247.1 122.9,242 117.8,242 117.8,246.9 40.5,246.9 40.5,142 117.8,142 117.8,205.7 122.9,205.7 
		122.9,150.6 212.6,150.6 212.6,175.7 217.7,175.7 217.7,141.7 226.2,141.7 229,141.7 229,139.8 229,131.8 17.5,131.8 	"/>
	<polyline class="st7" points="286.2,241.9 586.3,241.9 586.3,486.8 484.1,480.4 302.6,469.4 17.5,455.3 20.3,264.5 17.4,139.5 	"/>
	<polygon class="st8" points="241.5,451 241.5,448 185.2,446 185.2,279.7 210.9,279.7 210.9,246.8 206,246.8 206,275 176,275 
		176,246.8 168.1,246.8 163.1,246.8 163.1,251.5 168.1,251.5 168.1,444.6 130.2,442.9 130.2,446.7 126,446.7 125.1,460.8 
		244.7,466.9 246,451.3 	"/>
</g>
<g id="Entree">
	<polygon class="st34" points="255.6,135.4 249.1,141 242.6,135.4 	"/>
</g>
<g id="Nord">
	<circle class="st35" cx="31.6" cy="483.9" r="14.2"/>
	<line class="st36" x1="40.8" y1="481" x2="49.6" y2="478.2"/>
	<text transform="matrix(1 0 0 1 24.2539 490.8076)" class="st8 st30 st37">N</text>
</g>
<g id="Calque_1">
</g>
</svg>
