<?xml version="1.0" encoding="utf-8"?>
<!-- Generator: Adobe Illustrator 22.0.1, SVG Export Plug-In . SVG Version: 6.00 Build 0)  -->
<svg version="1.1" xmlns="http://www.w3.org/2000/svg" xmlns:xlink="http://www.w3.org/1999/xlink" x="0px" y="0px"
	 viewBox="0 0 850.4 850.4" style="enable-background:new 0 0 850.4 850.4;" xml:space="preserve">
<style type="text/css">
	.st0{fill:none;}
	.st1{fill:#FFFFFF;}
	.st2{fill:#E3E3E3;}
	.st3{fill:#ABBCA2;}
	.st4{fill:#DBEBD1;stroke:#D9E7BA;stroke-width:0;stroke-miterlimit:10;}
	.st5{fill:#EAF6FE;}
	.st6{opacity:0.8;fill:#FFFFFF;}
	.st7{fill:url(#SVGID_1_);stroke:#717E86;stroke-width:0.3741;stroke-miterlimit:10;}
	.st8{fill:#EAF6FE;stroke:#CCD3D8;stroke-width:0.3741;stroke-miterlimit:10;}
	.st9{fill:#FFFFFF;stroke:#717E86;stroke-width:0.3741;stroke-miterlimit:10;}
	.st10{opacity:5.000000e-02;}
	.st11{fill:#717E86;}
	.st12{fill:none;stroke:#717E86;stroke-width:0.3741;stroke-miterlimit:10;}
	.st13{fill:none;stroke:#CCD3D8;stroke-width:0.3741;stroke-miterlimit:10;}
	.st14{fill:#EAF6FE;stroke:#CCD3D8;stroke-width:0.3741;stroke-linecap:round;stroke-miterlimit:10;}
	.st15{fill:none;stroke:#000000;stroke-width:0.1496;stroke-linecap:square;stroke-linejoin:bevel;stroke-miterlimit:10;}
	.st16{opacity:0.2;}
	.st17{fill:#738793;}
	.st18{fill:none;stroke:#738793;stroke-width:0.3741;stroke-miterlimit:10;}
	.st19{fill:#EAF6FE;stroke:#CCD3D8;stroke-width:0.3781;stroke-miterlimit:10;}
	.st20{fill:#EAF6FE;stroke:#CCD3D8;stroke-width:0.3741;stroke-linecap:round;stroke-linejoin:round;stroke-miterlimit:10;}
	.st21{fill:none;stroke:#717E86;stroke-width:0.3741;stroke-linecap:round;stroke-linejoin:round;stroke-miterlimit:10;}
	.st22{fill:none;stroke:#CCD3D8;stroke-width:0.3741;stroke-linecap:round;stroke-linejoin:round;stroke-miterlimit:10;}
	.st23{fill:#EAF6FE;stroke:#CCD3D8;stroke-width:0.3682;stroke-miterlimit:10;}
	.st24{fill:none;stroke:#717E86;stroke-width:0.6235;stroke-miterlimit:10;}
	.st25{fill:#EAF6FE;stroke:#717E86;stroke-width:0.3741;stroke-miterlimit:10;}
	.st26{fill:none;stroke:#717E86;stroke-width:0.7736;stroke-miterlimit:10;}
	.st27{fill:none;stroke:#717E86;stroke-width:0.3741;stroke-miterlimit:10;stroke-dasharray:2.4939,2.4939;}
	.st28{fill:none;stroke:#717E86;stroke-width:0.3741;stroke-miterlimit:1;}
	.st29{fill:none;stroke:#717E86;stroke-width:0.1247;stroke-miterlimit:1;}
	.st30{display:none;}
	.st31{display:inline;fill:#3C3C3B;}
	.st32{font-family:'Lato-Black';}
	.st33{font-size:8.7286px;}
	.st34{font-family:'Lato-Italic';}
	.st35{font-size:9.0897px;}
	.st36{fill:#3C3C3B;}
	.st37{fill:none;stroke:#717E86;stroke-width:1.2469;stroke-miterlimit:10;}
	.st38{fill:none;stroke:#717E86;stroke-width:2.4939;stroke-miterlimit:10;}
	.st39{font-size:20.4812px;}
</style>
<pattern  width="3.8" height="3.4" patternUnits="userSpaceOnUse" id="Nouvelle_nuance_de_motif_7" viewBox="0 -3.4 3.8 3.4" style="overflow:visible;">
	<g>
		<rect y="-3.4" class="st0" width="3.8" height="3.4"/>
		<rect x="0.1" y="-3.4" class="st1" width="3.7" height="3.4"/>
		<rect x="3.7" y="-3.4" class="st2" width="0.1" height="3.4"/>
		<rect x="0" y="-3.4" class="st2" width="0.1" height="3.4"/>
	</g>
</pattern>
<g id="Jardin">
	<path class="st3" d="M639.3,64.8c0.1-0.1,0.1-0.1,0.2-0.2c0.3-0.2,0.7-0.2,0.8,0.3c0.2,0,0.6,0,0.8-0.1c0.3-0.1,0.4-0.3,0.7-0.4
		c0.3-0.1,0.7-0.1,1-0.2c0.3,0,0.6,0.2,0.9,0.1c0.4-0.1,0.5-0.5,0.9-0.5c0.4,0,0.8,0.4,1.2,0.2c0.4-0.2,0.5-0.8,0.8-1.1
		c0.4-0.3,1-0.1,1.4-0.5c0.4-0.4,0-1.1,0.8-1.3c0.8-0.2,1.4-0.7,1.9-1.4c0.2-0.3,0.1-0.4,0.3-0.7c0.1-0.3,0.2-0.2,0.5-0.4
		c0.3-0.2,0.2,0,0.3-0.4c0.1-0.2,0-0.5,0-0.8c0.2,0,0.6,0.1,0.7-0.2c0.1-0.2-0.3-0.6-0.3-0.8c-0.1-0.5,0.4-0.5,0.6-0.8
		c0.3-0.3,0.4-0.9,0.6-1.2c0.3-0.4,0.2-0.4,0.1-0.9c-0.1-0.3-0.1-0.6,0.1-0.8c0.2-0.2,0.5,0,0.5-0.5c0-0.3-0.5-0.5-0.6-0.8
		c-0.1-0.3,0-0.5,0.1-0.6c0.1-0.2,0.4-0.3,0.4-0.7c0.1-0.7-0.4-1.2-0.5-1.9c0-0.2,0.1-0.4,0.1-0.6c-0.1-0.3-0.2-0.4-0.4-0.7
		c-0.3-0.5,0.2-0.9-0.2-1.3c-0.3-0.3-0.4-0.2-0.5-0.7c0-0.2,0-0.4,0-0.5c-0.3-0.1-0.8-0.3-0.8-0.6c-0.2-0.6,0.4-1.4-0.4-1.8
		c-0.8-0.4-0.2-0.3-0.3-0.9c-0.2-0.1-0.5-0.1-0.7-0.2c0-0.2,0.1-0.5,0-0.7c-0.2-0.4-0.9-0.2-1.2-0.2c-0.8,0-0.3-0.3-0.5-0.8
		c-0.1-0.4-1.1-0.7-1.5-0.6c-0.2,0-0.3,0.1-0.5,0.1c-0.2-0.1-0.1-0.2-0.3-0.3c-0.4-0.3-0.4-0.2-0.9-0.3c-0.4-0.1-0.3-0.4-0.6-0.7
		c-0.2-0.2-0.4-0.1-0.7-0.1c-0.3-0.1-0.3-0.2-0.7-0.2c-0.3,0-0.7,0.5-0.9,0.4c-0.2-0.1-0.2-0.6-0.3-0.8c-0.1-0.1-0.5-0.3-0.7-0.4
		c-0.2,0-0.4,0.1-0.6,0.1c-0.4,0-0.4-0.1-0.7-0.2c-0.3-0.1-0.6,0.3-0.8,0.3c-0.3,0-0.4-0.4-0.6-0.4c-0.3-0.1-0.7,0.1-1.1,0.1
		c-0.4,0-0.8,0-1.1,0.2c-0.3,0.2-0.2,0.6-0.5,0.8c-0.4,0.3-0.9-0.4-1.2-0.4c-0.4,0-0.6,0.8-0.5,1.1c-0.6,0.1-1.2-0.6-1.7-0.4
		c0,0.4,0.2,1-0.2,1.2c-0.3,0.2-0.9-0.2-1.2,0.1c-0.3,0.3,0.2,0.9-0.2,1.1c-0.2,0.1-0.8,0-1,0c0,0.3,0,0.6-0.1,0.8
		c0,0-0.5,0.4-0.6,0.4c-0.1,0.6-0.2,1.5-0.9,1.6c-0.3,0-0.6-0.2-0.9,0c-0.4,0.3-0.1,0.6-0.2,0.9c-0.1,0.3-0.2,0.1-0.3,0.3
		c-0.2,0.2-0.2,0.1-0.2,0.4c0,0.2,0.2,0.4,0.1,0.6c-0.1,0.3-0.6,0.4-0.8,0.7c-0.2,0.3-0.5,0.9-0.4,1.3c0.1,0.3,0.5,0.3,0.4,0.7
		c0,0.1-0.2,0.2-0.3,0.2c-0.1,0.1-0.2,0.4-0.3,0.5c-0.2,0.4-0.3,0.7,0,1.1c0.2,0.2,0.5,0.3,0.4,0.7c-0.1,0.4-0.3,0.8-0.4,1.2
		c-0.1,0.3-0.4,0.7-0.2,1.1c0.1,0.3,0.6,0.3,0.7,0.6c0.3,0.7-0.1,1.4,0.1,2.1c0.1,0.3,0.4,0.5,0.4,0.8c0,0.4-0.3,0.7-0.2,1.1
		c0.1,0.6,0.7,1,1.3,1.1c0.3,0.1,0.3-0.1,0.5,0.2c0.1,0.3-0.3,0.6-0.3,0.9c0,0.6,0.9,0.2,1.2,0.5c0.3,0.3,0,0.7,0.3,0.9
		c0.2,0.2,0.8,0.1,1.1,0.1c-0.1,0.6,0.7,0.5,1,0.6c0.6,0.2,0.6,0.5,0.6,1.1c0,0.3,0,0.7,0.2,0.9c0.4,0.4,0.7-0.1,1.1,0
		c0.2,0.1,0.1,0.3,0.2,0.3c0.2,0.1,0.4,0.1,0.6,0.1c0.3,0,0.6,0,1,0.1c0.7,0.2,1,1,1.6,1.2c0.4,0.2,0.6-0.2,1-0.2
		c0.4,0,0.3,0.1,0.5,0.4C638.7,65.4,638.9,65.1,639.3,64.8z"/>
	<path class="st3" d="M644.7,103.9c0.1-0.1,0.1-0.1,0.2-0.2c0.3-0.2,0.7-0.2,0.8,0.3c0.2,0,0.6,0,0.8-0.1c0.3-0.1,0.4-0.3,0.7-0.4
		c0.3-0.1,0.7-0.1,1-0.2c0.3,0,0.6,0.2,0.9,0.1c0.4-0.1,0.5-0.5,0.9-0.5c0.4,0,0.8,0.4,1.2,0.2c0.4-0.2,0.5-0.8,0.8-1.1
		c0.4-0.3,1-0.1,1.4-0.5c0.4-0.4,0-1.1,0.8-1.3c0.8-0.2,1.4-0.7,1.9-1.4c0.2-0.3,0.1-0.4,0.3-0.7c0.1-0.3,0.2-0.2,0.5-0.4
		c0.3-0.2,0.2,0,0.3-0.4c0.1-0.2,0-0.5,0-0.8c0.2,0,0.6,0.1,0.7-0.2c0.1-0.2-0.3-0.6-0.3-0.8c-0.1-0.5,0.4-0.5,0.6-0.8
		c0.3-0.3,0.4-0.9,0.6-1.2c0.3-0.4,0.2-0.4,0.1-0.9c-0.1-0.3-0.1-0.6,0.1-0.8c0.2-0.2,0.5,0,0.5-0.5c0-0.3-0.5-0.5-0.6-0.8
		c-0.1-0.3,0-0.5,0.1-0.6c0.1-0.2,0.4-0.3,0.4-0.7c0.1-0.7-0.4-1.2-0.5-1.9c0-0.2,0.1-0.4,0.1-0.6c-0.1-0.3-0.2-0.4-0.4-0.7
		c-0.3-0.5,0.2-0.9-0.2-1.3c-0.3-0.3-0.4-0.2-0.5-0.7c0-0.2,0-0.4,0-0.5c-0.3-0.1-0.8-0.3-0.8-0.6c-0.2-0.6,0.4-1.4-0.4-1.8
		c-0.8-0.4-0.2-0.3-0.3-0.9c-0.2-0.1-0.5-0.1-0.7-0.2c0-0.2,0.1-0.5,0-0.7c-0.2-0.4-0.9-0.2-1.2-0.2c-0.8,0-0.3-0.3-0.5-0.8
		c-0.1-0.4-1.1-0.7-1.5-0.6c-0.2,0-0.3,0.1-0.5,0.1c-0.2-0.1-0.1-0.2-0.3-0.3c-0.4-0.3-0.4-0.2-0.9-0.3c-0.4-0.1-0.3-0.4-0.6-0.7
		c-0.2-0.2-0.4-0.1-0.7-0.1c-0.3-0.1-0.3-0.2-0.7-0.2c-0.3,0-0.7,0.5-0.9,0.4c-0.2-0.1-0.2-0.6-0.3-0.8c-0.1-0.1-0.5-0.3-0.7-0.4
		c-0.2,0-0.4,0.1-0.6,0.1c-0.4,0-0.4-0.1-0.7-0.2c-0.3-0.1-0.6,0.3-0.8,0.3c-0.3,0-0.4-0.4-0.6-0.4c-0.3-0.1-0.7,0.1-1.1,0.1
		c-0.4,0-0.8,0-1.1,0.2c-0.3,0.2-0.2,0.6-0.5,0.8c-0.4,0.3-0.9-0.4-1.2-0.4c-0.4,0-0.6,0.8-0.5,1.1c-0.6,0.1-1.2-0.6-1.7-0.4
		c0,0.4,0.2,1-0.2,1.2c-0.3,0.2-0.9-0.2-1.2,0.1c-0.3,0.3,0.2,0.9-0.2,1.1c-0.2,0.1-0.8,0-1,0c0,0.3,0,0.6-0.1,0.8
		c0,0-0.5,0.4-0.6,0.4c-0.1,0.6-0.2,1.5-0.9,1.6c-0.3,0-0.6-0.2-0.9,0c-0.4,0.3-0.1,0.6-0.2,0.9c-0.1,0.3-0.2,0.1-0.3,0.3
		c-0.2,0.2-0.2,0.1-0.2,0.4c0,0.2,0.2,0.4,0.1,0.6c-0.1,0.3-0.6,0.4-0.8,0.7c-0.2,0.3-0.5,0.9-0.4,1.3c0.1,0.3,0.5,0.3,0.4,0.7
		c0,0.1-0.2,0.2-0.3,0.2c-0.1,0.1-0.2,0.4-0.3,0.5c-0.2,0.4-0.3,0.7,0,1.1c0.2,0.2,0.5,0.3,0.4,0.7c-0.1,0.4-0.3,0.8-0.4,1.2
		c-0.1,0.3-0.4,0.7-0.2,1.1c0.1,0.3,0.6,0.3,0.7,0.6c0.3,0.7-0.1,1.4,0.1,2.1c0.1,0.3,0.4,0.5,0.4,0.8c0,0.4-0.3,0.7-0.2,1.1
		c0.1,0.6,0.7,1,1.3,1.1c0.3,0.1,0.3-0.1,0.5,0.2c0.1,0.3-0.3,0.6-0.3,0.9c0,0.6,0.9,0.2,1.2,0.5c0.3,0.3,0,0.7,0.3,0.9
		c0.2,0.2,0.8,0.1,1.1,0.1c-0.1,0.6,0.7,0.5,1,0.6c0.6,0.2,0.6,0.5,0.6,1.1c0,0.3,0,0.7,0.2,0.9c0.4,0.4,0.7-0.1,1.1,0
		c0.2,0.1,0.1,0.3,0.2,0.3c0.2,0.1,0.4,0.1,0.6,0.1c0.3,0,0.6,0,1,0.1c0.7,0.2,1,1,1.6,1.2c0.4,0.2,0.6-0.2,1-0.2
		c0.4,0,0.3,0.1,0.5,0.4C644.1,104.5,644.3,104.2,644.7,103.9z"/>
	
		<rect x="386.2" y="-127.2" transform="matrix(-1.836970e-16 1 -1 -1.836970e-16 542.2573 -364.8767)" class="st4" width="134.7" height="431.8"/>
	
		<rect x="182.5" y="340.5" transform="matrix(-1.836970e-16 1 -1 -1.836970e-16 1009.9207 -54.592)" class="st4" width="699.5" height="274.4"/>
</g>
<g id="Fond">
	<polygon class="st1" points="586.1,661.5 586.1,836 482.3,823.5 274.7,822.2 267.9,495.4 240.9,487.7 237.7,157.8 613.2,138.5 	"/>
	<polygon class="st5" points="573.1,818.8 573.1,647 581.6,507.3 592.2,271.1 488,271.1 488,265.2 389.4,265.2 389.5,162.8 
		244.6,171.7 244.6,493.3 262.4,494.3 263.4,818.8 	"/>
</g>
<g id="Sols">
	
		<rect x="276.4" y="714.4" transform="matrix(-1.836970e-16 1 -1 -1.836970e-16 1091.975 429.6062)" class="st6" width="109.5" height="92.7"/>
	<pattern  id="SVGID_1_" xlink:href="#Nouvelle_nuance_de_motif_7" patternTransform="matrix(1.0414 0 0 1.0414 314.048 280.6382)">
	</pattern>
	<polygon class="st7" points="391.7,259.9 391.9,81.2 616.2,81.2 606.9,259.8 	"/>
</g>
<g id="Installations">
	<g>
		<g>
			<path class="st8" d="M325.8,267.7h2.5v-22.1h-2.5c-1,0-1.8,0.8-1.8,1.8v18.5C324,266.9,324.8,267.7,325.8,267.7z"/>
			<rect x="328.3" y="245.6" class="st8" width="10.5" height="22.1"/>
			<line class="st8" x1="328.3" y1="264.7" x2="338.9" y2="264.7"/>
			<line class="st8" x1="338.9" y1="248.6" x2="328.3" y2="248.6"/>
		</g>
	</g>
	<polyline class="st9" points="404,563.8 403.8,621.3 568.3,621.3 566.8,647.7 403.8,647.7 376.2,621.3 376.2,563.8 	"/>
	<g>
		<g>
			<g>
				<g class="st10">
					<path class="st11" d="M305.6,383.7H293c-0.6,0-1-0.4-1-1v-11.3c0-0.6,0.4-1,1-1h12.6c0.6,0,1,0.4,1,1v11.3
						C306.6,383.2,306.2,383.7,305.6,383.7z"/>
					<path class="st12" d="M305.6,383.7H293c-0.6,0-1-0.4-1-1v-11.3c0-0.6,0.4-1,1-1h12.6c0.6,0,1,0.4,1,1v11.3
						C306.6,383.2,306.2,383.7,305.6,383.7z"/>
				</g>
				<g>
					<path class="st5" d="M301.9,379.9h-12.6c-0.6,0-1-0.4-1-1v-11.3c0-0.6,0.4-1,1-1h12.6c0.6,0,1,0.4,1,1v11.3
						C302.9,379.5,302.4,379.9,301.9,379.9z"/>
					<path class="st13" d="M301.9,379.9h-12.6c-0.6,0-1-0.4-1-1v-11.3c0-0.6,0.4-1,1-1h12.6c0.6,0,1,0.4,1,1v11.3
						C302.9,379.5,302.4,379.9,301.9,379.9z"/>
				</g>
			</g>
			<path class="st8" d="M293.8,370l5.5,2.1c0.5,0.2,0.8,0.8,0.6,1.3l-1,2.5c-0.2,0.5-0.8,0.8-1.3,0.6l-5.5-2.1
				c-0.5-0.2-0.8-0.8-0.6-1.3l1-2.5C292.7,370.1,293.3,369.8,293.8,370z"/>
			
				<ellipse transform="matrix(0.2591 -0.9658 0.9658 0.2591 -141.4079 562.119)" class="st8" cx="295.7" cy="373.2" rx="0.7" ry="0.7"/>
		</g>
		<g>
			<g class="st10">
				<path class="st11" d="M288.6,297.3v85.4c0,0.6-0.4,1-1,1h-37.5c-0.6,0-1-0.4-1-1v-85.4c0-0.6,0.4-1,1-1h37.5
					C288.1,296.3,288.6,296.7,288.6,297.3z"/>
				<path class="st12" d="M288.6,297.3v85.4c0,0.6-0.4,1-1,1h-37.5c-0.6,0-1-0.4-1-1v-85.4c0-0.6,0.4-1,1-1h37.5
					C288.1,296.3,288.6,296.7,288.6,297.3z"/>
			</g>
			<g>
				<path class="st5" d="M284.8,293.5v85.4c0,0.6-0.4,1-1,1h-37.5c-0.6,0-1-0.4-1-1v-85.4c0-0.6,0.4-1,1-1h37.5
					C284.4,292.5,284.8,293,284.8,293.5z"/>
				<path class="st13" d="M284.8,293.5v85.4c0,0.6-0.4,1-1,1h-37.5c-0.6,0-1-0.4-1-1v-85.4c0-0.6,0.4-1,1-1h37.5
					C284.4,292.5,284.8,293,284.8,293.5z"/>
			</g>
		</g>
		<path class="st8" d="M280.2,298.2v76.1c0,0.6-0.4,1-1,1H251c-0.6,0-1-0.4-1-1v-76.1c0-0.6,0.4-1,1-1h28.2
			C279.7,297.2,280.2,297.6,280.2,298.2z"/>
		<path class="st8" d="M276.1,371.2c-0.7,0.3-1.2-0.1-2.3-0.1c-9.7,2-20.1-0.5-20.4-0.9c-0.2-0.4,0.2-0.3,0.6-2.5
			c0.2-2.3-0.4-7.6-0.1-9.5c0.1-0.5,0.2-0.8,0.5-1c1.8-1.4,20.9-0.9,21.1-0.7c0.3,0.2,0.9,0.9,1,1.7
			C277,360.4,276.8,370.9,276.1,371.2z"/>
		<g>
			<g>
				<path class="st8" d="M253.1,343.4c0,0,9.1-1.2,12-1.2c3.2,0,12,1.2,12,1.2c2.3,0,4.1-3.8,4.1-1.5v12.7c0,2.3-1.8,4.1-4.1,4.1
					c0,0-8.2-1.2-11.8-1.2c-3.6,0-12.2,1.2-12.2,1.2c-2.3,0-4.1-1.8-4.1-4.1v-12.7C248.9,339.6,250.8,343.4,253.1,343.4z"/>
			</g>
			<path class="st14" d="M276.2,353.2c0.3-1.8-1.7-6.4-5.1-7.2"/>
			<path class="st14" d="M266.2,353.7c-2.5-2.4-8.3-5.6-12.1-5.3"/>
		</g>
	</g>
	<g>
		<g>
			<g class="st10">
				<path class="st11" d="M249.8,254v-52c0-0.6,0.4-1,1-1h23.9c0.6,0,1,0.4,1,1v52c0,0.6-0.4,1-1,1h-23.9
					C250.3,255,249.8,254.6,249.8,254z"/>
				<path class="st12" d="M249.8,254v-52c0-0.6,0.4-1,1-1h23.9c0.6,0,1,0.4,1,1v52c0,0.6-0.4,1-1,1h-23.9
					C250.3,255,249.8,254.6,249.8,254z"/>
			</g>
			<g>
				<path class="st5" d="M246.1,250.3v-52c0-0.6,0.4-1,1-1H271c0.6,0,1,0.4,1,1v52c0,0.6-0.4,1-1,1h-23.9
					C246.6,251.3,246.1,250.8,246.1,250.3z"/>
				<path class="st13" d="M246.1,250.3v-52c0-0.6,0.4-1,1-1H271c0.6,0,1,0.4,1,1v52c0,0.6-0.4,1-1,1h-23.9
					C246.6,251.3,246.1,250.8,246.1,250.3z"/>
			</g>
		</g>
		<line class="st8" x1="268.5" y1="197.3" x2="268.5" y2="251.3"/>
		<line class="st8" x1="268.5" y1="224.3" x2="272" y2="224.3"/>
		<polyline class="st13" points="272,218.4 273.9,218.4 273.9,220.4 272,220.4 		"/>
		<polyline class="st13" points="272,228.2 273.9,228.2 273.9,230.2 272,230.2 		"/>
	</g>
	<g>
		<g>
			<g>
				<g class="st10">
					<path class="st11" d="M521.8,803.2h13.1c0.6,0,1,0.4,1,1v11.7c0,0.6-0.4,1-1,1h-13.1c-0.6,0-1-0.4-1-1v-11.7
						C520.8,803.7,521.2,803.2,521.8,803.2z"/>
					<path class="st12" d="M521.8,803.2h13.1c0.6,0,1,0.4,1,1v11.7c0,0.6-0.4,1-1,1h-13.1c-0.6,0-1-0.4-1-1v-11.7
						C520.8,803.7,521.2,803.2,521.8,803.2z"/>
				</g>
				<g>
					<path class="st5" d="M518,799.5h13.1c0.6,0,1,0.4,1,1v11.7c0,0.6-0.4,1-1,1H518c-0.6,0-1-0.4-1-1v-11.7
						C517,799.9,517.5,799.5,518,799.5z"/>
					<path class="st13" d="M518,799.5h13.1c0.6,0,1,0.4,1,1v11.7c0,0.6-0.4,1-1,1H518c-0.6,0-1-0.4-1-1v-11.7
						C517,799.9,517.5,799.5,518,799.5z"/>
				</g>
			</g>
			<path class="st8" d="M527.9,805.5h0.5c0.2,0,0.3,0.1,0.3,0.3v7.4h-1.2v-7.4C527.5,805.6,527.7,805.5,527.9,805.5z"/>
			<path class="st8" d="M525.5,806.6h0.5c0.2,0,0.3,0.1,0.3,0.3v6.2h-1.2V807C525.1,806.8,525.3,806.6,525.5,806.6z"/>
			<path class="st8" d="M526.7,804.7h0.5c0.2,0,0.3,0.1,0.3,0.3v8.1h-1.2v-8.1C526.3,804.9,526.5,804.7,526.7,804.7z"/>
		</g>
		<g>
			<g class="st10">
				<path class="st11" d="M517.6,727.6v88.3c0,0.6-0.4,1-1,1h-70c-0.6,0-1-0.4-1-1v-88.3c0-0.6,0.4-1,1-1h70
					C517.1,726.6,517.6,727.1,517.6,727.6z"/>
				<path class="st12" d="M517.6,727.6v88.3c0,0.6-0.4,1-1,1h-70c-0.6,0-1-0.4-1-1v-88.3c0-0.6,0.4-1,1-1h70
					C517.1,726.6,517.6,727.1,517.6,727.6z"/>
			</g>
			<g>
				<path class="st5" d="M513.8,723.9v88.3c0,0.6-0.4,1-1,1h-70c-0.6,0-1-0.4-1-1v-88.3c0-0.6,0.4-1,1-1h70
					C513.4,722.9,513.8,723.3,513.8,723.9z"/>
				<path class="st13" d="M513.8,723.9v88.3c0,0.6-0.4,1-1,1h-70c-0.6,0-1-0.4-1-1v-88.3c0-0.6,0.4-1,1-1h70
					C513.4,722.9,513.8,723.3,513.8,723.9z"/>
			</g>
		</g>
		<path class="st8" d="M509,728.7v78.7c0,0.6-0.4,1-1,1h-60.4c-0.6,0-1-0.4-1-1v-78.7c0-0.6,0.4-1,1-1H508
			C508.6,727.7,509,728.1,509,728.7z"/>
		<path class="st8" d="M504.9,803.9c-2.6,1.6-21.4,1.9-24.3,0.2c-0.2-0.1-1.2-9-0.5-13.8c0.1-0.8,0.9-2,2.3-2.5
			c4.8-1.7,15.9-1,21.1,0.5c1.9,0.6,1.8,2.4,1.9,3.2C506,795.2,505.7,803.4,504.9,803.9z"/>
		<path class="st8" d="M475.3,804.1c-5.4,2-23.3,1.4-24.3,0.4c-0.4-0.4-1.4-9-0.5-13c0.1-0.6,0.4-1.2,0.6-1.4
			c2.3-1.6,23.2-2.8,23.6-2.6c0.3,0.2,0.2,1.9,0.6,2.8C476.2,792.5,476.1,803.8,475.3,804.1z"/>
		<g>
			<path class="st8" d="M449.8,775.5c0,0,24.8-2.3,27.9-2.3c3.3,0,27.9,2.3,27.9,2.3c2.4,0,4.3-3.9,4.3-1.6V787
				c0,2.4-1.9,4.3-4.3,4.3c0,0-24-1.2-27.7-1.2c-3.7,0-28.1,1.2-28.1,1.2c-2.4,0-4.3-1.9-4.3-4.3v-13.1
				C445.5,771.5,447.4,775.5,449.8,775.5z"/>
			<path class="st14" d="M500.6,787.8c2.9-0.4,9-4.4,9.2-5.6"/>
			<path class="st14" d="M470.4,786.5c0.5-0.2,13.5-6.5,12-9.5c-0.6-1.2-2.6-0.4-3.6,0.2"/>
			<path class="st14" d="M449.3,789.3c1.8-1.8,9.4-6.8,19.9-10.7"/>
		</g>
		<g>
			<g>
				<g class="st10">
					<path class="st11" d="M441.4,816.9h-13.1c-0.6,0-1-0.4-1-1v-11.7c0-0.6,0.4-1,1-1h13.1c0.6,0,1,0.4,1,1v11.7
						C442.4,816.5,442,816.9,441.4,816.9z"/>
					<path class="st12" d="M441.4,816.9h-13.1c-0.6,0-1-0.4-1-1v-11.7c0-0.6,0.4-1,1-1h13.1c0.6,0,1,0.4,1,1v11.7
						C442.4,816.5,442,816.9,441.4,816.9z"/>
				</g>
				<g>
					<path class="st5" d="M437.7,813.2h-13.1c-0.6,0-1-0.4-1-1v-11.7c0-0.6,0.4-1,1-1h13.1c0.6,0,1,0.4,1,1v11.7
						C438.7,812.7,438.2,813.2,437.7,813.2z"/>
					<path class="st13" d="M437.7,813.2h-13.1c-0.6,0-1-0.4-1-1v-11.7c0-0.6,0.4-1,1-1h13.1c0.6,0,1,0.4,1,1v11.7
						C438.7,812.7,438.2,813.2,437.7,813.2z"/>
				</g>
			</g>
			<path class="st8" d="M429.2,802.9l5.8,2.2c0.5,0.2,0.8,0.8,0.6,1.3l-1,2.6c-0.2,0.5-0.8,0.8-1.3,0.6l-5.8-2.2
				c-0.5-0.2-0.8-0.8-0.6-1.3l1-2.6C428.1,803,428.7,802.7,429.2,802.9z"/>
			
				<ellipse transform="matrix(0.2591 -0.9658 0.9658 0.2591 -459.2382 1013.8877)" class="st8" cx="431.3" cy="806.3" rx="0.7" ry="0.7"/>
		</g>
	</g>
	<g>
		<g>
			<g class="st10">
				<path class="st11" d="M382.5,801.8v-79.3c0-0.6,0.4-1,1-1h21.7c0.6,0,1,0.4,1,1v79.3c0,0.6-0.4,1-1,1h-21.7
					C382.9,802.8,382.5,802.3,382.5,801.8z"/>
				<path class="st12" d="M382.5,801.8v-79.3c0-0.6,0.4-1,1-1h21.7c0.6,0,1,0.4,1,1v79.3c0,0.6-0.4,1-1,1h-21.7
					C382.9,802.8,382.5,802.3,382.5,801.8z"/>
			</g>
			<g>
				<path class="st5" d="M378.8,798v-79.3c0-0.6,0.4-1,1-1h21.7c0.6,0,1,0.4,1,1V798c0,0.6-0.4,1-1,1h-21.7
					C379.2,799,378.8,798.6,378.8,798z"/>
				<path class="st13" d="M378.8,798v-79.3c0-0.6,0.4-1,1-1h21.7c0.6,0,1,0.4,1,1V798c0,0.6-0.4,1-1,1h-21.7
					C379.2,799,378.8,798.6,378.8,798z"/>
			</g>
		</g>
		<line class="st8" x1="399.3" y1="717.8" x2="399.3" y2="799"/>
		<line class="st8" x1="399.3" y1="758.4" x2="402.5" y2="758.4"/>
		<polyline class="st13" points="402.5,749.5 404.2,749.5 404.2,752.6 402.5,752.6 		"/>
		<polyline class="st13" points="402.5,764.2 404.2,764.2 404.2,767.3 402.5,767.3 		"/>
	</g>
	<g>
		
			<rect x="436.7" y="610.1" transform="matrix(-1.836970e-16 1 -1 -1.836970e-16 1083.2615 185.6589)" class="st12" width="24.2" height="48.8"/>
		<g>
			<path class="st9" d="M449.3,642.2v-15.4c0-1.3-1.1-2.4-2.4-2.4H429c-1.3,0-2.4,1.1-2.4,2.4v15.4c0,1.3,1.1,2.4,2.4,2.4h17.9
				C448.2,644.6,449.3,643.5,449.3,642.2z"/>
			<circle class="st9" cx="437.6" cy="640.6" r="1.6"/>
		</g>
		<g>
			
				<rect x="460.7" y="619.7" transform="matrix(-1.836970e-16 1 -1 -1.836970e-16 1088.782 166.5657)" class="st11" width="0.9" height="16"/>
			
				<rect x="460.7" y="623.1" transform="matrix(-1.836970e-16 1 -1 -1.836970e-16 1092.171 169.9548)" class="st11" width="0.9" height="16"/>
			
				<rect x="460.7" y="626.4" transform="matrix(-1.836970e-16 1 -1 -1.836970e-16 1095.5602 173.3439)" class="st11" width="0.9" height="16"/>
			
				<rect x="460.7" y="629.8" transform="matrix(-1.836970e-16 1 -1 -1.836970e-16 1098.9492 176.733)" class="st11" width="0.9" height="16"/>
			
				<rect x="460.7" y="633.2" transform="matrix(-1.836970e-16 1 -1 -1.836970e-16 1102.3383 180.122)" class="st11" width="0.9" height="16"/>
		</g>
	</g>
	<g>
		
			<rect x="481.7" y="621.8" transform="matrix(-1.836970e-16 1 -1 -1.836970e-16 1128.2715 140.6488)" class="st12" width="24.2" height="25.3"/>
		<path class="st9" d="M488.6,635.1c-2.5,0-4.6,2-4.6,4.4s2.1,4.4,4.6,4.4c2.5,0,4.6-2,4.6-4.4S491.1,635.1,488.6,635.1"/>
		<path class="st9" d="M499.3,625.2c-2.5,0-4.6,2-4.6,4.4c0,2.4,2.1,4.4,4.6,4.4c2.5,0,4.6-2,4.6-4.4
			C503.9,627.2,501.8,625.2,499.3,625.2"/>
		<path class="st9" d="M500.1,636.3c-2.1,0-3.7,1.6-3.7,3.6c0,2,1.7,3.6,3.7,3.6s3.7-1.6,3.7-3.6
			C503.9,637.9,502.2,636.3,500.1,636.3"/>
		<path class="st9" d="M487.9,625.2c-2.1,0-3.7,1.6-3.7,3.6s1.7,3.6,3.7,3.6c2.1,0,3.7-1.6,3.7-3.6S490,625.2,487.9,625.2"/>
	</g>
	<g>
		<polyline class="st15" points="394.3,584.5 394.3,582.7 395.9,582.7 		"/>
		<polyline class="st15" points="384.8,575 386.4,575 386.4,573.4 		"/>
		<line class="st15" x1="385.3" y1="573.9" x2="395.4" y2="583.8"/>
		<polyline class="st15" points="395.9,575 394.3,575 394.3,573.4 		"/>
		<polyline class="st15" points="386.4,584.5 386.4,582.7 384.8,582.7 		"/>
		<line class="st15" x1="385.3" y1="583.8" x2="395.4" y2="573.9"/>
		<polyline class="st15" points="397,580.1 395.9,579 397,577.8 		"/>
		<polyline class="st15" points="383.7,580.1 384.8,579 383.7,577.8 		"/>
		<polyline class="st15" points="391.5,572.3 390.3,573.4 389.2,572.3 		"/>
		<polyline class="st15" points="391.5,585.4 390.3,584.3 389.2,585.4 		"/>
		<line class="st15" x1="383.2" y1="579" x2="397.5" y2="579"/>
		<line class="st15" x1="390.3" y1="585.9" x2="390.3" y2="571.8"/>
		<polyline class="st12" points="394.3,584.5 394.3,582.7 395.9,582.7 		"/>
		<polyline class="st12" points="384.8,575 386.4,575 386.4,573.4 		"/>
		<line class="st12" x1="385.3" y1="573.9" x2="395.4" y2="583.8"/>
		<polyline class="st12" points="395.9,575 394.3,575 394.3,573.4 		"/>
		<polyline class="st12" points="386.4,584.5 386.4,582.7 384.8,582.7 		"/>
		<line class="st12" x1="385.3" y1="583.8" x2="395.4" y2="573.9"/>
		<polyline class="st12" points="397,580.1 395.9,579 397,577.8 		"/>
		<polyline class="st12" points="383.7,580.1 384.8,579 383.7,577.8 		"/>
		<polyline class="st12" points="391.5,572.3 390.3,573.4 389.2,572.3 		"/>
		<polyline class="st12" points="391.5,585.4 390.3,584.3 389.2,585.4 		"/>
		<line class="st12" x1="383.2" y1="579" x2="397.5" y2="579"/>
		<line class="st12" x1="390.3" y1="585.9" x2="390.3" y2="571.8"/>
	</g>
	<g>
		<g>
			<g class="st16">
				<path class="st17" d="M304.6,774.2h-16.3v-26.5h16.3c3,0,5.5,2.5,5.5,5.5v15.5C310.1,771.8,307.6,774.2,304.6,774.2z"/>
				<path class="st18" d="M304.6,774.2h-16.3v-26.5h16.3c3,0,5.5,2.5,5.5,5.5v15.5C310.1,771.8,307.6,774.2,304.6,774.2z"/>
			</g>
			<g>
				<path class="st1" d="M300.8,770.5h-16.3V744h16.3c3,0,5.5,2.5,5.5,5.5V765C306.3,768,303.9,770.5,300.8,770.5z"/>
				<path class="st12" d="M300.8,770.5h-16.3V744h16.3c3,0,5.5,2.5,5.5,5.5V765C306.3,768,303.9,770.5,300.8,770.5z"/>
			</g>
		</g>
		<path class="st9" d="M301.6,768h-9.1c-1.4,0-2.6-1.1-2.6-2.6v-16.6c0-1.4,1.1-2.6,2.6-2.6h9.1c1.4,0,2.6,1.1,2.6,2.6v16.6
			C304.1,766.9,303,768,301.6,768z"/>
		<circle class="st9" cx="292.7" cy="757.2" r="1.2"/>
	</g>
	<g>
		<g>
			<g class="st16">
				<path class="st17" d="M303.2,721.8c-1.5,0-9.9,0.1-11.3,0.2c-1.2,0.1-2.3,0.3-3.4,0.5v16.1c0.9,0.2,1.9,0.3,2.9,0.4
					c1.6,0.2,11.3,0.2,13,0.2c3.7,0,11.4-3,11.4-8.7C315.8,724.7,307.5,721.8,303.2,721.8z"/>
				<path class="st18" d="M303.2,721.8c-1.5,0-9.9,0.1-11.3,0.2c-1.2,0.1-2.3,0.3-3.4,0.5v16.1c0.9,0.2,1.9,0.3,2.9,0.4
					c1.6,0.2,11.3,0.2,13,0.2c3.7,0,11.4-3,11.4-8.7C315.8,724.7,307.5,721.8,303.2,721.8z"/>
			</g>
			<g>
				<path class="st1" d="M299.4,718.1c-1.5,0-9.9,0.1-11.3,0.2c-1.2,0.1-2.3,0.3-3.4,0.5v16.1c0.9,0.2,1.9,0.3,2.9,0.4
					c1.6,0.2,11.3,0.2,13,0.2c3.7,0,11.4-3,11.4-8.7C312,721,303.8,718.1,299.4,718.1z"/>
				<path class="st12" d="M299.4,718.1c-1.5,0-9.9,0.1-11.3,0.2c-1.2,0.1-2.3,0.3-3.4,0.5v16.1c0.9,0.2,1.9,0.3,2.9,0.4
					c1.6,0.2,11.3,0.2,13,0.2c3.7,0,11.4-3,11.4-8.7C312,721,303.8,718.1,299.4,718.1z"/>
			</g>
		</g>
		<g>
			<circle class="st9" cx="288.6" cy="723" r="0.6"/>
			<circle class="st9" cx="288.6" cy="730.7" r="0.6"/>
		</g>
		<path class="st9" d="M309.8,726.9c0,3.7-5.7,6.7-9.4,6.7c-3.7,0-6.7-3-6.7-6.7s3-6.7,6.7-6.7C304.1,720.1,309.8,723.1,309.8,726.9
			z"/>
		<path class="st9" d="M298.9,724.6h-2.5c-0.7,0-0.8,1-0.8,2.3c0,1.3,0.2,2.3,0.8,2.3h2.5c1.3,0,2.3-1,2.3-2.3
			C301.1,725.6,300.1,724.6,298.9,724.6z"/>
		<path class="st12" d="M288.5,718.3c-1.3,2.1-2.1,5.4-2.1,9c0,3.1,0.6,5.9,1.6,8"/>
	</g>
	<g>
		<g>
			<g class="st10">
				<path class="st11" d="M393.3,342.2v74c0,3.8,3.1,6.9,6.9,6.9H428c0.9,0,1.6-0.7,1.6-1.6v-0.3c0-0.9-0.7-1.6-1.6-1.6h-1
					c1,0,1.8-0.8,1.8-1.8v-23.5c0-1-0.8-1.8-1.8-1.8c1,0,1.8-0.8,1.8-1.8v-23.5c0-1-0.8-1.8-1.8-1.8c1,0,1.8-0.8,1.8-1.8v-23.5
					c0-0.9-0.7-1.7-1.7-1.7h0.9c0.9,0,1.6-0.7,1.6-1.6v-0.3c0-0.9-0.7-1.6-1.6-1.6h-27.8C396.4,335.3,393.3,338.3,393.3,342.2z"/>
				<path class="st12" d="M393.3,342.2v74c0,3.8,3.1,6.9,6.9,6.9H428c0.9,0,1.6-0.7,1.6-1.6v-0.3c0-0.9-0.7-1.6-1.6-1.6h-1
					c1,0,1.8-0.8,1.8-1.8v-23.5c0-1-0.8-1.8-1.8-1.8c1,0,1.8-0.8,1.8-1.8v-23.5c0-1-0.8-1.8-1.8-1.8c1,0,1.8-0.8,1.8-1.8v-23.5
					c0-0.9-0.7-1.7-1.7-1.7h0.9c0.9,0,1.6-0.7,1.6-1.6v-0.3c0-0.9-0.7-1.6-1.6-1.6h-27.8C396.4,335.3,393.3,338.3,393.3,342.2z"/>
			</g>
			<g>
				<path class="st5" d="M389.6,338.4v74c0,3.8,3.1,6.9,6.9,6.9h27.8c0.9,0,1.6-0.7,1.6-1.6v-0.3c0-0.9-0.7-1.6-1.6-1.6h-1
					c1,0,1.8-0.8,1.8-1.8v-23.5c0-1-0.8-1.8-1.8-1.8c1,0,1.8-0.8,1.8-1.8v-23.5c0-1-0.8-1.8-1.8-1.8c1,0,1.8-0.8,1.8-1.8v-23.5
					c0-0.9-0.7-1.7-1.7-1.7h0.9c0.9,0,1.6-0.7,1.6-1.6v-0.3c0-0.9-0.7-1.6-1.6-1.6h-27.8C392.7,331.5,389.6,334.6,389.6,338.4z"/>
				<path class="st13" d="M389.6,338.4v74c0,3.8,3.1,6.9,6.9,6.9h27.8c0.9,0,1.6-0.7,1.6-1.6v-0.3c0-0.9-0.7-1.6-1.6-1.6h-1
					c1,0,1.8-0.8,1.8-1.8v-23.5c0-1-0.8-1.8-1.8-1.8c1,0,1.8-0.8,1.8-1.8v-23.5c0-1-0.8-1.8-1.8-1.8c1,0,1.8-0.8,1.8-1.8v-23.5
					c0-0.9-0.7-1.7-1.7-1.7h0.9c0.9,0,1.6-0.7,1.6-1.6v-0.3c0-0.9-0.7-1.6-1.6-1.6h-27.8C392.7,331.5,389.6,334.6,389.6,338.4z"/>
			</g>
		</g>
		<g>
			<path class="st19" d="M389.6,338.4v74c0,3.8,3.1,6.9,6.9,6.9h27.8c0.9,0,1.6-0.7,1.6-1.6v-0.3c0-0.9-0.7-1.6-1.6-1.6h-23.9v-81.1
				h23.9c0.9,0,1.6-0.7,1.6-1.6v-0.3c0-0.9-0.7-1.6-1.6-1.6h-27.8C392.7,331.5,389.6,334.6,389.6,338.4z"/>
			<g>
				<path class="st8" d="M425.1,414.8v-24.7c0-0.7-0.5-1.2-1.2-1.2h-25.4c-0.7,0-1.2,0.5-1.2,1.2v24.7c0,0.7,0.5,1.2,1.2,1.2h25.4
					C424.5,416,425.1,415.4,425.1,414.8z"/>
				<g>
					<path class="st8" d="M403.2,413.7c-0.7-7.5-0.7-15,0-22.4c0.2-1.7-1-3.2-2.7-3.4c-1.2-0.2-2.4-0.3-3.7-0.5
						c-1.7-0.2-3.2,1.1-3.4,2.9c-0.8,8.1-0.8,16.2,0,24.3c0.2,1.8,1.7,3.1,3.4,2.9c1.2-0.2,2.4-0.3,3.7-0.5
						C402.2,416.8,403.4,415.3,403.2,413.7z"/>
					<path class="st20" d="M400.7,414.3c-0.8-0.2-0.8-23.5,0-23.7"/>
				</g>
			</g>
			<g>
				<path class="st8" d="M425.1,360.7V336c0-0.7-0.5-1.2-1.2-1.2h-25.4c-0.7,0-1.2,0.5-1.2,1.2v24.7c0,0.7,0.5,1.2,1.2,1.2h25.4
					C424.5,361.9,425.1,361.4,425.1,360.7z"/>
				<g>
					<path class="st8" d="M403.2,359.6c-0.7-7.5-0.7-15,0-22.4c0.2-1.7-1-3.2-2.7-3.4c-1.2-0.2-2.4-0.3-3.7-0.5
						c-1.7-0.2-3.2,1.1-3.4,2.9c-0.8,8.1-0.8,16.2,0,24.3c0.2,1.8,1.7,3.1,3.4,2.9c1.2-0.2,2.4-0.3,3.7-0.5
						C402.2,362.8,403.4,361.2,403.2,359.6z"/>
					<path class="st20" d="M400.7,360.2c-0.8-0.2-0.8-23.5,0-23.7"/>
				</g>
			</g>
			<g>
				<path class="st8" d="M425.1,387.7v-24.7c0-0.7-0.5-1.2-1.2-1.2h-25.4c-0.7,0-1.2,0.5-1.2,1.2v24.7c0,0.7,0.5,1.2,1.2,1.2h25.4
					C424.5,388.9,425.1,388.4,425.1,387.7z"/>
				<g>
					<path class="st8" d="M403.2,386.6c-0.7-7.5-0.7-15,0-22.4c0.2-1.7-1-3.2-2.7-3.4c-1.2-0.2-2.4-0.3-3.7-0.5
						c-1.7-0.2-3.2,1.1-3.4,2.9c-0.8,8.1-0.8,16.2,0,24.3c0.2,1.8,1.7,3.1,3.4,2.9c1.2-0.2,2.4-0.3,3.7-0.5
						C402.2,389.8,403.4,388.3,403.2,386.6z"/>
					<path class="st20" d="M400.7,387.3c-0.8-0.2-0.8-23.5,0-23.7"/>
				</g>
			</g>
			<path class="st8" d="M396.8,414.9c0.7-1,4.9-5,5.3-5.2c0-2.1,1.1-5.7,1.8-6.2c0.6,0.3,0.4,0.5,1.2,1c1,0.3,6.4,1.6,9.2,3.9
				c-1.3,1.5-2.2,9.1-4.4,11.2c-0.5,1.2-0.8,2.2-1.8,3.1c-0.7-0.3-3.1-3.2-3.4-4.4C403.3,417.5,397.8,416.4,396.8,414.9z"/>
			<path class="st8" d="M395.8,339.9c0.8-1.1,9.6-7.4,10.2-7.8c2,0.5,5,4.6,5.7,5.8c1.4,0.4,2.9,1.3,3.6,2.1c-0.5,0.6-1.7,1.6-2.5,2
				c-0.4,0.6-3.9,4.9-6.6,5.7c-0.7,0.6-1.4,1.4-1.8,1.3c-0.7-0.9-1.2-2.1-1.2-2.8C402.5,345.6,395.9,341,395.8,339.9z"/>
		</g>
	</g>
	<g>
		<g>
			<g class="st10">
				<path class="st11" d="M497.9,323c0,0.9,0.7,1.5,1.5,1.5h0.2c0.9,0,1.5-0.7,1.5-1.5v-27.5c0-3.8-3.1-6.8-6.8-6.8h-19.8
					c-3.8,0-6.8,3.1-6.8,6.8V323c0,0.9,0.7,1.5,1.5,1.5h0.2c0.9,0,1.5-0.7,1.5-1.5l0-1c0,1,0.8,1.7,1.7,1.7h23.3
					c1,0,1.7-0.8,1.7-1.7L497.9,323z"/>
				<path class="st21" d="M497.9,323c0,0.9,0.7,1.5,1.5,1.5h0.2c0.9,0,1.5-0.7,1.5-1.5v-27.5c0-3.8-3.1-6.8-6.8-6.8h-19.8
					c-3.8,0-6.8,3.1-6.8,6.8V323c0,0.9,0.7,1.5,1.5,1.5h0.2c0.9,0,1.5-0.7,1.5-1.5l0-1c0,1,0.8,1.7,1.7,1.7h23.3
					c1,0,1.7-0.8,1.7-1.7L497.9,323z"/>
			</g>
			<g>
				<path class="st5" d="M494.1,319.3c0,0.9,0.7,1.5,1.5,1.5h0.2c0.9,0,1.5-0.7,1.5-1.5v-27.5c0-3.8-3.1-6.8-6.8-6.8h-19.8
					c-3.8,0-6.8,3.1-6.8,6.8v27.5c0,0.9,0.7,1.5,1.5,1.5h0.2c0.9,0,1.5-0.7,1.5-1.5l0-1c0,1,0.8,1.7,1.7,1.7h23.3
					c1,0,1.7-0.8,1.7-1.7L494.1,319.3z"/>
				<path class="st22" d="M494.1,319.3c0,0.9,0.7,1.5,1.5,1.5h0.2c0.9,0,1.5-0.7,1.5-1.5v-27.5c0-3.8-3.1-6.8-6.8-6.8h-19.8
					c-3.8,0-6.8,3.1-6.8,6.8v27.5c0,0.9,0.7,1.5,1.5,1.5h0.2c0.9,0,1.5-0.7,1.5-1.5l0-1c0,1,0.8,1.7,1.7,1.7h23.3
					c1,0,1.7-0.8,1.7-1.7L494.1,319.3z"/>
			</g>
		</g>
		<g>
			<path class="st19" d="M490.6,285h-19.8c-3.8,0-6.8,3.1-6.8,6.8v27.5c0,0.9,0.7,1.5,1.5,1.5h0.2c0.9,0,1.5-0.7,1.5-1.5v-23.6h26.8
				v23.6c0,0.9,0.7,1.5,1.5,1.5h0.2c0.9,0,1.5-0.7,1.5-1.5v-27.5C497.5,288,494.4,285,490.6,285z"/>
			<path class="st8" d="M468.6,320.1H493c0.7,0,1.2-0.5,1.2-1.2v-25.1c0-0.7-0.5-1.2-1.2-1.2h-24.4c-0.7,0-1.2,0.5-1.2,1.2v25.1
				C467.4,319.5,467.9,320.1,468.6,320.1z"/>
			<g>
				<path class="st8" d="M469.7,298.5c7.4-0.7,14.8-0.7,22.2,0c1.6,0.2,3.1-1,3.4-2.6c0.2-1.2,0.3-2.4,0.5-3.6
					c0.2-1.6-1.1-3.2-2.9-3.3c-8-0.8-16-0.8-24,0c-1.8,0.2-3.1,1.7-2.9,3.3c0.2,1.2,0.3,2.4,0.5,3.6
					C466.5,297.5,468,298.6,469.7,298.5z"/>
				<path class="st20" d="M469.1,296c0.2-0.8,23.2-0.8,23.4,0"/>
			</g>
		</g>
	</g>
	<g>
		<g>
			<g class="st10">
				<path class="st11" d="M471.1,437.7c0-0.9-0.7-1.5-1.5-1.5h-0.2c-0.9,0-1.5,0.7-1.5,1.5v27.5c0,3.8,3.1,6.8,6.8,6.8h19.8
					c3.8,0,6.8-3.1,6.8-6.8v-27.5c0-0.9-0.7-1.5-1.5-1.5h-0.2c-0.9,0-1.5,0.7-1.5,1.5l0,1c0-1-0.8-1.7-1.7-1.7h-23.3
					c-1,0-1.7,0.8-1.7,1.7L471.1,437.7z"/>
				<path class="st21" d="M471.1,437.7c0-0.9-0.7-1.5-1.5-1.5h-0.2c-0.9,0-1.5,0.7-1.5,1.5v27.5c0,3.8,3.1,6.8,6.8,6.8h19.8
					c3.8,0,6.8-3.1,6.8-6.8v-27.5c0-0.9-0.7-1.5-1.5-1.5h-0.2c-0.9,0-1.5,0.7-1.5,1.5l0,1c0-1-0.8-1.7-1.7-1.7h-23.3
					c-1,0-1.7,0.8-1.7,1.7L471.1,437.7z"/>
			</g>
			<g>
				<path class="st5" d="M467.4,433.9c0-0.9-0.7-1.5-1.5-1.5h-0.2c-0.9,0-1.5,0.7-1.5,1.5v27.5c0,3.8,3.1,6.8,6.8,6.8h19.8
					c3.8,0,6.8-3.1,6.8-6.8v-27.5c0-0.9-0.7-1.5-1.5-1.5h-0.2c-0.9,0-1.5,0.7-1.5,1.5l0,1c0-1-0.8-1.7-1.7-1.7h-23.3
					c-1,0-1.7,0.8-1.7,1.7L467.4,433.9z"/>
				<path class="st22" d="M467.4,433.9c0-0.9-0.7-1.5-1.5-1.5h-0.2c-0.9,0-1.5,0.7-1.5,1.5v27.5c0,3.8,3.1,6.8,6.8,6.8h19.8
					c3.8,0,6.8-3.1,6.8-6.8v-27.5c0-0.9-0.7-1.5-1.5-1.5h-0.2c-0.9,0-1.5,0.7-1.5,1.5l0,1c0-1-0.8-1.7-1.7-1.7h-23.3
					c-1,0-1.7,0.8-1.7,1.7L467.4,433.9z"/>
			</g>
		</g>
		<g>
			<path class="st19" d="M470.9,468.3h19.8c3.8,0,6.8-3.1,6.8-6.8v-27.5c0-0.9-0.7-1.5-1.5-1.5h-0.2c-0.9,0-1.5,0.7-1.5,1.5v23.6
				h-26.8v-23.6c0-0.9-0.7-1.5-1.5-1.5h-0.2c-0.9,0-1.5,0.7-1.5,1.5v27.5C464,465.2,467.1,468.3,470.9,468.3z"/>
			<path class="st8" d="M492.9,433.2h-24.4c-0.7,0-1.2,0.5-1.2,1.2v25.1c0,0.7,0.5,1.2,1.2,1.2h24.4c0.7,0,1.2-0.5,1.2-1.2v-25.1
				C494.1,433.7,493.6,433.2,492.9,433.2z"/>
			<g>
				<path class="st8" d="M491.8,454.8c-7.4,0.7-14.8,0.7-22.2,0c-1.6-0.2-3.1,1-3.4,2.6c-0.2,1.2-0.3,2.4-0.5,3.6
					c-0.2,1.6,1.1,3.2,2.9,3.3c8,0.8,16,0.8,24,0c1.8-0.2,3.1-1.7,2.9-3.3c-0.2-1.2-0.3-2.4-0.5-3.6
					C495,455.8,493.5,454.6,491.8,454.8z"/>
				<path class="st20" d="M492.5,457.3c-0.2,0.8-23.2,0.8-23.4,0"/>
			</g>
		</g>
	</g>
	<g>
		<g>
			<g>
				<path class="st8" d="M452,503.9v2.2h19.4v-2.2c0-0.9-0.7-1.6-1.6-1.6h-16.2C452.7,502.3,452,503,452,503.9z"/>
				
					<rect x="458.6" y="499.4" transform="matrix(-1.836970e-16 1 -1 -1.836970e-16 970.7871 47.4498)" class="st8" width="6.1" height="19.4"/>
				<line class="st8" x1="454.6" y1="506.1" x2="454.6" y2="512.2"/>
				<line class="st8" x1="468.7" y1="512.2" x2="468.7" y2="506.1"/>
			</g>
			<g>
				<path class="st8" d="M474.9,503.9v2.2h19.4v-2.2c0-0.9-0.7-1.6-1.6-1.6h-16.2C475.6,502.3,474.9,503,474.9,503.9z"/>
				
					<rect x="481.6" y="499.4" transform="matrix(-1.836970e-16 1 -1 -1.836970e-16 993.712 24.5249)" class="st8" width="6.1" height="19.4"/>
				<line class="st8" x1="477.6" y1="506.1" x2="477.6" y2="512.2"/>
				<line class="st8" x1="491.6" y1="512.2" x2="491.6" y2="506.1"/>
			</g>
			<g>
				<path class="st8" d="M497.8,503.9v2.2h19.4v-2.2c0-0.9-0.7-1.6-1.6-1.6h-16.2C498.5,502.3,497.8,503,497.8,503.9z"/>
				
					<rect x="504.5" y="499.4" transform="matrix(-1.836970e-16 1 -1 -1.836970e-16 1016.6369 1.6)" class="st8" width="6.1" height="19.4"/>
				<line class="st8" x1="500.5" y1="506.1" x2="500.5" y2="512.2"/>
				<line class="st8" x1="514.6" y1="512.2" x2="514.6" y2="506.1"/>
			</g>
		</g>
		<g>
			<path class="st8" d="M517.2,558.3v-2.2h-19.4v2.2c0,0.9,0.7,1.6,1.6,1.6h16.2C516.5,559.9,517.2,559.2,517.2,558.3z"/>
			
				<rect x="504.5" y="543.4" transform="matrix(6.123234e-17 -1 1 6.123234e-17 -45.6025 1060.6394)" class="st8" width="6.1" height="19.4"/>
			<line class="st8" x1="514.6" y1="556.2" x2="514.6" y2="550.1"/>
			<line class="st8" x1="500.5" y1="550.1" x2="500.5" y2="556.2"/>
		</g>
		<g>
			<path class="st8" d="M494.3,558.3v-2.2h-19.4v2.2c0,0.9,0.7,1.6,1.6,1.6h16.2C493.6,559.9,494.3,559.2,494.3,558.3z"/>
			
				<rect x="481.6" y="543.4" transform="matrix(6.123234e-17 -1 1 6.123234e-17 -68.5274 1037.7145)" class="st8" width="6.1" height="19.4"/>
			<line class="st8" x1="491.6" y1="556.2" x2="491.6" y2="550.1"/>
			<line class="st8" x1="477.6" y1="550.1" x2="477.6" y2="556.2"/>
		</g>
		<g>
			<path class="st8" d="M465.6,563.9l0.8-2l-17.9-7.5l-0.8,2c-0.3,0.8,0,1.7,0.8,2.1l15,6.3C464.3,565,465.3,564.7,465.6,563.9z"/>
			
				<rect x="452.3" y="540.6" transform="matrix(0.3873 -0.922 0.922 0.3873 -224.9575 762.0074)" class="st8" width="17" height="19.4"/>
			<line class="st8" x1="464" y1="560.8" x2="470.6" y2="545.1"/>
			<line class="st8" x1="457.6" y1="539.7" x2="451" y2="555.4"/>
		</g>
		<g>
			<g class="st10">
				<path class="st11" d="M528.5,517.5v34.8c0,0.9-0.7,1.6-1.6,1.6h-77.2c-0.9,0-1.6-0.7-1.6-1.6v-34.8c0-0.9,0.7-1.6,1.6-1.6H527
					C527.8,515.9,528.5,516.6,528.5,517.5z"/>
				<path class="st12" d="M528.5,517.5v34.8c0,0.9-0.7,1.6-1.6,1.6h-77.2c-0.9,0-1.6-0.7-1.6-1.6v-34.8c0-0.9,0.7-1.6,1.6-1.6H527
					C527.8,515.9,528.5,516.6,528.5,517.5z"/>
			</g>
			<g>
				<path class="st5" d="M524.8,513.7v34.8c0,0.9-0.7,1.6-1.6,1.6H446c-0.9,0-1.6-0.7-1.6-1.6v-34.8c0-0.9,0.7-1.6,1.6-1.6h77.2
					C524.1,512.2,524.8,512.9,524.8,513.7z"/>
				<path class="st13" d="M524.8,513.7v34.8c0,0.9-0.7,1.6-1.6,1.6H446c-0.9,0-1.6-0.7-1.6-1.6v-34.8c0-0.9,0.7-1.6,1.6-1.6h77.2
					C524.1,512.2,524.8,512.9,524.8,513.7z"/>
			</g>
		</g>
		<path class="st8" d="M513.5,528.9l-2.9,3.9c-0.3,0.4-1,0.5-1.4,0.2l-6.7-4.9c-0.4-0.3-0.5-1-0.2-1.4l2.9-3.9
			c0.3-0.4,1-0.5,1.4-0.2l6.7,4.9C513.7,527.8,513.8,528.4,513.5,528.9z"/>
	</g>
	<g>
		<g>
			<g>
				<g class="st10">
					<path class="st11" d="M455.2,404.4c-3.2-17.8-3.2-35.5,0-53.3c0.1-0.7,0.8-1.2,1.5-1.2h21c0.7,0,1.4,0.5,1.5,1.2
						c3.2,17.8,3.2,35.5,0,53.3c-0.1,0.7-0.8,1.2-1.5,1.2h-21C455.9,405.6,455.3,405.1,455.2,404.4z"/>
					<path class="st12" d="M455.2,404.4c-3.2-17.8-3.2-35.5,0-53.3c0.1-0.7,0.8-1.2,1.5-1.2h21c0.7,0,1.4,0.5,1.5,1.2
						c3.2,17.8,3.2,35.5,0,53.3c-0.1,0.7-0.8,1.2-1.5,1.2h-21C455.9,405.6,455.3,405.1,455.2,404.4z"/>
				</g>
				<g>
					<path class="st5" d="M451.4,400.6c-3.2-17.8-3.2-35.5,0-53.3c0.1-0.7,0.8-1.2,1.5-1.2h21c0.7,0,1.4,0.5,1.5,1.2
						c3.2,17.8,3.2,35.5,0,53.3c-0.1,0.7-0.8,1.2-1.5,1.2h-21C452.2,401.9,451.6,401.3,451.4,400.6z"/>
					<path class="st13" d="M451.4,400.6c-3.2-17.8-3.2-35.5,0-53.3c0.1-0.7,0.8-1.2,1.5-1.2h21c0.7,0,1.4,0.5,1.5,1.2
						c3.2,17.8,3.2,35.5,0,53.3c-0.1,0.7-0.8,1.2-1.5,1.2h-21C452.2,401.9,451.6,401.3,451.4,400.6z"/>
				</g>
			</g>
			<path class="st8" d="M463.5,377.3l-3.6-2.8c-0.4-0.3-0.5-1-0.2-1.4l4.7-6.2c0.3-0.4,1-0.5,1.4-0.2l3.6,2.8c0.4,0.3,0.5,1,0.2,1.4
				l-4.7,6.2C464.6,377.5,464,377.6,463.5,377.3z"/>
			<path class="st8" d="M460,380.4l-2.1-4.1c-0.3-0.5-0.1-1.1,0.4-1.3l6.9-3.6c0.5-0.3,1.1-0.1,1.3,0.4l2.1,4.1
				c0.3,0.5,0.1,1.1-0.4,1.3l-6.9,3.6C460.8,381.1,460.2,380.9,460,380.4z"/>
			<circle class="st8" cx="458.3" cy="390.7" r="6.4"/>
			<path class="st20" d="M462.2,389c5.2,3.4-0.5,9.4-5.3,6.5C458.5,396.6,464.3,391.2,462.2,389z"/>
			<circle class="st8" cx="462.7" cy="384.1" r="0.9"/>
			<circle class="st8" cx="460.8" cy="383.9" r="0.9"/>
			<circle class="st8" cx="460.6" cy="385.5" r="0.9"/>
			<circle class="st8" cx="462.2" cy="385.5" r="0.9"/>
			<circle class="st8" cx="464.2" cy="385.2" r="0.9"/>
			<circle class="st8" cx="464.7" cy="386.6" r="0.9"/>
			<circle class="st8" cx="464.4" cy="388.3" r="0.9"/>
			<circle class="st8" cx="463.2" cy="386.6" r="0.9"/>
			<circle class="st8" cx="461.5" cy="386.9" r="0.9"/>
			<circle class="st8" cx="462.9" cy="388.1" r="0.9"/>
			<circle class="st8" cx="456.6" cy="387.7" r="2.3"/>
			<circle class="st8" cx="460.3" cy="388.7" r="1.7"/>
			
				<ellipse transform="matrix(0.9642 -0.2653 0.2653 0.9642 -87.2325 135.3991)" class="st8" cx="457.6" cy="390.6" rx="2.1" ry="1.4"/>
			<path class="st20" d="M462.2,388.7c3.1,5.4-4.7,8.2-7.6,3.4C455.4,393.8,463,391.6,462.2,388.7z"/>
		</g>
		<g>
			<g>
				<path class="st20" d="M461.7,356.7c0,0,4.2-1.8,6.7-0.2C468.3,356.5,466.8,358.5,461.7,356.7z"/>
				<path class="st20" d="M461.7,356.7c0,0,4.3,0.1,6.1,2.6C467.8,359.3,465.5,360.5,461.7,356.7z"/>
				<path class="st20" d="M467,352.2c0,0-4.4,0-5.3,4.5C461.7,356.7,466.8,355.5,467,352.2z"/>
				<path class="st20" d="M454.9,351.7c0,0,5.4,1,6.8,5C461.7,356.7,457.3,357.2,454.9,351.7z"/>
				<path class="st20" d="M462.7,349.4c0,0,0.9,3-1.1,7.3C461.7,356.7,460.1,352.6,462.7,349.4z"/>
				<path class="st20" d="M453.3,356.5c0,0,5.5-2.2,8.5,0.1C461.8,356.6,461.2,358.3,453.3,356.5z"/>
				<path class="st20" d="M466.3,362.2c0,0-1.9-4.6-4.6-5.5C461.7,356.7,462.9,359.8,466.3,362.2z"/>
				<path class="st20" d="M454.6,360.9c0,0,2.8-3.8,7.1-4.2C461.7,356.7,459.5,360.3,454.6,360.9z"/>
				<path class="st20" d="M463.2,364c0,0,0.8-4.6-1.4-7.5C461.8,356.6,460.2,359.5,463.2,364z"/>
				<path class="st20" d="M458.9,349.4c0,0,3,2.2,2.9,7.2C461.8,356.6,458.4,353.6,458.9,349.4z"/>
				<path class="st20" d="M456.8,363c0,0,1.7-5.6,5.1-6.6C461.9,356.4,461.5,360.5,456.8,363z"/>
				<path class="st20" d="M459.8,364.3c0,0-0.8-4.7,2-7.7C461.8,356.6,463.2,359.9,459.8,364.3z"/>
				<path class="st20" d="M461.9,356.3c0,0-0.2-2.7,3.1-6C464.9,350.3,464.7,353.2,461.9,356.3z"/>
				<path class="st20" d="M457.2,350.5c0,0,3.6,2.5,4.4,5.8C461.7,356.3,458.7,355.9,457.2,350.5z"/>
			</g>
			<g>
				<path class="st20" d="M461.3,356.7c0,0,2.6,0.1,3.6,1.5C465,358.3,463.6,359,461.3,356.7z"/>
				<path class="st20" d="M464.5,354.1c0,0-2.6,0-3.2,2.7C461.3,356.7,464.4,356,464.5,354.1z"/>
				<path class="st20" d="M457.3,353.8c0,0,3.2,0.6,4,3C461.3,356.7,458.7,357.1,457.3,353.8z"/>
				<path class="st20" d="M462,352.4c0,0,0.6,1.8-0.6,4.3C461.3,356.7,460.4,354.3,462,352.4z"/>
				<path class="st20" d="M457.1,359.2c0,0,1.6-2.3,4.2-2.5C461.3,356.7,460,358.9,457.1,359.2z"/>
				<path class="st20" d="M462.2,361.1c0,0,0.4-2.7-0.9-4.4C461.4,356.7,460.4,358.4,462.2,361.1z"/>
				<path class="st20" d="M459.7,352.4c0,0,1.8,1.3,1.7,4.3C461.4,356.7,459.4,354.9,459.7,352.4z"/>
				<path class="st20" d="M460.2,361.2c0,0-0.4-2.8,1.2-4.6C461.4,356.7,462.2,358.6,460.2,361.2z"/>
			</g>
		</g>
	</g>
	<g>
		<g>
			<g class="st10">
				<path class="st11" d="M562.6,431.3l3.2-63.7c0-0.7,0.6-1.3,1.4-1.2l16.1,0.8c0.7,0,1.3,0.6,1.2,1.4l-3.2,63.7
					c0,0.7-0.6,1.3-1.4,1.2l-16.1-0.8C563.2,432.7,562.6,432,562.6,431.3z"/>
				<path class="st12" d="M562.6,431.3l3.2-63.7c0-0.7,0.6-1.3,1.4-1.2l16.1,0.8c0.7,0,1.3,0.6,1.2,1.4l-3.2,63.7
					c0,0.7-0.6,1.3-1.4,1.2l-16.1-0.8C563.2,432.7,562.6,432,562.6,431.3z"/>
			</g>
			<g>
				<path class="st5" d="M558.9,427.6l3.2-63.7c0-0.7,0.6-1.3,1.4-1.2l16.1,0.8c0.7,0,1.3,0.6,1.2,1.4l-3.2,63.7
					c0,0.7-0.6,1.3-1.4,1.2l-16.1-0.8C559.4,428.9,558.9,428.3,558.9,427.6z"/>
				<path class="st13" d="M558.9,427.6l3.2-63.7c0-0.7,0.6-1.3,1.4-1.2l16.1,0.8c0.7,0,1.3,0.6,1.2,1.4l-3.2,63.7
					c0,0.7-0.6,1.3-1.4,1.2l-16.1-0.8C559.4,428.9,558.9,428.3,558.9,427.6z"/>
			</g>
		</g>
		<path class="st8" d="M569.8,387.5l6.8,0.3c0.6,0,1,0.5,0.9,1l-0.8,15.3c0,0.6-0.5,1-1,0.9l-6.8-0.3c-0.6,0-1-0.5-0.9-1l0.8-15.3
			C568.8,387.9,569.2,387.5,569.8,387.5z"/>
		<path class="st23" d="M576.8,389.2l-0.7,14.6c0,0.3-0.3,0.6-0.6,0.6l-6.2-0.3c-0.3,0-0.6-0.3-0.6-0.6l0.7-14.6
			c0-0.3,0.3-0.6,0.6-0.6l6.2,0.3C576.5,388.6,576.8,388.9,576.8,389.2z"/>
		
			<rect x="570.9" y="369.7" transform="matrix(-0.9988 -4.968010e-02 4.968010e-02 -0.9988 1123.1815 820.5206)" class="st8" width="1.9" height="53.3"/>
	</g>
	<g>
		<g>
			<g class="st10">
				<path class="st11" d="M372.6,292.8h-28.7c-0.7,0-1.3-0.6-1.3-1.3v-62.2c0-0.7,0.6-1.3,1.3-1.3h28.7c0.7,0,1.3,0.6,1.3,1.3v62.2
					C373.9,292.2,373.3,292.8,372.6,292.8z"/>
				<path class="st12" d="M372.6,292.8h-28.7c-0.7,0-1.3-0.6-1.3-1.3v-62.2c0-0.7,0.6-1.3,1.3-1.3h28.7c0.7,0,1.3,0.6,1.3,1.3v62.2
					C373.9,292.2,373.3,292.8,372.6,292.8z"/>
			</g>
			<g>
				<path class="st5" d="M368.8,289h-28.7c-0.7,0-1.3-0.6-1.3-1.3v-62.2c0-0.7,0.6-1.3,1.3-1.3h28.7c0.7,0,1.3,0.6,1.3,1.3v62.2
					C370.1,288.5,369.6,289,368.8,289z"/>
				<path class="st13" d="M368.8,289h-28.7c-0.7,0-1.3-0.6-1.3-1.3v-62.2c0-0.7,0.6-1.3,1.3-1.3h28.7c0.7,0,1.3,0.6,1.3,1.3v62.2
					C370.1,288.5,369.6,289,368.8,289z"/>
			</g>
		</g>
	</g>
	<line class="st12" x1="403.9" y1="593.9" x2="376.2" y2="593.9"/>
	<g>
		<g>
			<rect x="284.9" y="563.7" class="st1" width="28.1" height="71.5"/>
			<path class="st11" d="M312.8,563.9v71.2h-27.7v-71.2H312.8 M313.2,563.5h-28.4v71.9h28.4V563.5L313.2,563.5z"/>
		</g>
		<line class="st24" x1="289.7" y1="573.3" x2="308.2" y2="574.7"/>
		<line class="st24" x1="289.7" y1="578.5" x2="308.2" y2="576.8"/>
		<line class="st24" x1="289.7" y1="580.5" x2="308.2" y2="581.9"/>
		<line class="st24" x1="289.7" y1="585.7" x2="308.2" y2="584"/>
		<line class="st24" x1="289.7" y1="613.2" x2="308.2" y2="614.6"/>
		<line class="st24" x1="289.7" y1="618.5" x2="308.2" y2="616.8"/>
		<line class="st24" x1="289.7" y1="620.4" x2="308.2" y2="621.8"/>
		<line class="st24" x1="289.7" y1="625.7" x2="308.2" y2="624"/>
		<line class="st25" x1="311.1" y1="563.5" x2="311.1" y2="635.1"/>
		<line class="st25" x1="311.1" y1="599.3" x2="313" y2="599.3"/>
		<polyline class="st12" points="313,591.5 314,591.5 314,594.2 313,594.2 		"/>
		<polyline class="st12" points="313,604.4 314,604.4 314,607.1 313,607.1 		"/>
		<line class="st12" x1="298.9" y1="563.5" x2="298.9" y2="635.1"/>
	</g>
	<g>
		<g>
			<rect x="284.9" y="632.2" class="st1" width="28.1" height="71.5"/>
			<path class="st11" d="M312.8,632.4v71.2h-27.7v-71.2H312.8 M313.2,632h-28.4v71.9h28.4V632L313.2,632z"/>
		</g>
		<line class="st24" x1="289.7" y1="641.8" x2="308.2" y2="643.2"/>
		<line class="st24" x1="289.7" y1="647" x2="308.2" y2="645.3"/>
		<line class="st24" x1="289.7" y1="649" x2="308.2" y2="650.4"/>
		<line class="st24" x1="289.7" y1="654.2" x2="308.2" y2="652.5"/>
		<line class="st24" x1="289.7" y1="681.7" x2="308.2" y2="683.1"/>
		<line class="st24" x1="289.7" y1="687" x2="308.2" y2="685.3"/>
		<line class="st24" x1="289.7" y1="688.9" x2="308.2" y2="690.3"/>
		<line class="st24" x1="289.7" y1="694.2" x2="308.2" y2="692.5"/>
		<line class="st25" x1="311.1" y1="632" x2="311.1" y2="703.6"/>
		<line class="st25" x1="311.1" y1="667.8" x2="313" y2="667.8"/>
		<polyline class="st12" points="313,660 314,660 314,662.7 313,662.7 		"/>
		<polyline class="st12" points="313,672.9 314,672.9 314,675.6 313,675.6 		"/>
		<line class="st12" x1="298.9" y1="632" x2="298.9" y2="703.6"/>
	</g>
	<g>
		<g>
			<rect x="276.3" y="394.6" class="st9" width="27.5" height="27.5"/>
		</g>
		<g>
			<circle class="st26" cx="290" cy="408.3" r="6.4"/>
			<path class="st26" d="M289.4,412.5c2.5,0,4.5-2,4.5-4.5"/>
		</g>
	</g>
	<g>
		<path class="st9" d="M334.5,774.6v40.3c0,0.4-0.3,0.7-0.7,0.7h-48.3c-0.4,0-0.7-0.3-0.7-0.7v-40.3c0-0.4,0.3-0.7,0.7-0.7h48.3
			C334.2,773.9,334.5,774.2,334.5,774.6z"/>
		<path class="st9" d="M332.2,778v33.3c0,1.1-0.9,2-2,2h-41c-1.1,0-2-0.9-2-2V778c0-1.1,0.9-2,2-2h41
			C331.3,776,332.2,776.9,332.2,778z"/>
		<path class="st9" d="M330.3,779.9v29.4c0,1.1-0.9,2-2,2H291c-1.1,0-2-0.9-2-2v-29.4c0-1.1,0.9-2,2-2h37.2
			C329.4,777.9,330.3,778.8,330.3,779.9z"/>
		<circle class="st9" cx="294.7" cy="783.9" r="2.1"/>
	</g>
	<g>
		<g>
			<g class="st16">
				<path class="st17" d="M271.5,408.9c0-1.5-0.1-9.9-0.2-11.3c-0.1-1.2-0.3-2.3-0.5-3.4h-16.1c-0.2,0.9-0.3,1.9-0.4,2.9
					c-0.2,1.6-0.2,11.3-0.2,13c0,3.7,3,11.4,8.7,11.4C268.6,421.5,271.5,413.2,271.5,408.9z"/>
				<path class="st18" d="M271.5,408.9c0-1.5-0.1-9.9-0.2-11.3c-0.1-1.2-0.3-2.3-0.5-3.4h-16.1c-0.2,0.9-0.3,1.9-0.4,2.9
					c-0.2,1.6-0.2,11.3-0.2,13c0,3.7,3,11.4,8.7,11.4C268.6,421.5,271.5,413.2,271.5,408.9z"/>
			</g>
			<g>
				<path class="st1" d="M267.8,405.1c0-1.5-0.1-9.9-0.2-11.3c-0.1-1.2-0.3-2.3-0.5-3.4h-16.1c-0.2,0.9-0.3,1.9-0.4,2.9
					c-0.2,1.6-0.2,11.3-0.2,13c0,3.7,3,11.4,8.7,11.4C264.8,417.7,267.8,409.5,267.8,405.1z"/>
				<path class="st12" d="M267.8,405.1c0-1.5-0.1-9.9-0.2-11.3c-0.1-1.2-0.3-2.3-0.5-3.4h-16.1c-0.2,0.9-0.3,1.9-0.4,2.9
					c-0.2,1.6-0.2,11.3-0.2,13c0,3.7,3,11.4,8.7,11.4C264.8,417.7,267.8,409.5,267.8,405.1z"/>
			</g>
		</g>
		<g>
			<circle class="st9" cx="262.9" cy="394.3" r="0.6"/>
			<circle class="st9" cx="255.1" cy="394.3" r="0.6"/>
		</g>
		<path class="st9" d="M259,415.5c-3.7,0-6.7-5.7-6.7-9.4c0-3.7,3-6.7,6.7-6.7c3.7,0,6.7,3,6.7,6.7
			C265.7,409.8,262.7,415.5,259,415.5z"/>
		<path class="st9" d="M261.3,404.6v-2.5c0-0.7-1-0.8-2.3-0.8s-2.3,0.2-2.3,0.8v2.5c0,1.3,1,2.3,2.3,2.3S261.3,405.8,261.3,404.6z"
			/>
		<path class="st12" d="M267.5,394.2c-2.1-1.3-5.4-2.1-9-2.1c-3.1,0-5.9,0.6-8,1.6"/>
	</g>
	<g>
		<g>
			<g class="st16">
				<path class="st17" d="M257.5,479.9h-9v-22.1h9c1.7,0,3,2.1,3,4.6v13C260.6,477.8,259.2,479.9,257.5,479.9z"/>
				<path class="st18" d="M257.5,479.9h-9v-22.1h9c1.7,0,3,2.1,3,4.6v13C260.6,477.8,259.2,479.9,257.5,479.9z"/>
			</g>
			<g>
				<path class="st1" d="M253.8,476.1h-9V454h9c1.7,0,3,2.1,3,4.6v13C256.8,474.1,255.5,476.1,253.8,476.1z"/>
				<path class="st12" d="M253.8,476.1h-9V454h9c1.7,0,3,2.1,3,4.6v13C256.8,474.1,255.5,476.1,253.8,476.1z"/>
			</g>
		</g>
		<path class="st9" d="M253,474.9h-4.8c-1.4,0-2.6-1.1-2.6-2.6V462c0-1.4,1.1-2.6,2.6-2.6h4.8c1.4,0,2.6,1.1,2.6,2.6v10.4
			C255.5,473.8,254.4,474.9,253,474.9z"/>
		<circle class="st9" cx="250.3" cy="462.5" r="0.8"/>
	</g>
</g>
<g id="Ouvertures">
	<g>
		<path class="st27" d="M274.7,543.7c22.7,0,41.1-18.8,41.1-42"/>
		<line class="st12" x1="274.7" y1="501.8" x2="315.8" y2="501.8"/>
	</g>
	<g>
		<path class="st27" d="M377.7,695.3c21.6,0,39-16.7,39-37.4"/>
		<line class="st12" x1="377.7" y1="657.9" x2="416.7" y2="657.9"/>
	</g>
	<g>
		<path class="st27" d="M329.4,379.6c0-20.6,17-37.2,37.9-37.2"/>
		<line class="st12" x1="367.3" y1="379.6" x2="367.3" y2="342.4"/>
	</g>
	<g>
		<path class="st27" d="M312.1,470.5c19.3,0,34.9-15.9,34.9-35.6"/>
		<line class="st12" x1="312.1" y1="434.9" x2="347.1" y2="434.9"/>
	</g>
	<g>
		<polygon class="st11" points="270.3,170 270.5,173.6 268.1,173.7 267.9,170.1 		"/>
		<polygon class="st11" points="365.4,164.7 365.6,168.3 362.8,168.4 362.6,164.9 		"/>
		<g>
			<polygon class="st1" points="270.5,170.2 362.4,165.1 362.6,168.3 270.7,173.4 			"/>
			<path class="st11" d="M362.3,165.3l0.2,2.8l-91.6,5.1l-0.2-2.8L362.3,165.3 M362.6,164.9l-92.3,5.1l0.2,3.6l92.3-5.1L362.6,164.9
				L362.6,164.9z"/>
		</g>
		<polyline class="st27" points="330.5,170.2 330.1,185.7 271.3,173.5 		"/>
		<polygon class="st11" points="331.9,166.6 332.1,170.1 327.8,170.4 327.6,166.8 		"/>
		<g>
			<path class="st27" d="M330.5,170.2c0.9,17,15.9,30,33.5,29"/>
			<line class="st12" x1="362.3" y1="168.5" x2="364" y2="199.2"/>
		</g>
	</g>
	<g>
		<polygon class="st11" points="573.8,805.9 570.4,805.9 570.4,808.2 573.8,808.2 		"/>
		<polygon class="st11" points="573.4,714.9 569.9,714.9 570,717.6 573.4,717.6 		"/>
		<g>
			<polygon class="st1" points="570.1,717.8 573.3,717.7 573.6,805.7 570.5,805.7 			"/>
			<path class="st11" d="M573.1,717.9l0.4,87.6l-2.7,0l-0.4-87.6L573.1,717.9 M573.4,717.6l-3.5,0l0.4,88.3l3.5,0L573.4,717.6
				L573.4,717.6z"/>
		</g>
		<polyline class="st27" points="570.1,748.5 555.1,749.8 570.3,805.1 		"/>
		<polygon class="st11" points="573.6,747 570.1,747 570.1,751.1 573.6,751 		"/>
		<g>
			<path class="st27" d="M570.1,748.5c-16.6,0.1-30.1-13.4-30.1-30.3"/>
			<line class="st12" x1="570" y1="718" x2="540" y2="718.2"/>
		</g>
	</g>
	<g>
		<g>
			<rect x="391.9" y="260.1" class="st1" width="192.1" height="11"/>
			<path class="st11" d="M583.8,260.3v10.6H392.1v-10.6H583.8 M584.2,259.9H391.7v11.4h192.4V259.9L584.2,259.9z"/>
		</g>
		<g>
			<rect x="391.9" y="260.1" class="st1" width="95.8" height="5.3"/>
			<path class="st11" d="M487.6,260.3v4.9h-95.5v-4.9H487.6 M487.9,259.9h-96.2v5.7h96.2V259.9L487.9,259.9z"/>
		</g>
		<g>
			<rect x="489" y="266.3" class="st1" width="95" height="4.9"/>
			<path class="st11" d="M583.8,266.5v4.5h-94.6v-4.5H583.8 M584.2,266.1h-95.4v5.2h95.4V266.1L584.2,266.1z"/>
		</g>
		<g>
			<g>
				<line class="st28" x1="453.3" y1="276.7" x2="429.9" y2="276.7"/>
				<g>
					<polygon class="st11" points="431.2,275.1 431.4,275.4 430.1,276.7 431.4,277.9 431.2,278.2 429.5,276.7 					"/>
				</g>
			</g>
		</g>
		<rect x="485.8" y="266.1" class="st11" width="6.1" height="5.2"/>
		<rect x="485.8" y="259.9" class="st11" width="6.1" height="5.7"/>
		<rect x="579.7" y="266.2" class="st11" width="4.5" height="5.1"/>
		<rect x="391.7" y="259.9" class="st11" width="5.6" height="5.7"/>
		<line class="st29" x1="486.2" y1="262.9" x2="392.2" y2="262.9"/>
		<line class="st29" x1="581.9" y1="268.7" x2="487.8" y2="268.7"/>
	</g>
	<g>
		
			<rect x="572.2" y="611" transform="matrix(6.240128e-02 -0.9981 0.9981 6.240128e-02 -73.994 1146.7665)" class="st11" width="2.4" height="3.5"/>
		
			<rect x="577.1" y="519.3" transform="matrix(6.240135e-02 -0.9981 0.9981 6.240135e-02 22.9514 1066.6299)" class="st11" width="4.2" height="3.5"/>
		<g>
			
				<rect x="532.1" y="565.8" transform="matrix(6.340824e-02 -0.998 0.998 6.340824e-02 -26.5602 1106.5001)" class="st1" width="88.2" height="3.2"/>
			<path class="st11" d="M577.6,523.5l2.8,0.2l-5.6,87.6l-2.8-0.2L577.6,523.5 M577.3,523.1l-5.6,88.4l3.5,0.2l5.6-88.4L577.3,523.1
				L577.3,523.1z"/>
		</g>
		<polyline class="st27" points="575.4,566.3 557.3,567.2 571.7,610.7 		"/>
		
			<rect x="574.2" y="564.4" transform="matrix(6.240128e-02 -0.9981 0.9981 6.240128e-02 -24.7394 1105.9344)" class="st11" width="4.2" height="3.5"/>
		<g>
			<path class="st27" d="M575.4,566.3c-24.5-1.5-43-22.2-41.4-47.1"/>
			<line class="st12" x1="578.2" y1="523.1" x2="533.9" y2="520.3"/>
		</g>
	</g>
	<g>
		<path class="st27" d="M330,705.4c0,20.5,16.9,37.1,37.8,37.1"/>
		<line class="st12" x1="367.8" y1="705.4" x2="367.8" y2="742.6"/>
	</g>
</g>
<g id="Étiquettes" class="st30">
	<text transform="matrix(1 0 0 1 615.8223 791.2637)" class="st31 st32 st33">Jardin</text>
	<text transform="matrix(1 0 0 1 612.7969 801.7383)" class="st31 st34 st33">110.10 m</text>
	<text transform="matrix(0.583 0 0 0.583 649.0635 798.8321)" class="st31 st34 st33">2</text>
	<text transform="matrix(1 0 0 1 502.5537 791.335)" class="st31 st32 st35">Chambre 2</text>
	<text transform="matrix(1 0 0 1 511.9844 802.2422)" class="st31 st34 st35">15.40 m</text>
	<text transform="matrix(0.583 0 0 0.583 544.4796 799.2149)" class="st31 st34 st35">2</text>
	<text transform="matrix(1 0 0 1 328.9297 732.2149)" class="st31 st32 st35">WC/ </text>
	<text transform="matrix(1 0 0 1 318.8946 743.1221)" class="st31 st32 st35">DOUCHE</text>
	<text transform="matrix(1 0 0 1 323.7256 754.0303)" class="st31 st34 st35">4.80 m</text>
	<text transform="matrix(0.583 0 0 0.583 350.9483 751.003)" class="st31 st34 st35">2</text>
	<text transform="matrix(1 0 0 1 302.8648 353.1856)" class="st31 st32 st35">Chambre 1</text>
	<text transform="matrix(1 0 0 1 312.295 364.0929)" class="st31 st34 st35">13.20 m</text>
	<text transform="matrix(0.583 0 0 0.583 344.7901 361.0655)" class="st31 st34 st35">2</text>
	<text transform="matrix(1 0 0 1 483.3692 604.4258)" class="st31 st32 st35">Espace Jour </text>
	<text transform="matrix(1 0 0 1 496.5713 615.3331)" class="st31 st34 st35">37.00 m</text>
	<text transform="matrix(0.583 0 0 0.583 529.0665 612.3057)" class="st31 st34 st35">2</text>
	<text transform="matrix(1 0 0 1 546.6837 234.0602)" class="st31 st32 st35">Terrasse </text>
	<text transform="matrix(1 0 0 1 552.0323 244.9679)" class="st31 st34 st35">19.50 m</text>
	<text transform="matrix(0.583 0 0 0.583 584.5274 241.941)" class="st31 st34 st35">2</text>
	<text transform="matrix(1 0 0 1 247.6192 443.3331)" class="st31 st32 st35">Buanderie</text>
	<text transform="matrix(1 0 0 1 260.2666 454.2403)" class="st31 st34 st35">3.00 m</text>
	<text transform="matrix(0.583 0 0 0.583 287.4898 451.213)" class="st31 st34 st35">2</text>
	<text transform="matrix(1 0 0 1 302.9805 547.8428)" class="st31 st32 st35">Dégagement</text>
	<text transform="matrix(1 0 0 1 318.4825 558.7501)" class="st31 st34 st35">13.20 m</text>
	<text transform="matrix(0.583 0 0 0.583 350.9776 555.7227)" class="st31 st34 st35">2</text>
</g>
<g id="Murs">
	<polygon class="st11" points="602.8,338 592.9,524.3 578.2,523 578.5,519.5 574.3,518.9 583.5,341.3 590.2,341.8 590.6,337 	"/>
	
		<rect x="367.9" y="480.3" transform="matrix(-1.836970e-16 1 -1 -1.836970e-16 863.3068 107.9306)" class="st11" width="19.5" height="10.6"/>
	<polygon class="st11" points="391.9,149.7 391.8,265.6 391.7,271.4 388.6,271.4 372.4,271.4 372.4,170.7 365.4,171.2 365,164.7 
		360.9,164.5 360.1,151.5 	"/>
	<polygon class="st11" points="377.7,479.1 377.7,161.2 372.4,161.2 372.4,380.3 367.1,380.3 367.1,385.5 372.4,385.5 372.4,479.1 	
		"/>
	<path class="st11" d="M586.1,651.8l1.7-39.4l-13.3,1l-3,1.9l-3-0.5l-1.7,32.6H404.1v-26.5h-27.6v-57.5h27.8v-5.8H372v100.4h5.4
		v-5.2l189.6,0.2v59.5h3.3v3.9h15.8V651.8z"/>
	<polygon class="st11" points="607.5,252.6 602.8,338 583.3,344.7 587.2,271.4 584.1,271.4 584,252.6 	"/>
	<path class="st11" d="M586.1,836v-31l-16.2,0.2v4.2l-2.9,0v6.2H377.9V694.9h-5.5v6.9H367v4.4h5.3v109.4h-87.5v-99.2l0-158.7h-11.5
		v91.8v-81.2v-21.4l0-3.7h-1.9h-8.7l0.4,159.2l0,125h205.5v9.4L586.1,836z"/>
	<polygon class="st11" points="273.5,501.8 273.5,498.7 273.5,485.1 244.8,485.1 244.8,412.5 244.8,177.3 268.8,175.4 268.7,173.7 
		272.1,173.2 271.9,156.1 254,157.2 233.2,156.1 233.2,495.6 262.6,495.6 262.6,501.8 270.9,501.8 	"/>
	<polyline class="st12" points="262.6,501.8 262.6,495.6 233.2,495.6 233.2,156.1 251.2,157 391.9,149.7 391.9,81.2 616.2,81.2 
		593.9,506.8 586.1,644.6 586.1,836 468.6,836.8 468.6,827.4 263.1,827.4 263.1,702.4 262.7,543.2 	"/>
	<rect x="282.2" y="557.7" class="st11" width="31.2" height="5.8"/>
	<rect x="282.1" y="701.9" class="st11" width="49.2" height="4.1"/>
	
		<rect x="284.3" y="339.7" transform="matrix(-1.836970e-16 1 -1 -1.836970e-16 669.8143 96.0128)" class="st11" width="5.2" height="86.4"/>
	
		<rect x="307" y="384.9" transform="matrix(-1 -1.224647e-16 1.224647e-16 -1 619.103 819.8238)" class="st11" width="5.2" height="50"/>
	
		<rect x="307" y="470.6" transform="matrix(-1 -1.224647e-16 1.224647e-16 -1 619.103 960.6367)" class="st11" width="5.2" height="19.5"/>
	
		<rect x="275.3" y="353.7" transform="matrix(-1.836970e-16 1 -1 -1.836970e-16 665.808 109.9368)" class="st11" width="5.2" height="68.4"/>
	
		<rect x="275.3" y="453.5" transform="matrix(-1.836970e-16 1 -1 -1.836970e-16 765.6104 209.7391)" class="st11" width="5.2" height="68.4"/>
	<polygon class="st11" points="587.7,612 587.3,620.2 568.2,619.2 568.5,614.1 571.5,614.3 571.7,611.2 	"/>
	<polygon class="st11" points="593.2,523.8 593.6,515.6 574.5,514.6 574.2,519.7 577.6,519.9 577.4,523 	"/>
</g>
<g id="Entree">
	<polygon class="st36" points="267.9,516.4 274.1,523.5 267.9,530.6 	"/>
</g>
<g id="Nord">
	<circle class="st37" cx="189.9" cy="804.3" r="14.9"/>
	<line class="st38" x1="199.5" y1="801.2" x2="208.7" y2="798.3"/>
	<text transform="matrix(1 0 0 1 182.1538 811.5176)" class="st11 st32 st39">N</text>
</g>
</svg>
