<?xml version="1.0" encoding="utf-8"?>
<!-- Generator: Adobe Illustrator 22.0.1, SVG Export Plug-In . SVG Version: 6.00 Build 0)  -->
<svg version="1.1" xmlns="http://www.w3.org/2000/svg" xmlns:xlink="http://www.w3.org/1999/xlink" x="0px" y="0px"
	 viewBox="0 0 595.3 595.3" style="enable-background:new 0 0 595.3 595.3;" xml:space="preserve">
<style type="text/css">
	.st0{fill:none;}
	.st1{fill:#FFFFFF;}
	.st2{fill:#E3E3E3;}
	.st3{fill:#EAF6FE;}
	.st4{opacity:0.8;fill:#FFFFFF;}
	.st5{fill:url(#SVGID_1_);stroke:#717E86;stroke-width:0.3;stroke-miterlimit:10;}
	.st6{fill:#EAF6FE;stroke:#CCD3D8;stroke-width:0.3;stroke-miterlimit:10;}
	.st7{fill:#FFFFFF;stroke:#717E86;stroke-width:0.3;stroke-miterlimit:10;}
	.st8{opacity:5.000000e-02;}
	.st9{fill:#717E86;}
	.st10{fill:none;stroke:#717E86;stroke-width:0.3;stroke-miterlimit:10;}
	.st11{fill:none;stroke:#CCD3D8;stroke-width:0.3;stroke-miterlimit:10;}
	.st12{fill:#EAF6FE;stroke:#CCD3D8;stroke-width:0.3;stroke-linecap:round;stroke-miterlimit:10;}
	.st13{fill:none;stroke:#000000;stroke-width:0.12;stroke-linecap:square;stroke-linejoin:bevel;stroke-miterlimit:10;}
	.st14{opacity:0.2;}
	.st15{fill:#738793;}
	.st16{fill:none;stroke:#738793;stroke-width:0.3;stroke-miterlimit:10;}
	.st17{fill:#EAF6FE;stroke:#CCD3D8;stroke-width:0.3033;stroke-miterlimit:10;}
	.st18{fill:#EAF6FE;stroke:#CCD3D8;stroke-width:0.3;stroke-linecap:round;stroke-linejoin:round;stroke-miterlimit:10;}
	.st19{fill:none;stroke:#717E86;stroke-width:0.3;stroke-linecap:round;stroke-linejoin:round;stroke-miterlimit:10;}
	.st20{fill:none;stroke:#CCD3D8;stroke-width:0.3;stroke-linecap:round;stroke-linejoin:round;stroke-miterlimit:10;}
	.st21{fill:#EAF6FE;stroke:#CCD3D8;stroke-width:0.2953;stroke-miterlimit:10;}
	.st22{fill:none;stroke:#717E86;stroke-width:0.5;stroke-miterlimit:10;}
	.st23{fill:#EAF6FE;stroke:#717E86;stroke-width:0.3;stroke-miterlimit:10;}
	.st24{fill:none;stroke:#717E86;stroke-width:0.6204;stroke-miterlimit:10;}
	.st25{display:none;}
	.st26{display:inline;fill:#3C3C3B;}
	.st27{font-family:'Lato-Black';}
	.st28{font-size:7px;}
	.st29{font-family:'Lato-Italic';}
	.st30{fill:none;stroke:#717E86;stroke-width:0.3;stroke-miterlimit:10;stroke-dasharray:2,2;}
	.st31{fill:none;stroke:#717E86;stroke-width:0.3;stroke-miterlimit:1;}
	.st32{fill:none;stroke:#717E86;stroke-width:0.1;stroke-miterlimit:1;}
	.st33{fill:#A5B9C4;}
	.st34{fill:#3C3C3B;}
	.st35{fill:none;stroke:#717E86;stroke-miterlimit:10;}
	.st36{fill:none;stroke:#717E86;stroke-width:2;stroke-miterlimit:10;}
	.st37{font-size:16.4252px;}
</style>
<pattern  width="3.8" height="3.4" patternUnits="userSpaceOnUse" id="Nouvelle_nuance_de_motif_7" viewBox="0 -3.4 3.8 3.4" style="overflow:visible;">
	<g>
		<rect y="-3.4" class="st0" width="3.8" height="3.4"/>
		<rect x="0.1" y="-3.4" class="st1" width="3.7" height="3.4"/>
		<rect x="3.7" y="-3.4" class="st2" width="0.1" height="3.4"/>
		<rect x="0" y="-3.4" class="st2" width="0.1" height="3.4"/>
	</g>
</pattern>
<g id="Fond">
	<polygon class="st1" points="160.9,422.7 26.5,422.7 36.1,342.8 37.1,182.8 288.8,177.6 294.7,156.9 548.8,154.4 563.6,443.6 	"/>
	<polygon class="st3" points="39.7,412.6 172.1,412.6 279.6,419.2 461.5,427.3 461.5,347.1 466.1,347.1 466.1,271.2 544.9,271.3 
		538.1,159.7 290.4,159.7 289.6,173.4 39.7,174.1 	"/>
</g>
<g id="Sols">
	
		<rect x="42.2" y="190.7" transform="matrix(-1 -1.224647e-16 1.224647e-16 -1 168.8266 452.7312)" class="st4" width="84.3" height="71.4"/>
	<pattern  id="SVGID_1_" xlink:href="#Nouvelle_nuance_de_motif_7" patternTransform="matrix(0 1 -1 0 -15173.7891 576.7667)">
	</pattern>
	<polygon class="st5" points="470.1,273 555,273.1 563.6,443.6 470.2,438.7 	"/>
</g>
<g id="Installations">
	<g>
		<g>
			<path class="st6" d="M462.3,221.3v1.9h17.1v-1.9c0-0.8-0.6-1.4-1.4-1.4h-14.3C462.9,219.9,462.3,220.5,462.3,221.3z"/>
			
				<rect x="466.8" y="218.8" transform="matrix(-4.482477e-11 1 -1 -4.482477e-11 698.1095 -243.5583)" class="st6" width="8.1" height="17.1"/>
			<line class="st6" x1="464.6" y1="223.2" x2="464.6" y2="231.3"/>
			<line class="st6" x1="477" y1="231.3" x2="477" y2="223.2"/>
		</g>
	</g>
	<polyline class="st7" points="236.1,282.4 191.9,282.3 191.9,409 171.5,407.8 171.5,282.3 191.9,261 236.1,261 	"/>
	<g>
		<g>
			<g>
				<g class="st8">
					<path class="st9" d="M382.2,207.4v-9.2c0-0.6,0.4-1,1-1h8.2c0.6,0,1,0.4,1,1v9.2c0,0.6-0.4,1-1,1h-8.2
						C382.7,208.4,382.2,208,382.2,207.4z"/>
					<path class="st10" d="M382.2,207.4v-9.2c0-0.6,0.4-1,1-1h8.2c0.6,0,1,0.4,1,1v9.2c0,0.6-0.4,1-1,1h-8.2
						C382.7,208.4,382.2,208,382.2,207.4z"/>
				</g>
				<g>
					<path class="st3" d="M379.2,204.4v-9.2c0-0.6,0.4-1,1-1h8.2c0.6,0,1,0.4,1,1v9.2c0,0.6-0.4,1-1,1h-8.2
						C379.7,205.4,379.2,205,379.2,204.4z"/>
					<path class="st11" d="M379.2,204.4v-9.2c0-0.6,0.4-1,1-1h8.2c0.6,0,1,0.4,1,1v9.2c0,0.6-0.4,1-1,1h-8.2
						C379.7,205.4,379.2,205,379.2,204.4z"/>
				</g>
			</g>
			<path class="st6" d="M386.8,198.6l-1.5,3.8c-0.2,0.5-0.8,0.8-1.3,0.6l-1.5-0.6c-0.5-0.2-0.8-0.8-0.6-1.3l1.5-3.8
				c0.2-0.5,0.8-0.8,1.3-0.6l1.5,0.6C386.7,197.6,387,198.1,386.8,198.6z"/>
			<circle class="st6" cx="384.4" cy="199.9" r="0.5"/>
		</g>
		<g>
			<g class="st8">
				<path class="st9" d="M448.5,194.5h-65.3c-0.6,0-1-0.4-1-1v-28.4c0-0.6,0.4-1,1-1h65.3c0.6,0,1,0.4,1,1v28.4
					C449.5,194.1,449.1,194.5,448.5,194.5z"/>
				<path class="st10" d="M448.5,194.5h-65.3c-0.6,0-1-0.4-1-1v-28.4c0-0.6,0.4-1,1-1h65.3c0.6,0,1,0.4,1,1v28.4
					C449.5,194.1,449.1,194.5,448.5,194.5z"/>
			</g>
			<g>
				<path class="st3" d="M445.5,191.5h-65.3c-0.6,0-1-0.4-1-1v-28.4c0-0.6,0.4-1,1-1h65.3c0.6,0,1,0.4,1,1v28.4
					C446.5,191.1,446.1,191.5,445.5,191.5z"/>
				<path class="st11" d="M445.5,191.5h-65.3c-0.6,0-1-0.4-1-1v-28.4c0-0.6,0.4-1,1-1h65.3c0.6,0,1,0.4,1,1v28.4
					C446.5,191.1,446.1,191.5,445.5,191.5z"/>
			</g>
		</g>
		<path class="st6" d="M441.9,188h-58.1c-0.6,0-1-0.4-1-1v-21.2c0-0.6,0.4-1,1-1h58.1c0.6,0,1,0.4,1,1V187
			C442.9,187.5,442.5,188,441.9,188z"/>
		<path class="st6" d="M385.9,184.9c-0.2-0.5,0.1-0.9,0.1-1.8c-1.6-7.5,0.4-15.5,0.7-15.7c0.3-0.2,0.2,0.2,1.9,0.5
			c1.8,0.1,5.8-0.3,7.3-0.1c0.4,0.1,0.6,0.2,0.8,0.4c1.1,1.4,0.7,16.1,0.5,16.3c-0.2,0.2-0.7,0.7-1.3,0.8
			C394.3,185.5,386.2,185.4,385.9,184.9z"/>
		<g>
			<g>
				<path class="st6" d="M407.4,167.1c0,0,0.9,7,0.9,9.3c0,2.4-0.9,9.3-0.9,9.3c0,1.8,2.9,3.2,1.2,3.2h-9.8c-1.8,0-3.2-1.4-3.2-3.2
					c0,0,0.9-6.4,0.9-9.1c0-2.8-0.9-9.4-0.9-9.4c0-1.8,1.4-3.2,3.2-3.2h9.8C410.3,163.9,407.4,165.3,407.4,167.1z"/>
			</g>
			<path class="st12" d="M399.8,184.9c1.4,0.2,4.9-1.3,5.5-3.9"/>
			<path class="st12" d="M399.4,177.2c1.9-1.9,4.3-6.4,4.1-9.3"/>
		</g>
	</g>
	<g>
		<g>
			<g class="st8">
				<path class="st9" d="M468.5,164.5h39.6c0.6,0,1,0.4,1,1v17.9c0,0.6-0.4,1-1,1h-39.6c-0.6,0-1-0.4-1-1v-17.9
					C467.5,164.9,467.9,164.5,468.5,164.5z"/>
				<path class="st10" d="M468.5,164.5h39.6c0.6,0,1,0.4,1,1v17.9c0,0.6-0.4,1-1,1h-39.6c-0.6,0-1-0.4-1-1v-17.9
					C467.5,164.9,467.9,164.5,468.5,164.5z"/>
			</g>
			<g>
				<path class="st3" d="M465.5,161.5h39.6c0.6,0,1,0.4,1,1v17.9c0,0.6-0.4,1-1,1h-39.6c-0.6,0-1-0.4-1-1v-17.9
					C464.5,161.9,464.9,161.5,465.5,161.5z"/>
				<path class="st11" d="M465.5,161.5h39.6c0.6,0,1,0.4,1,1v17.9c0,0.6-0.4,1-1,1h-39.6c-0.6,0-1-0.4-1-1v-17.9
					C464.5,161.9,464.9,161.5,465.5,161.5z"/>
			</g>
		</g>
		<line class="st6" x1="506.1" y1="178.8" x2="464.5" y2="178.8"/>
		<line class="st6" x1="485.3" y1="178.8" x2="485.3" y2="181.4"/>
		<polyline class="st11" points="489.8,181.4 489.8,182.9 488.2,182.9 488.2,181.4 		"/>
		<polyline class="st11" points="482.3,181.4 482.3,182.9 480.7,182.9 480.7,181.4 		"/>
	</g>
	<g>
		<g>
			<g>
				<g class="st8">
					<path class="st9" d="M57.6,313.3v-9.6c0-0.6-0.4-1-1-1h-8.6c-0.6,0-1,0.4-1,1v9.6c0,0.6,0.4,1,1,1h8.6
						C57.2,314.3,57.6,313.9,57.6,313.3z"/>
					<path class="st10" d="M57.6,313.3v-9.6c0-0.6-0.4-1-1-1h-8.6c-0.6,0-1,0.4-1,1v9.6c0,0.6,0.4,1,1,1h8.6
						C57.2,314.3,57.6,313.9,57.6,313.3z"/>
				</g>
				<g>
					<path class="st3" d="M54.6,310.3v-9.6c0-0.6-0.4-1-1-1h-8.6c-0.6,0-1,0.4-1,1v9.6c0,0.6,0.4,1,1,1h8.6
						C54.2,311.3,54.6,310.9,54.6,310.3z"/>
					<path class="st11" d="M54.6,310.3v-9.6c0-0.6-0.4-1-1-1h-8.6c-0.6,0-1,0.4-1,1v9.6c0,0.6,0.4,1,1,1h8.6
						C54.2,311.3,54.6,310.9,54.6,310.3z"/>
				</g>
			</g>
			<path class="st6" d="M50,303v-0.4c0-0.1-0.1-0.3-0.3-0.3h-5.7v0.9h5.7C49.9,303.2,50,303.1,50,303z"/>
			<path class="st6" d="M49.1,304.8v-0.4c0-0.1-0.1-0.3-0.3-0.3h-4.8v0.9h4.8C49,305.1,49.1,305,49.1,304.8z"/>
			<path class="st6" d="M50.6,303.9v-0.4c0-0.1-0.1-0.3-0.3-0.3h-6.3v0.9h6.3C50.5,304.1,50.6,304,50.6,303.9z"/>
		</g>
		<g>
			<g class="st8">
				<path class="st9" d="M115.6,316.8H48.1c-0.6,0-1,0.4-1,1v53.5c0,0.6,0.4,1,1,1h67.6c0.6,0,1-0.4,1-1v-53.5
					C116.6,317.2,116.2,316.8,115.6,316.8z"/>
				<path class="st10" d="M115.6,316.8H48.1c-0.6,0-1,0.4-1,1v53.5c0,0.6,0.4,1,1,1h67.6c0.6,0,1-0.4,1-1v-53.5
					C116.6,317.2,116.2,316.8,115.6,316.8z"/>
			</g>
			<g>
				<path class="st3" d="M112.6,313.8H45.1c-0.6,0-1,0.4-1,1v53.5c0,0.6,0.4,1,1,1h67.6c0.6,0,1-0.4,1-1v-53.5
					C113.6,314.2,113.2,313.8,112.6,313.8z"/>
				<path class="st11" d="M112.6,313.8H45.1c-0.6,0-1,0.4-1,1v53.5c0,0.6,0.4,1,1,1h67.6c0.6,0,1-0.4,1-1v-53.5
					C113.6,314.2,113.2,313.8,112.6,313.8z"/>
			</g>
		</g>
		<path class="st6" d="M108.9,317.5H48.8c-0.6,0-1,0.4-1,1v46.1c0,0.6,0.4,1,1,1h60.1c0.6,0,1-0.4,1-1v-46.1
			C109.9,317.9,109.5,317.5,108.9,317.5z"/>
		<path class="st6" d="M51.2,320.6c-1.2,2-1.4,16.5-0.1,18.7c0.1,0.2,6.9,0.9,10.6,0.4c0.6-0.1,1.5-0.7,1.9-1.8
			c1.3-3.7,0.8-12.2-0.4-16.3c-0.4-1.5-1.9-1.4-2.5-1.5C57.9,319.8,51.6,320,51.2,320.6z"/>
		<path class="st6" d="M51.1,343.5c-1.6,4.1-1.1,18-0.3,18.7c0.3,0.3,7,1.1,10,0.4c0.4-0.1,0.9-0.3,1.1-0.5c1.2-1.7,2.1-17.9,2-18.1
			c-0.2-0.2-1.5-0.1-2.2-0.4C60,342.7,51.3,342.8,51.1,343.5z"/>
		<g>
			<path class="st6" d="M73.1,363.1c0,0,1.8-19.1,1.8-21.5c0-2.5-1.8-21.5-1.8-21.5c0-1.8,3-3.3,1.2-3.3H64.2
				c-1.8,0-3.3,1.5-3.3,3.3c0,0,1,18.5,1,21.3c0,2.9-1,21.6-1,21.6c0,1.8,1.5,3.3,3.3,3.3h10.1C76.2,366.4,73.1,364.9,73.1,363.1z"
				/>
			<path class="st12" d="M63.6,323.9c0.3-2.3,3.4-6.9,4.3-7.1"/>
			<path class="st12" d="M64.6,347.2c0.2-0.4,5-10.4,7.3-9.3c0.9,0.4,0.3,2-0.2,2.8"/>
			<path class="st12" d="M62.5,363.5c1.4-1.4,5.3-7.3,8.3-15.3"/>
		</g>
		<g>
			<g>
				<g class="st8">
					<path class="st9" d="M47.1,375.7v9.6c0,0.6,0.4,1,1,1h8.6c0.6,0,1-0.4,1-1v-9.6c0-0.6-0.4-1-1-1h-8.6
						C47.5,374.7,47.1,375.1,47.1,375.7z"/>
					<path class="st10" d="M47.1,375.7v9.6c0,0.6,0.4,1,1,1h8.6c0.6,0,1-0.4,1-1v-9.6c0-0.6-0.4-1-1-1h-8.6
						C47.5,374.7,47.1,375.1,47.1,375.7z"/>
				</g>
				<g>
					<path class="st3" d="M44.1,372.7v9.6c0,0.6,0.4,1,1,1h8.6c0.6,0,1-0.4,1-1v-9.6c0-0.6-0.4-1-1-1h-8.6
						C44.5,371.7,44.1,372.1,44.1,372.7z"/>
					<path class="st11" d="M44.1,372.7v9.6c0,0.6,0.4,1,1,1h8.6c0.6,0,1-0.4,1-1v-9.6c0-0.6-0.4-1-1-1h-8.6
						C44.5,371.7,44.1,372.1,44.1,372.7z"/>
				</g>
			</g>
			<path class="st6" d="M51.9,378.7l-1.5-4c-0.2-0.5-0.8-0.8-1.3-0.6l-1.6,0.6c-0.5,0.2-0.8,0.8-0.6,1.3l1.5,4
				c0.2,0.5,0.8,0.8,1.3,0.6l1.6-0.6C51.8,379.8,52.1,379.2,51.9,378.7z"/>
			<circle class="st6" cx="49.4" cy="377.4" r="0.6"/>
		</g>
	</g>
	<g>
		<g>
			<g class="st8">
				<path class="st9" d="M108.7,266.8H48.1c-0.6,0-1,0.4-1,1V284c0,0.6,0.4,1,1,1h60.6c0.6,0,1-0.4,1-1v-16.3
					C109.7,267.2,109.2,266.8,108.7,266.8z"/>
				<path class="st10" d="M108.7,266.8H48.1c-0.6,0-1,0.4-1,1V284c0,0.6,0.4,1,1,1h60.6c0.6,0,1-0.4,1-1v-16.3
					C109.7,267.2,109.2,266.8,108.7,266.8z"/>
			</g>
			<g>
				<path class="st3" d="M105.7,263.8H45.1c-0.6,0-1,0.4-1,1V281c0,0.6,0.4,1,1,1h60.6c0.6,0,1-0.4,1-1v-16.3
					C106.7,264.2,106.2,263.8,105.7,263.8z"/>
				<path class="st11" d="M105.7,263.8H45.1c-0.6,0-1,0.4-1,1V281c0,0.6,0.4,1,1,1h60.6c0.6,0,1-0.4,1-1v-16.3
					C106.7,264.2,106.2,263.8,105.7,263.8z"/>
			</g>
		</g>
		<line class="st6" x1="44.1" y1="279.6" x2="106.7" y2="279.6"/>
		<line class="st6" x1="75.4" y1="279.6" x2="75.4" y2="282"/>
		<polyline class="st11" points="68.5,282 68.5,283.4 70.9,283.4 70.9,282 		"/>
		<polyline class="st11" points="79.8,282 79.8,283.4 82.2,283.4 82.2,282 		"/>
	</g>
	<g>
		
			<rect x="172.4" y="305" transform="matrix(-1 -1.224647e-16 1.224647e-16 -1 363.4005 647.5042)" class="st10" width="18.7" height="37.6"/>
		<g>
			<path class="st7" d="M176.3,323.4h10.8c1.3,0,2.4,1.1,2.4,2.4v12.6c0,1.3-1.1,2.4-2.4,2.4h-10.8c-1.3,0-2.4-1.1-2.4-2.4v-12.6
				C173.9,324.4,175,323.4,176.3,323.4z"/>
			<circle class="st7" cx="176.9" cy="332.4" r="1.2"/>
		</g>
		<g>
			
				<rect x="186.6" y="308.1" transform="matrix(-1 -1.224647e-16 1.224647e-16 -1 373.8528 628.5493)" class="st9" width="0.7" height="12.3"/>
			
				<rect x="184" y="308.1" transform="matrix(-1 -1.224647e-16 1.224647e-16 -1 368.6329 628.5493)" class="st9" width="0.7" height="12.3"/>
			
				<rect x="181.4" y="308.1" transform="matrix(-1 -1.224647e-16 1.224647e-16 -1 363.4131 628.5493)" class="st9" width="0.7" height="12.3"/>
			
				<rect x="178.8" y="308.1" transform="matrix(-1 -1.224647e-16 1.224647e-16 -1 358.1932 628.5493)" class="st9" width="0.7" height="12.3"/>
			
				<rect x="176.1" y="308.1" transform="matrix(-1 -1.224647e-16 1.224647e-16 -1 352.9734 628.5493)" class="st9" width="0.7" height="12.3"/>
		</g>
	</g>
	<g>
		
			<rect x="172.4" y="373.9" transform="matrix(-1 -1.224647e-16 1.224647e-16 -1 363.4005 767.1924)" class="st10" width="18.7" height="19.5"/>
		<path class="st7" d="M181.2,387.6c0,2-1.5,3.5-3.4,3.5c-1.9,0-3.4-1.6-3.4-3.5c0-2,1.5-3.5,3.4-3.5
			C179.7,384.1,181.2,385.7,181.2,387.6"/>
		<path class="st7" d="M188.8,379.4c0,2-1.5,3.5-3.4,3.5c-1.9,0-3.4-1.6-3.4-3.5c0-2,1.5-3.5,3.4-3.5
			C187.3,375.8,188.8,377.4,188.8,379.4"/>
		<path class="st7" d="M180.3,378.7c0,1.6-1.2,2.9-2.8,2.9c-1.5,0-2.8-1.3-2.8-2.9c0-1.6,1.2-2.9,2.8-2.9
			C179,375.8,180.3,377.1,180.3,378.7"/>
		<path class="st7" d="M188.8,388.1c0,1.6-1.2,2.9-2.8,2.9c-1.5,0-2.8-1.3-2.8-2.9c0-1.6,1.2-2.9,2.8-2.9
			C187.6,385.2,188.8,386.5,188.8,388.1"/>
	</g>
	<g>
		<polyline class="st13" points="220.2,274.9 221.6,274.9 221.6,276.2 		"/>
		<polyline class="st13" points="227.5,267.7 227.5,268.9 228.7,268.9 		"/>
		<line class="st13" x1="228.3" y1="268" x2="220.7" y2="275.8"/>
		<polyline class="st13" points="227.5,276.2 227.5,274.9 228.7,274.9 		"/>
		<polyline class="st13" points="220.2,268.9 221.6,268.9 221.6,267.7 		"/>
		<line class="st13" x1="220.7" y1="268" x2="228.3" y2="275.8"/>
		<polyline class="st13" points="223.6,277.1 224.4,276.2 225.3,277.1 		"/>
		<polyline class="st13" points="223.6,266.8 224.4,267.7 225.3,266.8 		"/>
		<polyline class="st13" points="229.6,272.8 228.7,271.9 229.6,271 		"/>
		<polyline class="st13" points="219.5,272.8 220.4,271.9 219.5,271 		"/>
		<line class="st13" x1="224.4" y1="266.4" x2="224.4" y2="277.4"/>
		<line class="st13" x1="219.1" y1="271.9" x2="229.9" y2="271.9"/>
		<polyline class="st10" points="220.2,274.9 221.6,274.9 221.6,276.2 		"/>
		<polyline class="st10" points="227.5,267.7 227.5,268.9 228.7,268.9 		"/>
		<line class="st10" x1="228.3" y1="268" x2="220.7" y2="275.8"/>
		<polyline class="st10" points="227.5,276.2 227.5,274.9 228.7,274.9 		"/>
		<polyline class="st10" points="220.2,268.9 221.6,268.9 221.6,267.7 		"/>
		<line class="st10" x1="220.7" y1="268" x2="228.3" y2="275.8"/>
		<polyline class="st10" points="223.6,277.1 224.4,276.2 225.3,277.1 		"/>
		<polyline class="st10" points="223.6,266.8 224.4,267.7 225.3,266.8 		"/>
		<polyline class="st10" points="229.6,272.8 228.7,271.9 229.6,271 		"/>
		<polyline class="st10" points="219.5,272.8 220.4,271.9 219.5,271 		"/>
		<line class="st10" x1="224.4" y1="266.4" x2="224.4" y2="277.4"/>
		<line class="st10" x1="219.1" y1="271.9" x2="229.9" y2="271.9"/>
	</g>
	<g>
		<g>
			<g class="st14">
				<path class="st15" d="M79.9,206v-12.6h20.4V206c0,2.3-1.9,4.2-4.2,4.2H84.2C81.8,210.2,79.9,208.3,79.9,206z"/>
				<path class="st16" d="M79.9,206v-12.6h20.4V206c0,2.3-1.9,4.2-4.2,4.2H84.2C81.8,210.2,79.9,208.3,79.9,206z"/>
			</g>
			<g>
				<path class="st1" d="M76.9,203v-12.6h20.4V203c0,2.3-1.9,4.2-4.2,4.2H81.2C78.8,207.2,76.9,205.3,76.9,203z"/>
				<path class="st10" d="M76.9,203v-12.6h20.4V203c0,2.3-1.9,4.2-4.2,4.2H81.2C78.8,207.2,76.9,205.3,76.9,203z"/>
			</g>
		</g>
		<path class="st7" d="M78.8,203v-5.8c0-1.4,1.1-2.6,2.6-2.6H93c1.4,0,2.6,1.1,2.6,2.6v5.8c0,1.4-1.1,2.6-2.6,2.6H81.4
			C80,205.5,78.8,204.4,78.8,203z"/>
		<circle class="st7" cx="87.2" cy="196.8" r="0.9"/>
	</g>
	<g>
		<g>
			<g class="st14">
				<path class="st15" d="M120.3,204.9c0-1.2-0.1-7.6-0.2-8.7c-0.1-0.9-0.2-1.8-0.4-2.6h-12.4c-0.1,0.7-0.2,1.5-0.3,2.2
					c-0.1,1.2-0.2,8.7-0.2,10c0,2.9,2.3,8.8,6.7,8.8C118.1,214.6,120.3,208.2,120.3,204.9z"/>
				<path class="st16" d="M120.3,204.9c0-1.2-0.1-7.6-0.2-8.7c-0.1-0.9-0.2-1.8-0.4-2.6h-12.4c-0.1,0.7-0.2,1.5-0.3,2.2
					c-0.1,1.2-0.2,8.7-0.2,10c0,2.9,2.3,8.8,6.7,8.8C118.1,214.6,120.3,208.2,120.3,204.9z"/>
			</g>
			<g>
				<path class="st1" d="M117.3,201.9c0-1.2-0.1-7.6-0.2-8.7c-0.1-0.9-0.2-1.8-0.4-2.6h-12.4c-0.1,0.7-0.2,1.5-0.3,2.2
					c-0.1,1.2-0.2,8.7-0.2,10c0,2.9,2.3,8.8,6.7,8.8C115.1,211.6,117.3,205.2,117.3,201.9z"/>
				<path class="st10" d="M117.3,201.9c0-1.2-0.1-7.6-0.2-8.7c-0.1-0.9-0.2-1.8-0.4-2.6h-12.4c-0.1,0.7-0.2,1.5-0.3,2.2
					c-0.1,1.2-0.2,8.7-0.2,10c0,2.9,2.3,8.8,6.7,8.8C115.1,211.6,117.3,205.2,117.3,201.9z"/>
			</g>
		</g>
		<g>
			<circle class="st7" cx="113.5" cy="193.6" r="0.4"/>
			<circle class="st7" cx="107.6" cy="193.6" r="0.4"/>
		</g>
		<path class="st7" d="M110.5,209.9c-2.9,0-5.2-4.4-5.2-7.2c0-2.9,2.3-5.2,5.2-5.2s5.2,2.3,5.2,5.2
			C115.7,205.5,113.4,209.9,110.5,209.9z"/>
		<path class="st7" d="M112.3,201.5v-1.9c0-0.5-0.8-0.6-1.8-0.6s-1.8,0.2-1.8,0.6v1.9c0,1,0.8,1.8,1.8,1.8S112.3,202.4,112.3,201.5z
			"/>
		<path class="st10" d="M117.1,193.5c-1.7-1-4.1-1.7-6.9-1.7c-2.4,0-4.6,0.5-6.2,1.3"/>
	</g>
	<g>
		<g>
			<g class="st8">
				<path class="st9" d="M412.7,274.3h-57c-2.9,0-5.3,2.4-5.3,5.3v21.4c0,0.7,0.5,1.2,1.2,1.2h0.2c0.7,0,1.2-0.5,1.2-1.2v-0.8
					c0,0.8,0.6,1.4,1.4,1.4h18.1c0.8,0,1.4-0.6,1.4-1.4c0,0.8,0.6,1.4,1.4,1.4h18.1c0.8,0,1.4-0.6,1.4-1.4c0,0.8,0.6,1.4,1.4,1.4
					h18.1c0.7,0,1.3-0.6,1.3-1.3v0.7c0,0.7,0.5,1.2,1.2,1.2h0.2c0.7,0,1.2-0.5,1.2-1.2v-21.4C418,276.7,415.6,274.3,412.7,274.3z"/>
				<path class="st10" d="M412.7,274.3h-57c-2.9,0-5.3,2.4-5.3,5.3v21.4c0,0.7,0.5,1.2,1.2,1.2h0.2c0.7,0,1.2-0.5,1.2-1.2v-0.8
					c0,0.8,0.6,1.4,1.4,1.4h18.1c0.8,0,1.4-0.6,1.4-1.4c0,0.8,0.6,1.4,1.4,1.4h18.1c0.8,0,1.4-0.6,1.4-1.4c0,0.8,0.6,1.4,1.4,1.4
					h18.1c0.7,0,1.3-0.6,1.3-1.3v0.7c0,0.7,0.5,1.2,1.2,1.2h0.2c0.7,0,1.2-0.5,1.2-1.2v-21.4C418,276.7,415.6,274.3,412.7,274.3z"/>
			</g>
			<g>
				<path class="st3" d="M409.7,271.3h-57c-2.9,0-5.3,2.4-5.3,5.3v21.4c0,0.7,0.5,1.2,1.2,1.2h0.2c0.7,0,1.2-0.5,1.2-1.2v-0.8
					c0,0.8,0.6,1.4,1.4,1.4h18.1c0.8,0,1.4-0.6,1.4-1.4c0,0.8,0.6,1.4,1.4,1.4h18.1c0.8,0,1.4-0.6,1.4-1.4c0,0.8,0.6,1.4,1.4,1.4
					h18.1c0.7,0,1.3-0.6,1.3-1.3v0.7c0,0.7,0.5,1.2,1.2,1.2h0.2c0.7,0,1.2-0.5,1.2-1.2v-21.4C415,273.7,412.6,271.3,409.7,271.3z"/>
				<path class="st11" d="M409.7,271.3h-57c-2.9,0-5.3,2.4-5.3,5.3v21.4c0,0.7,0.5,1.2,1.2,1.2h0.2c0.7,0,1.2-0.5,1.2-1.2v-0.8
					c0,0.8,0.6,1.4,1.4,1.4h18.1c0.8,0,1.4-0.6,1.4-1.4c0,0.8,0.6,1.4,1.4,1.4h18.1c0.8,0,1.4-0.6,1.4-1.4c0,0.8,0.6,1.4,1.4,1.4
					h18.1c0.7,0,1.3-0.6,1.3-1.3v0.7c0,0.7,0.5,1.2,1.2,1.2h0.2c0.7,0,1.2-0.5,1.2-1.2v-21.4C415,273.7,412.6,271.3,409.7,271.3z"/>
			</g>
		</g>
		<g>
			<path class="st17" d="M409.7,271.3h-57c-2.9,0-5.3,2.4-5.3,5.3v21.4c0,0.7,0.5,1.2,1.2,1.2h0.2c0.7,0,1.2-0.5,1.2-1.2v-18.4h62.5
				v18.4c0,0.7,0.5,1.2,1.2,1.2h0.2c0.7,0,1.2-0.5,1.2-1.2v-21.4C415,273.7,412.6,271.3,409.7,271.3z"/>
			<g>
				<path class="st6" d="M351.1,298.7h18.4c0.7,0,1.2-0.5,1.2-1.2v-19c0-0.7-0.5-1.2-1.2-1.2h-18.4c-0.7,0-1.2,0.5-1.2,1.2v19
					C349.9,298.1,350.5,298.7,351.1,298.7z"/>
				<g>
					<path class="st6" d="M351.7,281.8c5.7-0.6,11.5-0.6,17.3,0c1.3,0.1,2.4-0.8,2.6-2.1c0.1-0.9,0.2-1.9,0.4-2.8
						c0.2-1.3-0.8-2.5-2.2-2.6c-6.2-0.6-12.5-0.6-18.7,0c-1.4,0.1-2.4,1.3-2.2,2.6c0.1,0.9,0.2,1.9,0.4,2.8
						C349.3,281.1,350.5,282,351.7,281.8z"/>
					<path class="st18" d="M351.2,279.9c0.1-0.6,18.1-0.6,18.2,0"/>
				</g>
			</g>
			<g>
				<path class="st6" d="M392.8,298.7h18.4c0.7,0,1.2-0.5,1.2-1.2v-19c0-0.7-0.5-1.2-1.2-1.2h-18.4c-0.7,0-1.2,0.5-1.2,1.2v19
					C391.6,298.1,392.1,298.7,392.8,298.7z"/>
				<g>
					<path class="st6" d="M393.4,281.8c5.7-0.6,11.5-0.6,17.3,0c1.3,0.1,2.4-0.8,2.6-2.1c0.1-0.9,0.2-1.9,0.4-2.8
						c0.2-1.3-0.8-2.5-2.2-2.6c-6.2-0.6-12.5-0.6-18.7,0c-1.4,0.1-2.4,1.3-2.2,2.6c0.1,0.9,0.2,1.9,0.4,2.8
						C390.9,281.1,392.1,282,393.4,281.8z"/>
					<path class="st18" d="M392.9,279.9c0.1-0.6,18.1-0.6,18.2,0"/>
				</g>
			</g>
			<g>
				<path class="st6" d="M372,298.7h18.4c0.7,0,1.2-0.5,1.2-1.2v-19c0-0.7-0.5-1.2-1.2-1.2H372c-0.7,0-1.2,0.5-1.2,1.2v19
					C370.8,298.1,371.3,298.7,372,298.7z"/>
				<g>
					<path class="st6" d="M372.6,281.8c5.7-0.6,11.5-0.6,17.3,0c1.3,0.1,2.4-0.8,2.6-2.1c0.1-0.9,0.2-1.9,0.4-2.8
						c0.2-1.3-0.8-2.5-2.2-2.6c-6.2-0.6-12.5-0.6-18.7,0c-1.4,0.1-2.4,1.3-2.2,2.6c0.1,0.9,0.2,1.9,0.4,2.8
						C370.1,281.1,371.3,282,372.6,281.8z"/>
					<path class="st18" d="M372.1,279.9c0.1-0.6,18.1-0.6,18.2,0"/>
				</g>
			</g>
			<path class="st6" d="M350.8,276.9c0.8,0.5,3.8,3.8,4,4.1c1.6,0,4.4,0.8,4.8,1.4c-0.2,0.4-0.4,0.3-0.8,0.9c-0.2,0.8-1.2,4.9-3,7.1
				c-1.1-1-7-1.7-8.6-3.4c-0.9-0.4-1.7-0.6-2.4-1.4c0.2-0.5,2.5-2.4,3.4-2.6C348.8,281.9,349.6,277.7,350.8,276.9z"/>
			<path class="st6" d="M408.5,276.1c0.8,0.6,5.7,7.4,6,7.9c-0.4,1.6-3.5,3.8-4.5,4.4c-0.3,1.1-1,2.2-1.6,2.8
				c-0.4-0.4-1.3-1.3-1.6-1.9c-0.5-0.3-3.7-3-4.4-5.1c-0.5-0.5-1.1-1-1-1.4c0.7-0.6,1.6-0.9,2.1-1
				C404.1,281.3,407.7,276.2,408.5,276.1z"/>
		</g>
	</g>
	<g>
		<g>
			<g class="st8">
				<path class="st9" d="M427.4,354.9c-0.7,0-1.2,0.5-1.2,1.2v0.2c0,0.7,0.5,1.2,1.2,1.2h21.2c2.9,0,5.3-2.4,5.3-5.3v-15.2
					c0-2.9-2.4-5.3-5.3-5.3h-21.2c-0.7,0-1.2,0.5-1.2,1.2v0.2c0,0.7,0.5,1.2,1.2,1.2l0.8,0c-0.7,0-1.3,0.6-1.3,1.3v17.9
					c0,0.7,0.6,1.3,1.3,1.3L427.4,354.9z"/>
				<path class="st19" d="M427.4,354.9c-0.7,0-1.2,0.5-1.2,1.2v0.2c0,0.7,0.5,1.2,1.2,1.2h21.2c2.9,0,5.3-2.4,5.3-5.3v-15.2
					c0-2.9-2.4-5.3-5.3-5.3h-21.2c-0.7,0-1.2,0.5-1.2,1.2v0.2c0,0.7,0.5,1.2,1.2,1.2l0.8,0c-0.7,0-1.3,0.6-1.3,1.3v17.9
					c0,0.7,0.6,1.3,1.3,1.3L427.4,354.9z"/>
			</g>
			<g>
				<path class="st3" d="M424.4,351.9c-0.7,0-1.2,0.5-1.2,1.2v0.2c0,0.7,0.5,1.2,1.2,1.2h21.2c2.9,0,5.3-2.4,5.3-5.3v-15.2
					c0-2.9-2.4-5.3-5.3-5.3h-21.2c-0.7,0-1.2,0.5-1.2,1.2v0.2c0,0.7,0.5,1.2,1.2,1.2l0.8,0c-0.7,0-1.3,0.6-1.3,1.3v17.9
					c0,0.7,0.6,1.3,1.3,1.3L424.4,351.9z"/>
				<path class="st20" d="M424.4,351.9c-0.7,0-1.2,0.5-1.2,1.2v0.2c0,0.7,0.5,1.2,1.2,1.2h21.2c2.9,0,5.3-2.4,5.3-5.3v-15.2
					c0-2.9-2.4-5.3-5.3-5.3h-21.2c-0.7,0-1.2,0.5-1.2,1.2v0.2c0,0.7,0.5,1.2,1.2,1.2l0.8,0c-0.7,0-1.3,0.6-1.3,1.3v17.9
					c0,0.7,0.6,1.3,1.3,1.3L424.4,351.9z"/>
			</g>
		</g>
		<g>
			<path class="st17" d="M450.8,349.2v-15.2c0-2.9-2.4-5.3-5.3-5.3h-21.2c-0.7,0-1.2,0.5-1.2,1.2v0.2c0,0.7,0.5,1.2,1.2,1.2h18.2
				v20.6h-18.2c-0.7,0-1.2,0.5-1.2,1.2v0.2c0,0.7,0.5,1.2,1.2,1.2h21.2C448.5,354.4,450.8,352.1,450.8,349.2z"/>
			<path class="st6" d="M423.8,332.5v18.2c0,0.7,0.5,1.2,1.2,1.2h18.8c0.7,0,1.2-0.5,1.2-1.2v-18.2c0-0.7-0.5-1.2-1.2-1.2H425
				C424.3,331.3,423.8,331.8,423.8,332.5z"/>
			<g>
				<path class="st6" d="M440.5,333c0.6,5.7,0.6,11.4,0,17.1c-0.1,1.3,0.8,2.4,2,2.6c0.9,0.1,1.9,0.2,2.8,0.3
					c1.3,0.2,2.4-0.8,2.6-2.2c0.6-6.2,0.6-12.4,0-18.5c-0.1-1.4-1.3-2.4-2.6-2.2c-0.9,0.1-1.9,0.2-2.8,0.3
					C441.2,330.6,440.3,331.8,440.5,333z"/>
				<path class="st18" d="M442.4,332.5c0.6,0.1,0.6,17.9,0,18"/>
			</g>
		</g>
	</g>
	<g>
		<g>
			<g class="st8">
				<path class="st9" d="M339.1,334.2c0.7,0,1.2-0.5,1.2-1.2v-0.2c0-0.7-0.5-1.2-1.2-1.2h-21.2c-2.9,0-5.3,2.4-5.3,5.3v15.2
					c0,2.9,2.4,5.3,5.3,5.3h21.2c0.7,0,1.2-0.5,1.2-1.2v-0.2c0-0.7-0.5-1.2-1.2-1.2l-0.8,0c0.7,0,1.3-0.6,1.3-1.3v-17.9
					c0-0.7-0.6-1.3-1.3-1.3L339.1,334.2z"/>
				<path class="st19" d="M339.1,334.2c0.7,0,1.2-0.5,1.2-1.2v-0.2c0-0.7-0.5-1.2-1.2-1.2h-21.2c-2.9,0-5.3,2.4-5.3,5.3v15.2
					c0,2.9,2.4,5.3,5.3,5.3h21.2c0.7,0,1.2-0.5,1.2-1.2v-0.2c0-0.7-0.5-1.2-1.2-1.2l-0.8,0c0.7,0,1.3-0.6,1.3-1.3v-17.9
					c0-0.7-0.6-1.3-1.3-1.3L339.1,334.2z"/>
			</g>
			<g>
				<path class="st3" d="M336.1,331.2c0.7,0,1.2-0.5,1.2-1.2v-0.2c0-0.7-0.5-1.2-1.2-1.2h-21.2c-2.9,0-5.3,2.4-5.3,5.3v15.2
					c0,2.9,2.4,5.3,5.3,5.3h21.2c0.7,0,1.2-0.5,1.2-1.2v-0.2c0-0.7-0.5-1.2-1.2-1.2l-0.8,0c0.7,0,1.3-0.6,1.3-1.3v-17.9
					c0-0.7-0.6-1.3-1.3-1.3L336.1,331.2z"/>
				<path class="st20" d="M336.1,331.2c0.7,0,1.2-0.5,1.2-1.2v-0.2c0-0.7-0.5-1.2-1.2-1.2h-21.2c-2.9,0-5.3,2.4-5.3,5.3v15.2
					c0,2.9,2.4,5.3,5.3,5.3h21.2c0.7,0,1.2-0.5,1.2-1.2v-0.2c0-0.7-0.5-1.2-1.2-1.2l-0.8,0c0.7,0,1.3-0.6,1.3-1.3v-17.9
					c0-0.7-0.6-1.3-1.3-1.3L336.1,331.2z"/>
			</g>
		</g>
		<g>
			<path class="st17" d="M309.7,333.9v15.2c0,2.9,2.4,5.3,5.3,5.3h21.2c0.7,0,1.2-0.5,1.2-1.2v-0.2c0-0.7-0.5-1.2-1.2-1.2h-18.2
				v-20.6h18.2c0.7,0,1.2-0.5,1.2-1.2v-0.2c0-0.7-0.5-1.2-1.2-1.2h-21.2C312,328.7,309.7,331,309.7,333.9z"/>
			<path class="st6" d="M336.7,350.7v-18.2c0-0.7-0.5-1.2-1.2-1.2h-18.8c-0.7,0-1.2,0.5-1.2,1.2v18.2c0,0.7,0.5,1.2,1.2,1.2h18.8
				C336.2,351.8,336.7,351.3,336.7,350.7z"/>
			<g>
				<path class="st6" d="M320.1,350.1c-0.6-5.7-0.6-11.4,0-17.1c0.1-1.3-0.8-2.4-2-2.6c-0.9-0.1-1.9-0.2-2.8-0.3
					c-1.3-0.2-2.4,0.8-2.6,2.2c-0.6,6.2-0.6,12.4,0,18.5c0.1,1.4,1.3,2.4,2.6,2.2c0.9-0.1,1.9-0.2,2.8-0.3
					C319.3,352.5,320.2,351.4,320.1,350.1z"/>
				<path class="st18" d="M318.1,350.6c-0.6-0.1-0.6-17.9,0-18"/>
			</g>
		</g>
	</g>
	<g>
		<g>
			<g>
				<path class="st6" d="M282.3,329h-1.7v14.9h1.7c0.7,0,1.2-0.5,1.2-1.2v-12.5C283.5,329.5,282.9,329,282.3,329z"/>
				
					<rect x="275.9" y="329" transform="matrix(-1 -1.224647e-16 1.224647e-16 -1 556.4516 672.9082)" class="st6" width="4.7" height="14.9"/>
				<line class="st6" x1="280.6" y1="331" x2="275.9" y2="331"/>
				<line class="st6" x1="275.9" y1="341.9" x2="280.6" y2="341.9"/>
			</g>
			<g>
				<path class="st6" d="M282.3,346.6h-1.7v14.9h1.7c0.7,0,1.2-0.5,1.2-1.2v-12.5C283.5,347.2,282.9,346.6,282.3,346.6z"/>
				
					<rect x="275.9" y="346.6" transform="matrix(-1 -1.224647e-16 1.224647e-16 -1 556.4516 708.2171)" class="st6" width="4.7" height="14.9"/>
				<line class="st6" x1="280.6" y1="348.7" x2="275.9" y2="348.7"/>
				<line class="st6" x1="275.9" y1="359.5" x2="280.6" y2="359.5"/>
			</g>
			<g>
				<path class="st6" d="M282.3,364.3h-1.7v14.9h1.7c0.7,0,1.2-0.5,1.2-1.2v-12.5C283.5,364.8,282.9,364.3,282.3,364.3z"/>
				
					<rect x="275.9" y="364.3" transform="matrix(-1 -1.224647e-16 1.224647e-16 -1 556.4516 743.526)" class="st6" width="4.7" height="14.9"/>
				<line class="st6" x1="280.6" y1="366.3" x2="275.9" y2="366.3"/>
				<line class="st6" x1="275.9" y1="377.2" x2="280.6" y2="377.2"/>
			</g>
		</g>
		<g>
			<path class="st6" d="M240.3,379.2h1.7v-14.9h-1.7c-0.7,0-1.2,0.5-1.2,1.2V378C239.1,378.7,239.6,379.2,240.3,379.2z"/>
			<rect x="242" y="364.3" class="st6" width="4.7" height="14.9"/>
			<line class="st6" x1="242" y1="377.2" x2="246.7" y2="377.2"/>
			<line class="st6" x1="246.7" y1="366.3" x2="242" y2="366.3"/>
		</g>
		<g>
			<path class="st6" d="M240.3,361.6h1.7v-14.9h-1.7c-0.7,0-1.2,0.5-1.2,1.2v12.5C239.1,361,239.6,361.6,240.3,361.6z"/>
			<rect x="242" y="346.6" class="st6" width="4.7" height="14.9"/>
			<line class="st6" x1="242" y1="359.5" x2="246.7" y2="359.5"/>
			<line class="st6" x1="246.7" y1="348.7" x2="242" y2="348.7"/>
		</g>
		<g>
			<path class="st6" d="M236.1,339.5l1.6,0.7l5.8-13.8l-1.6-0.7c-0.6-0.3-1.3,0-1.6,0.6l-4.8,11.5
				C235.2,338.5,235.4,339.2,236.1,339.5z"/>
			
				<rect x="240" y="328.3" transform="matrix(0.922 0.3873 -0.3873 0.922 149.2835 -69.2786)" class="st6" width="13.1" height="14.9"/>
			<line class="st6" x1="238.4" y1="338.3" x2="250.5" y2="343.3"/>
			<line class="st6" x1="254.7" y1="333.3" x2="242.6" y2="328.3"/>
		</g>
		<g>
			<g class="st8">
				<path class="st9" d="M277.7,388.1h-26.8c-0.7,0-1.2-0.5-1.2-1.2v-59.5c0-0.7,0.5-1.2,1.2-1.2h26.8c0.7,0,1.2,0.5,1.2,1.2v59.5
					C278.9,387.5,278.3,388.1,277.7,388.1z"/>
				<path class="st10" d="M277.7,388.1h-26.8c-0.7,0-1.2-0.5-1.2-1.2v-59.5c0-0.7,0.5-1.2,1.2-1.2h26.8c0.7,0,1.2,0.5,1.2,1.2v59.5
					C278.9,387.5,278.3,388.1,277.7,388.1z"/>
			</g>
			<g>
				<path class="st3" d="M274.7,385.1h-26.8c-0.7,0-1.2-0.5-1.2-1.2v-59.5c0-0.7,0.5-1.2,1.2-1.2h26.8c0.7,0,1.2,0.5,1.2,1.2v59.5
					C275.9,384.5,275.3,385.1,274.7,385.1z"/>
				<path class="st11" d="M274.7,385.1h-26.8c-0.7,0-1.2-0.5-1.2-1.2v-59.5c0-0.7,0.5-1.2,1.2-1.2h26.8c0.7,0,1.2,0.5,1.2,1.2v59.5
					C275.9,384.5,275.3,385.1,274.7,385.1z"/>
			</g>
		</g>
		<path class="st6" d="M262.8,376.2l-2.7-1.9c-0.4-0.3-0.5-1-0.2-1.4l3.5-4.8c0.3-0.4,1-0.5,1.4-0.2l2.7,1.9c0.4,0.3,0.5,1,0.2,1.4
			l-3.5,4.8C263.9,376.4,263.3,376.5,262.8,376.2z"/>
	</g>
	<g>
		<g>
			<g>
				<g class="st8">
					<path class="st9" d="M364.8,322c13.7-2.5,27.3-2.5,41,0c0.6,0.1,1,0.6,1,1.1v16.2c0,0.6-0.4,1-1,1.1c-13.7,2.5-27.3,2.5-41,0
						c-0.6-0.1-1-0.6-1-1.1v-16.2C363.8,322.6,364.2,322.1,364.8,322z"/>
					<path class="st10" d="M364.8,322c13.7-2.5,27.3-2.5,41,0c0.6,0.1,1,0.6,1,1.1v16.2c0,0.6-0.4,1-1,1.1c-13.7,2.5-27.3,2.5-41,0
						c-0.6-0.1-1-0.6-1-1.1v-16.2C363.8,322.6,364.2,322.1,364.8,322z"/>
				</g>
				<g>
					<path class="st3" d="M361.8,319c13.7-2.5,27.3-2.5,41,0c0.6,0.1,1,0.6,1,1.1v16.2c0,0.6-0.4,1-1,1.1c-13.7,2.5-27.3,2.5-41,0
						c-0.6-0.1-1-0.6-1-1.1v-16.2C360.8,319.6,361.2,319.1,361.8,319z"/>
					<path class="st11" d="M361.8,319c13.7-2.5,27.3-2.5,41,0c0.6,0.1,1,0.6,1,1.1v16.2c0,0.6-0.4,1-1,1.1c-13.7,2.5-27.3,2.5-41,0
						c-0.6-0.1-1-0.6-1-1.1v-16.2C360.8,319.6,361.2,319.1,361.8,319z"/>
				</g>
			</g>
			<path class="st6" d="M379.9,328.1l1.9-2.4c0.3-0.4,1-0.5,1.4-0.2l4.4,3.4c0.4,0.3,0.5,1,0.2,1.4l-1.9,2.4c-0.3,0.4-1,0.5-1.4,0.2
				l-4.4-3.4C379.6,329.2,379.5,328.5,379.9,328.1z"/>
			<path class="st6" d="M377.5,325.5l2.7-1.4c0.5-0.3,1.1-0.1,1.3,0.4l2.5,4.9c0.3,0.5,0.1,1.1-0.4,1.3l-2.7,1.4
				c-0.5,0.3-1.1,0.1-1.3-0.4l-2.5-4.9C376.8,326.3,377,325.7,377.5,325.5z"/>
			<circle class="st6" cx="369.4" cy="324.3" r="5"/>
			<path class="st18" d="M370.7,327.3c-2.6,4-7.2-0.4-5-4.1C364.9,324.4,369,328.9,370.7,327.3z"/>
			<circle class="st6" cx="374.5" cy="327.7" r="0.7"/>
			<circle class="st6" cx="374.6" cy="326.2" r="0.7"/>
			<circle class="st6" cx="373.5" cy="326.1" r="0.7"/>
			<circle class="st6" cx="373.5" cy="327.2" r="0.7"/>
			<circle class="st6" cx="373.6" cy="328.8" r="0.7"/>
			<circle class="st6" cx="372.6" cy="329.2" r="0.7"/>
			<circle class="st6" cx="371.3" cy="329" r="0.7"/>
			<circle class="st6" cx="372.6" cy="328" r="0.7"/>
			<circle class="st6" cx="372.3" cy="326.7" r="0.7"/>
			<circle class="st6" cx="371.4" cy="327.8" r="0.7"/>
			<circle class="st6" cx="371.8" cy="323" r="1.8"/>
			<circle class="st6" cx="370.9" cy="325.8" r="1.3"/>
			
				<ellipse transform="matrix(0.9642 -0.2653 0.2653 0.9642 -72.6443 109.6195)" class="st6" cx="369.5" cy="323.7" rx="1" ry="1.6"/>
			<path class="st18" d="M370.9,327.2c-4.1,2.4-6.3-3.6-2.7-5.9C367,322,368.7,327.9,370.9,327.2z"/>
		</g>
		<g>
			<g>
				<path class="st18" d="M395.6,326.9c0,0,1.4,3.2,0.2,5.1C395.8,332,394.2,330.8,395.6,326.9z"/>
				<path class="st18" d="M395.6,326.9c0,0-0.1,3.3-2,4.7C393.6,331.6,392.7,329.8,395.6,326.9z"/>
				<path class="st18" d="M399.1,331c0,0,0-3.4-3.5-4.1C395.6,326.9,396.6,330.8,399.1,331z"/>
				<path class="st18" d="M399.4,321.6c0,0-0.8,4.2-3.8,5.2C395.6,326.9,395.2,323.5,399.4,321.6z"/>
				<path class="st18" d="M401.2,327.7c0,0-2.3,0.7-5.6-0.8C395.6,326.9,398.7,325.7,401.2,327.7z"/>
				<path class="st18" d="M395.8,320.4c0,0,1.7,4.2-0.1,6.6C395.7,326.9,394.4,326.5,395.8,320.4z"/>
				<path class="st18" d="M391.4,330.4c0,0,3.6-1.4,4.2-3.5C395.6,326.9,393.2,327.8,391.4,330.4z"/>
				<path class="st18" d="M392.4,321.4c0,0,2.9,2.1,3.2,5.4C395.6,326.9,392.8,325.2,392.4,321.4z"/>
				<path class="st18" d="M390,328.1c0,0,3.5,0.6,5.7-1.1C395.7,326.9,393.4,325.7,390,328.1z"/>
				<path class="st18" d="M401.2,324.7c0,0-1.7,2.3-5.5,2.2C395.7,326.9,398,324.3,401.2,324.7z"/>
				<path class="st18" d="M390.8,323.1c0,0,4.3,1.3,5.1,3.9C395.8,327,392.7,326.7,390.8,323.1z"/>
				<path class="st18" d="M389.8,325.4c0,0,3.6-0.6,5.9,1.6C395.7,326.9,393.2,328.1,389.8,325.4z"/>
				<path class="st18" d="M395.9,327c0,0,2.1-0.1,4.6,2.4C400.6,329.4,398.3,329.2,395.9,327z"/>
				<path class="st18" d="M400.4,323.4c0,0-1.9,2.8-4.5,3.4C395.9,326.9,396.2,324.6,400.4,323.4z"/>
			</g>
			<g>
				<path class="st18" d="M395.6,326.6c0,0-0.1,2-1.2,2.8C394.4,329.4,393.8,328.3,395.6,326.6z"/>
				<path class="st18" d="M397.6,329c0,0,0-2-2.1-2.4C395.6,326.6,396.1,328.9,397.6,329z"/>
				<path class="st18" d="M397.8,323.5c0,0-0.4,2.5-2.3,3.1C395.6,326.6,395.3,324.6,397.8,323.5z"/>
				<path class="st18" d="M398.9,327.1c0,0-1.4,0.4-3.3-0.5C395.6,326.6,397.4,325.9,398.9,327.1z"/>
				<path class="st18" d="M393.7,323.4c0,0,1.7,1.3,1.9,3.2C395.6,326.6,393.9,325.6,393.7,323.4z"/>
				<path class="st18" d="M392.2,327.3c0,0,2.1,0.3,3.4-0.7C395.6,326.6,394.3,325.9,392.2,327.3z"/>
				<path class="st18" d="M398.9,325.3c0,0-1,1.4-3.3,1.3C395.6,326.6,397,325.1,398.9,325.3z"/>
				<path class="st18" d="M392.1,325.7c0,0,2.2-0.3,3.5,0.9C395.6,326.6,394.1,327.3,392.1,325.7z"/>
			</g>
		</g>
	</g>
	<g>
		<g>
			<g class="st8">
				<path class="st9" d="M344,404.7l49.1,2.4c0.6,0,1,0.5,0.9,1l-0.6,12.4c0,0.6-0.5,1-1,0.9l-49.1-2.4c-0.6,0-1-0.5-0.9-1l0.6-12.4
					C343,405.1,343.5,404.7,344,404.7z"/>
				<path class="st10" d="M344,404.7l49.1,2.4c0.6,0,1,0.5,0.9,1l-0.6,12.4c0,0.6-0.5,1-1,0.9l-49.1-2.4c-0.6,0-1-0.5-0.9-1
					l0.6-12.4C343,405.1,343.5,404.7,344,404.7z"/>
			</g>
			<g>
				<path class="st3" d="M341,401.7l49.1,2.4c0.6,0,1,0.5,0.9,1l-0.6,12.4c0,0.6-0.5,1-1,0.9l-49.1-2.4c-0.6,0-1-0.5-0.9-1l0.6-12.4
					C340,402.1,340.5,401.7,341,401.7z"/>
				<path class="st11" d="M341,401.7l49.1,2.4c0.6,0,1,0.5,0.9,1l-0.6,12.4c0,0.6-0.5,1-1,0.9l-49.1-2.4c-0.6,0-1-0.5-0.9-1
					l0.6-12.4C340,402.1,340.5,401.7,341,401.7z"/>
			</g>
		</g>
		<path class="st6" d="M371.8,410.3l-0.2,4.7c0,0.6-0.5,1-1,0.9l-11.3-0.6c-0.6,0-1-0.5-0.9-1l0.2-4.7c0-0.6,0.5-1,1-0.9l11.3,0.6
			C371.4,409.3,371.9,409.8,371.8,410.3z"/>
		<path class="st21" d="M370.4,415.5l-11-0.5c-0.3,0-0.6-0.3-0.6-0.6l0.2-4.5c0-0.3,0.3-0.6,0.6-0.6l11,0.5c0.3,0,0.6,0.3,0.6,0.6
			l-0.2,4.5C371,415.2,370.7,415.5,370.4,415.5z"/>
		
			<rect x="364.4" y="391.1" transform="matrix(4.968010e-02 -0.9988 0.9988 4.968010e-02 -64.1786 755.8582)" class="st6" width="1.4" height="41"/>
	</g>
	<g>
		<g>
			<g class="st8">
				<path class="st9" d="M450.3,258.8v-22.1c0-0.6,0.4-1,1-1h47.9c0.5,0,1,0.4,1,1v22.1c0,0.6-0.4,1-1,1h-47.9
					C450.7,259.8,450.3,259.4,450.3,258.8z"/>
				<path class="st10" d="M450.3,258.8v-22.1c0-0.6,0.4-1,1-1h47.9c0.5,0,1,0.4,1,1v22.1c0,0.6-0.4,1-1,1h-47.9
					C450.7,259.8,450.3,259.4,450.3,258.8z"/>
			</g>
			<g>
				<path class="st3" d="M447.3,255.8v-22.1c0-0.6,0.4-1,1-1h47.9c0.5,0,1,0.4,1,1v22.1c0,0.6-0.4,1-1,1h-47.9
					C447.7,256.8,447.3,256.4,447.3,255.8z"/>
				<path class="st11" d="M447.3,255.8v-22.1c0-0.6,0.4-1,1-1h47.9c0.5,0,1,0.4,1,1v22.1c0,0.6-0.4,1-1,1h-47.9
					C447.7,256.8,447.3,256.4,447.3,255.8z"/>
			</g>
		</g>
	</g>
	<line class="st10" x1="212.9" y1="282.3" x2="212.9" y2="261"/>
	<g>
		<g>
			<rect x="181.1" y="190.7" class="st1" width="55.1" height="21.6"/>
			<path class="st9" d="M236,190.9v21.3h-54.8v-21.3H236 M236.3,190.6H181v21.9h55.4V190.6L236.3,190.6z"/>
		</g>
		<line class="st22" x1="228.8" y1="194.4" x2="227.7" y2="208.6"/>
		<line class="st22" x1="224.8" y1="194.4" x2="226.1" y2="208.6"/>
		<line class="st22" x1="223.3" y1="194.4" x2="222.2" y2="208.6"/>
		<line class="st22" x1="219.2" y1="194.4" x2="220.5" y2="208.6"/>
		<line class="st22" x1="198.1" y1="194.4" x2="197" y2="208.6"/>
		<line class="st22" x1="194" y1="194.4" x2="195.3" y2="208.6"/>
		<line class="st22" x1="192.5" y1="194.4" x2="191.4" y2="208.6"/>
		<line class="st22" x1="188.5" y1="194.4" x2="189.8" y2="208.6"/>
		<line class="st23" x1="236.3" y1="210.9" x2="181.2" y2="210.9"/>
		<line class="st23" x1="208.8" y1="210.9" x2="208.8" y2="212.3"/>
		<polyline class="st10" points="214.8,212.3 214.8,213.1 212.7,213.1 212.7,212.3 		"/>
		<polyline class="st10" points="204.8,212.3 204.8,213.1 202.8,213.1 202.8,212.3 		"/>
		<line class="st10" x1="236.3" y1="201.5" x2="181.2" y2="201.5"/>
	</g>
	<g>
		<g>
			<rect x="128.4" y="190.7" class="st1" width="55.1" height="21.6"/>
			<path class="st9" d="M183.3,190.9v21.3h-54.8v-21.3H183.3 M183.6,190.6h-55.4v21.9h55.4V190.6L183.6,190.6z"/>
		</g>
		<line class="st22" x1="176.1" y1="194.4" x2="175" y2="208.6"/>
		<line class="st22" x1="172" y1="194.4" x2="173.3" y2="208.6"/>
		<line class="st22" x1="170.5" y1="194.4" x2="169.4" y2="208.6"/>
		<line class="st22" x1="166.5" y1="194.4" x2="167.8" y2="208.6"/>
		<line class="st22" x1="145.3" y1="194.4" x2="144.2" y2="208.6"/>
		<line class="st22" x1="141.3" y1="194.4" x2="142.6" y2="208.6"/>
		<line class="st22" x1="139.8" y1="194.4" x2="138.7" y2="208.6"/>
		<line class="st22" x1="135.7" y1="194.4" x2="137" y2="208.6"/>
		<line class="st23" x1="183.6" y1="210.9" x2="128.4" y2="210.9"/>
		<line class="st23" x1="156" y1="210.9" x2="156" y2="212.3"/>
		<polyline class="st10" points="162,212.3 162,213.1 160,213.1 160,212.3 		"/>
		<polyline class="st10" points="152.1,212.3 152.1,213.1 150,213.1 150,212.3 		"/>
		<line class="st10" x1="183.6" y1="201.5" x2="128.4" y2="201.5"/>
	</g>
	<g>
		<g>
			
				<rect x="345.2" y="184.1" transform="matrix(-8.996733e-11 1 -1 -8.996733e-11 550.5285 -161.1533)" class="st7" width="21.2" height="21.2"/>
		</g>
		<g>
			<circle class="st24" cx="355.8" cy="194.7" r="4.9"/>
			<path class="st24" d="M352.6,194.2c0,1.9,1.5,3.4,3.4,3.4"/>
		</g>
	</g>
	<g>
		<path class="st7" d="M73.7,228.9H42.9c-0.4,0-0.7-0.3-0.7-0.7v-36.9c0-0.4,0.3-0.7,0.7-0.7h30.8c0.4,0,0.7,0.3,0.7,0.7v36.9
			C74.3,228.6,74,228.9,73.7,228.9z"/>
		<path class="st7" d="M70.7,227.1H46c-1.1,0-2-0.9-2-2v-30.7c0-1.1,0.9-2,2-2h24.7c1.1,0,2,0.9,2,2v30.7
			C72.7,226.2,71.8,227.1,70.7,227.1z"/>
		<path class="st7" d="M69.2,225.7H47.5c-1.1,0-2-0.9-2-2v-27.8c0-1.1,0.9-2,2-2h21.7c1.1,0,2,0.9,2,2v27.8
			C71.2,224.8,70.3,225.7,69.2,225.7z"/>
		<circle class="st7" cx="66.6" cy="198.2" r="1.6"/>
	</g>
	<g>
		<g>
			<g class="st14">
				<path class="st15" d="M303.6,170v-7.2h17.8v7.2c0,1.3-1.6,2.4-3.7,2.4h-10.4C305.3,172.5,303.6,171.4,303.6,170z"/>
				<path class="st16" d="M303.6,170v-7.2h17.8v7.2c0,1.3-1.6,2.4-3.7,2.4h-10.4C305.3,172.5,303.6,171.4,303.6,170z"/>
			</g>
			<g>
				<path class="st1" d="M300.6,167v-7.2h17.8v7.2c0,1.3-1.6,2.4-3.7,2.4h-10.4C302.3,169.5,300.6,168.4,300.6,167z"/>
				<path class="st10" d="M300.6,167v-7.2h17.8v7.2c0,1.3-1.6,2.4-3.7,2.4h-10.4C302.3,169.5,300.6,168.4,300.6,167z"/>
			</g>
		</g>
		<path class="st7" d="M301.6,165.9v-2.8c0-1.4,1.1-2.6,2.6-2.6h7.3c1.4,0,2.6,1.1,2.6,2.6v2.8c0,1.4-1.1,2.6-2.6,2.6h-7.3
			C302.7,168.4,301.6,167.3,301.6,165.9z"/>
		<circle class="st7" cx="311.5" cy="164.2" r="0.7"/>
	</g>
	<g>
		<g>
			<g class="st14">
				<path class="st15" d="M360.7,181c1.2,0,7.9-0.1,9.1-0.2c0.9-0.1,1.9-0.2,2.7-0.4v-12.9c-0.7-0.1-1.5-0.2-2.3-0.3
					c-1.3-0.1-9.1-0.2-10.4-0.2c-3,0-9.2,2.4-9.2,7C350.6,178.7,357.3,181,360.7,181z"/>
				<path class="st16" d="M360.7,181c1.2,0,7.9-0.1,9.1-0.2c0.9-0.1,1.9-0.2,2.7-0.4v-12.9c-0.7-0.1-1.5-0.2-2.3-0.3
					c-1.3-0.1-9.1-0.2-10.4-0.2c-3,0-9.2,2.4-9.2,7C350.6,178.7,357.3,181,360.7,181z"/>
			</g>
			<g>
				<path class="st1" d="M357.7,178c1.2,0,7.9-0.1,9.1-0.2c0.9-0.1,1.9-0.2,2.7-0.4v-12.9c-0.7-0.1-1.5-0.2-2.3-0.3
					c-1.3-0.1-9.1-0.2-10.4-0.2c-3,0-9.2,2.4-9.2,7C347.6,175.7,354.3,178,357.7,178z"/>
				<path class="st10" d="M357.7,178c1.2,0,7.9-0.1,9.1-0.2c0.9-0.1,1.9-0.2,2.7-0.4v-12.9c-0.7-0.1-1.5-0.2-2.3-0.3
					c-1.3-0.1-9.1-0.2-10.4-0.2c-3,0-9.2,2.4-9.2,7C347.6,175.7,354.3,178,357.7,178z"/>
			</g>
		</g>
		<g>
			<circle class="st7" cx="366.4" cy="174.1" r="0.4"/>
			<circle class="st7" cx="366.4" cy="167.8" r="0.4"/>
		</g>
		<path class="st7" d="M349.4,171c0-3,4.5-5.4,7.5-5.4c3,0,5.4,2.4,5.4,5.4c0,3-2.4,5.4-5.4,5.4C353.9,176.3,349.4,173.9,349.4,171z
			"/>
		<path class="st7" d="M358.2,172.8h2c0.6,0,0.6-0.8,0.6-1.8c0-1-0.2-1.8-0.6-1.8h-2c-1,0-1.8,0.8-1.8,1.8
			C356.4,172,357.2,172.8,358.2,172.8z"/>
		<path class="st10" d="M366.5,177.8c1-1.7,1.7-4.3,1.7-7.2c0-2.5-0.5-4.8-1.3-6.4"/>
	</g>
</g>
<g id="Étiquettes" class="st25">
	<text transform="matrix(1 0 0 1 116.3937 381.3687)" class="st26 st27 st28">Chambre 2</text>
	<text transform="matrix(1 0 0 1 123.6564 389.7686)" class="st26 st29 st28">15.40 m</text>
	<text transform="matrix(0.583 0 0 0.583 148.6808 387.4375)" class="st26 st29 st28">2</text>
	<text transform="matrix(1 0 0 1 489.1797 239.7944)" class="st26 st27 st28">Chambre 1</text>
	<text transform="matrix(1 0 0 1 496.4424 248.1943)" class="st26 st29 st28">13.20 m</text>
	<text transform="matrix(0.583 0 0 0.583 521.4669 245.8633)" class="st26 st29 st28">2</text>
	<text transform="matrix(1 0 0 1 86.603 230.3433)" class="st26 st27 st28">WC/ </text>
	<text transform="matrix(1 0 0 1 78.8755 238.7432)" class="st26 st27 st28">DOUCHE</text>
	<text transform="matrix(1 0 0 1 82.5952 247.1431)" class="st26 st29 st28">4.70 m</text>
	<text transform="matrix(0.583 0 0 0.583 103.5601 244.812)" class="st26 st29 st28">2</text>
	<text transform="matrix(1 0 0 1 405.4786 399.3276)" class="st26 st27 st28">Espace Jour </text>
	<text transform="matrix(1 0 0 1 415.6456 407.7275)" class="st26 st29 st28">37.10 m</text>
	<text transform="matrix(0.583 0 0 0.583 440.67 405.3965)" class="st26 st29 st28">2</text>
	<text transform="matrix(1 0 0 1 517.3445 420.0942)" class="st26 st27 st28">Loggia </text>
	<text transform="matrix(1 0 0 1 517.4744 428.4941)" class="st26 st29 st28">12.50 m</text>
	<text transform="matrix(0.583 0 0 0.583 542.4988 426.1631)" class="st26 st29 st28">2</text>
	<text transform="matrix(1 0 0 1 300.3304 183.2095)" class="st26 st27 st28">Buanderie</text>
	<text transform="matrix(1 0 0 1 310.0697 191.6094)" class="st26 st29 st28">3.00 m</text>
	<text transform="matrix(0.583 0 0 0.583 331.0345 189.2783)" class="st26 st29 st28">2</text>
	<text transform="matrix(1 0 0 1 224.9243 237.8823)" class="st26 st27 st28">Dégagement</text>
	<text transform="matrix(1 0 0 1 236.0435 246.2822)" class="st26 st29 st28">13.1 0 m</text>
	<text transform="matrix(0.583 0 0 0.583 262.7056 243.9512)" class="st26 st29 st28">2</text>
</g>
<g id="Ouvertures">
	<g>
		<path class="st30" d="M251.6,182.8c0,17.5,14.4,31.7,32.3,31.7"/>
		<line class="st10" x1="283.9" y1="182.8" x2="283.9" y2="214.5"/>
	</g>
	<g>
		<path class="st30" d="M134.8,262.2c0,16.6,12.9,30,28.8,30"/>
		<line class="st10" x1="163.6" y1="262.2" x2="163.6" y2="292.2"/>
	</g>
	<g>
		<path class="st30" d="M378,225c15.8,0,28.6,13.1,28.6,29.2"/>
		<line class="st10" x1="378" y1="254.2" x2="406.6" y2="254.2"/>
	</g>
	<g>
		<path class="st30" d="M308,211.7c0,14.9,12.3,26.9,27.4,26.9"/>
		<line class="st10" x1="335.4" y1="211.7" x2="335.4" y2="238.6"/>
	</g>
	<g>
		<polygon class="st9" points="543.7,251.3 541,251.5 541.1,253.3 543.8,253.1 		"/>
		<polygon class="st9" points="539.3,178.1 536.5,178.3 536.6,180.4 539.4,180.2 		"/>
		<g>
			<polygon class="st1" points="536.8,180.5 539.2,180.4 543.6,251.2 541.1,251.3 			"/>
			<path class="st9" d="M539.1,180.5l4.3,70.5l-2.1,0.1l-4.3-70.5L539.1,180.5 M539.4,180.2l-2.7,0.2l4.3,71.1l2.7-0.2L539.4,180.2
				L539.4,180.2z"/>
		</g>
		<polyline class="st30" points="538.2,205.3 526.4,207 540.9,250.8 		"/>
		<polygon class="st9" points="540.8,203.9 538.1,204.1 538.3,207.3 541,207.2 		"/>
		<g>
			<path class="st30" d="M538.2,205.3c-13.1,0.8-24.3-9.5-25.2-23"/>
			<line class="st10" x1="536.7" y1="180.8" x2="513" y2="182.2"/>
		</g>
	</g>
	<g>
		<polygon class="st9" points="227.3,415.2 227.5,412.5 229.4,412.7 229.2,415.4 		"/>
		<g>
			<polygon class="st1" points="229.4,415.2 229.5,412.8 294.6,417.5 294.4,419.9 			"/>
			<path class="st9" d="M229.7,413l64.7,4.7l-0.1,2.1l-64.7-4.7L229.7,413 M229.4,412.7l-0.2,2.7l65.3,4.7l0.2-2.7L229.4,412.7
				L229.4,412.7z"/>
		</g>
		<polyline class="st30" points="252.3,414.3 253.9,402.8 294.1,417.4 		"/>
		<polygon class="st9" points="251,416.9 251.1,414.2 254.2,414.5 254,417.2 		"/>
		<g>
			<path class="st30" d="M252.3,414.3c0.8-12.9-8.6-24-21-24.9"/>
			<line class="st10" x1="229.7" y1="412.7" x2="231.3" y2="389.4"/>
		</g>
	</g>
	<g>
		<polygon class="st9" points="455.4,428.9 455.6,426.4 457.4,426.5 457.2,429 		"/>
		<g>
			<polygon class="st1" points="406.9,425.8 407.1,423.6 455.4,426.5 455.3,428.7 			"/>
			<path class="st9" d="M407.2,423.8l48.1,2.9l-0.1,1.9l-48.1-2.9L407.2,423.8 M406.9,423.5l-0.2,2.5l48.7,2.9l0.2-2.5L406.9,423.5
				L406.9,423.5z"/>
		</g>
		<polyline class="st30" points="410.6,423.7 412.3,413.4 453.8,426.5 		"/>
		<polygon class="st9" points="406.7,425.9 406.9,423.5 410.6,423.7 410.4,426.2 		"/>
	</g>
	<g>
		<polygon class="st9" points="145.4,413.2 145.4,410.5 147.4,410.5 147.3,413.2 		"/>
		<polygon class="st9" points="68.6,412.9 68.6,410.2 70.9,410.2 70.8,412.9 		"/>
		<g>
			<polygon class="st1" points="71,412.7 71,410.3 145.3,410.6 145.3,413 			"/>
			<path class="st9" d="M71.2,410.5l74,0.3l0,2.1l-74-0.3L71.2,410.5 M70.9,410.2l0,2.7l74.6,0.3l0-2.7L70.9,410.2L70.9,410.2z"/>
		</g>
		<polyline class="st30" points="97,410.3 98,398.8 144.7,410.5 		"/>
		<polygon class="st9" points="95.7,413 95.7,410.3 99.1,410.3 99.1,413 		"/>
		<g>
			<path class="st30" d="M97,410.3c0.1-12.8-11.3-23.2-25.6-23.2"/>
			<line class="st10" x1="71.2" y1="410.2" x2="71.4" y2="387.1"/>
		</g>
	</g>
	<g>
		<g>
			<rect x="461.5" y="273.1" class="st1" width="8.5" height="147.9"/>
			<path class="st9" d="M469.8,273.3v147.6h-8.2V273.3H469.8 M470.1,273h-8.8v148.2h8.8V273L470.1,273z"/>
		</g>
		<g>
			<rect x="465.9" y="273.1" class="st1" width="4.1" height="73.8"/>
			<path class="st9" d="M469.8,273.3v73.5H466v-73.5H469.8 M470.1,273h-4.4v74.1h4.4V273L470.1,273z"/>
		</g>
		<g>
			<rect x="461.5" y="347.9" class="st1" width="3.7" height="73.1"/>
			<path class="st9" d="M465.1,348v72.8h-3.4V348H465.1 M465.4,347.7h-4v73.4h4V347.7L465.4,347.7z"/>
		</g>
		<g>
			<g>
				<line class="st31" x1="457.2" y1="320.4" x2="457.2" y2="302.4"/>
				<g>
					<polygon class="st9" points="458.5,303.4 458.3,303.6 457.2,302.5 456.2,303.6 456,303.4 457.2,302.1 					"/>
				</g>
			</g>
		</g>
		<rect x="461.4" y="345.4" class="st9" width="4" height="4.7"/>
		<rect x="465.7" y="345.4" class="st9" width="4.4" height="4.7"/>
		
			<rect x="461.6" y="417.5" transform="matrix(-1.836970e-16 1 -1 -1.836970e-16 882.7811 -43.8944)" class="st9" width="3.5" height="4"/>
		
			<rect x="465.8" y="272.9" transform="matrix(-1.836970e-16 1 -1 -1.836970e-16 743.08 -192.7944)" class="st9" width="4.3" height="4.4"/>
		<line class="st32" x1="467.8" y1="345.8" x2="467.8" y2="273.3"/>
		<line class="st32" x1="463.4" y1="419.4" x2="463.4" y2="347"/>
	</g>
	<g>
		<path class="st30" d="M127.5,224.7c-16.7,0-30.3,13.8-30.3,30.9"/>
		<line class="st10" x1="127.5" y1="255.6" x2="97.2" y2="255.6"/>
	</g>
</g>
<g id="Murs">
	<polygon class="st9" points="410,435.6 292.7,428.7 293.7,417.4 296.4,417.6 296.8,414.3 407.5,420.7 407.1,425.8 410.7,426.2 	"/>
	
		<rect x="288.8" y="258.1" transform="matrix(-1 -1.224647e-16 1.224647e-16 -1 592.6459 524.3562)" class="st9" width="15" height="8.2"/>
	<polygon class="st9" points="555,273.1 465.8,273.1 461.3,273 461.3,270.6 461.3,258.1 538.8,258.1 538.4,252.7 543.5,252.4 
		543.6,249.2 553.6,248.6 	"/>
	<polygon class="st9" points="301.3,262.2 546.2,262.2 546.2,258.1 377.4,258.1 377.4,254 373.4,254 373.4,258.1 301.3,258.1 	"/>
	<path class="st9" d="M168.4,422.7l58.3,2.4l0.5-12.4l-2.7-0.2l0-2.1l-52.7-2.6V282.5h20.4v-21.2h44.2v21.4h4.5v-24.9h-77.3v4.1h4
		l-0.1,146h-17v2.6h-3v12.2H168.4z"/>
	<polygon class="st9" points="475.7,439.2 453.4,437.8 453.8,426.5 457.4,426.5 457.7,423.3 461.3,423.5 461.3,421.1 475.7,421.1 	
		"/>
	<polygon class="st9" points="563.6,443.6 543.1,442.3 543.1,434.8 563.2,435.5 	"/>
	<path class="st9" d="M26.5,422.7h45l-0.1-12.5h-3.2l0-2.3H42.2V262.3h92.9v-4.2h-5.3v-3.7h-3.4v3.7H42.2v-67.4h76.4l122.2,0v-8.9
		h-70.7h62.5h16.5l2.9,0v-1.5v-6.7l-122.6,0.3v-1.3l-7.7-0.1H33.1v159.6h-7.2L26.5,422.7z"/>
	<polygon class="st9" points="283.9,181.9 286.2,181.9 296.8,181.9 296.8,159.8 352.6,159.8 533.7,159.8 535.2,178.3 536.5,178.3 
		536.9,180.9 550.1,180.7 549.2,166.9 550.1,150.9 288.6,150.9 288.6,173.6 283.9,173.6 283.9,179.9 	"/>
	<polyline class="st10" points="283.9,173.6 288.6,173.6 288.6,150.9 550.1,150.9 549.4,164.7 570.8,443.6 292.7,428.7 226.7,425.1 
		168.1,422.7 26.5,422.7 25.9,332.2 33.1,332.2 33.1,172.6 121.6,172.6 129.4,173.9 252,173.6 	"/>
	
		<rect x="477.4" y="436.8" transform="matrix(-0.9986 -5.233596e-02 5.233596e-02 -0.9986 994.7554 901.2049)" class="st33" width="63.6" height="1.6"/>
	
		<rect x="410.8" y="432.2" transform="matrix(-0.9986 -5.233596e-02 5.233596e-02 -0.9986 840.3866 888.0322)" class="st33" width="42" height="1.6"/>
	
		<rect x="474.9" y="353.6" transform="matrix(-5.233596e-02 -0.9986 0.9986 -5.233596e-02 230.564 927.5288)" class="st33" width="161" height="1.5"/>
	<rect x="236.3" y="188.6" class="st9" width="4.5" height="24"/>
	<rect x="126.6" y="188.6" class="st9" width="3.2" height="38.3"/>
	
		<rect x="373.4" y="159" transform="matrix(-1 -1.224647e-16 1.224647e-16 -1 750.8322 384.5256)" class="st9" width="4" height="66.5"/>
	
		<rect x="352.6" y="190.5" transform="matrix(6.123234e-17 -1 1 6.123234e-17 144.9186 564.3308)" class="st9" width="4" height="38.5"/>
	
		<rect x="298.4" y="202.2" transform="matrix(6.123234e-17 -1 1 6.123234e-17 90.6986 510.1108)" class="st9" width="4" height="15"/>
	
		<rect x="369.6" y="159" transform="matrix(-1 -1.224647e-16 1.224647e-16 -1 743.1945 370.7175)" class="st9" width="4" height="52.7"/>
	
		<rect x="292.7" y="159" transform="matrix(-1 -1.224647e-16 1.224647e-16 -1 589.4792 370.7175)" class="st9" width="4" height="52.7"/>
</g>
<g id="Entree">
	<polygon class="st34" points="272.6,177.7 267.1,182.4 261.7,177.7 	"/>
</g>
<g id="Nord">
	<g>
		<circle class="st35" cx="39.7" cy="447" r="11.9"/>
		<line class="st36" x1="47.3" y1="444.5" x2="54.7" y2="442.2"/>
		<text transform="matrix(1 0 0 1 33.4576 452.7809)" class="st9 st27 st37">N</text>
	</g>
</g>
</svg>
