<?xml version="1.0" encoding="utf-8"?>
<!-- Generator: Adobe Illustrator 22.0.1, SVG Export Plug-In . SVG Version: 6.00 Build 0)  -->
<svg version="1.1" xmlns="http://www.w3.org/2000/svg" xmlns:xlink="http://www.w3.org/1999/xlink" x="0px" y="0px"
	 viewBox="0 0 850.4 850.4" style="enable-background:new 0 0 850.4 850.4;" xml:space="preserve">
<style type="text/css">
	.st0{fill:none;}
	.st1{fill:#FFFFFF;}
	.st2{fill:#E3E3E3;}
	.st3{fill:#ABBCA2;}
	.st4{fill:#DBEBD1;stroke:#D9E7BA;stroke-width:0;stroke-miterlimit:10;}
	.st5{fill:#EAF6FE;}
	.st6{opacity:0.8;fill:#FFFFFF;}
	.st7{fill:url(#SVGID_1_);stroke:#717E86;stroke-width:0.3703;stroke-miterlimit:10;}
	.st8{fill:#EAF6FE;stroke:#CCD3D8;stroke-width:0.3703;stroke-miterlimit:10;}
	.st9{fill:#FFFFFF;stroke:#717E86;stroke-width:0.3703;stroke-miterlimit:10;}
	.st10{opacity:5.000000e-02;}
	.st11{fill:#717E86;}
	.st12{fill:none;stroke:#717E86;stroke-width:0.3703;stroke-miterlimit:10;}
	.st13{fill:none;stroke:#CCD3D8;stroke-width:0.3703;stroke-miterlimit:10;}
	.st14{fill:#EAF6FE;stroke:#CCD3D8;stroke-width:0.3703;stroke-linecap:round;stroke-miterlimit:10;}
	.st15{fill:none;stroke:#000000;stroke-width:0.1481;stroke-linecap:square;stroke-linejoin:bevel;stroke-miterlimit:10;}
	.st16{opacity:0.2;}
	.st17{fill:#738793;}
	.st18{fill:none;stroke:#738793;stroke-width:0.3703;stroke-miterlimit:10;}
	.st19{fill:#EAF6FE;stroke:#CCD3D8;stroke-width:0.3743;stroke-miterlimit:10;}
	.st20{fill:#EAF6FE;stroke:#CCD3D8;stroke-width:0.3703;stroke-linecap:round;stroke-linejoin:round;stroke-miterlimit:10;}
	.st21{fill:none;stroke:#717E86;stroke-width:0.3703;stroke-linecap:round;stroke-linejoin:round;stroke-miterlimit:10;}
	.st22{fill:none;stroke:#CCD3D8;stroke-width:0.3703;stroke-linecap:round;stroke-linejoin:round;stroke-miterlimit:10;}
	.st23{fill:#EAF6FE;stroke:#CCD3D8;stroke-width:0.3645;stroke-miterlimit:10;}
	.st24{fill:none;stroke:#717E86;stroke-width:0.6171;stroke-miterlimit:10;}
	.st25{fill:#EAF6FE;stroke:#717E86;stroke-width:0.3703;stroke-miterlimit:10;}
	.st26{fill:none;stroke:#717E86;stroke-width:0.7657;stroke-miterlimit:10;}
	.st27{fill:none;stroke:#717E86;stroke-width:0.3703;stroke-miterlimit:10;stroke-dasharray:2.4685,2.4685;}
	.st28{fill:none;stroke:#717E86;stroke-width:0.3703;stroke-miterlimit:1;}
	.st29{fill:none;stroke:#717E86;stroke-width:0.1234;stroke-miterlimit:1;}
	.st30{display:none;}
	.st31{display:inline;fill:#3C3C3B;}
	.st32{font-family:'Lato-Black';}
	.st33{font-size:8.6399px;}
	.st34{font-family:'Lato-Italic';}
	.st35{font-size:8.9974px;}
	.st36{fill:#3C3C3B;}
	.st37{fill:none;stroke:#717E86;stroke-width:1.2343;stroke-miterlimit:10;}
	.st38{fill:none;stroke:#717E86;stroke-width:2.4685;stroke-miterlimit:10;}
	.st39{font-size:20.2731px;}
</style>
<pattern  width="3.8" height="3.4" patternUnits="userSpaceOnUse" id="Nouvelle_nuance_de_motif_7" viewBox="0 -3.4 3.8 3.4" style="overflow:visible;">
	<g>
		<rect y="-3.4" class="st0" width="3.8" height="3.4"/>
		<rect x="0.1" y="-3.4" class="st1" width="3.7" height="3.4"/>
		<rect x="3.7" y="-3.4" class="st2" width="0.1" height="3.4"/>
		<rect x="0" y="-3.4" class="st2" width="0.1" height="3.4"/>
	</g>
</pattern>
<g id="Jardin">
	<path class="st3" d="M610.1,66.6c0.1-0.1,0.1-0.1,0.2-0.1c0.3-0.2,0.7-0.2,0.8,0.3c0.2,0,0.6,0,0.8-0.1c0.3-0.1,0.4-0.3,0.7-0.4
		c0.3-0.1,0.7-0.1,1-0.2c0.3,0,0.6,0.2,0.9,0.1c0.4-0.1,0.5-0.5,0.9-0.5c0.4,0,0.8,0.4,1.2,0.2c0.4-0.2,0.5-0.8,0.8-1
		c0.4-0.3,1-0.1,1.4-0.5c0.4-0.4,0-1.1,0.8-1.3c0.8-0.2,1.4-0.7,1.9-1.4c0.2-0.3,0.1-0.4,0.3-0.7c0.1-0.3,0.2-0.2,0.5-0.4
		c0.3-0.2,0.2,0,0.3-0.4c0.1-0.2,0-0.5,0-0.7c0.2,0,0.6,0.1,0.7-0.2c0.1-0.2-0.3-0.6-0.3-0.8c-0.1-0.5,0.4-0.5,0.6-0.8
		c0.3-0.3,0.4-0.9,0.6-1.2c0.3-0.4,0.2-0.4,0.1-0.9c-0.1-0.3-0.1-0.6,0.1-0.8c0.2-0.2,0.5,0,0.5-0.5c0-0.3-0.5-0.5-0.6-0.8
		c-0.1-0.3,0-0.4,0.1-0.6c0.1-0.2,0.3-0.3,0.4-0.7c0.1-0.7-0.4-1.2-0.5-1.8c0-0.2,0.1-0.4,0.1-0.6c-0.1-0.3-0.2-0.4-0.4-0.7
		c-0.3-0.5,0.2-0.9-0.2-1.3c-0.3-0.3-0.4-0.2-0.5-0.7c0-0.2,0-0.4,0-0.5c-0.3-0.1-0.8-0.3-0.8-0.6c-0.2-0.6,0.4-1.4-0.4-1.8
		c-0.7-0.4-0.1-0.3-0.2-0.9c-0.2-0.1-0.5-0.1-0.7-0.2c0-0.2,0.1-0.5,0-0.7c-0.2-0.4-0.8-0.2-1.2-0.2c-0.8,0-0.3-0.3-0.5-0.8
		c-0.1-0.4-1.1-0.6-1.5-0.6c-0.2,0-0.3,0.1-0.5,0.1c-0.2-0.1-0.1-0.2-0.3-0.3c-0.4-0.3-0.4-0.2-0.8-0.3c-0.4-0.1-0.3-0.4-0.6-0.7
		c-0.2-0.2-0.4-0.1-0.7-0.1c-0.3-0.1-0.3-0.2-0.7-0.2c-0.3,0-0.7,0.5-0.9,0.4c-0.2-0.1-0.1-0.6-0.3-0.8c-0.1-0.1-0.5-0.3-0.7-0.4
		c-0.2,0-0.4,0.1-0.6,0.1c-0.3,0-0.4-0.1-0.7-0.2c-0.3,0-0.6,0.3-0.8,0.3c-0.3,0-0.4-0.4-0.6-0.4c-0.3-0.1-0.7,0.1-1.1,0.1
		c-0.4,0-0.8,0-1.1,0.2c-0.3,0.2-0.2,0.6-0.5,0.8c-0.4,0.3-0.9-0.4-1.2-0.4c-0.4,0-0.6,0.8-0.5,1.1c-0.6,0.1-1.1-0.6-1.7-0.4
		c0,0.4,0.2,1-0.2,1.2c-0.3,0.2-0.9-0.2-1.2,0.1c-0.3,0.3,0.2,0.9-0.2,1.1c-0.2,0.1-0.8,0-1,0c0,0.3,0,0.6-0.1,0.8
		c0,0-0.5,0.4-0.6,0.4c-0.1,0.6-0.2,1.5-0.9,1.6c-0.3,0-0.6-0.2-0.9,0c-0.4,0.3-0.1,0.6-0.2,0.9c-0.1,0.3-0.2,0.1-0.3,0.3
		c-0.2,0.2-0.2,0.1-0.2,0.4c0,0.2,0.2,0.4,0.1,0.5c-0.1,0.3-0.6,0.4-0.8,0.7c-0.2,0.3-0.5,0.9-0.3,1.3c0.1,0.3,0.5,0.3,0.4,0.7
		c0,0.1-0.2,0.2-0.3,0.2c-0.1,0.1-0.2,0.4-0.3,0.5c-0.2,0.4-0.3,0.7,0,1c0.2,0.2,0.5,0.3,0.4,0.7c-0.1,0.4-0.3,0.8-0.4,1.2
		c-0.1,0.3-0.4,0.7-0.2,1c0.1,0.3,0.6,0.3,0.7,0.6c0.3,0.7-0.1,1.4,0.1,2.1c0.1,0.3,0.4,0.5,0.4,0.8c0,0.4-0.3,0.7-0.2,1.1
		c0.1,0.6,0.7,1,1.2,1.1c0.3,0.1,0.3-0.1,0.5,0.2c0.1,0.3-0.3,0.6-0.3,0.8c0,0.6,0.9,0.2,1.2,0.5c0.3,0.3,0,0.7,0.3,0.9
		c0.2,0.2,0.8,0.1,1.1,0.1c-0.1,0.6,0.7,0.5,1,0.6c0.6,0.2,0.6,0.5,0.6,1.1c0,0.3,0,0.7,0.2,0.9c0.4,0.4,0.7-0.1,1.1,0
		c0.2,0.1,0.1,0.3,0.2,0.3c0.2,0.1,0.4,0.1,0.6,0.1c0.3,0,0.6,0,0.9,0.1c0.7,0.2,1,1,1.6,1.2c0.4,0.2,0.6-0.2,1-0.2
		c0.4,0,0.3,0.1,0.5,0.4C609.5,67.3,609.7,67,610.1,66.6z"/>
	<path class="st3" d="M615.5,105.3c0.1-0.1,0.1-0.1,0.2-0.1c0.3-0.2,0.7-0.2,0.8,0.3c0.2,0,0.6,0,0.8-0.1c0.3-0.1,0.4-0.3,0.6-0.4
		c0.3-0.1,0.7-0.1,1-0.2c0.3,0,0.6,0.2,0.9,0.1c0.4-0.1,0.5-0.5,0.9-0.5c0.4,0,0.8,0.4,1.2,0.2c0.4-0.2,0.5-0.8,0.8-1
		c0.4-0.3,1-0.1,1.4-0.5c0.4-0.4,0-1.1,0.8-1.3c0.8-0.2,1.4-0.7,1.9-1.4c0.2-0.3,0.1-0.4,0.3-0.7c0.1-0.3,0.2-0.2,0.5-0.4
		c0.3-0.2,0.2,0,0.3-0.4c0.1-0.2,0-0.5,0-0.7c0.2,0,0.6,0.1,0.7-0.2c0.1-0.2-0.3-0.6-0.3-0.8c-0.1-0.5,0.4-0.5,0.6-0.8
		c0.3-0.3,0.4-0.9,0.6-1.2c0.3-0.4,0.2-0.4,0.1-0.9c-0.1-0.3-0.1-0.6,0.1-0.8c0.2-0.2,0.5,0,0.5-0.5c0-0.3-0.5-0.5-0.6-0.8
		c-0.1-0.3,0-0.4,0.1-0.6c0.1-0.2,0.3-0.3,0.4-0.7c0.1-0.7-0.4-1.2-0.5-1.8c0-0.2,0.1-0.4,0.1-0.6c-0.1-0.3-0.2-0.4-0.4-0.7
		c-0.3-0.5,0.2-0.9-0.2-1.3c-0.3-0.3-0.4-0.2-0.5-0.7c0-0.2,0-0.4,0-0.5c-0.3-0.1-0.8-0.3-0.8-0.6c-0.2-0.6,0.4-1.4-0.4-1.8
		c-0.7-0.4-0.1-0.3-0.2-0.9c-0.2-0.1-0.5-0.1-0.7-0.2c0-0.2,0.1-0.5,0-0.7c-0.2-0.4-0.8-0.2-1.2-0.2c-0.8,0-0.3-0.3-0.5-0.8
		c-0.1-0.4-1.1-0.6-1.5-0.6c-0.2,0-0.3,0.1-0.5,0.1c-0.2-0.1-0.1-0.2-0.3-0.3c-0.4-0.3-0.4-0.2-0.8-0.3c-0.4-0.1-0.3-0.4-0.6-0.7
		c-0.2-0.2-0.4-0.1-0.7-0.1c-0.3-0.1-0.3-0.2-0.7-0.2c-0.3,0-0.7,0.5-0.9,0.4c-0.2-0.1-0.1-0.6-0.3-0.8c-0.1-0.1-0.5-0.3-0.7-0.4
		c-0.2,0-0.4,0.1-0.6,0.1c-0.3,0-0.4-0.1-0.7-0.2c-0.3,0-0.6,0.3-0.8,0.3c-0.3,0-0.4-0.4-0.6-0.4c-0.3-0.1-0.7,0.1-1.1,0.1
		c-0.4,0-0.8,0-1.1,0.2c-0.3,0.2-0.2,0.6-0.5,0.8c-0.4,0.3-0.9-0.4-1.2-0.4c-0.4,0-0.6,0.8-0.5,1.1c-0.6,0.1-1.1-0.6-1.7-0.4
		c0,0.4,0.2,1-0.2,1.2c-0.3,0.2-0.9-0.2-1.2,0.1c-0.3,0.3,0.2,0.9-0.2,1.1c-0.2,0.1-0.8,0-1,0c0,0.3,0,0.6-0.1,0.8
		c0,0-0.5,0.4-0.6,0.4c-0.1,0.6-0.2,1.5-0.9,1.6c-0.3,0-0.6-0.2-0.9,0c-0.4,0.3-0.1,0.6-0.2,0.9c-0.1,0.3-0.2,0.1-0.3,0.3
		c-0.2,0.2-0.2,0.1-0.2,0.4c0,0.2,0.2,0.4,0.1,0.5c-0.1,0.3-0.6,0.4-0.8,0.7c-0.2,0.3-0.5,0.9-0.3,1.3c0.1,0.3,0.5,0.3,0.4,0.7
		c0,0.1-0.2,0.2-0.3,0.2c-0.1,0.1-0.2,0.4-0.3,0.5c-0.2,0.4-0.3,0.7,0,1c0.2,0.2,0.5,0.3,0.4,0.7c-0.1,0.4-0.3,0.8-0.4,1.2
		c-0.1,0.3-0.4,0.7-0.2,1c0.1,0.3,0.6,0.3,0.7,0.6c0.3,0.7-0.1,1.4,0.1,2.1c0.1,0.3,0.4,0.5,0.4,0.8c0,0.4-0.3,0.7-0.2,1.1
		c0.1,0.6,0.7,1,1.2,1.1c0.3,0.1,0.3-0.1,0.5,0.2c0.1,0.3-0.3,0.6-0.3,0.8c0,0.6,0.9,0.2,1.2,0.5c0.3,0.3,0,0.7,0.3,0.9
		c0.2,0.2,0.8,0.1,1.1,0.1c-0.1,0.6,0.7,0.5,1,0.6c0.6,0.2,0.6,0.5,0.6,1.1c0,0.3,0,0.7,0.2,0.9c0.4,0.4,0.7-0.1,1.1,0
		c0.2,0.1,0.1,0.3,0.2,0.3c0.2,0.1,0.4,0.1,0.6,0.1c0.3,0,0.6,0,0.9,0.1c0.7,0.2,1,1,1.6,1.2c0.4,0.2,0.6-0.2,1-0.2
		c0.4,0,0.3,0.1,0.5,0.4C614.9,106,615.1,105.7,615.5,105.3z"/>
	
		<rect x="359.5" y="-123.4" transform="matrix(-1.836970e-16 1 -1 -1.836970e-16 516.546 -335.9144)" class="st4" width="133.4" height="427.4"/>
	
		<rect x="157.9" y="339.5" transform="matrix(-1.836970e-16 1 -1 -1.836970e-16 979.4578 -28.7823)" class="st4" width="692.4" height="271.6"/>
</g>
<g id="Fond">
	<polygon class="st1" points="557.4,657.3 557.4,830 454.7,817.7 249.2,816.4 242.4,492.9 215.8,485.2 212.5,158.7 584.3,139.7 	"/>
	<polygon class="st5" points="544.5,813 544.5,642.9 552.9,504.7 563.4,270.9 460.3,270.9 460.3,265 362.7,265 362.8,163.7 
		219.4,172.5 219.4,490.8 237,491.8 238,813 	"/>
</g>
<g id="Sols">
	
		<rect x="250.9" y="709.7" transform="matrix(-1.836970e-16 1 -1 -1.836970e-16 1060.6783 450.4963)" class="st6" width="108.4" height="91.7"/>
	<pattern  id="SVGID_1_" xlink:href="#Nouvelle_nuance_de_motif_7" patternTransform="matrix(1.0414 0 0 1.0414 314.048 280.6382)">
	</pattern>
	<polygon class="st7" points="365,259.8 365.2,82.9 587.2,82.9 578,259.7 	"/>
</g>
<g id="Installations">
	<g>
		<g>
			<path class="st8" d="M299.8,267.5h2.5v-21.9h-2.5c-1,0-1.8,0.8-1.8,1.8v18.4C298,266.7,298.8,267.5,299.8,267.5z"/>
			<rect x="302.3" y="245.6" class="st8" width="10.4" height="21.9"/>
			<line class="st8" x1="302.3" y1="264.5" x2="312.7" y2="264.5"/>
			<line class="st8" x1="312.7" y1="248.6" x2="302.3" y2="248.6"/>
		</g>
	</g>
	<polyline class="st9" points="377.1,560.6 377,617.5 539.8,617.5 538.3,643.7 377,643.7 349.7,617.5 349.7,560.6 	"/>
	<g>
		<g>
			<g>
				<g class="st10">
					<path class="st11" d="M279.8,382.3h-12.5c-0.6,0-1-0.4-1-1v-11.1c0-0.6,0.4-1,1-1h12.5c0.6,0,1,0.4,1,1v11.1
						C280.8,381.8,280.3,382.3,279.8,382.3z"/>
					<path class="st12" d="M279.8,382.3h-12.5c-0.6,0-1-0.4-1-1v-11.1c0-0.6,0.4-1,1-1h12.5c0.6,0,1,0.4,1,1v11.1
						C280.8,381.8,280.3,382.3,279.8,382.3z"/>
				</g>
				<g>
					<path class="st5" d="M276.1,378.6h-12.5c-0.6,0-1-0.4-1-1v-11.1c0-0.6,0.4-1,1-1h12.5c0.6,0,1,0.4,1,1v11.1
						C277.1,378.1,276.6,378.6,276.1,378.6z"/>
					<path class="st13" d="M276.1,378.6h-12.5c-0.6,0-1-0.4-1-1v-11.1c0-0.6,0.4-1,1-1h12.5c0.6,0,1,0.4,1,1v11.1
						C277.1,378.1,276.6,378.6,276.1,378.6z"/>
				</g>
			</g>
			<path class="st8" d="M268.1,368.8l5.4,2.1c0.5,0.2,0.8,0.8,0.6,1.3l-0.9,2.4c-0.2,0.5-0.8,0.8-1.3,0.6l-5.4-2.1
				c-0.5-0.2-0.8-0.8-0.6-1.3l0.9-2.4C267,368.8,267.6,368.6,268.1,368.8z"/>
			<circle class="st8" cx="270" cy="372" r="0.7"/>
		</g>
		<g>
			<g class="st10">
				<path class="st11" d="M262.9,296.8v84.5c0,0.6-0.4,1-1,1h-37.1c-0.6,0-1-0.4-1-1v-84.5c0-0.6,0.4-1,1-1h37.1
					C262.5,295.8,262.9,296.2,262.9,296.8z"/>
				<path class="st12" d="M262.9,296.8v84.5c0,0.6-0.4,1-1,1h-37.1c-0.6,0-1-0.4-1-1v-84.5c0-0.6,0.4-1,1-1h37.1
					C262.5,295.8,262.9,296.2,262.9,296.8z"/>
			</g>
			<g>
				<path class="st5" d="M259.2,293.1v84.5c0,0.6-0.4,1-1,1h-37.1c-0.6,0-1-0.4-1-1v-84.5c0-0.6,0.4-1,1-1h37.1
					C258.8,292.1,259.2,292.5,259.2,293.1z"/>
				<path class="st13" d="M259.2,293.1v84.5c0,0.6-0.4,1-1,1h-37.1c-0.6,0-1-0.4-1-1v-84.5c0-0.6,0.4-1,1-1h37.1
					C258.8,292.1,259.2,292.5,259.2,293.1z"/>
			</g>
		</g>
		<path class="st8" d="M254.6,297.7V373c0,0.6-0.4,1-1,1h-27.9c-0.6,0-1-0.4-1-1v-75.3c0-0.6,0.4-1,1-1h27.9
			C254.1,296.7,254.6,297.1,254.6,297.7z"/>
		<path class="st8" d="M250.6,370c-0.7,0.3-1.2-0.1-2.3-0.1c-9.6,2-19.9-0.5-20.2-0.9c-0.2-0.4,0.2-0.3,0.6-2.5
			c0.2-2.3-0.4-7.5-0.1-9.4c0.1-0.5,0.2-0.8,0.5-1c1.8-1.4,20.6-0.8,20.9-0.6c0.3,0.2,0.9,0.9,1,1.7
			C251.5,359.2,251.3,369.7,250.6,370z"/>
		<g>
			<g>
				<path class="st8" d="M227.8,342.5c0,0,9-1.2,11.9-1.2c3.1,0,11.9,1.2,11.9,1.2c2.3,0,4.1-3.8,4.1-1.5v12.6
					c0,2.3-1.8,4.1-4.1,4.1c0,0-8.2-1.2-11.7-1.2c-3.6,0-12.1,1.2-12.1,1.2c-2.3,0-4.1-1.8-4.1-4.1v-12.6
					C223.7,338.7,225.5,342.5,227.8,342.5z"/>
			</g>
			<path class="st14" d="M250.7,352.1c0.3-1.8-1.7-6.3-5-7.1"/>
			<path class="st14" d="M240.8,352.6c-2.4-2.4-8.2-5.6-12-5.3"/>
		</g>
	</g>
	<g>
		<g>
			<g class="st10">
				<path class="st11" d="M224.6,254v-51.4c0-0.6,0.4-1,1-1h23.6c0.6,0,1,0.4,1,1V254c0,0.6-0.4,1-1,1h-23.6
					C225,255,224.6,254.5,224.6,254z"/>
				<path class="st12" d="M224.6,254v-51.4c0-0.6,0.4-1,1-1h23.6c0.6,0,1,0.4,1,1V254c0,0.6-0.4,1-1,1h-23.6
					C225,255,224.6,254.5,224.6,254z"/>
			</g>
			<g>
				<path class="st5" d="M220.9,250.3v-51.4c0-0.6,0.4-1,1-1h23.6c0.6,0,1,0.4,1,1v51.4c0,0.6-0.4,1-1,1h-23.6
					C221.3,251.3,220.9,250.8,220.9,250.3z"/>
				<path class="st13" d="M220.9,250.3v-51.4c0-0.6,0.4-1,1-1h23.6c0.6,0,1,0.4,1,1v51.4c0,0.6-0.4,1-1,1h-23.6
					C221.3,251.3,220.9,250.8,220.9,250.3z"/>
			</g>
		</g>
		<line class="st8" x1="243.1" y1="197.8" x2="243.1" y2="251.3"/>
		<line class="st8" x1="243.1" y1="224.5" x2="246.5" y2="224.5"/>
		<polyline class="st13" points="246.5,218.7 248.4,218.7 248.4,220.7 246.5,220.7 		"/>
		<polyline class="st13" points="246.5,228.4 248.4,228.4 248.4,230.4 246.5,230.4 		"/>
	</g>
	<g>
		<g>
			<g>
				<g class="st10">
					<path class="st11" d="M493.7,797.6h12.9c0.6,0,1,0.4,1,1v11.6c0,0.6-0.4,1-1,1h-12.9c-0.6,0-1-0.4-1-1v-11.6
						C492.7,798,493.2,797.6,493.7,797.6z"/>
					<path class="st12" d="M493.7,797.6h12.9c0.6,0,1,0.4,1,1v11.6c0,0.6-0.4,1-1,1h-12.9c-0.6,0-1-0.4-1-1v-11.6
						C492.7,798,493.2,797.6,493.7,797.6z"/>
				</g>
				<g>
					<path class="st5" d="M490,793.9H503c0.6,0,1,0.4,1,1v11.6c0,0.6-0.4,1-1,1H490c-0.6,0-1-0.4-1-1v-11.6
						C489,794.3,489.5,793.9,490,793.9z"/>
					<path class="st13" d="M490,793.9H503c0.6,0,1,0.4,1,1v11.6c0,0.6-0.4,1-1,1H490c-0.6,0-1-0.4-1-1v-11.6
						C489,794.3,489.5,793.9,490,793.9z"/>
				</g>
			</g>
			<path class="st8" d="M499.8,799.8h0.5c0.2,0,0.3,0.1,0.3,0.3v7.3h-1.2v-7.3C499.4,800,499.6,799.8,499.8,799.8z"/>
			<path class="st8" d="M497.4,801h0.5c0.2,0,0.3,0.1,0.3,0.3v6.2h-1.2v-6.2C497.1,801.1,497.2,801,497.4,801z"/>
			<path class="st8" d="M498.6,799.1h0.5c0.2,0,0.3,0.1,0.3,0.3v8.1h-1.2v-8.1C498.3,799.2,498.4,799.1,498.6,799.1z"/>
		</g>
		<g>
			<g class="st10">
				<path class="st11" d="M489.6,722.7v87.4c0,0.6-0.4,1-1,1h-69.3c-0.6,0-1-0.4-1-1v-87.4c0-0.6,0.4-1,1-1h69.3
					C489.1,721.7,489.6,722.2,489.6,722.7z"/>
				<path class="st12" d="M489.6,722.7v87.4c0,0.6-0.4,1-1,1h-69.3c-0.6,0-1-0.4-1-1v-87.4c0-0.6,0.4-1,1-1h69.3
					C489.1,721.7,489.6,722.2,489.6,722.7z"/>
			</g>
			<g>
				<path class="st5" d="M485.9,719v87.4c0,0.6-0.4,1-1,1h-69.3c-0.6,0-1-0.4-1-1V719c0-0.6,0.4-1,1-1h69.3
					C485.4,718,485.9,718.5,485.9,719z"/>
				<path class="st13" d="M485.9,719v87.4c0,0.6-0.4,1-1,1h-69.3c-0.6,0-1-0.4-1-1V719c0-0.6,0.4-1,1-1h69.3
					C485.4,718,485.9,718.5,485.9,719z"/>
			</g>
		</g>
		<path class="st8" d="M481.1,723.8v77.9c0,0.6-0.4,1-1,1h-59.8c-0.6,0-1-0.4-1-1v-77.9c0-0.6,0.4-1,1-1h59.8
			C480.7,722.8,481.1,723.3,481.1,723.8z"/>
		<path class="st8" d="M477.1,798.2c-2.6,1.5-21.2,1.8-24.1,0.2c-0.2-0.1-1.2-8.9-0.5-13.6c0.1-0.8,0.9-1.9,2.3-2.4
			c4.7-1.7,15.7-1,20.9,0.5c1.9,0.6,1.7,2.4,1.9,3.2C478.2,789.6,477.9,797.8,477.1,798.2z"/>
		<path class="st8" d="M447.7,798.5c-5.3,2-23.1,1.4-24.1,0.4c-0.4-0.4-1.4-9-0.5-12.9c0.1-0.6,0.4-1.2,0.6-1.4
			c2.2-1.6,23-2.8,23.3-2.5c0.3,0.2,0.2,1.9,0.6,2.8C448.7,787,448.6,798.1,447.7,798.5z"/>
		<g>
			<path class="st8" d="M422.5,770.1c0,0,24.6-2.3,27.6-2.3c3.2,0,27.6,2.3,27.6,2.3c2.3,0,4.2-3.9,4.2-1.6v13
				c0,2.3-1.9,4.2-4.2,4.2c0,0-23.8-1.2-27.4-1.2c-3.7,0-27.8,1.2-27.8,1.2c-2.3,0-4.2-1.9-4.2-4.2v-13
				C418.3,766.2,420.2,770.1,422.5,770.1z"/>
			<path class="st14" d="M472.8,782.3c2.9-0.4,8.9-4.3,9.1-5.5"/>
			<path class="st14" d="M442.9,781.1c0.5-0.2,13.4-6.4,11.9-9.4c-0.6-1.2-2.6-0.4-3.5,0.2"/>
			<path class="st14" d="M422,783.8c1.8-1.8,9.4-6.8,19.7-10.6"/>
		</g>
		<g>
			<g>
				<g class="st10">
					<path class="st11" d="M414.2,811.2h-12.9c-0.6,0-1-0.4-1-1v-11.6c0-0.6,0.4-1,1-1h12.9c0.6,0,1,0.4,1,1v11.6
						C415.2,810.7,414.7,811.2,414.2,811.2z"/>
					<path class="st12" d="M414.2,811.2h-12.9c-0.6,0-1-0.4-1-1v-11.6c0-0.6,0.4-1,1-1h12.9c0.6,0,1,0.4,1,1v11.6
						C415.2,810.7,414.7,811.2,414.2,811.2z"/>
				</g>
				<g>
					<path class="st5" d="M410.5,807.5h-12.9c-0.6,0-1-0.4-1-1v-11.6c0-0.6,0.4-1,1-1h12.9c0.6,0,1,0.4,1,1v11.6
						C411.5,807,411,807.5,410.5,807.5z"/>
					<path class="st13" d="M410.5,807.5h-12.9c-0.6,0-1-0.4-1-1v-11.6c0-0.6,0.4-1,1-1h12.9c0.6,0,1,0.4,1,1v11.6
						C411.5,807,411,807.5,410.5,807.5z"/>
				</g>
			</g>
			<path class="st8" d="M402.2,797.3l5.7,2.2c0.5,0.2,0.8,0.8,0.6,1.3l-1,2.6c-0.2,0.5-0.8,0.8-1.3,0.6l-5.7-2.2
				c-0.5-0.2-0.8-0.8-0.6-1.3l1-2.6C401.1,797.4,401.6,797.1,402.2,797.3z"/>
			
				<ellipse transform="matrix(0.2591 -0.9658 0.9658 0.2591 -473.8516 983.506)" class="st8" cx="404.1" cy="800.6" rx="0.7" ry="0.7"/>
		</g>
	</g>
	<g>
		<g>
			<g class="st10">
				<path class="st11" d="M355.9,796.1v-78.5c0-0.6,0.4-1,1-1h21.5c0.6,0,1,0.4,1,1v78.5c0,0.6-0.4,1-1,1h-21.5
					C356.3,797.1,355.9,796.7,355.9,796.1z"/>
				<path class="st12" d="M355.9,796.1v-78.5c0-0.6,0.4-1,1-1h21.5c0.6,0,1,0.4,1,1v78.5c0,0.6-0.4,1-1,1h-21.5
					C356.3,797.1,355.9,796.7,355.9,796.1z"/>
			</g>
			<g>
				<path class="st5" d="M352.2,792.4V714c0-0.6,0.4-1,1-1h21.5c0.6,0,1,0.4,1,1v78.5c0,0.6-0.4,1-1,1h-21.5
					C352.6,793.4,352.2,793,352.2,792.4z"/>
				<path class="st13" d="M352.2,792.4V714c0-0.6,0.4-1,1-1h21.5c0.6,0,1,0.4,1,1v78.5c0,0.6-0.4,1-1,1h-21.5
					C352.6,793.4,352.2,793,352.2,792.4z"/>
			</g>
		</g>
		<line class="st8" x1="372.5" y1="713" x2="372.5" y2="793.4"/>
		<line class="st8" x1="372.5" y1="753.2" x2="375.6" y2="753.2"/>
		<polyline class="st13" points="375.6,744.4 377.4,744.4 377.4,747.5 375.6,747.5 		"/>
		<polyline class="st13" points="375.6,759 377.4,759 377.4,762 375.6,762 		"/>
	</g>
	<g>
		
			<rect x="409.5" y="606.4" transform="matrix(-1.836970e-16 1 -1 -1.836970e-16 1052.0535 209.0275)" class="st12" width="24" height="48.3"/>
		<g>
			<path class="st9" d="M422,638.2v-15.2c0-1.3-1.1-2.4-2.4-2.4H402c-1.3,0-2.4,1.1-2.4,2.4v15.2c0,1.3,1.1,2.4,2.4,2.4h17.6
				C420.9,640.6,422,639.5,422,638.2z"/>
			<circle class="st9" cx="410.4" cy="636.6" r="1.6"/>
		</g>
		<g>
			
				<rect x="433.3" y="615.9" transform="matrix(-1.836970e-16 1 -1 -1.836970e-16 1057.5178 190.1284)" class="st11" width="0.9" height="15.9"/>
			
				<rect x="433.3" y="619.3" transform="matrix(-1.836970e-16 1 -1 -1.836970e-16 1060.8724 193.483)" class="st11" width="0.9" height="15.9"/>
			
				<rect x="433.3" y="622.6" transform="matrix(-1.836970e-16 1 -1 -1.836970e-16 1064.2272 196.8376)" class="st11" width="0.9" height="15.9"/>
			
				<rect x="433.3" y="626" transform="matrix(-1.836970e-16 1 -1 -1.836970e-16 1067.5818 200.1923)" class="st11" width="0.9" height="15.9"/>
			
				<rect x="433.3" y="629.3" transform="matrix(-1.836970e-16 1 -1 -1.836970e-16 1070.9364 203.5469)" class="st11" width="0.9" height="15.9"/>
		</g>
	</g>
	<g>
		
			<rect x="492.1" y="618" transform="matrix(-1.836970e-16 1 -1 -1.836970e-16 1134.6605 126.4204)" class="st12" width="24" height="25"/>
		<path class="st9" d="M498.9,631.2c-2.5,0-4.6,2-4.6,4.4c0,2.4,2,4.4,4.6,4.4c2.5,0,4.6-2,4.6-4.4
			C503.5,633.1,501.4,631.2,498.9,631.2"/>
		<path class="st9" d="M509.5,621.4c-2.5,0-4.6,2-4.6,4.4c0,2.4,2,4.4,4.6,4.4c2.5,0,4.6-2,4.6-4.4
			C514.1,623.3,512,621.4,509.5,621.4"/>
		<path class="st9" d="M510.4,632.4c-2,0-3.7,1.6-3.7,3.6c0,2,1.7,3.6,3.7,3.6s3.7-1.6,3.7-3.6C514.1,634,512.4,632.4,510.4,632.4"
			/>
		<path class="st9" d="M498.3,621.4c-2,0-3.7,1.6-3.7,3.6c0,2,1.7,3.6,3.7,3.6s3.7-1.6,3.7-3.6C502,623,500.3,621.4,498.3,621.4"/>
	</g>
	<g>
		<polyline class="st15" points="367.5,581.1 367.5,579.3 369.1,579.3 		"/>
		<polyline class="st15" points="358.2,571.7 359.8,571.7 359.8,570.1 		"/>
		<line class="st15" x1="358.6" y1="570.6" x2="368.7" y2="580.4"/>
		<polyline class="st15" points="369.1,571.7 367.5,571.7 367.5,570.1 		"/>
		<polyline class="st15" points="359.8,581.1 359.8,579.3 358.2,579.3 		"/>
		<line class="st15" x1="358.6" y1="580.4" x2="368.7" y2="570.6"/>
		<polyline class="st15" points="370.3,576.7 369.1,575.6 370.3,574.5 		"/>
		<polyline class="st15" points="357,576.7 358.2,575.6 357,574.5 		"/>
		<polyline class="st15" points="364.8,569 363.6,570.1 362.5,569 		"/>
		<polyline class="st15" points="364.8,582 363.6,580.9 362.5,582 		"/>
		<line class="st15" x1="356.6" y1="575.6" x2="370.7" y2="575.6"/>
		<line class="st15" x1="363.6" y1="582.5" x2="363.6" y2="568.5"/>
		<polyline class="st12" points="367.5,581.1 367.5,579.3 369.1,579.3 		"/>
		<polyline class="st12" points="358.2,571.7 359.8,571.7 359.8,570.1 		"/>
		<line class="st12" x1="358.6" y1="570.6" x2="368.7" y2="580.4"/>
		<polyline class="st12" points="369.1,571.7 367.5,571.7 367.5,570.1 		"/>
		<polyline class="st12" points="359.8,581.1 359.8,579.3 358.2,579.3 		"/>
		<line class="st12" x1="358.6" y1="580.4" x2="368.7" y2="570.6"/>
		<polyline class="st12" points="370.3,576.7 369.1,575.6 370.3,574.5 		"/>
		<polyline class="st12" points="357,576.7 358.2,575.6 357,574.5 		"/>
		<polyline class="st12" points="364.8,569 363.6,570.1 362.5,569 		"/>
		<polyline class="st12" points="364.8,582 363.6,580.9 362.5,582 		"/>
		<line class="st12" x1="356.6" y1="575.6" x2="370.7" y2="575.6"/>
		<line class="st12" x1="363.6" y1="582.5" x2="363.6" y2="568.5"/>
	</g>
	<g>
		<g>
			<g class="st16">
				<path class="st17" d="M278.7,768.9h-16.2v-26.2h16.2c3,0,5.4,2.4,5.4,5.4v15.4C284.2,766.5,281.7,768.9,278.7,768.9z"/>
				<path class="st18" d="M278.7,768.9h-16.2v-26.2h16.2c3,0,5.4,2.4,5.4,5.4v15.4C284.2,766.5,281.7,768.9,278.7,768.9z"/>
			</g>
			<g>
				<path class="st1" d="M275,765.2h-16.2V739H275c3,0,5.4,2.4,5.4,5.4v15.4C280.5,762.8,278,765.2,275,765.2z"/>
				<path class="st12" d="M275,765.2h-16.2V739H275c3,0,5.4,2.4,5.4,5.4v15.4C280.5,762.8,278,765.2,275,765.2z"/>
			</g>
		</g>
		<path class="st9" d="M275.8,762.8h-9c-1.4,0-2.6-1.1-2.6-2.6v-16.4c0-1.4,1.1-2.6,2.6-2.6h9c1.4,0,2.6,1.1,2.6,2.6v16.4
			C278.3,761.6,277.2,762.8,275.8,762.8z"/>
		<circle class="st9" cx="267" cy="752" r="1.2"/>
	</g>
	<g>
		<g>
			<g class="st16">
				<path class="st17" d="M277.3,717c-1.5,0-9.8,0.1-11.2,0.2c-1.2,0.1-2.3,0.3-3.4,0.5v16c0.9,0.2,1.9,0.3,2.9,0.4
					c1.6,0.2,11.2,0.2,12.9,0.2c3.7,0,11.3-3,11.3-8.6C289.8,719.9,281.6,717,277.3,717z"/>
				<path class="st18" d="M277.3,717c-1.5,0-9.8,0.1-11.2,0.2c-1.2,0.1-2.3,0.3-3.4,0.5v16c0.9,0.2,1.9,0.3,2.9,0.4
					c1.6,0.2,11.2,0.2,12.9,0.2c3.7,0,11.3-3,11.3-8.6C289.8,719.9,281.6,717,277.3,717z"/>
			</g>
			<g>
				<path class="st1" d="M273.6,713.3c-1.5,0-9.8,0.1-11.2,0.2c-1.2,0.1-2.3,0.3-3.4,0.5v16c0.9,0.2,1.9,0.3,2.9,0.4
					c1.6,0.2,11.2,0.2,12.9,0.2c3.7,0,11.3-3,11.3-8.6C286.1,716.2,277.9,713.3,273.6,713.3z"/>
				<path class="st12" d="M273.6,713.3c-1.5,0-9.8,0.1-11.2,0.2c-1.2,0.1-2.3,0.3-3.4,0.5v16c0.9,0.2,1.9,0.3,2.9,0.4
					c1.6,0.2,11.2,0.2,12.9,0.2c3.7,0,11.3-3,11.3-8.6C286.1,716.2,277.9,713.3,273.6,713.3z"/>
			</g>
		</g>
		<g>
			<circle class="st9" cx="262.9" cy="718.2" r="0.5"/>
			<circle class="st9" cx="262.9" cy="725.8" r="0.5"/>
		</g>
		<path class="st9" d="M283.9,722c0,3.7-5.6,6.7-9.3,6.7s-6.7-3-6.7-6.7s3-6.7,6.7-6.7S283.9,718.3,283.9,722z"/>
		<path class="st9" d="M273.1,719.7h-2.5c-0.7,0-0.8,1-0.8,2.3c0,1.2,0.2,2.3,0.8,2.3h2.5c1.2,0,2.3-1,2.3-2.3
			C275.4,720.7,274.3,719.7,273.1,719.7z"/>
		<path class="st12" d="M262.9,713.6c-1.3,2.1-2.1,5.3-2.1,8.9c0,3.1,0.6,5.9,1.6,8"/>
	</g>
	<g>
		<g>
			<g class="st10">
				<path class="st11" d="M366.6,341.2v73.3c0,3.8,3.1,6.8,6.8,6.8H401c0.9,0,1.5-0.7,1.5-1.5v-0.2c0-0.9-0.7-1.5-1.5-1.5h-1
					c1,0,1.7-0.8,1.7-1.7V393c0-1-0.8-1.7-1.7-1.7c1,0,1.7-0.8,1.7-1.7v-23.3c0-1-0.8-1.7-1.7-1.7c1,0,1.7-0.8,1.7-1.7v-23.3
					c0-0.9-0.7-1.7-1.6-1.7h0.9c0.9,0,1.5-0.7,1.5-1.5v-0.2c0-0.9-0.7-1.5-1.5-1.5h-27.5C369.7,334.4,366.6,337.4,366.6,341.2z"/>
				<path class="st12" d="M366.6,341.2v73.3c0,3.8,3.1,6.8,6.8,6.8H401c0.9,0,1.5-0.7,1.5-1.5v-0.2c0-0.9-0.7-1.5-1.5-1.5h-1
					c1,0,1.7-0.8,1.7-1.7V393c0-1-0.8-1.7-1.7-1.7c1,0,1.7-0.8,1.7-1.7v-23.3c0-1-0.8-1.7-1.7-1.7c1,0,1.7-0.8,1.7-1.7v-23.3
					c0-0.9-0.7-1.7-1.6-1.7h0.9c0.9,0,1.5-0.7,1.5-1.5v-0.2c0-0.9-0.7-1.5-1.5-1.5h-27.5C369.7,334.4,366.6,337.4,366.6,341.2z"/>
			</g>
			<g>
				<path class="st5" d="M362.9,337.5v73.3c0,3.8,3.1,6.8,6.8,6.8h27.5c0.9,0,1.5-0.7,1.5-1.5v-0.2c0-0.9-0.7-1.5-1.5-1.5h-1
					c1,0,1.7-0.8,1.7-1.7v-23.3c0-1-0.8-1.7-1.7-1.7c1,0,1.7-0.8,1.7-1.7v-23.3c0-1-0.8-1.7-1.7-1.7c1,0,1.7-0.8,1.7-1.7v-23.3
					c0-0.9-0.7-1.7-1.6-1.7h0.9c0.9,0,1.5-0.7,1.5-1.5v-0.2c0-0.9-0.7-1.5-1.5-1.5h-27.5C366,330.7,362.9,333.7,362.9,337.5z"/>
				<path class="st13" d="M362.9,337.5v73.3c0,3.8,3.1,6.8,6.8,6.8h27.5c0.9,0,1.5-0.7,1.5-1.5v-0.2c0-0.9-0.7-1.5-1.5-1.5h-1
					c1,0,1.7-0.8,1.7-1.7v-23.3c0-1-0.8-1.7-1.7-1.7c1,0,1.7-0.8,1.7-1.7v-23.3c0-1-0.8-1.7-1.7-1.7c1,0,1.7-0.8,1.7-1.7v-23.3
					c0-0.9-0.7-1.7-1.6-1.7h0.9c0.9,0,1.5-0.7,1.5-1.5v-0.2c0-0.9-0.7-1.5-1.5-1.5h-27.5C366,330.7,362.9,333.7,362.9,337.5z"/>
			</g>
		</g>
		<g>
			<path class="st19" d="M362.9,337.5v73.3c0,3.8,3.1,6.8,6.8,6.8h27.5c0.9,0,1.5-0.7,1.5-1.5v-0.2c0-0.9-0.7-1.5-1.5-1.5h-23.7V334
				h23.7c0.9,0,1.5-0.7,1.5-1.5v-0.2c0-0.9-0.7-1.5-1.5-1.5h-27.5C366,330.7,362.9,333.7,362.9,337.5z"/>
			<g>
				<path class="st8" d="M398,413.1v-24.4c0-0.7-0.5-1.2-1.2-1.2h-25.1c-0.7,0-1.2,0.5-1.2,1.2v24.4c0,0.7,0.5,1.2,1.2,1.2h25.1
					C397.5,414.3,398,413.7,398,413.1z"/>
				<g>
					<path class="st8" d="M376.4,412c-0.7-7.4-0.7-14.8,0-22.2c0.2-1.6-1-3.1-2.6-3.4c-1.2-0.2-2.4-0.3-3.6-0.5
						c-1.6-0.2-3.2,1.1-3.3,2.9c-0.8,8-0.8,16.1,0,24.1c0.2,1.8,1.7,3.1,3.3,2.9c1.2-0.2,2.4-0.3,3.6-0.5
						C375.4,415.1,376.5,413.6,376.4,412z"/>
					<path class="st20" d="M373.9,412.6c-0.8-0.2-0.8-23.3,0-23.4"/>
				</g>
			</g>
			<g>
				<path class="st8" d="M398,359.6v-24.4c0-0.7-0.5-1.2-1.2-1.2h-25.1c-0.7,0-1.2,0.5-1.2,1.2v24.4c0,0.7,0.5,1.2,1.2,1.2h25.1
					C397.5,360.7,398,360.2,398,359.6z"/>
				<g>
					<path class="st8" d="M376.4,358.5c-0.7-7.4-0.7-14.8,0-22.2c0.2-1.6-1-3.1-2.6-3.4c-1.2-0.2-2.4-0.3-3.6-0.5
						c-1.6-0.2-3.2,1.1-3.3,2.9c-0.8,8-0.8,16.1,0,24.1c0.2,1.8,1.7,3.1,3.3,2.9c1.2-0.2,2.4-0.3,3.6-0.5
						C375.4,361.6,376.5,360.1,376.4,358.5z"/>
					<path class="st20" d="M373.9,359.1c-0.8-0.2-0.8-23.3,0-23.4"/>
				</g>
			</g>
			<g>
				<path class="st8" d="M398,386.3v-24.4c0-0.7-0.5-1.2-1.2-1.2h-25.1c-0.7,0-1.2,0.5-1.2,1.2v24.4c0,0.7,0.5,1.2,1.2,1.2h25.1
					C397.5,387.5,398,387,398,386.3z"/>
				<g>
					<path class="st8" d="M376.4,385.2c-0.7-7.4-0.7-14.8,0-22.2c0.2-1.6-1-3.1-2.6-3.4c-1.2-0.2-2.4-0.3-3.6-0.5
						c-1.6-0.2-3.2,1.1-3.3,2.9c-0.8,8-0.8,16.1,0,24.1c0.2,1.8,1.7,3.1,3.3,2.9c1.2-0.2,2.4-0.3,3.6-0.5
						C375.4,388.4,376.5,386.9,376.4,385.2z"/>
					<path class="st20" d="M373.9,385.8c-0.8-0.2-0.8-23.3,0-23.4"/>
				</g>
			</g>
			<path class="st8" d="M370.1,413.2c0.7-1,4.9-4.9,5.2-5.2c0-2.1,1.1-5.6,1.8-6.2c0.6,0.3,0.4,0.5,1.2,1c1,0.3,6.3,1.6,9.1,3.9
				c-1.3,1.5-2.1,9-4.4,11.1c-0.5,1.2-0.8,2.2-1.7,3.1c-0.7-0.3-3.1-3.2-3.3-4.3C376.5,415.8,371.1,414.7,370.1,413.2z"/>
			<path class="st8" d="M369.1,339c0.8-1.1,9.5-7.4,10.1-7.8c2,0.5,4.9,4.6,5.6,5.7c1.4,0.4,2.9,1.2,3.6,2.1c-0.5,0.5-1.7,1.6-2.4,2
				c-0.4,0.6-3.9,4.8-6.6,5.7c-0.7,0.6-1.3,1.4-1.7,1.3c-0.7-0.9-1.2-2.1-1.2-2.7C375.7,344.6,369.2,340.1,369.1,339z"/>
		</g>
	</g>
	<g>
		<g>
			<g class="st10">
				<path class="st11" d="M470.1,322.3c0,0.8,0.7,1.5,1.5,1.5h0.2c0.8,0,1.5-0.7,1.5-1.5v-27.2c0-3.7-3-6.8-6.8-6.8h-19.6
					c-3.7,0-6.8,3-6.8,6.8v27.2c0,0.8,0.7,1.5,1.5,1.5h0.2c0.8,0,1.5-0.7,1.5-1.5l0-1c0,1,0.8,1.7,1.7,1.7h23c1,0,1.7-0.8,1.7-1.7
					L470.1,322.3z"/>
				<path class="st21" d="M470.1,322.3c0,0.8,0.7,1.5,1.5,1.5h0.2c0.8,0,1.5-0.7,1.5-1.5v-27.2c0-3.7-3-6.8-6.8-6.8h-19.6
					c-3.7,0-6.8,3-6.8,6.8v27.2c0,0.8,0.7,1.5,1.5,1.5h0.2c0.8,0,1.5-0.7,1.5-1.5l0-1c0,1,0.8,1.7,1.7,1.7h23c1,0,1.7-0.8,1.7-1.7
					L470.1,322.3z"/>
			</g>
			<g>
				<path class="st5" d="M466.4,318.6c0,0.8,0.7,1.5,1.5,1.5h0.2c0.8,0,1.5-0.7,1.5-1.5v-27.2c0-3.7-3-6.8-6.8-6.8h-19.6
					c-3.7,0-6.8,3-6.8,6.8v27.2c0,0.8,0.7,1.5,1.5,1.5h0.2c0.8,0,1.5-0.7,1.5-1.5l0-1c0,1,0.8,1.7,1.7,1.7h23c1,0,1.7-0.8,1.7-1.7
					L466.4,318.6z"/>
				<path class="st22" d="M466.4,318.6c0,0.8,0.7,1.5,1.5,1.5h0.2c0.8,0,1.5-0.7,1.5-1.5v-27.2c0-3.7-3-6.8-6.8-6.8h-19.6
					c-3.7,0-6.8,3-6.8,6.8v27.2c0,0.8,0.7,1.5,1.5,1.5h0.2c0.8,0,1.5-0.7,1.5-1.5l0-1c0,1,0.8,1.7,1.7,1.7h23c1,0,1.7-0.8,1.7-1.7
					L466.4,318.6z"/>
			</g>
		</g>
		<g>
			<path class="st19" d="M462.9,284.6h-19.6c-3.7,0-6.8,3-6.8,6.8v27.2c0,0.8,0.7,1.5,1.5,1.5h0.2c0.8,0,1.5-0.7,1.5-1.5v-23.4h26.5
				v23.4c0,0.8,0.7,1.5,1.5,1.5h0.2c0.8,0,1.5-0.7,1.5-1.5v-27.2C469.7,287.6,466.7,284.6,462.9,284.6z"/>
			<path class="st8" d="M441.1,319.3h24.1c0.7,0,1.2-0.5,1.2-1.2v-24.8c0-0.7-0.5-1.2-1.2-1.2h-24.1c-0.7,0-1.2,0.5-1.2,1.2v24.8
				C439.9,318.8,440.5,319.3,441.1,319.3z"/>
			<g>
				<path class="st8" d="M442.2,297.9c7.3-0.7,14.6-0.7,21.9,0c1.6,0.2,3.1-1,3.3-2.6c0.1-1.2,0.3-2.4,0.4-3.6
					c0.2-1.6-1.1-3.1-2.8-3.3c-7.9-0.8-15.9-0.8-23.8,0c-1.8,0.2-3.1,1.7-2.8,3.3c0.1,1.2,0.3,2.4,0.4,3.6
					C439.1,297,440.6,298.1,442.2,297.9z"/>
				<path class="st20" d="M441.6,295.5c0.2-0.8,23-0.8,23.2,0"/>
			</g>
		</g>
	</g>
	<g>
		<g>
			<g class="st10">
				<path class="st11" d="M443.6,435.8c0-0.8-0.7-1.5-1.5-1.5h-0.2c-0.8,0-1.5,0.7-1.5,1.5V463c0,3.7,3,6.8,6.8,6.8h19.6
					c3.7,0,6.8-3,6.8-6.8v-27.2c0-0.8-0.7-1.5-1.5-1.5h-0.2c-0.8,0-1.5,0.7-1.5,1.5l0,1c0-1-0.8-1.7-1.7-1.7h-23
					c-1,0-1.7,0.8-1.7,1.7L443.6,435.8z"/>
				<path class="st21" d="M443.6,435.8c0-0.8-0.7-1.5-1.5-1.5h-0.2c-0.8,0-1.5,0.7-1.5,1.5V463c0,3.7,3,6.8,6.8,6.8h19.6
					c3.7,0,6.8-3,6.8-6.8v-27.2c0-0.8-0.7-1.5-1.5-1.5h-0.2c-0.8,0-1.5,0.7-1.5,1.5l0,1c0-1-0.8-1.7-1.7-1.7h-23
					c-1,0-1.7,0.8-1.7,1.7L443.6,435.8z"/>
			</g>
			<g>
				<path class="st5" d="M439.9,432.1c0-0.8-0.7-1.5-1.5-1.5h-0.2c-0.8,0-1.5,0.7-1.5,1.5v27.2c0,3.7,3,6.8,6.8,6.8h19.6
					c3.7,0,6.8-3,6.8-6.8v-27.2c0-0.8-0.7-1.5-1.5-1.5h-0.2c-0.8,0-1.5,0.7-1.5,1.5l0,1c0-1-0.8-1.7-1.7-1.7h-23
					c-1,0-1.7,0.8-1.7,1.7L439.9,432.1z"/>
				<path class="st22" d="M439.9,432.1c0-0.8-0.7-1.5-1.5-1.5h-0.2c-0.8,0-1.5,0.7-1.5,1.5v27.2c0,3.7,3,6.8,6.8,6.8h19.6
					c3.7,0,6.8-3,6.8-6.8v-27.2c0-0.8-0.7-1.5-1.5-1.5h-0.2c-0.8,0-1.5,0.7-1.5,1.5l0,1c0-1-0.8-1.7-1.7-1.7h-23
					c-1,0-1.7,0.8-1.7,1.7L439.9,432.1z"/>
			</g>
		</g>
		<g>
			<path class="st19" d="M443.4,466h19.6c3.7,0,6.8-3,6.8-6.8v-27.2c0-0.8-0.7-1.5-1.5-1.5h-0.2c-0.8,0-1.5,0.7-1.5,1.5v23.4h-26.5
				v-23.4c0-0.8-0.7-1.5-1.5-1.5h-0.2c-0.8,0-1.5,0.7-1.5,1.5v27.2C436.6,463,439.6,466,443.4,466z"/>
			<path class="st8" d="M465.2,431.3h-24.1c-0.7,0-1.2,0.5-1.2,1.2v24.8c0,0.7,0.5,1.2,1.2,1.2h24.1c0.7,0,1.2-0.5,1.2-1.2v-24.8
				C466.4,431.8,465.8,431.3,465.2,431.3z"/>
			<g>
				<path class="st8" d="M464.1,452.7c-7.3,0.7-14.6,0.7-21.9,0c-1.6-0.2-3.1,1-3.3,2.6c-0.1,1.2-0.3,2.4-0.4,3.6
					c-0.2,1.6,1.1,3.1,2.8,3.3c7.9,0.8,15.9,0.8,23.8,0c1.8-0.2,3.1-1.7,2.8-3.3c-0.1-1.2-0.3-2.4-0.4-3.6
					C467.2,453.7,465.7,452.5,464.1,452.7z"/>
				<path class="st20" d="M464.7,455.2c-0.2,0.8-23,0.8-23.2,0"/>
			</g>
		</g>
	</g>
	<g>
		<g>
			<g>
				<path class="st8" d="M437,501.3v2.2h19.2v-2.2c0-0.9-0.7-1.6-1.6-1.6h-16.1C437.7,499.7,437,500.4,437,501.3z"/>
				
					<rect x="443.6" y="496.9" transform="matrix(-1.836970e-16 1 -1 -1.836970e-16 953.0645 59.88)" class="st8" width="6" height="19.2"/>
				<line class="st8" x1="439.6" y1="503.5" x2="439.6" y2="509.5"/>
				<line class="st8" x1="453.6" y1="509.5" x2="453.6" y2="503.5"/>
			</g>
			<g>
				<path class="st8" d="M459.7,501.3v2.2h19.2v-2.2c0-0.9-0.7-1.6-1.6-1.6h-16.1C460.4,499.7,459.7,500.4,459.7,501.3z"/>
				
					<rect x="466.3" y="496.9" transform="matrix(-1.836970e-16 1 -1 -1.836970e-16 975.7565 37.188)" class="st8" width="6" height="19.2"/>
				<line class="st8" x1="462.3" y1="503.5" x2="462.3" y2="509.5"/>
				<line class="st8" x1="476.3" y1="509.5" x2="476.3" y2="503.5"/>
			</g>
			<g>
				<path class="st8" d="M482.4,501.3v2.2h19.2v-2.2c0-0.9-0.7-1.6-1.6-1.6h-16.1C483.1,499.7,482.4,500.4,482.4,501.3z"/>
				
					<rect x="489" y="496.9" transform="matrix(-1.836970e-16 1 -1 -1.836970e-16 998.4485 14.496)" class="st8" width="6" height="19.2"/>
				<line class="st8" x1="485" y1="503.5" x2="485" y2="509.5"/>
				<line class="st8" x1="498.9" y1="509.5" x2="498.9" y2="503.5"/>
			</g>
		</g>
		<g>
			<path class="st8" d="M501.6,555.2V553h-19.2v2.2c0,0.9,0.7,1.6,1.6,1.6H500C500.9,556.8,501.6,556.1,501.6,555.2z"/>
			
				<rect x="489" y="540.4" transform="matrix(6.123234e-17 -1 1 6.123234e-17 -58.0514 1042.0039)" class="st8" width="6" height="19.2"/>
			<line class="st8" x1="498.9" y1="553" x2="498.9" y2="547"/>
			<line class="st8" x1="485" y1="547" x2="485" y2="553"/>
		</g>
		<g>
			<path class="st8" d="M478.9,555.2V553h-19.2v2.2c0,0.9,0.7,1.6,1.6,1.6h16.1C478.2,556.8,478.9,556.1,478.9,555.2z"/>
			
				<rect x="466.3" y="540.4" transform="matrix(6.123234e-17 -1 1 6.123234e-17 -80.7434 1019.3119)" class="st8" width="6" height="19.2"/>
			<line class="st8" x1="476.3" y1="553" x2="476.3" y2="547"/>
			<line class="st8" x1="462.3" y1="547" x2="462.3" y2="553"/>
		</g>
		<g>
			<path class="st8" d="M450.5,560.7l0.8-2l-17.7-7.4l-0.8,2c-0.3,0.8,0,1.7,0.8,2l14.8,6.2C449.2,561.8,450.2,561.5,450.5,560.7z"
				/>
			
				<rect x="437.3" y="537.6" transform="matrix(0.3873 -0.922 0.922 0.3873 -231.3649 746.2381)" class="st8" width="16.9" height="19.2"/>
			<line class="st8" x1="448.9" y1="557.7" x2="455.4" y2="542.1"/>
			<line class="st8" x1="442.6" y1="536.7" x2="436.1" y2="552.3"/>
		</g>
		<g>
			<g class="st10">
				<path class="st11" d="M512.8,514.7v34.4c0,0.9-0.7,1.6-1.6,1.6h-76.5c-0.9,0-1.6-0.7-1.6-1.6v-34.4c0-0.9,0.7-1.6,1.6-1.6h76.5
					C512.1,513.2,512.8,513.9,512.8,514.7z"/>
				<path class="st12" d="M512.8,514.7v34.4c0,0.9-0.7,1.6-1.6,1.6h-76.5c-0.9,0-1.6-0.7-1.6-1.6v-34.4c0-0.9,0.7-1.6,1.6-1.6h76.5
					C512.1,513.2,512.8,513.9,512.8,514.7z"/>
			</g>
			<g>
				<path class="st5" d="M509.1,511v34.4c0,0.9-0.7,1.6-1.6,1.6h-76.5c-0.9,0-1.6-0.7-1.6-1.6V511c0-0.9,0.7-1.6,1.6-1.6h76.5
					C508.4,509.5,509.1,510.2,509.1,511z"/>
				<path class="st13" d="M509.1,511v34.4c0,0.9-0.7,1.6-1.6,1.6h-76.5c-0.9,0-1.6-0.7-1.6-1.6V511c0-0.9,0.7-1.6,1.6-1.6h76.5
					C508.4,509.5,509.1,510.2,509.1,511z"/>
			</g>
		</g>
		<path class="st8" d="M497.8,526l-2.8,3.9c-0.3,0.4-1,0.5-1.4,0.2l-6.6-4.8c-0.4-0.3-0.5-1-0.2-1.4l2.8-3.9c0.3-0.4,1-0.5,1.4-0.2
			l6.6,4.8C498.1,524.9,498.2,525.6,497.8,526z"/>
	</g>
	<g>
		<g>
			<g>
				<g class="st10">
					<path class="st11" d="M427.8,402.8c-3.2-17.6-3.2-35.2,0-52.7c0.1-0.7,0.8-1.2,1.5-1.2h20.8c0.7,0,1.3,0.5,1.5,1.2
						c3.2,17.6,3.2,35.2,0,52.7c-0.1,0.7-0.8,1.2-1.5,1.2h-20.8C428.6,404,428,403.5,427.8,402.8z"/>
					<path class="st12" d="M427.8,402.8c-3.2-17.6-3.2-35.2,0-52.7c0.1-0.7,0.8-1.2,1.5-1.2h20.8c0.7,0,1.3,0.5,1.5,1.2
						c3.2,17.6,3.2,35.2,0,52.7c-0.1,0.7-0.8,1.2-1.5,1.2h-20.8C428.6,404,428,403.5,427.8,402.8z"/>
				</g>
				<g>
					<path class="st5" d="M424.1,399.1c-3.2-17.6-3.2-35.2,0-52.7c0.1-0.7,0.8-1.2,1.5-1.2h20.8c0.7,0,1.3,0.5,1.5,1.2
						c3.2,17.6,3.2,35.2,0,52.7c-0.1,0.7-0.8,1.2-1.5,1.2h-20.8C424.9,400.3,424.2,399.8,424.1,399.1z"/>
					<path class="st13" d="M424.1,399.1c-3.2-17.6-3.2-35.2,0-52.7c0.1-0.7,0.8-1.2,1.5-1.2h20.8c0.7,0,1.3,0.5,1.5,1.2
						c3.2,17.6,3.2,35.2,0,52.7c-0.1,0.7-0.8,1.2-1.5,1.2h-20.8C424.9,400.3,424.2,399.8,424.1,399.1z"/>
				</g>
			</g>
			<path class="st8" d="M436.1,376l-3.6-2.7c-0.4-0.3-0.5-1-0.2-1.4l4.7-6.1c0.3-0.4,1-0.5,1.4-0.2l3.6,2.7c0.4,0.3,0.5,1,0.2,1.4
				l-4.7,6.1C437.2,376.2,436.5,376.3,436.1,376z"/>
			<path class="st8" d="M432.6,379.1l-2.1-4c-0.3-0.5-0.1-1.1,0.4-1.3l6.8-3.5c0.5-0.3,1.1-0.1,1.3,0.4l2.1,4
				c0.3,0.5,0.1,1.1-0.4,1.3l-6.8,3.5C433.4,379.8,432.8,379.6,432.6,379.1z"/>
			<circle class="st8" cx="430.9" cy="389.2" r="6.4"/>
			<path class="st20" d="M434.8,387.6c5.1,3.4-0.5,9.3-5.2,6.5C431.1,395.1,436.8,389.8,434.8,387.6z"/>
			<circle class="st8" cx="435.3" cy="382.7" r="0.9"/>
			<circle class="st8" cx="433.4" cy="382.6" r="0.9"/>
			<circle class="st8" cx="433.2" cy="384.1" r="0.9"/>
			<circle class="st8" cx="434.8" cy="384.1" r="0.9"/>
			<circle class="st8" cx="436.7" cy="383.8" r="0.9"/>
			<circle class="st8" cx="437.2" cy="385.2" r="0.9"/>
			<circle class="st8" cx="437" cy="386.9" r="0.9"/>
			<circle class="st8" cx="435.8" cy="385.2" r="0.9"/>
			<circle class="st8" cx="434.1" cy="385.5" r="0.9"/>
			<circle class="st8" cx="435.4" cy="386.7" r="0.9"/>
			<circle class="st8" cx="429.3" cy="386.2" r="2.3"/>
			<circle class="st8" cx="432.9" cy="387.3" r="1.7"/>
			
				<ellipse transform="matrix(0.9642 -0.2653 0.2653 0.9642 -87.8308 128.0843)" class="st8" cx="430.2" cy="389.2" rx="2" ry="1.3"/>
			<path class="st20" d="M434.7,387.3c3,5.3-4.7,8.1-7.6,3.4C428,392.3,435.5,390.2,434.7,387.3z"/>
		</g>
		<g>
			<g>
				<path class="st20" d="M434.3,355.6c0,0,4.1-1.8,6.6-0.2C440.8,355.4,439.3,357.4,434.3,355.6z"/>
				<path class="st20" d="M434.3,355.6c0,0,4.3,0.1,6.1,2.6C440.3,358.2,438,359.4,434.3,355.6z"/>
				<path class="st20" d="M439.5,351.1c0,0-4.3,0-5.3,4.4C434.3,355.6,439.3,354.4,439.5,351.1z"/>
				<path class="st20" d="M427.6,350.7c0,0,5.3,1,6.7,4.9C434.3,355.6,429.9,356.1,427.6,350.7z"/>
				<path class="st20" d="M435.3,348.4c0,0,0.9,2.9-1.1,7.2C434.3,355.6,432.7,351.6,435.3,348.4z"/>
				<path class="st20" d="M425.9,355.4c0,0,5.4-2.2,8.4,0.1C434.4,355.5,433.8,357.1,425.9,355.4z"/>
				<path class="st20" d="M438.8,361.1c0,0-1.8-4.6-4.5-5.5C434.3,355.6,435.5,358.7,438.8,361.1z"/>
				<path class="st20" d="M427.3,359.7c0,0,2.7-3.8,7-4.1C434.3,355.6,432.1,359.2,427.3,359.7z"/>
				<path class="st20" d="M435.8,362.9c0,0,0.7-4.6-1.4-7.4C434.4,355.5,432.8,358.4,435.8,362.9z"/>
				<path class="st20" d="M431.5,348.4c0,0,3,2.1,2.8,7.1C434.4,355.5,431,352.6,431.5,348.4z"/>
				<path class="st20" d="M429.5,361.8c0,0,1.7-5.6,5-6.5C434.5,355.3,434.1,359.4,429.5,361.8z"/>
				<path class="st20" d="M432.4,363.1c0,0-0.7-4.7,2-7.6C434.4,355.5,435.8,358.7,432.4,363.1z"/>
				<path class="st20" d="M434.4,355.2c0,0-0.2-2.7,3-5.9C437.5,349.2,437.3,352.1,434.4,355.2z"/>
				<path class="st20" d="M429.9,349.4c0,0,3.5,2.5,4.4,5.8C434.3,355.2,431.3,354.8,429.9,349.4z"/>
			</g>
			<g>
				<path class="st20" d="M433.9,355.6c0,0,2.5,0.1,3.6,1.5C437.5,357.2,436.1,357.9,433.9,355.6z"/>
				<path class="st20" d="M437,353c0,0-2.6,0-3.1,2.6C433.9,355.6,436.9,354.9,437,353z"/>
				<path class="st20" d="M429.9,352.7c0,0,3.2,0.6,4,2.9C433.9,355.6,431.3,356,429.9,352.7z"/>
				<path class="st20" d="M434.5,351.3c0,0,0.5,1.7-0.6,4.3C433.9,355.6,433,353.3,434.5,351.3z"/>
				<path class="st20" d="M429.8,358.1c0,0,1.6-2.2,4.1-2.5C433.9,355.6,432.6,357.8,429.8,358.1z"/>
				<path class="st20" d="M434.8,360c0,0,0.4-2.7-0.8-4.4C434,355.6,433,357.3,434.8,360z"/>
				<path class="st20" d="M432.3,351.3c0,0,1.8,1.3,1.7,4.2C434,355.6,432,353.9,432.3,351.3z"/>
				<path class="st20" d="M432.8,360.1c0,0-0.4-2.8,1.2-4.5C434,355.6,434.8,357.5,432.8,360.1z"/>
			</g>
		</g>
	</g>
	<g>
		<g>
			<g class="st10">
				<path class="st11" d="M534.2,429.5l3.1-63.1c0-0.7,0.6-1.3,1.3-1.2l15.9,0.8c0.7,0,1.3,0.6,1.2,1.3l-3.1,63.1
					c0,0.7-0.6,1.3-1.3,1.2l-15.9-0.8C534.7,430.8,534.2,430.2,534.2,429.5z"/>
				<path class="st12" d="M534.2,429.5l3.1-63.1c0-0.7,0.6-1.3,1.3-1.2l15.9,0.8c0.7,0,1.3,0.6,1.2,1.3l-3.1,63.1
					c0,0.7-0.6,1.3-1.3,1.2l-15.9-0.8C534.7,430.8,534.2,430.2,534.2,429.5z"/>
			</g>
			<g>
				<path class="st5" d="M530.5,425.8l3.1-63.1c0-0.7,0.6-1.3,1.3-1.2l15.9,0.8c0.7,0,1.3,0.6,1.2,1.3l-3.1,63.1
					c0,0.7-0.6,1.3-1.3,1.2l-15.9-0.8C531,427.1,530.5,426.5,530.5,425.8z"/>
				<path class="st13" d="M530.5,425.8l3.1-63.1c0-0.7,0.6-1.3,1.3-1.2l15.9,0.8c0.7,0,1.3,0.6,1.2,1.3l-3.1,63.1
					c0,0.7-0.6,1.3-1.3,1.2l-15.9-0.8C531,427.1,530.5,426.5,530.5,425.8z"/>
			</g>
		</g>
		<path class="st8" d="M541.3,386.1l6.7,0.3c0.6,0,1,0.5,0.9,1l-0.8,15.1c0,0.6-0.5,1-1,0.9l-6.7-0.3c-0.6,0-1-0.5-0.9-1l0.8-15.1
			C540.2,386.5,540.7,386.1,541.3,386.1z"/>
		<path class="st23" d="M548.2,387.8l-0.7,14.4c0,0.3-0.3,0.6-0.6,0.6l-6.1-0.3c-0.3,0-0.6-0.3-0.6-0.6l0.7-14.4
			c0-0.3,0.3-0.6,0.6-0.6l6.1,0.3C547.9,387.2,548.2,387.5,548.2,387.8z"/>
		
			<rect x="542.3" y="368.4" transform="matrix(-0.9988 -4.968010e-02 4.968010e-02 -0.9988 1066.2155 816.1049)" class="st8" width="1.8" height="52.8"/>
	</g>
	<g>
		<g>
			<g class="st10">
				<path class="st11" d="M346.1,292.3h-28.4c-0.7,0-1.3-0.6-1.3-1.3v-61.6c0-0.7,0.6-1.3,1.3-1.3h28.4c0.7,0,1.3,0.6,1.3,1.3v61.6
					C347.3,291.8,346.8,292.3,346.1,292.3z"/>
				<path class="st12" d="M346.1,292.3h-28.4c-0.7,0-1.3-0.6-1.3-1.3v-61.6c0-0.7,0.6-1.3,1.3-1.3h28.4c0.7,0,1.3,0.6,1.3,1.3v61.6
					C347.3,291.8,346.8,292.3,346.1,292.3z"/>
			</g>
			<g>
				<path class="st5" d="M342.4,288.6H314c-0.7,0-1.3-0.6-1.3-1.3v-61.6c0-0.7,0.6-1.3,1.3-1.3h28.4c0.7,0,1.3,0.6,1.3,1.3v61.6
					C343.6,288.1,343.1,288.6,342.4,288.6z"/>
				<path class="st13" d="M342.4,288.6H314c-0.7,0-1.3-0.6-1.3-1.3v-61.6c0-0.7,0.6-1.3,1.3-1.3h28.4c0.7,0,1.3,0.6,1.3,1.3v61.6
					C343.6,288.1,343.1,288.6,342.4,288.6z"/>
			</g>
		</g>
	</g>
	<line class="st12" x1="377" y1="590.4" x2="349.7" y2="590.4"/>
	<g>
		<g>
			<rect x="259.3" y="560.5" class="st1" width="27.8" height="70.8"/>
			<path class="st11" d="M286.9,560.7v70.4h-27.4v-70.4H286.9 M287.2,560.3h-28.2v71.2h28.2V560.3L287.2,560.3z"/>
		</g>
		<line class="st24" x1="264" y1="570" x2="282.3" y2="571.4"/>
		<line class="st24" x1="264" y1="575.2" x2="282.3" y2="573.5"/>
		<line class="st24" x1="264" y1="577.1" x2="282.3" y2="578.5"/>
		<line class="st24" x1="264" y1="582.3" x2="282.3" y2="580.6"/>
		<line class="st24" x1="264" y1="609.5" x2="282.3" y2="610.9"/>
		<line class="st24" x1="264" y1="614.7" x2="282.3" y2="613"/>
		<line class="st24" x1="264" y1="616.7" x2="282.3" y2="618"/>
		<line class="st24" x1="264" y1="621.8" x2="282.3" y2="620.2"/>
		<line class="st25" x1="285.2" y1="560.3" x2="285.2" y2="631.2"/>
		<line class="st25" x1="285.2" y1="595.7" x2="287.1" y2="595.7"/>
		<polyline class="st12" points="287.1,588 288.1,588 288.1,590.7 287.1,590.7 		"/>
		<polyline class="st12" points="287.1,600.8 288.1,600.8 288.1,603.5 287.1,603.5 		"/>
		<line class="st12" x1="273.2" y1="560.3" x2="273.2" y2="631.2"/>
	</g>
	<g>
		<g>
			<rect x="259.3" y="628.3" class="st1" width="27.8" height="70.8"/>
			<path class="st11" d="M286.9,628.5v70.4h-27.4v-70.4H286.9 M287.2,628.1h-28.2v71.2h28.2V628.1L287.2,628.1z"/>
		</g>
		<line class="st24" x1="264" y1="637.8" x2="282.3" y2="639.2"/>
		<line class="st24" x1="264" y1="643" x2="282.3" y2="641.3"/>
		<line class="st24" x1="264" y1="644.9" x2="282.3" y2="646.3"/>
		<line class="st24" x1="264" y1="650.1" x2="282.3" y2="648.4"/>
		<line class="st24" x1="264" y1="677.3" x2="282.3" y2="678.7"/>
		<line class="st24" x1="264" y1="682.5" x2="282.3" y2="680.8"/>
		<line class="st24" x1="264" y1="684.5" x2="282.3" y2="685.8"/>
		<line class="st24" x1="264" y1="689.6" x2="282.3" y2="688"/>
		<line class="st25" x1="285.2" y1="628.1" x2="285.2" y2="699"/>
		<line class="st25" x1="285.2" y1="663.6" x2="287.1" y2="663.6"/>
		<polyline class="st12" points="287.1,655.8 288.1,655.8 288.1,658.5 287.1,658.5 		"/>
		<polyline class="st12" points="287.1,668.6 288.1,668.6 288.1,671.3 287.1,671.3 		"/>
		<line class="st12" x1="273.2" y1="628.1" x2="273.2" y2="699"/>
	</g>
	<g>
		<g>
			<rect x="250.8" y="393.1" class="st9" width="27.2" height="27.2"/>
		</g>
		<g>
			<circle class="st26" cx="264.4" cy="406.7" r="6.4"/>
			<path class="st26" d="M263.7,410.8c2.4,0,4.4-2,4.4-4.4"/>
		</g>
	</g>
	<g>
		<path class="st9" d="M308.4,769.2v39.9c0,0.4-0.3,0.7-0.7,0.7h-47.8c-0.4,0-0.7-0.3-0.7-0.7v-39.9c0-0.4,0.3-0.7,0.7-0.7h47.8
			C308.1,768.6,308.4,768.9,308.4,769.2z"/>
		<path class="st9" d="M306.1,772.6v32.9c0,1.1-0.9,2-2,2h-40.6c-1.1,0-2-0.9-2-2v-32.9c0-1.1,0.9-2,2-2h40.6
			C305.2,770.6,306.1,771.5,306.1,772.6z"/>
		<path class="st9" d="M304.2,774.5v29.1c0,1.1-0.9,2-2,2h-36.8c-1.1,0-2-0.9-2-2v-29.1c0-1.1,0.9-2,2-2h36.8
			C303.3,772.5,304.2,773.4,304.2,774.5z"/>
		<circle class="st9" cx="268.9" cy="778.5" r="2.1"/>
	</g>
	<g>
		<g>
			<g class="st16">
				<path class="st17" d="M246,407.2c0-1.5-0.1-9.8-0.2-11.2c-0.1-1.2-0.3-2.3-0.5-3.4h-16c-0.2,0.9-0.3,1.9-0.4,2.9
					c-0.2,1.6-0.2,11.2-0.2,12.9c0,3.7,3,11.3,8.6,11.3C243.1,419.7,246,411.5,246,407.2z"/>
				<path class="st18" d="M246,407.2c0-1.5-0.1-9.8-0.2-11.2c-0.1-1.2-0.3-2.3-0.5-3.4h-16c-0.2,0.9-0.3,1.9-0.4,2.9
					c-0.2,1.6-0.2,11.2-0.2,12.9c0,3.7,3,11.3,8.6,11.3C243.1,419.7,246,411.5,246,407.2z"/>
			</g>
			<g>
				<path class="st1" d="M242.3,403.5c0-1.5-0.1-9.8-0.2-11.2c-0.1-1.2-0.3-2.3-0.5-3.4h-16c-0.2,0.9-0.3,1.9-0.4,2.9
					c-0.2,1.6-0.2,11.2-0.2,12.9c0,3.7,3,11.3,8.6,11.3C239.4,416,242.3,407.8,242.3,403.5z"/>
				<path class="st12" d="M242.3,403.5c0-1.5-0.1-9.8-0.2-11.2c-0.1-1.2-0.3-2.3-0.5-3.4h-16c-0.2,0.9-0.3,1.9-0.4,2.9
					c-0.2,1.6-0.2,11.2-0.2,12.9c0,3.7,3,11.3,8.6,11.3C239.4,416,242.3,407.8,242.3,403.5z"/>
			</g>
		</g>
		<g>
			<circle class="st9" cx="237.5" cy="392.7" r="0.5"/>
			<circle class="st9" cx="229.8" cy="392.7" r="0.5"/>
		</g>
		<path class="st9" d="M233.6,413.7c-3.7,0-6.7-5.6-6.7-9.3s3-6.7,6.7-6.7c3.7,0,6.7,3,6.7,6.7S237.3,413.7,233.6,413.7z"/>
		<path class="st9" d="M235.9,402.9v-2.5c0-0.7-1-0.8-2.3-0.8c-1.2,0-2.3,0.2-2.3,0.8v2.5c0,1.2,1,2.3,2.3,2.3
			C234.9,405.2,235.9,404.2,235.9,402.9z"/>
		<path class="st12" d="M242.1,392.7c-2.1-1.3-5.3-2.1-8.9-2.1c-3.1,0-5.9,0.6-8,1.6"/>
	</g>
	<g>
		<g>
			<g class="st16">
				<path class="st17" d="M232.2,477.4h-8.9v-21.9h8.9c1.7,0,3,2,3,4.5v12.8C235.2,475.4,233.9,477.4,232.2,477.4z"/>
				<path class="st18" d="M232.2,477.4h-8.9v-21.9h8.9c1.7,0,3,2,3,4.5v12.8C235.2,475.4,233.9,477.4,232.2,477.4z"/>
			</g>
			<g>
				<path class="st1" d="M228.5,473.7h-8.9v-21.9h8.9c1.7,0,3,2,3,4.5v12.8C231.5,471.7,230.2,473.7,228.5,473.7z"/>
				<path class="st12" d="M228.5,473.7h-8.9v-21.9h8.9c1.7,0,3,2,3,4.5v12.8C231.5,471.7,230.2,473.7,228.5,473.7z"/>
			</g>
		</g>
		<path class="st9" d="M227.7,472.6H223c-1.4,0-2.6-1.1-2.6-2.6v-10.2c0-1.4,1.1-2.6,2.6-2.6h4.7c1.4,0,2.6,1.1,2.6,2.6V470
			C230.2,471.4,229.1,472.6,227.7,472.6z"/>
		<circle class="st9" cx="225" cy="460.3" r="0.8"/>
	</g>
</g>
<g id="Ouvertures">
	<g>
		<path class="st27" d="M249.2,540.7c22.5,0,40.7-18.6,40.7-41.5"/>
		<line class="st12" x1="249.2" y1="499.2" x2="289.9" y2="499.2"/>
	</g>
	<g>
		<path class="st27" d="M351.1,690.8c21.3,0,38.6-16.6,38.6-37"/>
		<line class="st12" x1="351.1" y1="653.7" x2="389.7" y2="653.7"/>
	</g>
	<g>
		<path class="st27" d="M303,701.1c0,21.1,17.4,38.2,39,38.2"/>
		<line class="st12" x1="342" y1="701.1" x2="342" y2="739.3"/>
	</g>
	<g>
		<path class="st27" d="M303.3,378.3c0-20.3,16.8-36.8,37.5-36.8"/>
		<line class="st12" x1="340.9" y1="378.3" x2="340.9" y2="341.5"/>
	</g>
	<g>
		<path class="st27" d="M286.2,468.3c19.1,0,34.6-15.8,34.6-35.3"/>
		<line class="st12" x1="286.2" y1="433" x2="320.8" y2="433"/>
	</g>
	<g>
		<polygon class="st11" points="244.8,170.8 245,174.3 242.6,174.5 242.4,170.9 		"/>
		<polygon class="st11" points="338.9,165.6 339.1,169.1 336.4,169.3 336.2,165.7 		"/>
		<g>
			<polygon class="st1" points="245,171 336,165.9 336.2,169.1 245.2,174.1 			"/>
			<path class="st11" d="M335.9,166.1l0.1,2.8l-90.6,5.1l-0.1-2.8L335.9,166.1 M336.2,165.7l-91.4,5.1l0.2,3.5l91.4-5.1L336.2,165.7
				L336.2,165.7z"/>
		</g>
		<polyline class="st27" points="304.4,171 304,186.3 245.8,174.3 		"/>
		<polygon class="st11" points="305.8,167.4 306,170.9 301.8,171.2 301.6,167.7 		"/>
		<g>
			<path class="st27" d="M304.4,171c0.9,16.8,15.7,29.7,33.2,28.7"/>
			<line class="st12" x1="335.9" y1="169.3" x2="337.6" y2="199.7"/>
		</g>
	</g>
	<g>
		<polygon class="st11" points="545.1,800.3 541.7,800.3 541.7,802.6 545.1,802.6 		"/>
		<polygon class="st11" points="545,710.2 541.6,710.3 541.6,712.9 545,712.9 		"/>
		<g>
			<polygon class="st1" points="541.8,713.1 544.9,713 544.9,800.1 541.8,800.1 			"/>
			<path class="st11" d="M544.7,713.2l0.1,86.7l-2.7,0l-0.1-86.7L544.7,713.2 M545,712.9l-3.4,0l0.1,87.4l3.4,0L545,712.9L545,712.9
				z"/>
		</g>
		<polyline class="st27" points="541.6,743.5 526.8,744.7 541.6,799.5 		"/>
		<polygon class="st11" points="545.1,742 541.6,742 541.6,746 545.1,746 		"/>
		<g>
			<path class="st27" d="M541.6,743.5c-16.4,0-29.7-13.4-29.7-30.1"/>
			<line class="st12" x1="541.6" y1="713.3" x2="511.9" y2="713.4"/>
		</g>
	</g>
	<g>
		<g>
			<rect x="365.2" y="260" class="st1" width="190.1" height="10.9"/>
			<path class="st11" d="M555.1,260.2v10.5H365.4v-10.5H555.1 M555.5,259.8H365v11.3h190.5V259.8L555.5,259.8z"/>
		</g>
		<g>
			<rect x="365.2" y="260" class="st1" width="94.9" height="5.3"/>
			<path class="st11" d="M459.9,260.2v4.9h-94.5v-4.9H459.9 M460.2,259.8H365v5.6h95.2V259.8L460.2,259.8z"/>
		</g>
		<g>
			<rect x="461.3" y="266.1" class="st1" width="94" height="4.8"/>
			<path class="st11" d="M555.1,266.3v4.4h-93.6v-4.4H555.1 M555.5,265.9h-94.4v5.2h94.4V265.9L555.5,265.9z"/>
		</g>
		<g>
			<g>
				<line class="st28" x1="425.9" y1="276.4" x2="402.8" y2="276.4"/>
				<g>
					<polygon class="st11" points="404.1,274.9 404.3,275.1 403,276.4 404.3,277.6 404.1,277.9 402.4,276.4 					"/>
				</g>
			</g>
		</g>
		<rect x="458.1" y="265.9" class="st11" width="6" height="5.2"/>
		<rect x="458.1" y="259.8" class="st11" width="6" height="5.6"/>
		<rect x="551" y="266" class="st11" width="4.5" height="5.1"/>
		<rect x="365" y="259.8" class="st11" width="5.6" height="5.6"/>
		<line class="st29" x1="458.6" y1="262.8" x2="365.5" y2="262.8"/>
		<line class="st29" x1="553.3" y1="268.5" x2="460.2" y2="268.5"/>
	</g>
	<g>
		
			<rect x="543.8" y="607" transform="matrix(6.390493e-02 -0.998 0.998 6.390493e-02 -97.3566 1113.6672)" class="st11" width="2.3" height="3.5"/>
		
			<rect x="548.8" y="516.2" transform="matrix(6.390500e-02 -0.998 0.998 6.390500e-02 -1.2942 1034.6254)" class="st11" width="4.2" height="3.5"/>
		<g>
			<polygon class="st1" points="543.5,607.3 549.1,520.2 552.3,520.4 546.6,607.5 			"/>
			<path class="st11" d="M549.3,520.4l2.8,0.2l-5.6,86.7l-2.8-0.2L549.3,520.4 M549,520l-5.7,87.5l3.5,0.2l5.7-87.5L549,520L549,520
				z"/>
		</g>
		<polyline class="st27" points="547,562.8 529.2,563.6 543.3,606.6 		"/>
		
			<rect x="545.8" y="560.8" transform="matrix(6.390493e-02 -0.998 0.998 6.390493e-02 -48.5503 1073.3927)" class="st11" width="4.1" height="3.5"/>
		<g>
			<path class="st27" d="M547,562.8c-24.2-1.5-42.5-22-40.9-46.7"/>
			<line class="st12" x1="549.8" y1="520" x2="506.1" y2="517.2"/>
		</g>
	</g>
</g>
<g id="Étiquettes" class="st30">
	<text transform="matrix(1 0 0 1 586.8359 785.751)" class="st31 st32 st33">Jardin</text>
	<text transform="matrix(1 0 0 1 583.8428 796.1191)" class="st31 st34 st33">177.18 m</text>
	<text transform="matrix(0.583 0 0 0.583 619.7402 793.2422)" class="st31 st34 st33">2</text>
	<text transform="matrix(1 0 0 1 476.7764 787.877)" class="st31 st32 st35">Chambre 2</text>
	<text transform="matrix(1 0 0 1 486.1104 798.6738)" class="st31 st34 st35">15.40 m</text>
	<text transform="matrix(0.583 0 0 0.583 518.2754 795.6777)" class="st31 st34 st35">2</text>
	<text transform="matrix(1 0 0 1 304.0938 737.1748)" class="st31 st32 st35">WC/ </text>
	<text transform="matrix(1 0 0 1 294.1606 747.9717)" class="st31 st32 st35">DOUCHE</text>
	<text transform="matrix(1 0 0 1 298.9419 758.7686)" class="st31 st34 st35">4.80 m</text>
	<text transform="matrix(0.583 0 0 0.583 325.8887 755.7725)" class="st31 st34 st35">2</text>
	<text transform="matrix(1 0 0 1 277.0581 352.123)" class="st31 st32 st35">Chambre 1</text>
	<text transform="matrix(1 0 0 1 286.3926 362.9199)" class="st31 st34 st35">13.20 m</text>
	<text transform="matrix(0.583 0 0 0.583 318.5576 359.9238)" class="st31 st34 st35">2</text>
	<text transform="matrix(1 0 0 1 455.7275 600.8105)" class="st31 st32 st35">Espace Jour </text>
	<text transform="matrix(1 0 0 1 468.7959 611.6074)" class="st31 st34 st35">37.00 m</text>
	<text transform="matrix(0.583 0 0 0.583 500.9609 608.6113)" class="st31 st34 st35">2</text>
	<text transform="matrix(1 0 0 1 518.3994 234.208)" class="st31 st32 st35">Terrasse </text>
	<text transform="matrix(1 0 0 1 523.6943 245.0049)" class="st31 st34 st35">19.50 m</text>
	<text transform="matrix(0.583 0 0 0.583 555.8594 242.0088)" class="st31 st34 st35">2</text>
	<text transform="matrix(1 0 0 1 222.3735 441.3535)" class="st31 st32 st35">Buanderie</text>
	<text transform="matrix(1 0 0 1 234.8926 452.1504)" class="st31 st34 st35">3.00 m</text>
	<text transform="matrix(0.583 0 0 0.583 261.8389 449.1543)" class="st31 st34 st35">2</text>
	<text transform="matrix(1 0 0 1 277.1733 544.8008)" class="st31 st32 st35">Dégagement</text>
	<text transform="matrix(1 0 0 1 292.5176 555.5977)" class="st31 st34 st35">13.20 m</text>
	<text transform="matrix(0.583 0 0 0.583 324.6826 552.6016)" class="st31 st34 st35">2</text>
</g>
<g id="Murs">
	<polygon class="st11" points="574,337.1 564.2,521.5 549.6,520.2 549.9,516.7 545.7,516.2 554.8,340.3 561.4,340.8 561.9,336.1 	
		"/>
	
		<rect x="341.5" y="478" transform="matrix(-1.836970e-16 1 -1 -1.836970e-16 834.3336 132.089)" class="st11" width="19.3" height="10.5"/>
	<polygon class="st11" points="365.2,150.7 365.1,265.4 365,271.1 361.9,271.1 345.9,271.1 345.9,171.5 339,172 338.6,165.5 
		334.5,165.4 333.7,152.5 	"/>
	<polygon class="st11" points="351.1,476.8 351.1,162.1 345.9,162.1 345.9,379 340.6,379 340.6,384.1 345.9,384.1 345.9,476.8 	"/>
	<path class="st11" d="M557.4,647.7l1.7-39l-13.2,1l-3,1.9l-3-0.5l-1.7,32.2h-161v-26.2h-27.3v-56.9h27.5v-5.7h-32v99.4h5.3v-5.1
		l187.7,0.2v58.9h3.3v3.9h15.7V647.7z"/>
	<polygon class="st11" points="578.6,252.6 574,337.1 554.7,343.8 558.5,271.1 555.4,271.1 555.3,252.6 	"/>
	<path class="st11" d="M557.4,830v-30.7l-16.1,0.2v4.2l-2.9,0v6.1H351.3V690.4h-5.5v6.8h-5.3v4.3h5.3v108.3h-86.6v-98.2V554.5h-11.4
		v90.9v-80.3v-21.2l0-3.7h-1.9h-8.6l0.4,157.6l0,123.7h203.4v9.3L557.4,830z"/>
	<polygon class="st11" points="248,499.2 248,496.2 248,482.7 219.5,482.7 219.5,410.9 219.5,178.1 243.3,176.1 243.3,174.5 
		246.6,173.9 246.4,157 228.7,158.1 208.1,157 208.1,493.1 237.2,493.1 237.2,499.2 245.4,499.2 	"/>
	<polyline class="st12" points="237.2,499.2 237.2,493.1 208.1,493.1 208.1,157 225.9,158 365.2,150.7 365.2,82.9 587.2,82.9 
		565.1,504.2 557.4,640.6 557.4,830 441.1,830.8 441.1,821.5 237.7,821.5 237.7,697.8 237.3,540.2 	"/>
	<rect x="256.6" y="554.5" class="st11" width="30.8" height="5.8"/>
	<rect x="256.5" y="697.3" class="st11" width="48.7" height="4.1"/>
	
		<rect x="258.7" y="338.8" transform="matrix(-1.836970e-16 1 -1 -1.836970e-16 642.8071 120.2923)" class="st11" width="5.1" height="85.5"/>
	
		<rect x="281.1" y="383.5" transform="matrix(-1 -1.224647e-16 1.224647e-16 -1 567.356 816.5473)" class="st11" width="5.1" height="49.4"/>
	
		<rect x="281.1" y="468.3" transform="matrix(-1 -1.224647e-16 1.224647e-16 -1 567.356 955.9296)" class="st11" width="5.1" height="19.3"/>
	
		<rect x="249.8" y="352.6" transform="matrix(-1.836970e-16 1 -1 -1.836970e-16 638.8415 134.0748)" class="st11" width="5.1" height="67.7"/>
	
		<rect x="249.8" y="451.4" transform="matrix(-1.836970e-16 1 -1 -1.836970e-16 737.6297 232.8631)" class="st11" width="5.1" height="67.7"/>
	<polygon class="st11" points="559,608.3 558.6,616.5 539.7,615.5 540,610.4 543,610.6 543.1,607.5 	"/>
	<polygon class="st11" points="564.4,521 564.9,512.9 545.9,511.9 545.7,517 549,517.1 548.8,520.2 	"/>
</g>
<g id="Entree">
	<polygon class="st36" points="242.5,513.7 248.6,520.7 242.5,527.8 	"/>
</g>
<g id="Nord">
	<circle class="st37" cx="165.2" cy="798.7" r="14.7"/>
	<line class="st38" x1="174.7" y1="795.6" x2="183.8" y2="792.7"/>
	<text transform="matrix(1 0 0 1 157.5742 805.7969)" class="st11 st32 st39">N</text>
</g>
</svg>
