<?xml version="1.0" encoding="utf-8"?>
<!-- Generator: Adobe Illustrator 22.0.1, SVG Export Plug-In . SVG Version: 6.00 Build 0)  -->
<svg version="1.1" xmlns="http://www.w3.org/2000/svg" xmlns:xlink="http://www.w3.org/1999/xlink" x="0px" y="0px"
	 viewBox="0 0 595.3 595.3" style="enable-background:new 0 0 595.3 595.3;" xml:space="preserve">
<style type="text/css">
	.st0{fill:none;}
	.st1{fill:#FFFFFF;}
	.st2{fill:#E3E3E3;}
	.st3{fill:#EAF6FE;}
	.st4{opacity:0.8;fill:#FFFFFF;}
	.st5{fill:url(#SVGID_1_);}
	.st6{fill:url(#SVGID_2_);}
	.st7{opacity:0.2;}
	.st8{fill:#738793;}
	.st9{fill:none;stroke:#738793;stroke-width:0.3;stroke-miterlimit:10;}
	.st10{fill:none;stroke:#717E86;stroke-width:0.3;stroke-miterlimit:10;}
	.st11{fill:#FFFFFF;stroke:#717E86;stroke-width:0.3;stroke-miterlimit:10;}
	.st12{fill:#717E86;}
	.st13{opacity:5.000000e-02;}
	.st14{fill:none;stroke:#CCD3D8;stroke-width:0.3;stroke-miterlimit:10;}
	.st15{fill:#EAF6FE;stroke:#CCD3D8;stroke-width:0.3;stroke-miterlimit:10;}
	.st16{fill:#EAF6FE;stroke:#CCD3D8;stroke-width:0.3;stroke-linecap:round;stroke-miterlimit:10;}
	.st17{fill:#EAF6FE;stroke:#CCD3D8;stroke-width:0.3033;stroke-miterlimit:10;}
	.st18{fill:#EAF6FE;stroke:#CCD3D8;stroke-width:0.3;stroke-linecap:round;stroke-linejoin:round;stroke-miterlimit:10;}
	.st19{fill:#EAF6FE;stroke:#CCD3D8;stroke-width:0.2953;stroke-miterlimit:10;}
	.st20{fill:none;stroke:#000000;stroke-width:0.12;stroke-linecap:square;stroke-linejoin:bevel;stroke-miterlimit:10;}
	.st21{fill:none;stroke:#717E86;stroke-width:0.6204;stroke-miterlimit:10;}
	.st22{fill:none;stroke:#717E86;stroke-width:0.5;stroke-miterlimit:10;}
	.st23{fill:#EAF6FE;stroke:#717E86;stroke-width:0.3;stroke-miterlimit:10;}
	.st24{fill:none;stroke:#717E86;stroke-width:0.3;stroke-miterlimit:10;stroke-dasharray:2,2;}
	.st25{fill:none;stroke:#717E86;stroke-width:0.3;stroke-miterlimit:1;}
	.st26{fill:none;stroke:#717E86;stroke-width:0.1;stroke-miterlimit:1;}
	.st27{display:none;}
	.st28{display:inline;fill:#3C3C3B;}
	.st29{font-family:'Lato-Black';}
	.st30{font-size:7px;}
	.st31{font-family:'Lato-Italic';}
	.st32{fill:none;stroke:#A5B9C4;stroke-miterlimit:10;}
	.st33{fill:#3C3C3B;}
	.st34{fill:none;stroke:#717E86;stroke-miterlimit:10;}
	.st35{fill:none;stroke:#717E86;stroke-width:2;stroke-miterlimit:10;}
	.st36{font-size:16.4252px;}
</style>
<pattern  width="3.8" height="3.4" patternUnits="userSpaceOnUse" id="Nouvelle_nuance_de_motif_7" viewBox="0 -3.4 3.8 3.4" style="overflow:visible;">
	<g>
		<rect y="-3.4" class="st0" width="3.8" height="3.4"/>
		<rect x="0.1" y="-3.4" class="st1" width="3.7" height="3.4"/>
		<rect x="3.7" y="-3.4" class="st2" width="0.1" height="3.4"/>
		<rect x="0" y="-3.4" class="st2" width="0.1" height="3.4"/>
	</g>
</pattern>
<g id="Fond">
	<polyline class="st3" points="271.6,171.1 271.6,37.7 491.6,48.8 491.6,165.8 491.6,239.6 336.9,239.6 336.9,363 354.8,363 
		354.8,553.9 347.8,552.8 271.6,556.8 271.7,496.7 143.5,496.7 143.7,493.1 141.2,493 143.8,454.6 145.8,454.8 155.7,264 
		155.7,214.3 153.3,214.3 153.3,175.9 155.7,175.7 155.7,171.1 	"/>
</g>
<g id="Sols">
	
		<rect x="349" y="152.9" transform="matrix(6.123234e-17 -1 1 6.123234e-17 180.403 582.4883)" class="st4" width="64.9" height="96.2"/>
	<pattern  id="SVGID_1_" xlink:href="#Nouvelle_nuance_de_motif_7" patternTransform="matrix(-1 0 0 -1 -15781.3281 -14610.0732)">
	</pattern>
	<polygon class="st5" points="260.3,503 145.6,503 145.6,508.5 131.7,508.5 128.1,575.6 260.3,568.8 	"/>
	<pattern  id="SVGID_2_" xlink:href="#Nouvelle_nuance_de_motif_7" patternTransform="matrix(-1 0 0 -1 -15781.3281 -14610.0732)">
	</pattern>
	<polygon class="st6" points="267.9,26.2 144.5,19.4 144.5,165.4 270.9,165.4 	"/>
</g>
<g id="Installations">
	<g>
		<g>
			<g class="st7">
				<path class="st8" d="M344.2,179.7c-0.8,0-5.4,0-6.2,0.1c-0.6,0.1-1.3,0.1-1.9,0.3v8.8c0.5,0.1,1,0.2,1.6,0.2
					c0.9,0.1,6.2,0.1,7.1,0.1c2,0,6.2-1.6,6.2-4.7C351.1,181.3,346.6,179.7,344.2,179.7z"/>
				<path class="st9" d="M344.2,179.7c-0.8,0-5.4,0-6.2,0.1c-0.6,0.1-1.3,0.1-1.9,0.3v8.8c0.5,0.1,1,0.2,1.6,0.2
					c0.9,0.1,6.2,0.1,7.1,0.1c2,0,6.2-1.6,6.2-4.7C351.1,181.3,346.6,179.7,344.2,179.7z"/>
			</g>
			<g>
				<path class="st1" d="M341.2,176.7c-0.8,0-5.4,0-6.2,0.1c-0.6,0.1-1.3,0.1-1.9,0.3v8.8c0.5,0.1,1,0.2,1.6,0.2
					c0.9,0.1,6.2,0.1,7.1,0.1c2,0,6.2-1.6,6.2-4.7C348.1,178.3,343.6,176.7,341.2,176.7z"/>
				<path class="st10" d="M341.2,176.7c-0.8,0-5.4,0-6.2,0.1c-0.6,0.1-1.3,0.1-1.9,0.3v8.8c0.5,0.1,1,0.2,1.6,0.2
					c0.9,0.1,6.2,0.1,7.1,0.1c2,0,6.2-1.6,6.2-4.7C348.1,178.3,343.6,176.7,341.2,176.7z"/>
			</g>
		</g>
		<g>
			<circle class="st11" cx="335.3" cy="179.3" r="0.3"/>
			<circle class="st11" cx="335.3" cy="183.6" r="0.3"/>
		</g>
		<path class="st11" d="M346.9,181.5c0,2-3.1,3.7-5.1,3.7c-2,0-3.7-1.6-3.7-3.7s1.6-3.7,3.7-3.7
			C343.8,177.8,346.9,179.4,346.9,181.5z"/>
		<path class="st11" d="M340.9,180.2h-1.4c-0.4,0-0.4,0.6-0.4,1.2c0,0.7,0.1,1.2,0.4,1.2h1.4c0.7,0,1.2-0.6,1.2-1.2
			C342.2,180.8,341.6,180.2,340.9,180.2z"/>
		<path class="st10" d="M335.3,176.8c-0.7,1.2-1.2,2.9-1.2,4.9c0,1.7,0.3,3.2,0.9,4.4"/>
	</g>
	<g>
		<rect x="252.8" y="369.9" class="st1" width="15.9" height="114.1"/>
		<path class="st12" d="M268.6,370v113.8H253V370H268.6 M268.9,369.7h-16.2v114.4h16.2V369.7L268.9,369.7z"/>
	</g>
	<g>
		<rect x="252.8" y="369.9" class="st1" width="15.9" height="16.7"/>
		<path class="st12" d="M268.6,370v16.4H253V370H268.6 M268.9,369.7h-16.2v17h16.2V369.7L268.9,369.7z"/>
	</g>
	<g>
		<g>
			<g>
				<g class="st13">
					<path class="st12" d="M386.5,66.2v-7.4c0-0.6,0.4-1,1-1h6.6c0.6,0,1,0.4,1,1v7.4c0,0.6-0.4,1-1,1h-6.6
						C387,67.2,386.5,66.7,386.5,66.2z"/>
					<path class="st10" d="M386.5,66.2v-7.4c0-0.6,0.4-1,1-1h6.6c0.6,0,1,0.4,1,1v7.4c0,0.6-0.4,1-1,1h-6.6
						C387,67.2,386.5,66.7,386.5,66.2z"/>
				</g>
				<g>
					<path class="st3" d="M383.5,63.2v-7.4c0-0.6,0.4-1,1-1h6.6c0.6,0,1,0.4,1,1v7.4c0,0.6-0.4,1-1,1h-6.6
						C384,64.2,383.5,63.7,383.5,63.2z"/>
					<path class="st14" d="M383.5,63.2v-7.4c0-0.6,0.4-1,1-1h6.6c0.6,0,1,0.4,1,1v7.4c0,0.6-0.4,1-1,1h-6.6
						C384,64.2,383.5,63.7,383.5,63.2z"/>
				</g>
			</g>
			<path class="st15" d="M387.3,57.4v-0.3c0-0.1,0.1-0.2,0.2-0.2h4.6v0.8h-4.6C387.3,57.6,387.3,57.5,387.3,57.4z"/>
			<path class="st15" d="M388,58.9v-0.3c0-0.1,0.1-0.2,0.2-0.2h3.9v0.8h-3.9C388.1,59.1,388,59,388,58.9z"/>
			<path class="st15" d="M386.8,58.2v-0.3c0-0.1,0.1-0.2,0.2-0.2h5.1v0.8H387C386.9,58.4,386.8,58.3,386.8,58.2z"/>
		</g>
		<g>
			<g class="st13">
				<path class="st12" d="M339.7,69.2h54.4c0.6,0,1,0.4,1,1v43c0,0.6-0.4,1-1,1h-54.4c-0.6,0-1-0.4-1-1v-43
					C338.7,69.6,339.1,69.2,339.7,69.2z"/>
				<path class="st10" d="M339.7,69.2h54.4c0.6,0,1,0.4,1,1v43c0,0.6-0.4,1-1,1h-54.4c-0.6,0-1-0.4-1-1v-43
					C338.7,69.6,339.1,69.2,339.7,69.2z"/>
			</g>
			<g>
				<path class="st3" d="M336.7,66.2h54.4c0.6,0,1,0.4,1,1v43c0,0.6-0.4,1-1,1h-54.4c-0.6,0-1-0.4-1-1v-43
					C335.7,66.6,336.1,66.2,336.7,66.2z"/>
				<path class="st14" d="M336.7,66.2h54.4c0.6,0,1,0.4,1,1v43c0,0.6-0.4,1-1,1h-54.4c-0.6,0-1-0.4-1-1v-43
					C335.7,66.6,336.1,66.2,336.7,66.2z"/>
			</g>
		</g>
		<path class="st15" d="M339.7,69.2h48.4c0.6,0,1,0.4,1,1v37c0,0.6-0.4,1-1,1h-48.4c-0.6,0-1-0.4-1-1v-37
			C338.7,69.6,339.1,69.2,339.7,69.2z"/>
		<path class="st15" d="M386.2,71.7c1,1.7,1.2,13.4,0.1,15.2c-0.1,0.1-5.6,0.8-8.6,0.3c-0.5-0.1-1.2-0.6-1.5-1.4
			c-1.1-3-0.6-9.9,0.3-13.2c0.4-1.2,1.5-1.1,2-1.2C380.8,71,385.9,71.2,386.2,71.7z"/>
		<path class="st15" d="M386.4,90.2c1.3,3.3,0.9,14.6,0.2,15.2c-0.2,0.2-5.6,0.9-8.1,0.3c-0.4-0.1-0.7-0.2-0.9-0.4
			c-1-1.4-1.7-14.5-1.6-14.7c0.1-0.2,1.2-0.1,1.8-0.4C379.1,89.6,386.2,89.7,386.4,90.2z"/>
		<g>
			<path class="st15" d="M368.5,106.2c0,0-1.5-15.5-1.5-17.4c0-2,1.5-17.4,1.5-17.4c0-1.5-2.5-2.7-1-2.7h8.2c1.5,0,2.7,1.2,2.7,2.7
				c0,0-0.8,15-0.8,17.3s0.8,17.5,0.8,17.5c0,1.5-1.2,2.7-2.7,2.7h-8.2C366,108.8,368.5,107.6,368.5,106.2z"/>
			<path class="st16" d="M376.2,74.4c-0.2-1.8-2.7-5.6-3.5-5.7"/>
			<path class="st16" d="M375.4,93.3c-0.1-0.3-4-8.4-5.9-7.5c-0.7,0.4-0.3,1.6,0.1,2.2"/>
			<path class="st16" d="M377.1,106.5c-1.1-1.1-4.3-5.9-6.7-12.4"/>
		</g>
		<g>
			<g>
				<g class="st13">
					<path class="st12" d="M395.1,117.1v7.4c0,0.6-0.4,1-1,1h-6.6c-0.6,0-1-0.4-1-1v-7.4c0-0.6,0.4-1,1-1h6.6
						C394.6,116.1,395.1,116.6,395.1,117.1z"/>
					<path class="st10" d="M395.1,117.1v7.4c0,0.6-0.4,1-1,1h-6.6c-0.6,0-1-0.4-1-1v-7.4c0-0.6,0.4-1,1-1h6.6
						C394.6,116.1,395.1,116.6,395.1,117.1z"/>
				</g>
				<g>
					<path class="st3" d="M392.1,114.1v7.4c0,0.6-0.4,1-1,1h-6.6c-0.6,0-1-0.4-1-1v-7.4c0-0.6,0.4-1,1-1h6.6
						C391.6,113.1,392.1,113.6,392.1,114.1z"/>
					<path class="st14" d="M392.1,114.1v7.4c0,0.6-0.4,1-1,1h-6.6c-0.6,0-1-0.4-1-1v-7.4c0-0.6,0.4-1,1-1h6.6
						C391.6,113.1,392.1,113.6,392.1,114.1z"/>
				</g>
			</g>
			<path class="st15" d="M385.8,118.6l1.1-2.9c0.2-0.5,0.8-0.8,1.3-0.6l0.9,0.4c0.5,0.2,0.8,0.8,0.6,1.3l-1.1,2.9
				c-0.2,0.5-0.8,0.8-1.3,0.6l-0.9-0.4C385.8,119.7,385.6,119.2,385.8,118.6z"/>
			<circle class="st15" cx="387.7" cy="117.7" r="0.5"/>
		</g>
	</g>
	<g>
		<g>
			<g>
				<g class="st13">
					<path class="st12" d="M485,84v-7.4c0-0.6,0.4-1,1-1h6.6c0.6,0,1,0.4,1,1V84c0,0.6-0.4,1-1,1H486C485.5,85,485,84.6,485,84z"/>
					<path class="st10" d="M485,84v-7.4c0-0.6,0.4-1,1-1h6.6c0.6,0,1,0.4,1,1V84c0,0.6-0.4,1-1,1H486C485.5,85,485,84.6,485,84z"/>
				</g>
				<g>
					<path class="st3" d="M482,81v-7.4c0-0.6,0.4-1,1-1h6.6c0.6,0,1,0.4,1,1V81c0,0.6-0.4,1-1,1H483C482.5,82,482,81.6,482,81z"/>
					<path class="st14" d="M482,81v-7.4c0-0.6,0.4-1,1-1h6.6c0.6,0,1,0.4,1,1V81c0,0.6-0.4,1-1,1H483C482.5,82,482,81.6,482,81z"/>
				</g>
			</g>
			<path class="st15" d="M485.8,75.2v-0.3c0-0.1,0.1-0.2,0.2-0.2h4.6v0.8H486C485.9,75.4,485.8,75.3,485.8,75.2z"/>
			<path class="st15" d="M486.5,76.7v-0.3c0-0.1,0.1-0.2,0.2-0.2h3.9v0.8h-3.9C486.6,76.9,486.5,76.8,486.5,76.7z"/>
			<path class="st15" d="M485.3,76v-0.3c0-0.1,0.1-0.2,0.2-0.2h5.1v0.8h-5.1C485.4,76.2,485.3,76.1,485.3,76z"/>
		</g>
		<g>
			<g class="st13">
				<path class="st12" d="M438.2,87h54.4c0.6,0,1,0.4,1,1v43c0,0.6-0.4,1-1,1h-54.4c-0.6,0-1-0.4-1-1V88
					C437.2,87.4,437.6,87,438.2,87z"/>
				<path class="st10" d="M438.2,87h54.4c0.6,0,1,0.4,1,1v43c0,0.6-0.4,1-1,1h-54.4c-0.6,0-1-0.4-1-1V88
					C437.2,87.4,437.6,87,438.2,87z"/>
			</g>
			<g>
				<path class="st3" d="M435.2,84h54.4c0.6,0,1,0.4,1,1v43c0,0.6-0.4,1-1,1h-54.4c-0.6,0-1-0.4-1-1V85
					C434.2,84.4,434.6,84,435.2,84z"/>
				<path class="st14" d="M435.2,84h54.4c0.6,0,1,0.4,1,1v43c0,0.6-0.4,1-1,1h-54.4c-0.6,0-1-0.4-1-1V85
					C434.2,84.4,434.6,84,435.2,84z"/>
			</g>
		</g>
		<path class="st15" d="M438.2,87h48.4c0.6,0,1,0.4,1,1v37c0,0.6-0.4,1-1,1h-48.4c-0.6,0-1-0.4-1-1V88C437.2,87.4,437.6,87,438.2,87
			z"/>
		<path class="st15" d="M484.8,89.6c1,1.7,1.2,13.4,0.1,15.2c-0.1,0.1-5.6,0.8-8.6,0.3c-0.5-0.1-1.2-0.6-1.5-1.4
			c-1.1-3-0.6-9.9,0.3-13.2c0.4-1.2,1.5-1.1,2-1.2C479.4,88.9,484.5,89,484.8,89.6z"/>
		<path class="st15" d="M484.9,108.1c1.3,3.3,0.9,14.6,0.2,15.2c-0.2,0.2-5.6,0.9-8.1,0.3c-0.4-0.1-0.7-0.2-0.9-0.4
			c-1-1.4-1.7-14.5-1.6-14.7c0.1-0.2,1.2-0.1,1.8-0.4C477.7,107.5,484.7,107.5,484.9,108.1z"/>
		<g>
			<path class="st15" d="M467,124c0,0-1.5-15.5-1.5-17.4c0-2,1.5-17.4,1.5-17.4c0-1.5-2.5-2.7-1-2.7h8.2c1.5,0,2.7,1.2,2.7,2.7
				c0,0-0.8,15-0.8,17.3s0.8,17.5,0.8,17.5c0,1.5-1.2,2.7-2.7,2.7H466C464.6,126.6,467,125.4,467,124z"/>
			<path class="st16" d="M474.7,92.2c-0.2-1.8-2.7-5.6-3.5-5.7"/>
			<path class="st16" d="M473.9,111.1c-0.1-0.3-4-8.4-5.9-7.5c-0.7,0.4-0.3,1.6,0.1,2.2"/>
			<path class="st16" d="M475.7,124.3c-1.1-1.1-4.3-5.9-6.7-12.4"/>
		</g>
		<g>
			<g>
				<g class="st13">
					<path class="st12" d="M493.6,134.9v7.4c0,0.6-0.4,1-1,1H486c-0.6,0-1-0.4-1-1v-7.4c0-0.6,0.4-1,1-1h6.6
						C493.1,133.9,493.6,134.4,493.6,134.9z"/>
					<path class="st10" d="M493.6,134.9v7.4c0,0.6-0.4,1-1,1H486c-0.6,0-1-0.4-1-1v-7.4c0-0.6,0.4-1,1-1h6.6
						C493.1,133.9,493.6,134.4,493.6,134.9z"/>
				</g>
				<g>
					<path class="st3" d="M490.6,131.9v7.4c0,0.6-0.4,1-1,1H483c-0.6,0-1-0.4-1-1v-7.4c0-0.6,0.4-1,1-1h6.6
						C490.1,130.9,490.6,131.4,490.6,131.9z"/>
					<path class="st14" d="M490.6,131.9v7.4c0,0.6-0.4,1-1,1H483c-0.6,0-1-0.4-1-1v-7.4c0-0.6,0.4-1,1-1h6.6
						C490.1,130.9,490.6,131.4,490.6,131.9z"/>
				</g>
			</g>
			<path class="st15" d="M484.3,136.5l1.1-2.9c0.2-0.5,0.8-0.8,1.3-0.6l0.9,0.4c0.5,0.2,0.8,0.8,0.6,1.3l-1.1,2.9
				c-0.2,0.5-0.8,0.8-1.3,0.6l-0.9-0.4C484.4,137.5,484.1,137,484.3,136.5z"/>
			<circle class="st15" cx="486.3" cy="135.5" r="0.5"/>
		</g>
	</g>
	<g>
		<g>
			<g class="st13">
				<path class="st12" d="M275.3,531.2v-30.8c0-0.6,0.4-1,1-1h12.6c0.6,0,1,0.4,1,1v30.8c0,0.6-0.4,1-1,1h-12.6
					C275.8,532.2,275.3,531.7,275.3,531.2z"/>
				<path class="st10" d="M275.3,531.2v-30.8c0-0.6,0.4-1,1-1h12.6c0.6,0,1,0.4,1,1v30.8c0,0.6-0.4,1-1,1h-12.6
					C275.8,532.2,275.3,531.7,275.3,531.2z"/>
			</g>
			<g>
				<path class="st3" d="M272.3,528.2v-30.8c0-0.6,0.4-1,1-1h12.6c0.6,0,1,0.4,1,1v30.8c0,0.6-0.4,1-1,1h-12.6
					C272.8,529.2,272.3,528.7,272.3,528.2z"/>
				<path class="st14" d="M272.3,528.2v-30.8c0-0.6,0.4-1,1-1h12.6c0.6,0,1,0.4,1,1v30.8c0,0.6-0.4,1-1,1h-12.6
					C272.8,529.2,272.3,528.7,272.3,528.2z"/>
			</g>
		</g>
		<line class="st15" x1="285" y1="496.3" x2="285" y2="529.2"/>
		<line class="st15" x1="285" y1="512.7" x2="286.9" y2="512.7"/>
		<polyline class="st14" points="286.9,509.2 288,509.2 288,510.4 286.9,510.4 		"/>
		<polyline class="st14" points="286.9,515.1 288,515.1 288,516.3 286.9,516.3 		"/>
	</g>
	<g>
		<g>
			<g class="st13">
				<path class="st12" d="M275.7,119.5V73.3c0-0.6,0.4-1,1-1h12.6c0.6,0,1,0.4,1,1v46.2c0,0.6-0.4,1-1,1h-12.6
					C276.1,120.5,275.7,120,275.7,119.5z"/>
				<path class="st10" d="M275.7,119.5V73.3c0-0.6,0.4-1,1-1h12.6c0.6,0,1,0.4,1,1v46.2c0,0.6-0.4,1-1,1h-12.6
					C276.1,120.5,275.7,120,275.7,119.5z"/>
			</g>
			<g>
				<path class="st3" d="M272.7,116.5V70.3c0-0.6,0.4-1,1-1h12.6c0.6,0,1,0.4,1,1v46.2c0,0.6-0.4,1-1,1h-12.6
					C273.1,117.5,272.7,117,272.7,116.5z"/>
				<path class="st14" d="M272.7,116.5V70.3c0-0.6,0.4-1,1-1h12.6c0.6,0,1,0.4,1,1v46.2c0,0.6-0.4,1-1,1h-12.6
					C273.1,117.5,272.7,117,272.7,116.5z"/>
			</g>
		</g>
		<line class="st15" x1="285.3" y1="69.3" x2="285.3" y2="117.5"/>
		<line class="st15" x1="285.3" y1="93.4" x2="287.3" y2="93.4"/>
		<polyline class="st14" points="287.3,88.1 288.4,88.1 288.4,90 287.3,90 		"/>
		<polyline class="st14" points="287.3,96.8 288.4,96.8 288.4,98.7 287.3,98.7 		"/>
	</g>
	<g>
		<g>
			<g>
				<path class="st15" d="M220.4,419.6H219v12.3h1.4c0.6,0,1-0.4,1-1v-10.3C221.4,420,221,419.6,220.4,419.6z"/>
				
					<rect x="215.2" y="419.6" transform="matrix(-1 -1.224647e-16 1.224647e-16 -1 434.186 851.5085)" class="st15" width="3.9" height="12.3"/>
				<line class="st15" x1="219" y1="421.3" x2="215.2" y2="421.3"/>
				<line class="st15" x1="215.2" y1="430.2" x2="219" y2="430.2"/>
			</g>
			<g>
				<path class="st15" d="M220.4,434.2H219v12.3h1.4c0.6,0,1-0.4,1-1v-10.3C221.4,434.6,221,434.2,220.4,434.2z"/>
				
					<rect x="215.2" y="434.2" transform="matrix(-1 -1.224647e-16 1.224647e-16 -1 434.186 880.6678)" class="st15" width="3.9" height="12.3"/>
				<line class="st15" x1="219" y1="435.9" x2="215.2" y2="435.9"/>
				<line class="st15" x1="215.2" y1="444.8" x2="219" y2="444.8"/>
			</g>
			<g>
				<path class="st15" d="M220.4,448.8H219v12.3h1.4c0.6,0,1-0.4,1-1v-10.3C221.4,449.2,221,448.8,220.4,448.8z"/>
				
					<rect x="215.2" y="448.8" transform="matrix(-1 -1.224647e-16 1.224647e-16 -1 434.186 909.8272)" class="st15" width="3.9" height="12.3"/>
				<line class="st15" x1="219" y1="450.4" x2="215.2" y2="450.4"/>
				<line class="st15" x1="215.2" y1="459.4" x2="219" y2="459.4"/>
			</g>
		</g>
		<g>
			<path class="st15" d="M185.8,461.1h1.4v-12.3h-1.4c-0.6,0-1,0.4-1,1v10.3C184.8,460.6,185.2,461.1,185.8,461.1z"/>
			<rect x="187.2" y="448.8" class="st15" width="3.9" height="12.3"/>
			<line class="st15" x1="187.2" y1="459.4" x2="191" y2="459.4"/>
			<line class="st15" x1="191" y1="450.4" x2="187.2" y2="450.4"/>
		</g>
		<g>
			<path class="st15" d="M185.8,446.5h1.4v-12.3h-1.4c-0.6,0-1,0.4-1,1v10.3C184.8,446,185.2,446.5,185.8,446.5z"/>
			<rect x="187.2" y="434.2" class="st15" width="3.9" height="12.3"/>
			<line class="st15" x1="187.2" y1="444.8" x2="191" y2="444.8"/>
			<line class="st15" x1="191" y1="435.9" x2="187.2" y2="435.9"/>
		</g>
		<g>
			<path class="st15" d="M182.3,428.3l1.3,0.5l4.8-11.4l-1.3-0.5c-0.5-0.2-1.1,0-1.3,0.5l-4,9.5C181.5,427.5,181.8,428,182.3,428.3z
				"/>
			
				<rect x="185.5" y="419" transform="matrix(0.922 0.3873 -0.3873 0.922 179.5714 -40.7626)" class="st15" width="10.8" height="12.3"/>
			<line class="st15" x1="184.2" y1="427.2" x2="194.2" y2="431.4"/>
			<line class="st15" x1="197.7" y1="423.2" x2="187.7" y2="419"/>
		</g>
		<g>
			<g class="st13">
				<path class="st12" d="M217.2,468.9H195c-0.6,0-1-0.4-1-1v-49.1c0-0.6,0.4-1,1-1h22.1c0.6,0,1,0.4,1,1v49.1
					C218.2,468.4,217.7,468.9,217.2,468.9z"/>
				<path class="st10" d="M217.2,468.9H195c-0.6,0-1-0.4-1-1v-49.1c0-0.6,0.4-1,1-1h22.1c0.6,0,1,0.4,1,1v49.1
					C218.2,468.4,217.7,468.9,217.2,468.9z"/>
			</g>
			<g>
				<path class="st3" d="M214.2,465.9H192c-0.6,0-1-0.4-1-1v-49.1c0-0.6,0.4-1,1-1h22.1c0.6,0,1,0.4,1,1v49.1
					C215.2,465.4,214.7,465.9,214.2,465.9z"/>
				<path class="st14" d="M214.2,465.9H192c-0.6,0-1-0.4-1-1v-49.1c0-0.6,0.4-1,1-1h22.1c0.6,0,1,0.4,1,1v49.1
					C215.2,465.4,214.7,465.9,214.2,465.9z"/>
			</g>
		</g>
		<path class="st15" d="M204.2,458.5l-1.9-1.4c-0.4-0.3-0.5-1-0.2-1.4l2.7-3.6c0.3-0.4,1-0.5,1.4-0.2l1.9,1.4c0.4,0.3,0.5,1,0.2,1.4
			l-2.7,3.6C205.3,458.7,204.7,458.8,204.2,458.5z"/>
	</g>
	<g>
		<g>
			<g class="st13">
				<path class="st12" d="M263.4,262.6v-50c0-2.6-2.1-4.7-4.7-4.7h-18.8c-0.6,0-1.1,0.5-1.1,1.1v0.2c0,0.6,0.5,1.1,1.1,1.1h0.7
					c-0.7,0-1.2,0.5-1.2,1.2v15.9c0,0.7,0.5,1.2,1.2,1.2c-0.7,0-1.2,0.5-1.2,1.2v15.9c0,0.7,0.5,1.2,1.2,1.2c-0.7,0-1.2,0.5-1.2,1.2
					v15.9c0,0.6,0.5,1.1,1.1,1.2h-0.6c-0.6,0-1.1,0.5-1.1,1.1v0.2c0,0.6,0.5,1.1,1.1,1.1h18.8C261.3,267.3,263.4,265.2,263.4,262.6z
					"/>
				<path class="st10" d="M263.4,262.6v-50c0-2.6-2.1-4.7-4.7-4.7h-18.8c-0.6,0-1.1,0.5-1.1,1.1v0.2c0,0.6,0.5,1.1,1.1,1.1h0.7
					c-0.7,0-1.2,0.5-1.2,1.2v15.9c0,0.7,0.5,1.2,1.2,1.2c-0.7,0-1.2,0.5-1.2,1.2v15.9c0,0.7,0.5,1.2,1.2,1.2c-0.7,0-1.2,0.5-1.2,1.2
					v15.9c0,0.6,0.5,1.1,1.1,1.2h-0.6c-0.6,0-1.1,0.5-1.1,1.1v0.2c0,0.6,0.5,1.1,1.1,1.1h18.8C261.3,267.3,263.4,265.2,263.4,262.6z
					"/>
			</g>
			<g>
				<path class="st3" d="M260.4,259.6v-50c0-2.6-2.1-4.7-4.7-4.7h-18.8c-0.6,0-1.1,0.5-1.1,1.1v0.2c0,0.6,0.5,1.1,1.1,1.1h0.7
					c-0.7,0-1.2,0.5-1.2,1.2v15.9c0,0.7,0.5,1.2,1.2,1.2c-0.7,0-1.2,0.5-1.2,1.2v15.9c0,0.7,0.5,1.2,1.2,1.2c-0.7,0-1.2,0.5-1.2,1.2
					v15.9c0,0.6,0.5,1.1,1.1,1.2h-0.6c-0.6,0-1.1,0.5-1.1,1.1v0.2c0,0.6,0.5,1.1,1.1,1.1h18.8C258.3,264.3,260.4,262.2,260.4,259.6z
					"/>
				<path class="st14" d="M260.4,259.6v-50c0-2.6-2.1-4.7-4.7-4.7h-18.8c-0.6,0-1.1,0.5-1.1,1.1v0.2c0,0.6,0.5,1.1,1.1,1.1h0.7
					c-0.7,0-1.2,0.5-1.2,1.2v15.9c0,0.7,0.5,1.2,1.2,1.2c-0.7,0-1.2,0.5-1.2,1.2v15.9c0,0.7,0.5,1.2,1.2,1.2c-0.7,0-1.2,0.5-1.2,1.2
					v15.9c0,0.6,0.5,1.1,1.1,1.2h-0.6c-0.6,0-1.1,0.5-1.1,1.1v0.2c0,0.6,0.5,1.1,1.1,1.1h18.8C258.3,264.3,260.4,262.2,260.4,259.6z
					"/>
			</g>
		</g>
		<g>
			<path class="st17" d="M260.4,259.6v-50c0-2.6-2.1-4.7-4.7-4.7h-18.8c-0.6,0-1.1,0.5-1.1,1.1v0.2c0,0.6,0.5,1.1,1.1,1.1h16.1V262
				h-16.1c-0.6,0-1.1,0.5-1.1,1.1v0.2c0,0.6,0.5,1.1,1.1,1.1h18.8C258.3,264.3,260.4,262.2,260.4,259.6z"/>
			<g>
				<path class="st15" d="M236.4,208.4v15.9c0,0.7,0.5,1.2,1.2,1.2H254c0.7,0,1.2-0.5,1.2-1.2v-15.9c0-0.7-0.5-1.2-1.2-1.2h-16.4
					C236.9,207.2,236.4,207.7,236.4,208.4z"/>
				<g>
					<path class="st15" d="M251.2,208.8c0.5,5,0.5,10.1,0,15.1c-0.1,1.1,0.7,2.1,1.8,2.3c0.8,0.1,1.7,0.2,2.5,0.3
						c1.1,0.1,2.2-0.7,2.3-2c0.5-5.5,0.5-11,0-16.4c-0.1-1.2-1.2-2.1-2.3-2c-0.8,0.1-1.7,0.2-2.5,0.3
						C251.8,206.6,251.1,207.7,251.2,208.8z"/>
					<path class="st18" d="M252.9,208.3c0.5,0.1,0.5,15.9,0,16"/>
				</g>
			</g>
			<g>
				<path class="st15" d="M236.4,244.9v15.9c0,0.7,0.5,1.2,1.2,1.2H254c0.7,0,1.2-0.5,1.2-1.2v-15.9c0-0.7-0.5-1.2-1.2-1.2h-16.4
					C236.9,243.7,236.4,244.3,236.4,244.9z"/>
				<g>
					<path class="st15" d="M251.2,245.3c0.5,5,0.5,10.1,0,15.1c-0.1,1.1,0.7,2.1,1.8,2.3c0.8,0.1,1.7,0.2,2.5,0.3
						c1.1,0.1,2.2-0.7,2.3-2c0.5-5.5,0.5-11,0-16.4c-0.1-1.2-1.2-2.1-2.3-2c-0.8,0.1-1.7,0.2-2.5,0.3
						C251.8,243.2,251.1,244.2,251.2,245.3z"/>
					<path class="st18" d="M252.9,244.9c0.5,0.1,0.5,15.9,0,16"/>
				</g>
			</g>
			<g>
				<path class="st15" d="M236.4,226.7v15.9c0,0.7,0.5,1.2,1.2,1.2H254c0.7,0,1.2-0.5,1.2-1.2v-15.9c0-0.7-0.5-1.2-1.2-1.2h-16.4
					C236.9,225.5,236.4,226,236.4,226.7z"/>
				<g>
					<path class="st15" d="M251.2,227c0.5,5,0.5,10.1,0,15.1c-0.1,1.1,0.7,2.1,1.8,2.3c0.8,0.1,1.7,0.2,2.5,0.3
						c1.1,0.1,2.2-0.7,2.3-2c0.5-5.5,0.5-11,0-16.4c-0.1-1.2-1.2-2.1-2.3-2c-0.8,0.1-1.7,0.2-2.5,0.3
						C251.8,224.9,251.1,225.9,251.2,227z"/>
					<path class="st18" d="M252.9,226.6c0.5,0.1,0.5,15.9,0,16"/>
				</g>
			</g>
			<path class="st15" d="M255.5,208c-0.4,0.7-3.3,3.4-3.6,3.5c0,1.4-0.7,3.8-1.2,4.2c-0.4-0.2-0.3-0.3-0.8-0.7
				c-0.7-0.2-4.3-1.1-6.2-2.7c0.9-1,1.5-6.1,3-7.5c0.4-0.8,0.5-1.5,1.2-2.1c0.5,0.2,2.1,2.2,2.3,3
				C251.1,206.2,254.8,206.9,255.5,208z"/>
			<path class="st15" d="M256.2,258.6c-0.5,0.7-6.5,5-6.9,5.3c-1.4-0.3-3.4-3.1-3.8-3.9c-0.9-0.3-2-0.9-2.4-1.4
				c0.4-0.4,1.2-1.1,1.7-1.4c0.3-0.4,2.6-3.3,4.5-3.9c0.5-0.4,0.9-0.9,1.2-0.9c0.5,0.6,0.8,1.4,0.8,1.9
				C251.6,254.7,256.1,257.8,256.2,258.6z"/>
		</g>
	</g>
	<g>
		<g>
			<g>
				<g class="st13">
					<path class="st12" d="M220.8,218c2,10.8,2,21.5,0,32.3c-0.1,0.4-0.5,0.8-0.9,0.8h-12.7c-0.4,0-0.8-0.3-0.9-0.8
						c-2-10.8-2-21.5,0-32.3c0.1-0.4,0.5-0.8,0.9-0.8h12.7C220.4,217.2,220.7,217.5,220.8,218z"/>
					<path class="st10" d="M220.8,218c2,10.8,2,21.5,0,32.3c-0.1,0.4-0.5,0.8-0.9,0.8h-12.7c-0.4,0-0.8-0.3-0.9-0.8
						c-2-10.8-2-21.5,0-32.3c0.1-0.4,0.5-0.8,0.9-0.8h12.7C220.4,217.2,220.7,217.5,220.8,218z"/>
				</g>
				<g>
					<path class="st3" d="M217.8,215c2,10.8,2,21.5,0,32.3c-0.1,0.4-0.5,0.8-0.9,0.8h-12.7c-0.4,0-0.8-0.3-0.9-0.8
						c-2-10.8-2-21.5,0-32.3c0.1-0.4,0.5-0.8,0.9-0.8h12.7C217.4,214.2,217.7,214.5,217.8,215z"/>
					<path class="st14" d="M217.8,215c2,10.8,2,21.5,0,32.3c-0.1,0.4-0.5,0.8-0.9,0.8h-12.7c-0.4,0-0.8-0.3-0.9-0.8
						c-2-10.8-2-21.5,0-32.3c0.1-0.4,0.5-0.8,0.9-0.8h12.7C217.4,214.2,217.7,214.5,217.8,215z"/>
				</g>
			</g>
			<path class="st15" d="M210.8,229.3l1.6,1.2c0.4,0.3,0.5,1,0.2,1.4l-2.4,3.1c-0.3,0.4-1,0.5-1.4,0.2l-1.6-1.2
				c-0.4-0.3-0.5-1-0.2-1.4l2.4-3.1C209.7,229.1,210.4,229,210.8,229.3z"/>
			<path class="st15" d="M212.8,227.5l0.9,1.8c0.3,0.5,0.1,1.1-0.4,1.3l-3.5,1.8c-0.5,0.3-1.1,0.1-1.3-0.4l-0.9-1.8
				c-0.3-0.5-0.1-1.1,0.4-1.3l3.5-1.8C212,226.8,212.6,227,212.8,227.5z"/>
			<circle class="st15" cx="213.7" cy="221" r="3.9"/>
			<path class="st18" d="M211.3,222c-3.1-2.1,0.3-5.7,3.2-4C213.6,217.4,210.1,220.7,211.3,222z"/>
			<circle class="st15" cx="211" cy="225" r="0.5"/>
			<circle class="st15" cx="212.2" cy="225.1" r="0.5"/>
			<circle class="st15" cx="212.3" cy="224.1" r="0.5"/>
			<circle class="st15" cx="211.3" cy="224.1" r="0.5"/>
			<circle class="st15" cx="210.1" cy="224.3" r="0.5"/>
			<circle class="st15" cx="209.8" cy="223.5" r="0.5"/>
			<circle class="st15" cx="209.9" cy="222.4" r="0.5"/>
			<circle class="st15" cx="210.7" cy="223.5" r="0.5"/>
			<circle class="st15" cx="211.7" cy="223.2" r="0.5"/>
			<circle class="st15" cx="210.9" cy="222.5" r="0.5"/>
			<circle class="st15" cx="214.7" cy="222.8" r="1.4"/>
			<circle class="st15" cx="212.4" cy="222.2" r="1"/>
			
				<ellipse transform="matrix(0.9642 -0.2653 0.2653 0.9642 -50.9595 64.7125)" class="st15" cx="214.1" cy="221" rx="1.3" ry="0.8"/>
			<path class="st18" d="M211.3,222.2c-1.9-3.2,2.9-4.9,4.6-2.1C215.4,219.1,210.8,220.4,211.3,222.2z"/>
		</g>
		<g>
			<g>
				<path class="st18" d="M211.6,241.6c0,0-2.5,1.1-4,0.1C207.6,241.7,208.5,240.5,211.6,241.6z"/>
				<path class="st18" d="M211.6,241.6c0,0-2.6-0.1-3.7-1.6C207.9,240,209.3,239.3,211.6,241.6z"/>
				<path class="st18" d="M208.4,244.3c0,0,2.6,0,3.2-2.7C211.6,241.6,208.5,242.3,208.4,244.3z"/>
				<path class="st18" d="M215.7,244.6c0,0-3.3-0.6-4.1-3C211.6,241.6,214.3,241.2,215.7,244.6z"/>
				<path class="st18" d="M211,246c0,0-0.6-1.8,0.6-4.4C211.6,241.6,212.6,244,211,246z"/>
				<path class="st18" d="M216.7,241.7c0,0-3.3,1.3-5.2-0.1C211.6,241.6,211.9,240.6,216.7,241.7z"/>
				<path class="st18" d="M208.8,238.2c0,0,1.1,2.8,2.8,3.3C211.6,241.6,210.9,239.7,208.8,238.2z"/>
				<path class="st18" d="M215.9,239c0,0-1.7,2.3-4.3,2.5C211.6,241.6,213,239.4,215.9,239z"/>
				<path class="st18" d="M210.7,237.1c0,0-0.5,2.8,0.9,4.5C211.6,241.6,212.5,239.8,210.7,237.1z"/>
				<path class="st18" d="M213.3,246c0,0-1.8-1.3-1.7-4.4C211.6,241.6,213.6,243.4,213.3,246z"/>
				<path class="st18" d="M214.6,237.7c0,0-1,3.4-3.1,4C211.5,241.7,211.7,239.2,214.6,237.7z"/>
				<path class="st18" d="M212.8,237c0,0,0.5,2.9-1.2,4.7C211.6,241.6,210.7,239.6,212.8,237z"/>
				<path class="st18" d="M211.5,241.8c0,0,0.1,1.6-1.9,3.6C209.7,245.5,209.8,243.7,211.5,241.8z"/>
				<path class="st18" d="M214.3,245.3c0,0-2.2-1.5-2.7-3.5C211.6,241.8,213.4,242,214.3,245.3z"/>
			</g>
			<g>
				<path class="st18" d="M211.8,241.5c0,0-1.6,0-2.2-0.9C209.6,240.6,210.5,240.2,211.8,241.5z"/>
				<path class="st18" d="M209.9,243.1c0,0,1.6,0,1.9-1.6C211.8,241.5,210,242,209.9,243.1z"/>
				<path class="st18" d="M214.3,243.3c0,0-1.9-0.4-2.4-1.8C211.8,241.5,213.4,241.3,214.3,243.3z"/>
				<path class="st18" d="M211.5,244.2c0,0-0.3-1.1,0.4-2.6C211.8,241.5,212.4,243,211.5,244.2z"/>
				<path class="st18" d="M214.4,240c0,0-1,1.4-2.5,1.5C211.8,241.5,212.6,240.2,214.4,240z"/>
				<path class="st18" d="M211.3,238.9c0,0-0.3,1.7,0.5,2.7C211.8,241.6,212.4,240.5,211.3,238.9z"/>
				<path class="st18" d="M212.8,244.2c0,0-1.1-0.8-1-2.6C211.8,241.6,213,242.6,212.8,244.2z"/>
				<path class="st18" d="M212.5,238.8c0,0,0.3,1.7-0.7,2.8C211.8,241.6,211.3,240.4,212.5,238.8z"/>
			</g>
		</g>
	</g>
	<g>
		<g>
			<g class="st13">
				<path class="st12" d="M171.7,220.5l0.4,42.4c0,0.5-0.4,0.9-0.9,0.9l-10.7,0.1c-0.5,0-0.9-0.4-0.9-0.9l-0.4-42.4
					c0-0.5,0.4-0.9,0.9-0.9l10.7-0.1C171.3,219.7,171.7,220.1,171.7,220.5z"/>
				<path class="st10" d="M171.7,220.5l0.4,42.4c0,0.5-0.4,0.9-0.9,0.9l-10.7,0.1c-0.5,0-0.9-0.4-0.9-0.9l-0.4-42.4
					c0-0.5,0.4-0.9,0.9-0.9l10.7-0.1C171.3,219.7,171.7,220.1,171.7,220.5z"/>
			</g>
			<g>
				<path class="st3" d="M168.7,217.5l0.4,42.4c0,0.5-0.4,0.9-0.9,0.9l-10.7,0.1c-0.5,0-0.9-0.4-0.9-0.9l-0.4-42.4
					c0-0.5,0.4-0.9,0.9-0.9l10.7-0.1C168.3,216.7,168.7,217.1,168.7,217.5z"/>
				<path class="st14" d="M168.7,217.5l0.4,42.4c0,0.5-0.4,0.9-0.9,0.9l-10.7,0.1c-0.5,0-0.9-0.4-0.9-0.9l-0.4-42.4
					c0-0.5,0.4-0.9,0.9-0.9l10.7-0.1C168.3,216.7,168.7,217.1,168.7,217.5z"/>
			</g>
		</g>
		<path class="st15" d="M162.7,244.6l-3.8,0c-0.6,0-1-0.4-1-1l-0.1-9.5c0-0.6,0.4-1,1-1l3.8,0c0.6,0,1,0.4,1,1l0.1,9.5
			C163.7,244.1,163.3,244.5,162.7,244.6z"/>
		<path class="st19" d="M158.4,243.5l-0.1-9.3c0-0.3,0.3-0.6,0.6-0.6l3.7,0c0.3,0,0.6,0.3,0.6,0.6l0.1,9.3c0,0.3-0.3,0.6-0.6,0.6
			l-3.7,0C158.6,244.1,158.4,243.8,158.4,243.5z"/>
		
			<rect x="160.8" y="221.1" transform="matrix(1 -8.352499e-03 8.352499e-03 1 -1.989 1.3563)" class="st15" width="1.2" height="35.4"/>
	</g>
	<g>
		<path class="st11" d="M380.9,232.4v-17.9c0-0.5,0.4-0.9,0.9-0.9h47.3c0.5,0,0.9,0.4,0.9,0.9v17.9c0,0.5-0.4,0.9-0.9,0.9h-47.3
			C381.3,233.4,380.9,232.9,380.9,232.4z"/>
		<path class="st11" d="M428.1,223.4c0-5.9-3.8-8-5.6-8h-36.7c-1.8,0-3.3,1.4-3.3,3.2v9.6c0,1.8,1.5,3.2,3.3,3.2h36.7
			C424.3,231.5,428.1,229.4,428.1,223.4z"/>
		<path class="st11" d="M420.5,223.4c0-5-3.1-6.7-4.6-6.7h-29.7c-1.5,0-2.7,1.2-2.7,2.7v8.1c0,1.5,1.2,2.7,2.7,2.7H416
			C417.5,230.3,420.5,228.5,420.5,223.4z"/>
		<ellipse class="st11" cx="389" cy="223.5" rx="0.9" ry="0.8"/>
	</g>
	<g>
		<path class="st11" d="M370.6,210.6v22.2c0,0.4-0.3,0.7-0.7,0.7h-36.2c-0.4,0-0.7-0.3-0.7-0.7v-22.2c0-0.4,0.3-0.7,0.7-0.7h36.2
			C370.3,210,370.6,210.3,370.6,210.6z"/>
		<path class="st11" d="M369.1,213.3V230c0,1.1-0.9,2-2,2h-30.5c-1.1,0-2-0.9-2-2v-16.6c0-1.1,0.9-2,2-2h30.5
			C368.2,211.3,369.1,212.2,369.1,213.3z"/>
		<path class="st11" d="M367.9,214.6v14.1c0,1.1-0.9,2-2,2h-28c-1.1,0-2-0.9-2-2v-14.1c0-1.1,0.9-2,2-2h28
			C367,212.6,367.9,213.5,367.9,214.6z"/>
		<circle class="st11" cx="339.5" cy="216.5" r="1.4"/>
	</g>
	<g>
		<g>
			<g class="st7">
				<path class="st8" d="M345.9,207.9h-9.7v-15.7h9.7c1.8,0,3.3,1.5,3.3,3.3v9.2C349.2,206.5,347.7,207.9,345.9,207.9z"/>
				<path class="st9" d="M345.9,207.9h-9.7v-15.7h9.7c1.8,0,3.3,1.5,3.3,3.3v9.2C349.2,206.5,347.7,207.9,345.9,207.9z"/>
			</g>
			<g>
				<path class="st1" d="M342.9,204.9h-9.7v-15.7h9.7c1.8,0,3.3,1.5,3.3,3.3v9.2C346.2,203.5,344.7,204.9,342.9,204.9z"/>
				<path class="st10" d="M342.9,204.9h-9.7v-15.7h9.7c1.8,0,3.3,1.5,3.3,3.3v9.2C346.2,203.5,344.7,204.9,342.9,204.9z"/>
			</g>
		</g>
		<path class="st11" d="M342.3,203.5H339c-1.4,0-2.6-1.1-2.6-2.6v-7.8c0-1.4,1.1-2.6,2.6-2.6h3.3c1.4,0,2.6,1.1,2.6,2.6v7.8
			C344.9,202.3,343.7,203.5,342.3,203.5z"/>
		<circle class="st11" cx="338.1" cy="197" r="0.7"/>
	</g>
	<g>
		<g>
			<g class="st7">
				<path class="st8" d="M392.4,179.7c-0.8,0-5.4,0-6.2,0.1c-0.6,0.1-1.3,0.1-1.9,0.3v8.8c0.5,0.1,1,0.2,1.6,0.2
					c0.9,0.1,6.2,0.1,7.1,0.1c2,0,6.2-1.6,6.2-4.7C399.3,181.3,394.8,179.7,392.4,179.7z"/>
				<path class="st9" d="M392.4,179.7c-0.8,0-5.4,0-6.2,0.1c-0.6,0.1-1.3,0.1-1.9,0.3v8.8c0.5,0.1,1,0.2,1.6,0.2
					c0.9,0.1,6.2,0.1,7.1,0.1c2,0,6.2-1.6,6.2-4.7C399.3,181.3,394.8,179.7,392.4,179.7z"/>
			</g>
			<g>
				<path class="st1" d="M389.4,176.7c-0.8,0-5.4,0-6.2,0.1c-0.6,0.1-1.3,0.1-1.9,0.3v8.8c0.5,0.1,1,0.2,1.6,0.2
					c0.9,0.1,6.2,0.1,7.1,0.1c2,0,6.2-1.6,6.2-4.7C396.3,178.3,391.8,176.7,389.4,176.7z"/>
				<path class="st10" d="M389.4,176.7c-0.8,0-5.4,0-6.2,0.1c-0.6,0.1-1.3,0.1-1.9,0.3v8.8c0.5,0.1,1,0.2,1.6,0.2
					c0.9,0.1,6.2,0.1,7.1,0.1c2,0,6.2-1.6,6.2-4.7C396.3,178.3,391.8,176.7,389.4,176.7z"/>
			</g>
		</g>
		<g>
			<circle class="st11" cx="383.5" cy="179.3" r="0.3"/>
			<circle class="st11" cx="383.5" cy="183.6" r="0.3"/>
		</g>
		<path class="st11" d="M395.1,181.5c0,2-3.1,3.7-5.1,3.7c-2,0-3.7-1.6-3.7-3.7s1.6-3.7,3.7-3.7C392,177.8,395.1,179.4,395.1,181.5z
			"/>
		<path class="st11" d="M389.1,180.2h-1.4c-0.4,0-0.4,0.6-0.4,1.2c0,0.7,0.1,1.2,0.4,1.2h1.4c0.7,0,1.2-0.6,1.2-1.2
			C390.3,180.8,389.8,180.2,389.1,180.2z"/>
		<path class="st10" d="M383.5,176.8c-0.7,1.2-1.2,2.9-1.2,4.9c0,1.7,0.3,3.2,0.9,4.4"/>
	</g>
	<g>
		<g>
			<g class="st7">
				<path class="st8" d="M394.1,207.9h-9.7v-15.7h9.7c1.8,0,3.3,1.5,3.3,3.3v9.2C397.4,206.5,395.9,207.9,394.1,207.9z"/>
				<path class="st9" d="M394.1,207.9h-9.7v-15.7h9.7c1.8,0,3.3,1.5,3.3,3.3v9.2C397.4,206.5,395.9,207.9,394.1,207.9z"/>
			</g>
			<g>
				<path class="st1" d="M391.1,204.9h-9.7v-15.7h9.7c1.8,0,3.3,1.5,3.3,3.3v9.2C394.4,203.5,392.9,204.9,391.1,204.9z"/>
				<path class="st10" d="M391.1,204.9h-9.7v-15.7h9.7c1.8,0,3.3,1.5,3.3,3.3v9.2C394.4,203.5,392.9,204.9,391.1,204.9z"/>
			</g>
		</g>
		<path class="st11" d="M390.5,203.5h-3.3c-1.4,0-2.6-1.1-2.6-2.6v-7.8c0-1.4,1.1-2.6,2.6-2.6h3.3c1.4,0,2.6,1.1,2.6,2.6v7.8
			C393.1,202.3,391.9,203.5,390.5,203.5z"/>
		<circle class="st11" cx="386.3" cy="197" r="0.7"/>
	</g>
	<g>
		<polyline class="st20" points="259,375.3 259,376.3 258.2,376.3 		"/>
		<polyline class="st20" points="263.9,380.3 263.1,380.3 263.1,381.1 		"/>
		<line class="st20" x1="263.7" y1="380.9" x2="258.4" y2="375.7"/>
		<polyline class="st20" points="258.2,380.3 259,380.3 259,381.1 		"/>
		<polyline class="st20" points="263.1,375.3 263.1,376.3 263.9,376.3 		"/>
		<line class="st20" x1="263.7" y1="375.7" x2="258.4" y2="380.9"/>
		<polyline class="st20" points="257.6,377.6 258.2,378.2 257.6,378.8 		"/>
		<polyline class="st20" points="264.5,377.6 263.9,378.2 264.5,378.8 		"/>
		<polyline class="st20" points="260.5,381.7 261.1,381.1 261.7,381.7 		"/>
		<polyline class="st20" points="260.5,374.9 261.1,375.5 261.7,374.9 		"/>
		<line class="st20" x1="264.8" y1="378.2" x2="257.3" y2="378.2"/>
		<line class="st20" x1="261.1" y1="374.6" x2="261.1" y2="381.9"/>
		<polyline class="st10" points="259,375.3 259,376.3 258.2,376.3 		"/>
		<polyline class="st10" points="263.9,380.3 263.1,380.3 263.1,381.1 		"/>
		<line class="st10" x1="263.7" y1="380.9" x2="258.4" y2="375.7"/>
		<polyline class="st10" points="258.2,380.3 259,380.3 259,381.1 		"/>
		<polyline class="st10" points="263.1,375.3 263.1,376.3 263.9,376.3 		"/>
		<line class="st10" x1="263.7" y1="375.7" x2="258.4" y2="380.9"/>
		<polyline class="st10" points="257.6,377.6 258.2,378.2 257.6,378.8 		"/>
		<polyline class="st10" points="264.5,377.6 263.9,378.2 264.5,378.8 		"/>
		<polyline class="st10" points="260.5,381.7 261.1,381.1 261.7,381.7 		"/>
		<polyline class="st10" points="260.5,374.9 261.1,375.5 261.7,374.9 		"/>
		<line class="st10" x1="264.8" y1="378.2" x2="257.3" y2="378.2"/>
		<line class="st10" x1="261.1" y1="374.6" x2="261.1" y2="381.9"/>
	</g>
	<g>
		
			<rect x="253.8" y="391.6" transform="matrix(-1 -1.224647e-16 1.224647e-16 -1 521.9387 811.8762)" class="st10" width="14.3" height="28.8"/>
		<g>
			<path class="st11" d="M257.4,405.6h7.1c1.3,0,2.4,1.1,2.4,2.4v8.5c0,1.3-1.1,2.4-2.4,2.4h-7.1c-1.3,0-2.4-1.1-2.4-2.4v-8.5
				C255,406.7,256.1,405.6,257.4,405.6z"/>
			<circle class="st11" cx="264.3" cy="412.5" r="0.9"/>
		</g>
		<g>
			
				<rect x="264.7" y="394" transform="matrix(-1 -1.224647e-16 1.224647e-16 -1 529.9444 797.358)" class="st12" width="0.5" height="9.4"/>
			
				<rect x="262.7" y="394" transform="matrix(-1 -1.224647e-16 1.224647e-16 -1 525.9464 797.358)" class="st12" width="0.5" height="9.4"/>
			
				<rect x="260.7" y="394" transform="matrix(-1 -1.224647e-16 1.224647e-16 -1 521.9483 797.358)" class="st12" width="0.5" height="9.4"/>
			
				<rect x="258.7" y="394" transform="matrix(-1 -1.224647e-16 1.224647e-16 -1 517.9502 797.358)" class="st12" width="0.5" height="9.4"/>
			
				<rect x="256.7" y="394" transform="matrix(-1 -1.224647e-16 1.224647e-16 -1 513.9521 797.358)" class="st12" width="0.5" height="9.4"/>
		</g>
	</g>
	<g>
		<rect x="254" y="456.1" class="st10" width="13.9" height="13.9"/>
		<path class="st11" d="M261.3,465.9c0,1.4,1.1,2.5,2.5,2.5c1.4,0,2.5-1.1,2.5-2.5c0-1.4-1.1-2.5-2.5-2.5
			C262.5,463.4,261.3,464.5,261.3,465.9"/>
		<path class="st11" d="M255.7,460c0,1.4,1.1,2.5,2.5,2.5c1.4,0,2.5-1.1,2.5-2.5c0-1.4-1.1-2.5-2.5-2.5
			C256.8,457.5,255.7,458.6,255.7,460"/>
		<path class="st11" d="M262,459.5c0,1.1,0.9,2.1,2.1,2.1c1.1,0,2.1-0.9,2.1-2.1c0-1.1-0.9-2.1-2.1-2.1
			C263,457.5,262,458.4,262,459.5"/>
		<path class="st11" d="M255.7,466.3c0,1.1,0.9,2.1,2.1,2.1c1.1,0,2.1-0.9,2.1-2.1c0-1.1-0.9-2.1-2.1-2.1
			C256.6,464.2,255.7,465.1,255.7,466.3"/>
	</g>
	<g>
		<g>
			<g>
				<g class="st13">
					<path class="st12" d="M316.5,435.3h6.6c0.6,0,1,0.4,1,1v5.8c0,0.6-0.4,1-1,1h-6.6c-0.6,0-1-0.4-1-1v-5.8
						C315.5,435.8,315.9,435.3,316.5,435.3z"/>
					<path class="st10" d="M316.5,435.3h6.6c0.6,0,1,0.4,1,1v5.8c0,0.6-0.4,1-1,1h-6.6c-0.6,0-1-0.4-1-1v-5.8
						C315.5,435.8,315.9,435.3,316.5,435.3z"/>
				</g>
				<g>
					<path class="st3" d="M313.5,432.3h6.6c0.6,0,1,0.4,1,1v5.8c0,0.6-0.4,1-1,1h-6.6c-0.6,0-1-0.4-1-1v-5.8
						C312.5,432.8,312.9,432.3,313.5,432.3z"/>
					<path class="st14" d="M313.5,432.3h6.6c0.6,0,1,0.4,1,1v5.8c0,0.6-0.4,1-1,1h-6.6c-0.6,0-1-0.4-1-1v-5.8
						C312.5,432.8,312.9,432.3,313.5,432.3z"/>
				</g>
			</g>
			<path class="st15" d="M317.4,438l-2.5-0.9c-0.5-0.2-0.8-0.8-0.6-1.3l0.3-0.7c0.2-0.5,0.8-0.8,1.3-0.6l2.5,0.9
				c0.5,0.2,0.8,0.8,0.6,1.3l-0.3,0.7C318.5,438,318,438.2,317.4,438z"/>
			<circle class="st15" cx="316.7" cy="436.3" r="0.4"/>
		</g>
		<g>
			<g class="st13">
				<path class="st12" d="M326.1,485.8v-49.5c0-0.6,0.4-1,1-1h21.3c0.6,0,1,0.4,1,1v49.5c0,0.6-0.4,1-1,1h-21.3
					C326.5,486.8,326.1,486.3,326.1,485.8z"/>
				<path class="st10" d="M326.1,485.8v-49.5c0-0.6,0.4-1,1-1h21.3c0.6,0,1,0.4,1,1v49.5c0,0.6-0.4,1-1,1h-21.3
					C326.5,486.8,326.1,486.3,326.1,485.8z"/>
			</g>
			<g>
				<path class="st3" d="M323.1,482.8v-49.5c0-0.6,0.4-1,1-1h21.3c0.6,0,1,0.4,1,1v49.5c0,0.6-0.4,1-1,1h-21.3
					C323.5,483.8,323.1,483.3,323.1,482.8z"/>
				<path class="st14" d="M323.1,482.8v-49.5c0-0.6,0.4-1,1-1h21.3c0.6,0,1,0.4,1,1v49.5c0,0.6-0.4,1-1,1h-21.3
					C323.5,483.8,323.1,483.3,323.1,482.8z"/>
			</g>
		</g>
		<path class="st15" d="M325.8,480v-44c0-0.6,0.4-1,1-1h15.8c0.6,0,1,0.4,1,1v44c0,0.6-0.4,1-1,1h-15.8
			C326.3,481,325.8,480.6,325.8,480z"/>
		<path class="st15" d="M328.2,437.5c0.4-0.2,0.7,0.1,1.4,0c5.7-1.2,11.9,0.3,12,0.5c0.1,0.2-0.1,0.2-0.4,1.5
			c-0.1,1.4,0.3,4.5,0,5.6c-0.1,0.3-0.1,0.5-0.3,0.6c-1.1,0.8-12.3,0.5-12.4,0.4s-0.5-0.5-0.6-1
			C327.7,443.8,327.8,437.6,328.2,437.5z"/>
		<g>
			<g>
				<path class="st15" d="M341.8,453.8c0,0-5.3,0.7-7.1,0.7c-1.9,0-7.1-0.7-7.1-0.7c-1.3,0-2.4,2.2-2.4,0.9v-7.5
					c0-1.3,1.1-2.4,2.4-2.4c0,0,4.9,0.7,7,0.7c2.1,0,7.2-0.7,7.2-0.7c1.3,0,2.4,1.1,2.4,2.4v7.5
					C344.2,456.1,343.1,453.8,341.8,453.8z"/>
			</g>
			<path class="st16" d="M328.1,448.1c-0.2,1,1,3.7,3,4.2"/>
			<path class="st16" d="M334.1,447.8c1.5,1.4,4.9,3.3,7.1,3.1"/>
		</g>
	</g>
	<g>
		<g>
			<g class="st13">
				<path class="st12" d="M348.6,539.9h-17.2c-0.4,0-0.8-0.3-0.8-0.8V502c0-0.4,0.3-0.8,0.8-0.8h17.2c0.4,0,0.8,0.3,0.8,0.8v37.2
					C349.4,539.6,349,539.9,348.6,539.9z"/>
				<path class="st10" d="M348.6,539.9h-17.2c-0.4,0-0.8-0.3-0.8-0.8V502c0-0.4,0.3-0.8,0.8-0.8h17.2c0.4,0,0.8,0.3,0.8,0.8v37.2
					C349.4,539.6,349,539.9,348.6,539.9z"/>
			</g>
			<g>
				<path class="st3" d="M345.6,536.9h-17.2c-0.4,0-0.8-0.3-0.8-0.8V499c0-0.4,0.3-0.8,0.8-0.8h17.2c0.4,0,0.8,0.3,0.8,0.8v37.2
					C346.4,536.6,346,536.9,345.6,536.9z"/>
				<path class="st14" d="M345.6,536.9h-17.2c-0.4,0-0.8-0.3-0.8-0.8V499c0-0.4,0.3-0.8,0.8-0.8h17.2c0.4,0,0.8,0.3,0.8,0.8v37.2
					C346.4,536.6,346,536.9,345.6,536.9z"/>
			</g>
		</g>
		<g>
			<g>
				<path class="st15" d="M319.9,524.2h1.5v-13.2h-1.5c-0.6,0-1.1,0.5-1.1,1.1v11.1C318.8,523.7,319.3,524.2,319.9,524.2z"/>
				<rect x="321.4" y="510.9" class="st15" width="6.3" height="13.2"/>
				<line class="st15" x1="321.4" y1="522.4" x2="327.7" y2="522.4"/>
				<line class="st15" x1="327.7" y1="512.7" x2="321.4" y2="512.7"/>
			</g>
		</g>
	</g>
	<g>
		<g>
			
				<rect x="312.4" y="408.2" transform="matrix(-1 -1.224647e-16 1.224647e-16 -1 640.5215 832.1442)" class="st11" width="15.7" height="15.7"/>
		</g>
		<g>
			<circle class="st21" cx="318.8" cy="415.6" r="3.9"/>
			<path class="st21" d="M319.2,413c-1.5,0-2.7,1.2-2.7,2.7"/>
		</g>
	</g>
	<g>
		<rect x="191.1" y="362.5" class="st1" width="32.6" height="24.1"/>
		<path class="st12" d="M223.5,362.7v23.8h-32.3v-23.8H223.5 M223.8,362.4h-32.9v24.4h32.9V362.4L223.8,362.4z"/>
	</g>
	<g>
		<g>
			<g class="st13">
				<path class="st12" d="M222.6,180.2h-30.9c-2.6,0-4.6,2.1-4.6,4.6v18.6c0,0.6,0.5,1,1,1h0.2c0.6,0,1-0.5,1-1v-0.7
					c0,0.7,0.5,1.2,1.2,1.2h15.2c0.7,0,1.2-0.5,1.2-1.2c0,0.7,0.5,1.2,1.2,1.2h15.7c0.6,0,1.1-0.5,1.2-1.1v0.6c0,0.6,0.5,1,1,1h0.2
					c0.6,0,1-0.5,1-1v-18.6C227.3,182.3,225.2,180.2,222.6,180.2z"/>
				<path class="st10" d="M222.6,180.2h-30.9c-2.6,0-4.6,2.1-4.6,4.6v18.6c0,0.6,0.5,1,1,1h0.2c0.6,0,1-0.5,1-1v-0.7
					c0,0.7,0.5,1.2,1.2,1.2h15.2c0.7,0,1.2-0.5,1.2-1.2c0,0.7,0.5,1.2,1.2,1.2h15.7c0.6,0,1.1-0.5,1.2-1.1v0.6c0,0.6,0.5,1,1,1h0.2
					c0.6,0,1-0.5,1-1v-18.6C227.3,182.3,225.2,180.2,222.6,180.2z"/>
			</g>
			<g>
				<path class="st3" d="M219.6,177.2h-30.9c-2.6,0-4.6,2.1-4.6,4.6v18.6c0,0.6,0.5,1,1,1h0.2c0.6,0,1-0.5,1-1v-0.7
					c0,0.7,0.5,1.2,1.2,1.2h15.2c0.7,0,1.2-0.5,1.2-1.2c0,0.7,0.5,1.2,1.2,1.2h15.7c0.6,0,1.1-0.5,1.2-1.1v0.6c0,0.6,0.5,1,1,1h0.2
					c0.6,0,1-0.5,1-1v-18.6C224.3,179.3,222.2,177.2,219.6,177.2z"/>
				<path class="st14" d="M219.6,177.2h-30.9c-2.6,0-4.6,2.1-4.6,4.6v18.6c0,0.6,0.5,1,1,1h0.2c0.6,0,1-0.5,1-1v-0.7
					c0,0.7,0.5,1.2,1.2,1.2h15.2c0.7,0,1.2-0.5,1.2-1.2c0,0.7,0.5,1.2,1.2,1.2h15.7c0.6,0,1.1-0.5,1.2-1.1v0.6c0,0.6,0.5,1,1,1h0.2
					c0.6,0,1-0.5,1-1v-18.6C224.3,179.3,222.2,177.2,219.6,177.2z"/>
			</g>
		</g>
		<g>
			<path class="st17" d="M219.6,177.2h-30.9c-2.6,0-4.6,2.1-4.6,4.6v18.6c0,0.6,0.5,1,1,1h0.2c0.6,0,1-0.5,1-1v-16H222v16
				c0,0.6,0.5,1,1,1h0.2c0.6,0,1-0.5,1-1v-18.6C224.3,179.3,222.2,177.2,219.6,177.2z"/>
			<g>
				<g>
					<path class="st15" d="M187.9,186.3c5-0.5,10-0.5,15,0c1.1,0.1,2.1-0.7,2.3-1.8c0.1-0.8,0.2-1.6,0.3-2.5
						c0.1-1.1-0.7-2.1-1.9-2.2c-5.4-0.5-10.8-0.5-16.2,0c-1.2,0.1-2.1,1.1-1.9,2.2c0.1,0.8,0.2,1.6,0.3,2.5
						C185.8,185.7,186.8,186.4,187.9,186.3z"/>
					<path class="st18" d="M187.5,184.6c0.1-0.5,15.7-0.5,15.8,0"/>
				</g>
			</g>
			<g>
				<g>
					<path class="st15" d="M205.5,186.3c5-0.5,10-0.5,15,0c1.1,0.1,2.1-0.7,2.3-1.8c0.1-0.8,0.2-1.6,0.3-2.5
						c0.1-1.1-0.7-2.1-1.9-2.2c-5.4-0.5-10.8-0.5-16.2,0c-1.2,0.1-2.1,1.1-1.9,2.2c0.1,0.8,0.2,1.6,0.3,2.5
						C203.4,185.7,204.4,186.4,205.5,186.3z"/>
					<path class="st18" d="M205.1,184.6c0.1-0.5,15.7-0.5,15.8,0"/>
				</g>
			</g>
			<path class="st15" d="M187.1,182c0.7,0.4,3.3,3.3,3.5,3.5c1.4,0,3.8,0.7,4.2,1.2c-0.2,0.4-0.3,0.3-0.7,0.8
				c-0.2,0.7-1.1,4.3-2.6,6.1c-1-0.9-6.1-1.4-7.5-2.9c-0.8-0.4-1.5-0.5-2.1-1.2c0.2-0.4,2.1-2.1,2.9-2.3
				C185.4,186.4,186.1,182.7,187.1,182z"/>
			<path class="st15" d="M218.6,181.4c0.7,0.5,5,6.4,5.2,6.8c-0.3,1.4-3.1,3.3-3.9,3.8c-0.3,0.9-0.8,2-1.4,2.4
				c-0.4-0.4-1.1-1.2-1.4-1.6c-0.4-0.3-3.2-2.6-3.8-4.4c-0.4-0.5-0.9-0.9-0.9-1.2c0.6-0.5,1.4-0.8,1.9-0.8
				C214.8,185.9,217.9,181.5,218.6,181.4z"/>
		</g>
	</g>
	<g>
		<g>
			<g class="st13">
				<path class="st12" d="M201.2,291.5h13.9c2.6,0,4.6-2.1,4.6-4.6v-18.6c0-0.6-0.5-1-1-1h-0.2c-0.6,0-1,0.5-1,1v0.7
					c0-0.7-0.5-1.2-1.2-1.2H200c-0.6,0-1.1,0.5-1.2,1.1v-0.6c0-0.6-0.5-1-1-1h-0.2c-0.6,0-1,0.5-1,1v18.6
					C196.6,289.4,198.7,291.5,201.2,291.5z"/>
				<path class="st10" d="M201.2,291.5h13.9c2.6,0,4.6-2.1,4.6-4.6v-18.6c0-0.6-0.5-1-1-1h-0.2c-0.6,0-1,0.5-1,1v0.7
					c0-0.7-0.5-1.2-1.2-1.2H200c-0.6,0-1.1,0.5-1.2,1.1v-0.6c0-0.6-0.5-1-1-1h-0.2c-0.6,0-1,0.5-1,1v18.6
					C196.6,289.4,198.7,291.5,201.2,291.5z"/>
			</g>
			<g>
				<path class="st3" d="M198.2,288.5h13.9c2.6,0,4.6-2.1,4.6-4.6v-18.6c0-0.6-0.5-1-1-1h-0.2c-0.6,0-1,0.5-1,1v0.7
					c0-0.7-0.5-1.2-1.2-1.2H197c-0.6,0-1.1,0.5-1.2,1.1v-0.6c0-0.6-0.5-1-1-1h-0.2c-0.6,0-1,0.5-1,1v18.6
					C193.6,286.4,195.7,288.5,198.2,288.5z"/>
				<path class="st14" d="M198.2,288.5h13.9c2.6,0,4.6-2.1,4.6-4.6v-18.6c0-0.6-0.5-1-1-1h-0.2c-0.6,0-1,0.5-1,1v0.7
					c0-0.7-0.5-1.2-1.2-1.2H197c-0.6,0-1.1,0.5-1.2,1.1v-0.6c0-0.6-0.5-1-1-1h-0.2c-0.6,0-1,0.5-1,1v18.6
					C193.6,286.4,195.7,288.5,198.2,288.5z"/>
			</g>
		</g>
		<g>
			<path class="st17" d="M198.2,288.5h13.9c2.6,0,4.6-2.1,4.6-4.6v-18.6c0-0.6-0.5-1-1-1h-0.2c-0.6,0-1,0.5-1,1v16h-18.6v-16
				c0-0.6-0.5-1-1-1h-0.2c-0.6,0-1,0.5-1,1v18.6C193.6,286.4,195.7,288.5,198.2,288.5z"/>
			<g>
				<g>
					<path class="st15" d="M212.4,279.4c-5,0.5-10,0.5-15,0c-1.1-0.1-2.1,0.7-2.3,1.8c-0.1,0.8-0.2,1.6-0.3,2.5
						c-0.1,1.1,0.7,2.1,1.9,2.2c5.4,0.5,10.8,0.5,16.2,0c1.2-0.1,2.1-1.1,1.9-2.2c-0.1-0.8-0.2-1.6-0.3-2.5
						C214.5,280.1,213.5,279.3,212.4,279.4z"/>
					<path class="st18" d="M212.8,281.1c-0.1,0.5-15.7,0.5-15.8,0"/>
				</g>
			</g>
			<path class="st15" d="M199.2,284.3c-0.7-0.5-5-6.4-5.2-6.8c0.3-1.4,3.1-3.3,3.9-3.8c0.3-0.9,0.8-2,1.4-2.4
				c0.4,0.4,1.1,1.2,1.4,1.6c0.4,0.3,3.2,2.6,3.8,4.4c0.4,0.5,0.9,0.9,0.9,1.2c-0.6,0.5-1.4,0.8-1.9,0.8
				C203,279.8,200,284.3,199.2,284.3z"/>
		</g>
	</g>
	<g>
		<g>
			<rect x="307" y="197.6" class="st1" width="16.4" height="27.3"/>
			<path class="st12" d="M323.2,197.8v27h-16.1v-27H323.2 M323.5,197.5h-16.7v27.6h16.7V197.5L323.5,197.5z"/>
		</g>
		<line class="st22" x1="320.6" y1="221.3" x2="309.8" y2="220.8"/>
		<line class="st22" x1="320.6" y1="219.3" x2="309.8" y2="219.9"/>
		<line class="st22" x1="320.6" y1="218.5" x2="309.8" y2="218"/>
		<line class="st22" x1="320.6" y1="216.5" x2="309.8" y2="217.2"/>
		<line class="st22" x1="320.6" y1="206" x2="309.8" y2="205.5"/>
		<line class="st22" x1="320.6" y1="204" x2="309.8" y2="204.6"/>
		<line class="st22" x1="320.6" y1="203.2" x2="309.8" y2="202.7"/>
		<line class="st22" x1="320.6" y1="201.2" x2="309.8" y2="201.9"/>
		<line class="st23" x1="308.1" y1="225.1" x2="308.1" y2="197.6"/>
		<line class="st23" x1="308.1" y1="211.3" x2="307" y2="211.3"/>
		<polyline class="st10" points="307,214.3 306.3,214.3 306.3,213.3 307,213.3 		"/>
		<polyline class="st10" points="307,209.4 306.3,209.4 306.3,208.3 307,208.3 		"/>
		<line class="st10" x1="315.2" y1="225.1" x2="315.2" y2="197.6"/>
	</g>
	<g>
		<g>
			<rect x="307" y="168.7" class="st1" width="16.4" height="28.9"/>
			<path class="st12" d="M323.2,168.9v28.6h-16.1v-28.6H323.2 M323.5,168.6h-16.7v29.2h16.7V168.6L323.5,168.6z"/>
		</g>
		<line class="st22" x1="320.6" y1="193.8" x2="309.8" y2="193.3"/>
		<line class="st22" x1="320.6" y1="191.7" x2="309.8" y2="192.4"/>
		<line class="st22" x1="320.6" y1="190.9" x2="309.8" y2="190.3"/>
		<line class="st22" x1="320.6" y1="188.8" x2="309.8" y2="189.5"/>
		<line class="st22" x1="320.6" y1="177.6" x2="309.8" y2="177.1"/>
		<line class="st22" x1="320.6" y1="175.5" x2="309.8" y2="176.2"/>
		<line class="st22" x1="320.6" y1="174.7" x2="309.8" y2="174.1"/>
		<line class="st22" x1="320.6" y1="172.6" x2="309.8" y2="173.3"/>
		<line class="st23" x1="308.1" y1="197.8" x2="308.1" y2="168.7"/>
		<line class="st23" x1="308.1" y1="183.3" x2="307" y2="183.3"/>
		<polyline class="st10" points="307,186.4 306.3,186.4 306.3,185.3 307,185.3 		"/>
		<polyline class="st10" points="307,181.2 306.3,181.2 306.3,180.1 307,180.1 		"/>
		<line class="st10" x1="315.2" y1="197.8" x2="315.2" y2="168.7"/>
	</g>
	<g>
		<g>
			<rect x="307" y="253.8" class="st1" width="16.4" height="27.3"/>
			<path class="st12" d="M323.2,254v27h-16.1v-27H323.2 M323.5,253.7h-16.7v27.6h16.7V253.7L323.5,253.7z"/>
		</g>
		<line class="st22" x1="320.6" y1="277.5" x2="309.8" y2="276.9"/>
		<line class="st22" x1="320.6" y1="275.5" x2="309.8" y2="276.1"/>
		<line class="st22" x1="320.6" y1="274.7" x2="309.8" y2="274.2"/>
		<line class="st22" x1="320.6" y1="272.7" x2="309.8" y2="273.4"/>
		<line class="st22" x1="320.6" y1="262.2" x2="309.8" y2="261.6"/>
		<line class="st22" x1="320.6" y1="260.2" x2="309.8" y2="260.8"/>
		<line class="st22" x1="320.6" y1="259.4" x2="309.8" y2="258.9"/>
		<line class="st22" x1="320.6" y1="257.4" x2="309.8" y2="258"/>
		<line class="st23" x1="308.1" y1="281.2" x2="308.1" y2="253.8"/>
		<line class="st23" x1="308.1" y1="267.5" x2="307" y2="267.5"/>
		<polyline class="st10" points="307,270.5 306.3,270.5 306.3,269.5 307,269.5 		"/>
		<polyline class="st10" points="307,265.5 306.3,265.5 306.3,264.5 307,264.5 		"/>
		<line class="st10" x1="315.2" y1="281.2" x2="315.2" y2="253.8"/>
	</g>
	<g>
		<g>
			<rect x="307" y="224.9" class="st1" width="16.4" height="28.9"/>
			<path class="st12" d="M323.2,225.1v28.6h-16.1v-28.6H323.2 M323.5,224.8h-16.7v29.2h16.7V224.8L323.5,224.8z"/>
		</g>
		<line class="st22" x1="320.6" y1="250" x2="309.8" y2="249.4"/>
		<line class="st22" x1="320.6" y1="247.9" x2="309.8" y2="248.5"/>
		<line class="st22" x1="320.6" y1="247.1" x2="309.8" y2="246.5"/>
		<line class="st22" x1="320.6" y1="244.9" x2="309.8" y2="245.6"/>
		<line class="st22" x1="320.6" y1="233.8" x2="309.8" y2="233.2"/>
		<line class="st22" x1="320.6" y1="231.7" x2="309.8" y2="232.3"/>
		<line class="st22" x1="320.6" y1="230.9" x2="309.8" y2="230.3"/>
		<line class="st22" x1="320.6" y1="228.7" x2="309.8" y2="229.4"/>
		<line class="st23" x1="308.1" y1="253.9" x2="308.1" y2="224.9"/>
		<line class="st23" x1="308.1" y1="239.4" x2="307" y2="239.4"/>
		<polyline class="st10" points="307,242.6 306.3,242.6 306.3,241.5 307,241.5 		"/>
		<polyline class="st10" points="307,237.4 306.3,237.4 306.3,236.3 307,236.3 		"/>
		<line class="st10" x1="315.2" y1="253.9" x2="315.2" y2="224.9"/>
	</g>
	<g>
		<g>
			<rect x="468.5" y="202" class="st1" width="16.4" height="31.5"/>
			<path class="st12" d="M484.7,202.2v31.2h-16.1v-31.2H484.7 M485,201.9h-16.7v31.8H485V201.9L485,201.9z"/>
		</g>
		<line class="st22" x1="482.1" y1="229.3" x2="471.3" y2="228.7"/>
		<line class="st22" x1="482.1" y1="227" x2="471.3" y2="227.8"/>
		<line class="st22" x1="482.1" y1="226.2" x2="471.3" y2="225.5"/>
		<line class="st22" x1="482.1" y1="223.8" x2="471.3" y2="224.6"/>
		<line class="st22" x1="482.1" y1="211.7" x2="471.3" y2="211.1"/>
		<line class="st22" x1="482.1" y1="209.4" x2="471.3" y2="210.1"/>
		<line class="st22" x1="482.1" y1="208.5" x2="471.3" y2="207.9"/>
		<line class="st22" x1="482.1" y1="206.2" x2="471.3" y2="206.9"/>
		<line class="st23" x1="469.6" y1="233.6" x2="469.6" y2="202"/>
		<line class="st23" x1="469.6" y1="217.8" x2="468.4" y2="217.8"/>
		<polyline class="st10" points="468.4,215.6 467.8,215.6 467.8,214.4 468.4,214.4 		"/>
		<line class="st10" x1="476.7" y1="233.6" x2="476.7" y2="202"/>
	</g>
	<g>
		<g>
			<rect x="468.5" y="168.7" class="st1" width="16.4" height="33.3"/>
			<path class="st12" d="M484.7,168.9v33h-16.1v-33H484.7 M485,168.6h-16.7v33.6H485V168.6L485,168.6z"/>
		</g>
		<line class="st22" x1="482.1" y1="197.7" x2="471.3" y2="197"/>
		<line class="st22" x1="482.1" y1="195.2" x2="471.3" y2="196"/>
		<line class="st22" x1="482.1" y1="194.3" x2="471.3" y2="193.6"/>
		<line class="st22" x1="482.1" y1="191.8" x2="471.3" y2="192.6"/>
		<line class="st22" x1="482.1" y1="179" x2="471.3" y2="178.3"/>
		<line class="st22" x1="482.1" y1="176.6" x2="471.3" y2="177.3"/>
		<line class="st22" x1="482.1" y1="175.6" x2="471.3" y2="175"/>
		<line class="st22" x1="482.1" y1="173.2" x2="471.3" y2="174"/>
		<line class="st23" x1="469.6" y1="202.2" x2="469.6" y2="168.8"/>
		<line class="st23" x1="469.6" y1="185.5" x2="468.4" y2="185.5"/>
		<polyline class="st10" points="468.4,189.1 467.8,189.1 467.8,187.9 468.4,187.9 		"/>
		<polyline class="st10" points="468.4,183.1 467.8,183.1 467.8,181.8 468.4,181.8 		"/>
		<line class="st10" x1="476.7" y1="202.2" x2="476.7" y2="168.8"/>
	</g>
	<g>
		<g>
			<rect x="432.2" y="217.9" class="st1" width="36.3" height="15.6"/>
			<path class="st12" d="M468.3,218v15.3h-36V218H468.3 M468.6,217.7H432v15.9h36.6V217.7L468.6,217.7z"/>
		</g>
		<line class="st22" x1="437" y1="230.9" x2="437.7" y2="220.5"/>
		<line class="st22" x1="439.6" y1="230.9" x2="438.8" y2="220.5"/>
		<line class="st22" x1="440.6" y1="230.9" x2="441.3" y2="220.5"/>
		<line class="st22" x1="443.3" y1="230.9" x2="442.4" y2="220.5"/>
		<line class="st22" x1="457.3" y1="230.9" x2="458" y2="220.5"/>
		<line class="st22" x1="459.9" y1="230.9" x2="459.1" y2="220.5"/>
		<line class="st22" x1="460.9" y1="230.9" x2="461.7" y2="220.5"/>
		<line class="st22" x1="463.6" y1="230.9" x2="462.7" y2="220.5"/>
		<line class="st23" x1="432" y1="218.9" x2="468.4" y2="218.9"/>
		<line class="st23" x1="450.2" y1="218.9" x2="450.2" y2="217.8"/>
		<polyline class="st10" points="446.2,217.8 446.2,217.2 447.6,217.2 447.6,217.8 		"/>
		<polyline class="st10" points="452.8,217.8 452.8,217.2 454.2,217.2 454.2,217.8 		"/>
		<line class="st10" x1="432" y1="225.7" x2="468.4" y2="225.7"/>
	</g>
	<g>
		<g>
			<g class="st7">
				<path class="st8" d="M345.2,391.7h5.5v-13.5h-5.5c-1,0-1.8,1.3-1.8,2.8v7.9C343.3,390.5,344.2,391.7,345.2,391.7z"/>
				<path class="st9" d="M345.2,391.7h5.5v-13.5h-5.5c-1,0-1.8,1.3-1.8,2.8v7.9C343.3,390.5,344.2,391.7,345.2,391.7z"/>
			</g>
			<g>
				<path class="st1" d="M342.2,388.7h5.5v-13.5h-5.5c-1,0-1.8,1.3-1.8,2.8v7.9C340.3,387.5,341.2,388.7,342.2,388.7z"/>
				<path class="st10" d="M342.2,388.7h5.5v-13.5h-5.5c-1,0-1.8,1.3-1.8,2.8v7.9C340.3,387.5,341.2,388.7,342.2,388.7z"/>
			</g>
		</g>
		<path class="st11" d="M343.7,388h0.9c1.4,0,2.6-1.1,2.6-2.6v-4.3c0-1.4-1.1-2.6-2.6-2.6h-0.9c-1.4,0-2.6,1.1-2.6,2.6v4.3
			C341.1,386.9,342.3,388,343.7,388z"/>
		<circle class="st11" cx="344.3" cy="380.5" r="0.5"/>
	</g>
</g>
<g id="Ouvertures">
	<g>
		<path class="st24" d="M329.5,315.6c-13.7,0-24.8,11.3-24.8,25.3"/>
		<line class="st10" x1="329.5" y1="340.9" x2="304.7" y2="340.9"/>
	</g>
	<g>
		<path class="st24" d="M329.4,130.8c0-12.1-10-22-22.4-22"/>
		<line class="st10" x1="307" y1="130.8" x2="307" y2="108.8"/>
	</g>
	<g>
		<path class="st24" d="M349.5,169.7c0,9.3,7.7,16.8,17.1,16.8"/>
		<line class="st10" x1="366.6" y1="169.7" x2="366.6" y2="186.4"/>
	</g>
	<g>
		<path class="st24" d="M405.5,139.1c11.8,0,21.3,9.7,21.3,21.8"/>
		<line class="st10" x1="405.5" y1="160.8" x2="426.8" y2="160.8"/>
	</g>
	<g>
		<path class="st24" d="M306.7,380.5c-11.6,0-20.9,9.6-20.9,21.4"/>
		<line class="st10" x1="306.7" y1="401.8" x2="285.8" y2="401.8"/>
	</g>
	<g>
		<path class="st24" d="M296.9,432.6c0,11.8-9.8,21.4-21.8,21.4"/>
		<line class="st10" x1="275.1" y1="432.6" x2="275.1" y2="454"/>
	</g>
	<g>
		<polygon class="st12" points="283.3,36.1 283.2,38.3 280.2,38.1 280.3,35.9 		"/>
		<polygon class="st12" points="339.4,38.9 339.3,41.1 337.6,41 337.7,38.8 		"/>
		<g>
			<polygon class="st1" points="283,38.1 283.1,36.2 337.6,38.9 337.5,40.9 			"/>
			<path class="st12" d="M283.2,36.4l54.2,2.7l-0.1,1.6L283.1,38L283.2,36.4 M282.9,36.1l-0.1,2.2l54.8,2.7l0.1-2.2L282.9,36.1
				L282.9,36.1z"/>
		</g>
		<polyline class="st24" points="319,40.1 317.3,49.5 283.3,38.3 		"/>
		<polygon class="st12" points="319.5,37.9 319.4,40.1 316.8,40 316.9,37.8 		"/>
		<g>
			<path class="st24" d="M318.4,40.1c-0.5,10.5,7.6,19.5,18,20"/>
			<line class="st10" x1="337.3" y1="41" x2="336.4" y2="60"/>
		</g>
	</g>
	<g>
		<polygon class="st12" points="147.4,382.5 149.6,382.6 149.4,385.6 147.2,385.5 		"/>
		<polygon class="st12" points="150.2,326.4 152.4,326.5 152.3,328.2 150.1,328.1 		"/>
		<g>
			<polygon class="st1" points="147.5,382.7 150.3,328.2 152.2,328.3 149.4,382.8 			"/>
			<path class="st12" d="M150.4,328.4l1.6,0.1l-2.7,54.2l-1.6-0.1L150.4,328.4 M150.1,328.1l-2.7,54.8l2.2,0.1l2.7-54.8L150.1,328.1
				L150.1,328.1z"/>
		</g>
		<polyline class="st24" points="151.4,346.8 160.8,348.5 149.6,382.5 		"/>
		<polygon class="st12" points="149.2,346.3 151.4,346.4 151.3,349 149.1,348.9 		"/>
		<g>
			<path class="st24" d="M151.4,347.4c10.5,0.5,19.5-7.6,20-18"/>
			<line class="st10" x1="152.3" y1="328.5" x2="171.3" y2="329.4"/>
		</g>
	</g>
	<g>
		<polygon class="st12" points="278.2,558.6 278.1,556.4 275.2,556.6 275.3,558.7 		"/>
		<polygon class="st12" points="334.3,555.8 334.2,553.6 332.5,553.7 332.6,555.8 		"/>
		<g>
			<polygon class="st1" points="277.9,556.6 332.4,553.8 332.5,555.7 278,558.4 			"/>
			<path class="st12" d="M332.2,554l0.1,1.6l-54.2,2.7l-0.1-1.6L332.2,554 M332.5,553.7l-54.8,2.8l0.1,2.2l54.8-2.8L332.5,553.7
				L332.5,553.7z"/>
		</g>
		<polyline class="st24" points="313.9,554.6 312.2,545.2 278.2,556.4 		"/>
		<polygon class="st12" points="314.4,556.8 314.3,554.6 311.8,554.7 311.9,556.9 		"/>
		<g>
			<path class="st24" d="M313.3,554.6c-0.5-10.4,7.6-19.3,18-19.8"/>
			<line class="st10" x1="332.3" y1="553.7" x2="331.4" y2="534.8"/>
		</g>
	</g>
	<g>
		<polygon class="st12" points="485,46.2 484.9,48.5 486.3,48.5 486.5,46.3 		"/>
		<polygon class="st12" points="427,43.3 426.8,45.5 428.5,45.6 428.6,43.4 		"/>
		<g>
			<polygon class="st1" points="428.7,45.5 428.8,43.6 484.8,46.4 484.7,48.3 			"/>
			<path class="st12" d="M428.9,43.7l55.8,2.8l-0.1,1.6l-55.8-2.8L428.9,43.7 M428.6,43.4l-0.1,2.2l56.4,2.8l0.1-2.2L428.6,43.4
				L428.6,43.4z"/>
		</g>
		<polyline class="st24" points="448.3,46.6 448.5,56.2 484.4,48.4 		"/>
		<polygon class="st12" points="447.4,44.4 447.3,46.6 449.9,46.7 450,44.5 		"/>
		<g>
			<path class="st24" d="M448.3,46.6c-0.6,10.5-9.8,18.6-20.5,18"/>
			<line class="st10" x1="428.8" y1="45.6" x2="427.7" y2="64.7"/>
		</g>
	</g>
	<g>
		<g>
			<rect x="269.9" y="138.1" class="st1" width="1.7" height="22.8"/>
			<path class="st12" d="M271.5,138.3v22.5H270v-22.5H271.5 M271.8,138h-2v23.1h2V138L271.8,138z"/>
		</g>
		<rect x="269.7" y="158.7" class="st12" width="2" height="2.3"/>
		<rect x="269.7" y="138" class="st12" width="2" height="2.3"/>
		<g>
			<path class="st24" d="M271.8,159.8c12,0,20.6-8.7,20.6-20.6"/>
			<line class="st10" x1="271.8" y1="139.2" x2="292.4" y2="139.2"/>
		</g>
	</g>
	<g>
		<g>
			<rect x="151.5" y="176" class="st1" width="1.7" height="38.2"/>
			<path class="st12" d="M153.1,176.2V214h-1.4v-37.9H153.1 M153.4,175.9h-2v38.5h2V175.9L153.4,175.9z"/>
		</g>
		<rect x="151.4" y="210.4" class="st12" width="2" height="3.9"/>
		<rect x="151.4" y="175.9" class="st12" width="2" height="3.9"/>
		<g>
			<path class="st24" d="M153.4,212.3c3.3,0,7.4,0.4,16.7-3.6"/>
			<line class="st10" x1="153.4" y1="177.9" x2="170.1" y2="208.7"/>
		</g>
	</g>
	<g>
		<g>
			
				<rect x="122.6" y="473" transform="matrix(5.197799e-02 -0.9986 0.9986 5.197799e-02 -338.8539 590.8478)" class="st1" width="38.4" height="1.7"/>
			<path class="st12" d="M142.1,454.8l1.4,0.1l-2,38.1l-1.4-0.1L142.1,454.8 M141.8,454.5l-2,38.7l2,0.1l2-38.7L141.8,454.5
				L141.8,454.5z"/>
		</g>
		
			<rect x="140.7" y="455.5" transform="matrix(5.269451e-02 -0.9986 0.9986 5.269451e-02 -320.7275 574.9443)" class="st12" width="3.9" height="2"/>
		
			<rect x="138.9" y="490.3" transform="matrix(5.269451e-02 -0.9986 0.9986 5.269451e-02 -357.1472 606.0608)" class="st12" width="3.9" height="2"/>
		<g>
			<path class="st24" d="M143.7,456.6c3.3,0.2,7.4,0,16.5,4.5"/>
			<line class="st10" x1="141.9" y1="491.2" x2="160.2" y2="461.1"/>
		</g>
	</g>
	<g>
		<g>
			<rect x="145.8" y="497" class="st1" width="114.4" height="5.9"/>
			<path class="st12" d="M260,497.1v5.6H145.9v-5.6H260 M260.3,496.8H145.6v6.2h114.7V496.8L260.3,496.8z"/>
		</g>
		<g>
			<rect x="203.1" y="500.1" class="st1" width="57" height="2.8"/>
			<path class="st12" d="M260,500.2v2.5h-56.7v-2.5H260 M260.3,499.9H203v3.1h57.3V499.9L260.3,499.9z"/>
		</g>
		<g>
			<rect x="145.8" y="497" class="st1" width="56.5" height="2.6"/>
			<path class="st12" d="M202.2,497.1v2.3h-56.2v-2.3H202.2 M202.5,496.8h-56.8v2.9h56.8V496.8L202.5,496.8z"/>
		</g>
		<g>
			<g>
				<line class="st25" x1="223.7" y1="493.9" x2="237.5" y2="493.9"/>
				<g>
					<polygon class="st12" points="236.5,495.1 236.3,494.9 237.4,493.9 236.3,492.9 236.5,492.7 237.8,493.9 					"/>
				</g>
			</g>
		</g>
		<rect x="200.7" y="496.8" class="st12" width="3.6" height="2.9"/>
		<rect x="200.7" y="499.9" class="st12" width="3.6" height="3.1"/>
		<polygon class="st12" points="143.5,496.8 148.3,496.8 148.3,499.6 145.6,499.7 145.6,503 142.6,503 		"/>
		
			<rect x="257" y="499.9" transform="matrix(-1 -1.224647e-16 1.224647e-16 -1 517.3128 1002.9571)" class="st12" width="3.4" height="3.1"/>
		<line class="st26" x1="204" y1="501.4" x2="260.1" y2="501.4"/>
		<line class="st26" x1="147" y1="498.2" x2="203" y2="498.2"/>
	</g>
	<g>
		<g>
			<rect x="155.9" y="165.5" class="st1" width="96.3" height="5.9"/>
			<path class="st12" d="M252,165.7v5.6h-96v-5.6H252 M252.3,165.4h-96.6v6.2h96.6V165.4L252.3,165.4z"/>
		</g>
		<g>
			<rect x="204.1" y="165.5" class="st1" width="48" height="2.8"/>
			<path class="st12" d="M252,165.7v2.5h-47.7v-2.5H252 M252.3,165.4H204v3.1h48.3V165.4L252.3,165.4z"/>
		</g>
		<g>
			<rect x="155.9" y="168.9" class="st1" width="47.5" height="2.6"/>
			<path class="st12" d="M203.3,169v2.3H156V169H203.3 M203.6,168.7h-47.8v2.9h47.8V168.7L203.6,168.7z"/>
		</g>
		<g>
			<g>
				<line class="st25" x1="221.4" y1="174.5" x2="233" y2="174.5"/>
				<g>
					<polygon class="st12" points="232,175.7 231.8,175.5 232.8,174.5 231.8,173.5 232,173.3 233.3,174.5 					"/>
				</g>
			</g>
		</g>
		<rect x="202" y="168.7" class="st12" width="3" height="2.9"/>
		<rect x="155.9" y="168.7" class="st12" width="3" height="2.9"/>
		<rect x="202" y="165.4" class="st12" width="3" height="3.1"/>
		
			<rect x="249.4" y="165.4" transform="matrix(-1 -4.504365e-11 4.504365e-11 -1 501.7064 333.8661)" class="st12" width="2.8" height="3.1"/>
		<line class="st26" x1="204.8" y1="167" x2="252" y2="167"/>
		<line class="st26" x1="156.8" y1="170.2" x2="204" y2="170.2"/>
	</g>
	<g>
		<g>
			<g>
				<line class="st25" x1="425.8" y1="197.7" x2="425.8" y2="186.1"/>
				<g>
					<polygon class="st12" points="427.1,187.1 426.9,187.3 425.8,186.2 424.8,187.3 424.6,187.1 425.8,185.8 					"/>
				</g>
			</g>
		</g>
	</g>
</g>
<g id="Étiquettes" class="st27">
	<text transform="matrix(1 0 0 1 298.2395 533.3003)" class="st28 st29 st30">Chambre 3</text>
	<text transform="matrix(1 0 0 1 305.5022 541.7002)" class="st28 st31 st30">13.20 m</text>
	<text transform="matrix(0.583 0 0 0.583 330.5266 539.3691)" class="st28 st31 st30">2</text>
	<text transform="matrix(1 0 0 1 197.5548 478.4468)" class="st28 st29 st30">Espace Jour</text>
	<text transform="matrix(1 0 0 1 207.7218 486.8467)" class="st28 st31 st30">53.90 m</text>
	<text transform="matrix(0.583 0 0 0.583 232.7462 484.5156)" class="st28 st31 st30">2</text>
	<text transform="matrix(1 0 0 1 306.3268 398.5503)" class="st28 st29 st30">Buanderie </text>
	<text transform="matrix(1 0 0 1 315.5621 406.9502)" class="st28 st31 st30">3.00 m</text>
	<text transform="matrix(0.583 0 0 0.583 336.527 404.6191)" class="st28 st31 st30">2</text>
	<text transform="matrix(1 0 0 1 267.4847 309.5884)" class="st28 st29 st30">Dégagement </text>
	<text transform="matrix(1 0 0 1 279.0179 317.9883)" class="st28 st31 st30">24.60 m</text>
	<text transform="matrix(0.583 0 0 0.583 303.7172 315.6572)" class="st28 st31 st30">2</text>
	<text transform="matrix(1 0 0 1 334.4072 119.813)" class="st28 st29 st30">Chambre 2 </text>
	<text transform="matrix(1 0 0 1 341.6699 128.2129)" class="st28 st31 st30">15.40 m</text>
	<text transform="matrix(0.583 0 0 0.583 366.6943 125.8818)" class="st28 st31 st30">2</text>
	<text transform="matrix(1 0 0 1 214.9154 146.8589)" class="st28 st29 st30">Terrasse </text>
	<text transform="matrix(1 0 0 1 219.0345 155.2588)" class="st28 st31 st30">23.20 m</text>
	<text transform="matrix(0.583 0 0 0.583 244.059 152.9277)" class="st28 st31 st30">2</text>
	<text transform="matrix(1 0 0 1 218.1984 550.7778)" class="st28 st29 st30">Terrasse </text>
	<text transform="matrix(1 0 0 1 222.3175 559.1777)" class="st28 st31 st30">12.50 m</text>
	<text transform="matrix(0.583 0 0 0.583 247.3419 556.8467)" class="st28 st31 st30">2</text>
	<text transform="matrix(1 0 0 1 442.6458 154.3804)" class="st28 st29 st30">Chambre 1 </text>
	<text transform="matrix(1 0 0 1 449.9084 162.7803)" class="st28 st31 st30">14.50 m</text>
	<text transform="matrix(0.583 0 0 0.583 474.9329 160.4492)" class="st28 st31 st30">2</text>
	<text transform="matrix(1 0 0 1 431.0109 185.1167)" class="st28 st29 st30">Dressing </text>
	<text transform="matrix(1 0 0 1 437.0333 193.5166)" class="st28 st31 st30">4.90 m</text>
	<text transform="matrix(0.583 0 0 0.583 457.9982 191.1855)" class="st28 st31 st30">2</text>
	<text transform="matrix(1 0 0 1 396.6749 184.7495)" class="st28 st29 st30">Salle  </text>
	<text transform="matrix(1 0 0 1 391.4386 193.1494)" class="st28 st29 st30">de Bains </text>
	<text transform="matrix(1 0 0 1 395.4777 201.5493)" class="st28 st31 st30">4.4 0 m</text>
	<text transform="matrix(0.583 0 0 0.583 418.0802 199.2183)" class="st28 st31 st30">2</text>
	<text transform="matrix(1 0 0 1 346.318 186.0884)" class="st28 st29 st30">WC/ </text>
	<text transform="matrix(1 0 0 1 338.5905 194.4883)" class="st28 st29 st30">Douche </text>
	<text transform="matrix(1 0 0 1 342.3102 202.8882)" class="st28 st31 st30">3.30 m</text>
	<text transform="matrix(0.583 0 0 0.583 363.275 200.5571)" class="st28 st31 st30">2</text>
</g>
<g id="Murs">
	
		<rect x="394.1" y="135.3" transform="matrix(-1.836970e-16 1 -1 -1.836970e-16 633.6872 -356.33)" class="st12" width="201.9" height="6.8"/>
	
		<rect x="411.6" y="152.8" transform="matrix(-1.836970e-16 1 -1 -1.836970e-16 651.2311 -178.124)" class="st12" width="6.1" height="167.5"/>
	
		<rect x="293" y="271.4" transform="matrix(-1.836970e-16 1 -1 -1.836970e-16 608.2803 -59.5331)" class="st12" width="81.8" height="6"/>
	
		<rect x="320" y="352.1" transform="matrix(-1.836970e-16 1 -1 -1.836970e-16 689.0385 21.2251)" class="st12" width="27.7" height="6"/>
	
		<rect x="330.9" y="363" transform="matrix(-1 -1.224647e-16 1.224647e-16 -1 685.6937 732.0275)" class="st12" width="23.8" height="6"/>
	
		<rect x="250.8" y="460" transform="matrix(-1.836970e-16 1 -1 -1.836970e-16 814.7249 112.1938)" class="st12" width="200.9" height="7"/>
	<polygon class="st12" points="271.6,567.8 271.6,496.7 260.3,496.7 260.3,568.8 	"/>
	
		<rect x="258.5" y="356.6" transform="matrix(-1.836970e-16 1 -1 -1.836970e-16 628.1907 103.901)" class="st12" width="7.3" height="18.9"/>
	
		<rect x="203.5" y="430" transform="matrix(-1.836970e-16 1 -1 -1.836970e-16 701.6103 161.1048)" class="st12" width="133.4" height="2.7"/>
	
		<rect x="271.5" y="427.3" transform="matrix(-1.836970e-16 1 -1 -1.836970e-16 702.8544 157.0851)" class="st12" width="2.8" height="5.3"/>
	
		<rect x="304.9" y="420.6" transform="matrix(-1.836970e-16 1 -1 -1.836970e-16 736.2991 123.6404)" class="st12" width="2.8" height="18.8"/>
	
		<rect x="325.5" y="408.2" transform="matrix(-1.836970e-16 1 -1 -1.836970e-16 756.8544 99.7517)" class="st12" width="6.1" height="40.3"/>
	
		<rect x="319.1" y="354.8" transform="matrix(-1.836970e-16 1 -1 -1.836970e-16 688.1039 47.1178)" class="st12" width="2.8" height="25.7"/>
	
		<rect x="318.7" y="269.4" transform="matrix(-1.836970e-16 1 -1 -1.836970e-16 602.6997 -37.478)" class="st12" width="2.8" height="26.5"/>
	
		<rect x="326.7" y="145.9" transform="matrix(-1.836970e-16 1 -1 -1.836970e-16 495.3123 -160.9145)" class="st12" width="2.8" height="42.5"/>
	
		<rect x="398.1" y="134.4" transform="matrix(-1.836970e-16 1 -1 -1.836970e-16 566.7153 -232.3175)" class="st12" width="2.8" height="65.7"/>
	
		<rect x="481.3" y="152.7" transform="matrix(-1.836970e-16 1 -1 -1.836970e-16 649.9255 -315.5276)" class="st12" width="2.8" height="28.9"/>
	
		<rect x="365.2" y="94.8" transform="matrix(-1.836970e-16 1 -1 -1.836970e-16 499.1134 -234.049)" class="st12" width="2.8" height="75.5"/>
	
		<rect x="287.2" y="113.7" transform="matrix(-1.836970e-16 1 -1 -1.836970e-16 421.1229 -156.0584)" class="st12" width="2.8" height="37.7"/>
	
		<rect x="429.6" y="190.5" transform="matrix(-1 -1.224647e-16 1.224647e-16 -1 861.9132 428.522)" class="st12" width="2.8" height="47.6"/>
	
		<rect x="484.4" y="166.7" transform="matrix(-1 -1.224647e-16 1.224647e-16 -1 978.5854 404.7092)" class="st12" width="9.8" height="71.4"/>
	
		<rect x="401.6" y="160.6" transform="matrix(-1 -1.224647e-16 1.224647e-16 -1 805.9132 328.8101)" class="st12" width="2.8" height="7.5"/>
	
		<rect x="401.6" y="131.5" transform="matrix(-1 -1.224647e-16 1.224647e-16 -1 805.9132 270.4768)" class="st12" width="2.8" height="7.5"/>
	
		<rect x="393.5" y="37.5" transform="matrix(-1 -1.224647e-16 1.224647e-16 -1 797.8574 169.5015)" class="st12" width="10.8" height="94.5"/>
	
		<rect x="307.7" y="401.8" transform="matrix(-1 -1.224647e-16 1.224647e-16 -1 618.1027 832.1442)" class="st12" width="2.8" height="28.5"/>
	
		<rect x="307.7" y="367.6" transform="matrix(-1 -1.224647e-16 1.224647e-16 -1 618.1027 748.0643)" class="st12" width="2.8" height="12.8"/>
	
		<rect x="323.5" y="165.8" transform="matrix(-1 -1.224647e-16 1.224647e-16 -1 656.8611 449.8098)" class="st12" width="9.8" height="118.2"/>
	
		<rect x="256.6" y="156.1" transform="matrix(-1.836970e-16 1 -1 -1.836970e-16 427.7652 -96.1429)" class="st12" width="10.6" height="19.4"/>
	
		<rect x="142.4" y="162.6" transform="matrix(-1.836970e-16 1 -1 -1.836970e-16 318.295 18.0691)" class="st12" width="15.4" height="11.2"/>
	
		<rect x="125.2" y="233.6" transform="matrix(-1.836970e-16 1 -1 -1.836970e-16 389.3479 89.122)" class="st12" width="49.8" height="11.2"/>
	
		<rect x="117" y="289.5" transform="matrix(-5.233596e-02 0.9986 -0.9986 -5.233596e-02 450.9743 162.3068)" class="st12" width="62.9" height="11.2"/>
	
		<rect x="106.9" y="413.9" transform="matrix(-5.233596e-02 0.9986 -0.9986 -5.233596e-02 568.2778 299.6629)" class="st12" width="70.1" height="11.2"/>
	
		<rect x="130.7" y="494.3" transform="matrix(-5.233596e-02 0.9986 -0.9986 -5.233596e-02 644.1141 388.4558)" class="st12" width="14" height="11.2"/>
	
		<rect x="212.8" y="79.1" transform="matrix(-1.836970e-16 1 -1 -1.836970e-16 350.7539 -181.2991)" class="st12" width="106.5" height="11.2"/>
	
		<rect x="342.2" y="196.2" transform="matrix(-1.836970e-16 1 -1 -1.836970e-16 577.4319 -174.5179)" class="st12" width="67.6" height="10.6"/>
	<polygon class="st12" points="145.6,502.2 145.6,508.5 131.7,508.5 132,502.2 	"/>
	
		<rect x="262.8" y="554.8" transform="matrix(5.233596e-02 0.9986 -0.9986 5.233596e-02 815.9611 265.1518)" class="st12" width="11" height="15.4"/>
	
		<rect x="336.3" y="551" transform="matrix(5.233596e-02 0.9986 -0.9986 5.233596e-02 881.759 188.1123)" class="st12" width="11" height="15.4"/>
	<polygon class="st12" points="260.4,37.1 260.2,25.8 281.5,26.9 280.9,38.2 	"/>
	
		<rect x="377.7" y="-6.7" transform="matrix(-5.233596e-02 0.9986 -0.9986 -5.233596e-02 441.0312 -343.233)" class="st12" width="11.3" height="88.7"/>
	
		<rect x="486.3" y="37" transform="matrix(-5.233596e-02 0.9986 -0.9986 -5.233596e-02 560.8337 -445.9211)" class="st12" width="11.3" height="12.3"/>
	<polyline class="st32" points="258.1,565.2 131.7,572.4 135,511.2 	"/>
	<polyline class="st32" points="147.3,158.5 147.3,22.2 258.1,28.5 	"/>
	<line class="st32" x1="428.6" y1="181.4" x2="428.6" y2="201.5"/>
	<polygon class="st22" points="354.8,363 336.9,363 336.9,239.6 498.4,239.6 498.4,37.8 428,34.3 281.5,26.9 144.5,19.4 
		144.5,214.3 144.5,263.4 128.1,575.6 260.9,568.4 347.8,563.9 354.8,563.9 	"/>
</g>
<g id="Entree">
	<polygon class="st33" points="335.5,333.7 330.7,328.3 335.5,322.8 	"/>
</g>
<g id="Nord">
	<g>
		<circle class="st34" cx="94.4" cy="550.8" r="11.9"/>
		<line class="st35" x1="102.1" y1="548.3" x2="109.5" y2="545.9"/>
		<text transform="matrix(1 0 0 1 88.201 556.5587)" class="st12 st29 st36">N</text>
	</g>
</g>
</svg>
