<?xml version="1.0" encoding="utf-8"?>
<!-- Generator: Adobe Illustrator 22.0.1, SVG Export Plug-In . SVG Version: 6.00 Build 0)  -->
<svg version="1.1" xmlns="http://www.w3.org/2000/svg" xmlns:xlink="http://www.w3.org/1999/xlink" x="0px" y="0px"
	 viewBox="0 0 595.3 595.3" style="enable-background:new 0 0 595.3 595.3;" xml:space="preserve">
<style type="text/css">
	.st0{fill:none;}
	.st1{fill:#FFFFFF;}
	.st2{fill:#E3E3E3;}
	.st3{fill:#FFFFFF;stroke:#707E85;stroke-width:0.3;stroke-miterlimit:10;}
	.st4{fill:#EBF7FE;}
	.st5{fill:url(#SVGID_1_);}
	.st6{fill:#707E85;}
	.st7{opacity:0.8;fill:#FFFFFF;}
	.st8{fill:none;stroke:#707E85;stroke-width:0.3;stroke-miterlimit:10;}
	.st9{fill:none;stroke:#000000;stroke-width:0.12;stroke-linecap:square;stroke-linejoin:bevel;stroke-miterlimit:10;}
	.st10{fill:none;stroke:#707E85;stroke-width:0.5;stroke-miterlimit:10;}
	.st11{fill:#EAF6FE;stroke:#707E85;stroke-width:0.3;stroke-miterlimit:10;}
	.st12{opacity:5.000000e-02;}
	.st13{fill:#EAF6FE;}
	.st14{fill:none;stroke:#CBD3D7;stroke-width:0.3;stroke-miterlimit:10;}
	.st15{fill:#EAF6FE;stroke:#CBD3D7;stroke-width:0.3;stroke-miterlimit:10;}
	.st16{fill:#EAF6FE;stroke:#CBD3D7;stroke-width:0.3;stroke-linecap:round;stroke-miterlimit:10;}
	.st17{opacity:0.2;}
	.st18{fill:#708793;}
	.st19{fill:none;stroke:#708793;stroke-width:0.3;stroke-miterlimit:10;}
	.st20{fill:none;stroke:#707E85;stroke-width:0.6204;stroke-miterlimit:10;}
	.st21{fill:#EAF6FE;stroke:#CBD3D7;stroke-width:0.3033;stroke-miterlimit:10;}
	.st22{fill:#EAF6FE;stroke:#CBD3D7;stroke-width:0.3;stroke-linecap:round;stroke-linejoin:round;stroke-miterlimit:10;}
	.st23{fill:none;stroke:#707E85;stroke-width:0.3;stroke-linecap:round;stroke-linejoin:round;stroke-miterlimit:10;}
	.st24{fill:none;stroke:#CBD3D7;stroke-width:0.3;stroke-linecap:round;stroke-linejoin:round;stroke-miterlimit:10;}
	.st25{fill:#EAF6FE;stroke:#CBD3D7;stroke-width:0.2953;stroke-miterlimit:10;}
	.st26{fill:none;stroke:#707E85;stroke-width:0.3;stroke-miterlimit:1;}
	.st27{fill:none;stroke:#707E85;stroke-width:0.1;stroke-miterlimit:1;}
	.st28{fill:none;stroke:#707E85;stroke-width:0.3;stroke-miterlimit:10;stroke-dasharray:2,2;}
	.st29{display:none;}
	.st30{display:inline;fill:#3A3A39;}
	.st31{font-family:'Lato-Black';}
	.st32{font-size:7px;}
	.st33{font-family:'Lato-Italic';}
	.st34{fill:#A5B8C4;}
	.st35{fill:#3A3A39;}
	.st36{fill:none;stroke:#707E85;stroke-miterlimit:10;}
	.st37{fill:none;stroke:#707E85;stroke-width:2;stroke-miterlimit:10;}
	.st38{font-size:16.4252px;}
</style>
<pattern  width="3.8" height="3.4" patternUnits="userSpaceOnUse" id="Nouvelle_nuance_de_motif_7" viewBox="0 -3.4 3.8 3.4" style="overflow:visible;">
	<g>
		<rect y="-3.4" class="st0" width="3.8" height="3.4"/>
		<rect x="0.1" y="-3.4" class="st1" width="3.7" height="3.4"/>
		<rect x="3.7" y="-3.4" class="st2" width="0.1" height="3.4"/>
		<rect x="0" y="-3.4" class="st2" width="0.1" height="3.4"/>
	</g>
</pattern>
<g id="Jardin">
</g>
<g id="Fond">
	<polygon class="st3" points="380.3,574.8 29.2,574.9 29.2,27.4 114.6,27.4 476.1,27.4 562.4,27.4 562.4,289.6 476.1,289.6 
		476.1,346.7 476.1,346.7 375.1,362.8 	"/>
	<polygon class="st4" points="463.4,294.1 463.4,362.8 378.9,362.8 378.9,560.6 378.8,560.6 124.5,560.6 43.4,560.6 43.4,136.7 
		242.1,136.7 242.1,84.5 242.1,41.6 564.9,41.6 564.9,294.1 	"/>
</g>
<g id="Sol">
	<g>
		<pattern  id="SVGID_1_" xlink:href="#Nouvelle_nuance_de_motif_7" patternTransform="matrix(-1 0 0 1 -15778.8047 12.103)">
		</pattern>
		<rect x="29.3" y="27.5" class="st5" width="194.7" height="108.7"/>
		<path class="st6" d="M223.8,27.7v108.4H29.5V27.7H223.8 M224.1,27.4h-195v109h195V27.4L224.1,27.4z"/>
	</g>
	<rect x="433.7" y="195.7" class="st7" width="120" height="87.6"/>
	<rect x="263.6" y="247.1" class="st7" width="105.3" height="43.2"/>
</g>
<g id="Installations">
	<g>
		<rect x="207" y="136.8" class="st1" width="25.3" height="153.3"/>
		<path class="st6" d="M232.1,137v153h-25V137H232.1 M232.4,136.7h-25.6v153.6h25.6V136.7L232.4,136.7z"/>
	</g>
	<g>
		<rect x="208.6" y="217" class="st8" width="22.4" height="45.2"/>
		<g>
			<path class="st3" d="M226.8,240.1h-13.9c-1.3,0-2.4-1.1-2.4-2.4v-16.2c0-1.3,1.1-2.4,2.4-2.4h13.9c1.3,0,2.4,1.1,2.4,2.4v16.2
				C229.3,239,228.2,240.1,226.8,240.1z"/>
			<circle class="st3" cx="225.6" cy="229.2" r="1.5"/>
		</g>
		<g>
			<rect x="213.2" y="243.6" class="st6" width="0.8" height="14.8"/>
			<rect x="216.3" y="243.6" class="st6" width="0.8" height="14.8"/>
			<rect x="219.4" y="243.6" class="st6" width="0.8" height="14.8"/>
			<rect x="222.6" y="243.6" class="st6" width="0.8" height="14.8"/>
			<rect x="225.7" y="243.6" class="st6" width="0.8" height="14.8"/>
		</g>
	</g>
	<g>
		<rect x="208.6" y="158.6" class="st8" width="22.4" height="22.4"/>
		<path class="st3" d="M220.4,165.1c0-2.3,1.8-4.1,4.1-4.1c2.3,0,4.1,1.8,4.1,4.1c0,2.3-1.8,4.1-4.1,4.1
			C222.2,169.2,220.4,167.4,220.4,165.1"/>
		<path class="st3" d="M211.3,174.6c0-2.3,1.8-4.1,4.1-4.1c2.3,0,4.1,1.8,4.1,4.1c0,2.3-1.8,4.1-4.1,4.1
			C213.1,178.7,211.3,176.9,211.3,174.6"/>
		<path class="st3" d="M221.6,175.4c0-1.8,1.5-3.3,3.3-3.3c1.8,0,3.3,1.5,3.3,3.3s-1.5,3.3-3.3,3.3
			C223,178.7,221.6,177.2,221.6,175.4"/>
		<path class="st3" d="M211.3,164.6c0-1.8,1.5-3.3,3.3-3.3c1.8,0,3.3,1.5,3.3,3.3c0,1.8-1.5,3.3-3.3,3.3
			C212.8,167.9,211.3,166.4,211.3,164.6"/>
	</g>
	<g>
		<polyline class="st9" points="224.4,280.3 222.9,280.3 222.9,281.6 		"/>
		<polyline class="st9" points="217.1,273 217.1,274.3 215.8,274.3 		"/>
		<line class="st9" x1="216.2" y1="273.4" x2="223.8" y2="281.2"/>
		<polyline class="st9" points="217.1,281.6 217.1,280.3 215.8,280.3 		"/>
		<polyline class="st9" points="224.4,274.3 222.9,274.3 222.9,273 		"/>
		<line class="st9" x1="223.8" y1="273.4" x2="216.2" y2="281.2"/>
		<polyline class="st9" points="221,282.5 220.1,281.6 219.2,282.5 		"/>
		<polyline class="st9" points="221,272.1 220.1,273 219.2,272.1 		"/>
		<polyline class="st9" points="214.9,278.2 215.8,277.3 214.9,276.4 		"/>
		<polyline class="st9" points="225.1,278.2 224.2,277.3 225.1,276.4 		"/>
		<line class="st9" x1="220.1" y1="271.8" x2="220.1" y2="282.8"/>
		<line class="st9" x1="225.4" y1="277.3" x2="214.6" y2="277.3"/>
		<polyline class="st8" points="224.4,280.3 222.9,280.3 222.9,281.6 		"/>
		<polyline class="st8" points="217.1,273 217.1,274.3 215.8,274.3 		"/>
		<line class="st8" x1="216.2" y1="273.4" x2="223.8" y2="281.2"/>
		<polyline class="st8" points="217.1,281.6 217.1,280.3 215.8,280.3 		"/>
		<polyline class="st8" points="224.4,274.3 222.9,274.3 222.9,273 		"/>
		<line class="st8" x1="223.8" y1="273.4" x2="216.2" y2="281.2"/>
		<polyline class="st8" points="221,282.5 220.1,281.6 219.2,282.5 		"/>
		<polyline class="st8" points="221,272.1 220.1,273 219.2,272.1 		"/>
		<polyline class="st8" points="214.9,278.2 215.8,277.3 214.9,276.4 		"/>
		<polyline class="st8" points="225.1,278.2 224.2,277.3 225.1,276.4 		"/>
		<line class="st8" x1="220.1" y1="271.8" x2="220.1" y2="282.8"/>
		<line class="st8" x1="225.4" y1="277.3" x2="214.6" y2="277.3"/>
	</g>
	<g>
		<g>
			<rect x="242.5" y="351.4" class="st1" width="63" height="26.9"/>
			<path class="st6" d="M305.3,351.6v26.6h-62.7v-26.6H305.3 M305.6,351.3h-63.3v27.2h63.3V351.3L305.6,351.3z"/>
		</g>
		<line class="st10" x1="297" y1="373.7" x2="295.8" y2="356"/>
		<line class="st10" x1="292.4" y1="373.7" x2="293.9" y2="356"/>
		<line class="st10" x1="290.7" y1="373.7" x2="289.5" y2="356"/>
		<line class="st10" x1="286.1" y1="373.7" x2="287.6" y2="356"/>
		<line class="st10" x1="261.9" y1="373.7" x2="260.7" y2="356"/>
		<line class="st10" x1="257.3" y1="373.7" x2="258.8" y2="356"/>
		<line class="st10" x1="255.6" y1="373.7" x2="254.3" y2="356"/>
		<line class="st10" x1="250.9" y1="373.7" x2="252.4" y2="356"/>
		<line class="st11" x1="305.6" y1="353.3" x2="242.6" y2="353.3"/>
		<line class="st11" x1="274.1" y1="353.3" x2="274.1" y2="351.5"/>
		<polyline class="st8" points="281,351.5 281,350.4 278.6,350.4 278.6,351.5 		"/>
		<polyline class="st8" points="269.6,351.5 269.6,350.4 267.3,350.4 267.3,351.5 		"/>
		<line class="st8" x1="305.6" y1="364.9" x2="242.6" y2="364.9"/>
	</g>
	<g>
		<g>
			<rect x="305.8" y="351.4" class="st1" width="63" height="26.9"/>
			<path class="st6" d="M368.6,351.6v26.6h-62.7v-26.6H368.6 M368.9,351.3h-63.3v27.2h63.3V351.3L368.9,351.3z"/>
		</g>
		<line class="st10" x1="360.3" y1="373.7" x2="359.1" y2="356"/>
		<line class="st10" x1="355.7" y1="373.7" x2="357.2" y2="356"/>
		<line class="st10" x1="354" y1="373.7" x2="352.7" y2="356"/>
		<line class="st10" x1="349.4" y1="373.7" x2="350.8" y2="356"/>
		<line class="st10" x1="325.2" y1="373.7" x2="323.9" y2="356"/>
		<line class="st10" x1="320.6" y1="373.7" x2="322" y2="356"/>
		<line class="st10" x1="318.8" y1="373.7" x2="317.6" y2="356"/>
		<line class="st10" x1="314.2" y1="373.7" x2="315.7" y2="356"/>
		<line class="st11" x1="368.9" y1="353.3" x2="305.9" y2="353.3"/>
		<line class="st11" x1="337.4" y1="353.3" x2="337.4" y2="351.5"/>
		<polyline class="st8" points="344.3,351.5 344.3,350.4 341.9,350.4 341.9,351.5 		"/>
		<polyline class="st8" points="332.9,351.5 332.9,350.4 330.5,350.4 330.5,351.5 		"/>
		<line class="st8" x1="368.9" y1="364.9" x2="305.9" y2="364.9"/>
	</g>
	<g>
		<g>
			<rect x="435.2" y="294.2" class="st1" width="25.7" height="57.1"/>
			<path class="st6" d="M460.8,294.4v56.8h-25.4v-56.8H460.8 M461.1,294.1h-26v57.4h26V294.1L461.1,294.1z"/>
		</g>
		<line class="st10" x1="456.5" y1="301.9" x2="439.6" y2="303"/>
		<line class="st10" x1="456.5" y1="306" x2="439.6" y2="304.7"/>
		<line class="st10" x1="456.5" y1="307.6" x2="439.6" y2="308.7"/>
		<line class="st10" x1="456.5" y1="311.8" x2="439.6" y2="310.5"/>
		<line class="st10" x1="456.5" y1="333.7" x2="439.6" y2="334.8"/>
		<line class="st10" x1="456.5" y1="337.9" x2="439.6" y2="336.6"/>
		<line class="st10" x1="456.5" y1="339.5" x2="439.6" y2="340.6"/>
		<line class="st10" x1="456.5" y1="343.7" x2="439.6" y2="342.3"/>
		<line class="st11" x1="436.9" y1="294.1" x2="436.9" y2="351.2"/>
		<line class="st11" x1="436.9" y1="322.6" x2="435.2" y2="322.6"/>
		<polyline class="st8" points="435.2,316.4 434.2,316.4 434.2,318.6 435.2,318.6 		"/>
		<polyline class="st8" points="435.2,326.7 434.2,326.7 434.2,328.9 435.2,328.9 		"/>
		<line class="st8" x1="448.1" y1="294.1" x2="448.1" y2="351.2"/>
	</g>
	<g>
		<g>
			<g class="st12">
				<path class="st6" d="M457.2,110.1v82.2c0,0.6,0.4,1,1,1h65.1c0.6,0,1-0.4,1-1v-82.2c0-0.6-0.4-1-1-1h-65.1
					C457.6,109.1,457.2,109.5,457.2,110.1z"/>
				<path class="st8" d="M457.2,110.1v82.2c0,0.6,0.4,1,1,1h65.1c0.6,0,1-0.4,1-1v-82.2c0-0.6-0.4-1-1-1h-65.1
					C457.6,109.1,457.2,109.5,457.2,110.1z"/>
			</g>
			<g>
				<path class="st13" d="M454.2,107.1v82.2c0,0.6,0.4,1,1,1h65.1c0.6,0,1-0.4,1-1v-82.2c0-0.6-0.4-1-1-1h-65.1
					C454.6,106.1,454.2,106.5,454.2,107.1z"/>
				<path class="st14" d="M454.2,107.1v82.2c0,0.6,0.4,1,1,1h65.1c0.6,0,1-0.4,1-1v-82.2c0-0.6-0.4-1-1-1h-65.1
					C454.6,106.1,454.2,106.5,454.2,107.1z"/>
			</g>
		</g>
		<path class="st15" d="M458.7,111.6v73.2c0,0.6,0.4,1,1,1h56.1c0.6,0,1-0.4,1-1v-73.2c0-0.6-0.4-1-1-1h-56.1
			C459.1,110.6,458.7,111,458.7,111.6z"/>
		<path class="st15" d="M462.5,181.6c2.5,1.5,20,1.7,22.7,0.2c0.2-0.1,1.1-8.4,0.5-12.8c-0.1-0.8-0.8-1.8-2.1-2.3
			c-4.5-1.6-14.8-1-19.7,0.5c-1.8,0.5-1.6,2.3-1.8,3C461.4,173.5,461.7,181.1,462.5,181.6z"/>
		<path class="st15" d="M490.1,181.8c5,1.9,21.7,1.3,22.7,0.4c0.4-0.4,1.3-8.4,0.5-12.1c-0.1-0.5-0.3-1.1-0.6-1.3
			c-2.1-1.5-21.7-2.6-22-2.4s-0.2,1.8-0.5,2.6C489.2,170.9,489.3,181.5,490.1,181.8z"/>
		<g>
			<path class="st15" d="M513.8,155.1c0,0-23.1-2.2-26-2.2c-3.1,0-26,2.2-26,2.2c-2.2,0-4-3.7-4-1.5v12.2c0,2.2,1.8,4,4,4
				c0,0,22.4-1.2,25.8-1.2c3.5,0,26.2,1.2,26.2,1.2c2.2,0,4-1.8,4-4v-12.2C517.8,151.4,516,155.1,513.8,155.1z"/>
			<path class="st16" d="M466.5,166.6c-2.7-0.3-8.4-4.1-8.6-5.2"/>
			<path class="st16" d="M494.7,165.4c-0.5-0.2-12.6-6-11.2-8.8c0.5-1.1,2.4-0.4,3.3,0.2"/>
			<path class="st16" d="M514.3,168c-1.7-1.7-8.8-6.4-18.6-10"/>
		</g>
		<g>
			<g>
				<g class="st12">
					<path class="st6" d="M528.2,193.2h12.1c0.6,0,1-0.4,1-1v-10.8c0-0.6-0.4-1-1-1h-12.1c-0.6,0-1,0.4-1,1v10.8
						C527.2,192.8,527.7,193.2,528.2,193.2z"/>
					<path class="st8" d="M528.2,193.2h12.1c0.6,0,1-0.4,1-1v-10.8c0-0.6-0.4-1-1-1h-12.1c-0.6,0-1,0.4-1,1v10.8
						C527.2,192.8,527.7,193.2,528.2,193.2z"/>
				</g>
				<g>
					<path class="st13" d="M525.2,190.2h12.1c0.6,0,1-0.4,1-1v-10.8c0-0.6-0.4-1-1-1h-12.1c-0.6,0-1,0.4-1,1v10.8
						C524.2,189.8,524.7,190.2,525.2,190.2z"/>
					<path class="st14" d="M525.2,190.2h12.1c0.6,0,1-0.4,1-1v-10.8c0-0.6-0.4-1-1-1h-12.1c-0.6,0-1,0.4-1,1v10.8
						C524.2,189.8,524.7,190.2,525.2,190.2z"/>
				</g>
			</g>
			<path class="st15" d="M532.9,180.7l-5.2,2c-0.5,0.2-0.8,0.8-0.6,1.3l0.9,2.3c0.2,0.5,0.8,0.8,1.3,0.6l5.2-2
				c0.5-0.2,0.8-0.8,0.6-1.3l-0.9-2.3C534,180.8,533.4,180.5,532.9,180.7z"/>
			<circle class="st15" cx="531.1" cy="183.8" r="0.7"/>
		</g>
		<g>
			<g>
				<g class="st12">
					<path class="st6" d="M453.2,180.5h-12.1c-0.6,0-1,0.4-1,1v10.8c0,0.6,0.4,1,1,1h12.1c0.6,0,1-0.4,1-1v-10.8
						C454.2,180.9,453.8,180.5,453.2,180.5z"/>
					<path class="st8" d="M453.2,180.5h-12.1c-0.6,0-1,0.4-1,1v10.8c0,0.6,0.4,1,1,1h12.1c0.6,0,1-0.4,1-1v-10.8
						C454.2,180.9,453.8,180.5,453.2,180.5z"/>
				</g>
				<g>
					<path class="st13" d="M450.2,177.5h-12.1c-0.6,0-1,0.4-1,1v10.8c0,0.6,0.4,1,1,1h12.1c0.6,0,1-0.4,1-1v-10.8
						C451.2,177.9,450.8,177.5,450.2,177.5z"/>
					<path class="st14" d="M450.2,177.5h-12.1c-0.6,0-1,0.4-1,1v10.8c0,0.6,0.4,1,1,1h12.1c0.6,0,1-0.4,1-1v-10.8
						C451.2,177.9,450.8,177.5,450.2,177.5z"/>
				</g>
			</g>
			<path class="st15" d="M441.1,183.1h-0.5c-0.2,0-0.3,0.1-0.3,0.3v6.9h1.1v-6.9C441.4,183.2,441.3,183.1,441.1,183.1z"/>
			<path class="st15" d="M443.3,184.1h-0.5c-0.2,0-0.3,0.1-0.3,0.3v5.8h1.1v-5.8C443.6,184.3,443.5,184.1,443.3,184.1z"/>
			<path class="st15" d="M442.2,182.3h-0.5c-0.2,0-0.3,0.1-0.3,0.3v7.6h1.1v-7.6C442.5,182.5,442.4,182.3,442.2,182.3z"/>
		</g>
	</g>
	<g>
		<g>
			<g class="st12">
				<path class="st6" d="M382.8,50.3V123c0,0.6,0.4,1,1,1h22.8c0.6,0,1-0.4,1-1V50.3c0-0.6-0.4-1-1-1h-22.8
					C383.3,49.3,382.8,49.7,382.8,50.3z"/>
				<path class="st8" d="M382.8,50.3V123c0,0.6,0.4,1,1,1h22.8c0.6,0,1-0.4,1-1V50.3c0-0.6-0.4-1-1-1h-22.8
					C383.3,49.3,382.8,49.7,382.8,50.3z"/>
			</g>
			<g>
				<path class="st13" d="M379.8,47.3V120c0,0.6,0.4,1,1,1h22.8c0.6,0,1-0.4,1-1V47.3c0-0.6-0.4-1-1-1h-22.8
					C380.3,46.3,379.8,46.7,379.8,47.3z"/>
				<path class="st14" d="M379.8,47.3V120c0,0.6,0.4,1,1,1h22.8c0.6,0,1-0.4,1-1V47.3c0-0.6-0.4-1-1-1h-22.8
					C380.3,46.3,379.8,46.7,379.8,47.3z"/>
			</g>
		</g>
		<line class="st15" x1="401.3" y1="121" x2="401.3" y2="46.3"/>
		<line class="st15" x1="401.3" y1="83.6" x2="404.6" y2="83.6"/>
		<polyline class="st14" points="404.6,91.8 406.5,91.8 406.5,89 404.6,89 		"/>
		<polyline class="st14" points="404.6,78.3 406.5,78.3 406.5,75.5 404.6,75.5 		"/>
	</g>
	<g>
		<g>
			<g>
				<path class="st15" d="M330.2,103.3h2.4v21h-2.4c-0.9,0-1.7-0.8-1.7-1.7V105C328.5,104.1,329.2,103.3,330.2,103.3z"/>
				<rect x="332.5" y="103.3" class="st15" width="10" height="21"/>
				<line class="st15" x1="332.5" y1="106.2" x2="342.5" y2="106.2"/>
				<line class="st15" x1="342.5" y1="121.4" x2="332.5" y2="121.4"/>
			</g>
		</g>
		<g>
			<g class="st12">
				<path class="st6" d="M373.9,86.2h-27.1c-0.7,0-1.2,0.5-1.2,1.2v58.9c0,0.7,0.5,1.2,1.2,1.2h27.1c0.7,0,1.2-0.5,1.2-1.2V87.4
					C375.1,86.7,374.6,86.2,373.9,86.2z"/>
				<path class="st8" d="M373.9,86.2h-27.1c-0.7,0-1.2,0.5-1.2,1.2v58.9c0,0.7,0.5,1.2,1.2,1.2h27.1c0.7,0,1.2-0.5,1.2-1.2V87.4
					C375.1,86.7,374.6,86.2,373.9,86.2z"/>
			</g>
			<g>
				<path class="st13" d="M370.9,83.2h-27.1c-0.7,0-1.2,0.5-1.2,1.2v58.9c0,0.7,0.5,1.2,1.2,1.2h27.1c0.7,0,1.2-0.5,1.2-1.2V84.4
					C372.1,83.7,371.6,83.2,370.9,83.2z"/>
				<path class="st14" d="M370.9,83.2h-27.1c-0.7,0-1.2,0.5-1.2,1.2v58.9c0,0.7,0.5,1.2,1.2,1.2h27.1c0.7,0,1.2-0.5,1.2-1.2V84.4
					C372.1,83.7,371.6,83.2,370.9,83.2z"/>
			</g>
		</g>
	</g>
	<g>
		<g>
			<g class="st12">
				<path class="st6" d="M288.3,152.8v91.5c0,0.6-0.4,1-1,1h-40.3c-0.6,0-1-0.4-1-1v-91.5c0-0.6,0.4-1,1-1h40.3
					C287.9,151.8,288.3,152.3,288.3,152.8z"/>
				<path class="st8" d="M288.3,152.8v91.5c0,0.6-0.4,1-1,1h-40.3c-0.6,0-1-0.4-1-1v-91.5c0-0.6,0.4-1,1-1h40.3
					C287.9,151.8,288.3,152.3,288.3,152.8z"/>
			</g>
			<g>
				<path class="st13" d="M285.3,149.8v91.5c0,0.6-0.4,1-1,1h-40.3c-0.6,0-1-0.4-1-1v-91.5c0-0.6,0.4-1,1-1h40.3
					C284.9,148.8,285.3,149.3,285.3,149.8z"/>
				<path class="st14" d="M285.3,149.8v91.5c0,0.6-0.4,1-1,1h-40.3c-0.6,0-1-0.4-1-1v-91.5c0-0.6,0.4-1,1-1h40.3
					C284.9,148.8,285.3,149.3,285.3,149.8z"/>
			</g>
		</g>
		<g>
			<g>
				<g class="st12">
					<path class="st6" d="M306.6,245.3H293c-0.6,0-1-0.4-1-1v-12.2c0-0.6,0.4-1,1-1h13.6c0.6,0,1,0.4,1,1v12.2
						C307.6,244.9,307.1,245.3,306.6,245.3z"/>
					<path class="st8" d="M306.6,245.3H293c-0.6,0-1-0.4-1-1v-12.2c0-0.6,0.4-1,1-1h13.6c0.6,0,1,0.4,1,1v12.2
						C307.6,244.9,307.1,245.3,306.6,245.3z"/>
				</g>
				<g>
					<path class="st13" d="M303.6,242.3H290c-0.6,0-1-0.4-1-1v-12.2c0-0.6,0.4-1,1-1h13.6c0.6,0,1,0.4,1,1v12.2
						C304.6,241.9,304.1,242.3,303.6,242.3z"/>
					<path class="st14" d="M303.6,242.3H290c-0.6,0-1-0.4-1-1v-12.2c0-0.6,0.4-1,1-1h13.6c0.6,0,1,0.4,1,1v12.2
						C304.6,241.9,304.1,242.3,303.6,242.3z"/>
				</g>
			</g>
			<path class="st15" d="M294.8,231.7l6,2.3c0.5,0.2,0.8,0.8,0.6,1.3l-1.1,2.8c-0.2,0.5-0.8,0.8-1.3,0.6l-6-2.3
				c-0.5-0.2-0.8-0.8-0.6-1.3l1.1-2.8C293.7,231.7,294.3,231.5,294.8,231.7z"/>
			
				<ellipse transform="matrix(0.2591 -0.9658 0.9658 0.2591 -7.1274 461.006)" class="st15" cx="296.9" cy="235.1" rx="0.8" ry="0.8"/>
		</g>
		<path class="st15" d="M280.3,154.8v81.5c0,0.6-0.4,1-1,1H249c-0.6,0-1-0.4-1-1v-81.5c0-0.6,0.4-1,1-1h30.3
			C279.9,153.8,280.3,154.3,280.3,154.8z"/>
		<path class="st15" d="M276,233c-0.7,0.3-1.3-0.2-2.5-0.1c-10.4,2.2-21.5-0.6-21.8-1c-0.2-0.4,0.2-0.3,0.7-2.7
			c0.2-2.5-0.5-8.1-0.1-10.1c0.1-0.5,0.3-0.9,0.5-1.1c1.9-1.5,22.3-0.9,22.6-0.7c0.3,0.2,1,0.9,1.1,1.8
			C276.9,221.4,276.8,232.7,276,233z"/>
		<g>
			<g>
				<path class="st15" d="M251.3,203.3c0,0,9.7-1.3,12.9-1.3c3.4,0,12.9,1.3,12.9,1.3c2.4,0,4.4-4.1,4.4-1.6v13.6
					c0,2.4-2,4.4-4.4,4.4c0,0-8.8-1.3-12.7-1.3s-13,1.3-13,1.3c-2.4,0-4.4-2-4.4-4.4v-13.6C246.9,199.2,248.9,203.3,251.3,203.3z"/>
			</g>
			<path class="st16" d="M276.1,213.7c0.3-1.9-1.9-6.8-5.4-7.6"/>
			<path class="st16" d="M265.4,214.3c-2.6-2.6-8.9-6-13-5.7"/>
		</g>
	</g>
	<g>
		<g>
			<g class="st12">
				<path class="st6" d="M246.1,50.4v50c0,0.6,0.4,1,1,1h22.8c0.6,0,1-0.4,1-1v-50c0-0.6-0.4-1-1-1h-22.8
					C246.5,49.4,246.1,49.8,246.1,50.4z"/>
				<path class="st8" d="M246.1,50.4v50c0,0.6,0.4,1,1,1h22.8c0.6,0,1-0.4,1-1v-50c0-0.6-0.4-1-1-1h-22.8
					C246.5,49.4,246.1,49.8,246.1,50.4z"/>
			</g>
			<g>
				<path class="st13" d="M243.1,47.4v50c0,0.6,0.4,1,1,1h22.8c0.6,0,1-0.4,1-1v-50c0-0.6-0.4-1-1-1h-22.8
					C243.5,46.4,243.1,46.8,243.1,47.4z"/>
				<path class="st14" d="M243.1,47.4v50c0,0.6,0.4,1,1,1h22.8c0.6,0,1-0.4,1-1v-50c0-0.6-0.4-1-1-1h-22.8
					C243.5,46.4,243.1,46.8,243.1,47.4z"/>
			</g>
		</g>
		<line class="st15" x1="264.6" y1="98.3" x2="264.6" y2="46.4"/>
		<line class="st15" x1="264.6" y1="72.4" x2="267.9" y2="72.4"/>
		<polyline class="st14" points="267.9,78 269.7,78 269.7,76.1 267.9,76.1 		"/>
		<polyline class="st14" points="267.9,68.7 269.7,68.7 269.7,66.7 267.9,66.7 		"/>
	</g>
	<g>
		<g>
			<g>
				<path class="st15" d="M325.9,468.6h2.4v21h-2.4c-0.9,0-1.7-0.8-1.7-1.7v-17.6C324.2,469.4,325,468.6,325.9,468.6z"/>
				<rect x="328.3" y="468.6" class="st15" width="10" height="21"/>
				<line class="st15" x1="328.3" y1="471.5" x2="338.3" y2="471.5"/>
				<line class="st15" x1="338.3" y1="486.7" x2="328.3" y2="486.7"/>
			</g>
		</g>
		<g>
			<g class="st12">
				<path class="st6" d="M369.7,451.5h-27.1c-0.7,0-1.2,0.5-1.2,1.2v58.9c0,0.7,0.5,1.2,1.2,1.2h27.1c0.7,0,1.2-0.5,1.2-1.2v-58.9
					C370.9,452,370.3,451.5,369.7,451.5z"/>
				<path class="st8" d="M369.7,451.5h-27.1c-0.7,0-1.2,0.5-1.2,1.2v58.9c0,0.7,0.5,1.2,1.2,1.2h27.1c0.7,0,1.2-0.5,1.2-1.2v-58.9
					C370.9,452,370.3,451.5,369.7,451.5z"/>
			</g>
			<g>
				<path class="st13" d="M366.7,448.5h-27.1c-0.7,0-1.2,0.5-1.2,1.2v58.9c0,0.7,0.5,1.2,1.2,1.2h27.1c0.7,0,1.2-0.5,1.2-1.2v-58.9
					C367.9,449,367.3,448.5,366.7,448.5z"/>
				<path class="st14" d="M366.7,448.5h-27.1c-0.7,0-1.2,0.5-1.2,1.2v58.9c0,0.7,0.5,1.2,1.2,1.2h27.1c0.7,0,1.2-0.5,1.2-1.2v-58.9
					C367.9,449,367.3,448.5,366.7,448.5z"/>
			</g>
		</g>
	</g>
	<g>
		<g>
			<g class="st12">
				<path class="st6" d="M246.7,480.1v-91.5c0-0.6,0.4-1,1-1h40.3c0.6,0,1,0.4,1,1v91.5c0,0.6-0.4,1-1,1h-40.3
					C247.1,481.1,246.7,480.6,246.7,480.1z"/>
				<path class="st8" d="M246.7,480.1v-91.5c0-0.6,0.4-1,1-1h40.3c0.6,0,1,0.4,1,1v91.5c0,0.6-0.4,1-1,1h-40.3
					C247.1,481.1,246.7,480.6,246.7,480.1z"/>
			</g>
			<g>
				<path class="st13" d="M243.7,477.1v-91.5c0-0.6,0.4-1,1-1h40.3c0.6,0,1,0.4,1,1v91.5c0,0.6-0.4,1-1,1h-40.3
					C244.1,478.1,243.7,477.6,243.7,477.1z"/>
				<path class="st14" d="M243.7,477.1v-91.5c0-0.6,0.4-1,1-1h40.3c0.6,0,1,0.4,1,1v91.5c0,0.6-0.4,1-1,1h-40.3
					C244.1,478.1,243.7,477.6,243.7,477.1z"/>
			</g>
		</g>
		<g>
			<g>
				<g class="st12">
					<path class="st6" d="M307.2,402.1h-13.6c-0.6,0-1-0.4-1-1v-12.2c0-0.6,0.4-1,1-1h13.6c0.6,0,1,0.4,1,1v12.2
						C308.2,401.7,307.8,402.1,307.2,402.1z"/>
					<path class="st8" d="M307.2,402.1h-13.6c-0.6,0-1-0.4-1-1v-12.2c0-0.6,0.4-1,1-1h13.6c0.6,0,1,0.4,1,1v12.2
						C308.2,401.7,307.8,402.1,307.2,402.1z"/>
				</g>
				<g>
					<path class="st13" d="M304.2,399.1h-13.6c-0.6,0-1-0.4-1-1v-12.2c0-0.6,0.4-1,1-1h13.6c0.6,0,1,0.4,1,1v12.2
						C305.2,398.7,304.8,399.1,304.2,399.1z"/>
					<path class="st14" d="M304.2,399.1h-13.6c-0.6,0-1-0.4-1-1v-12.2c0-0.6,0.4-1,1-1h13.6c0.6,0,1,0.4,1,1v12.2
						C305.2,398.7,304.8,399.1,304.2,399.1z"/>
				</g>
			</g>
			<path class="st15" d="M295.4,388.5l6,2.3c0.5,0.2,0.8,0.8,0.6,1.3l-1.1,2.8c-0.2,0.5-0.8,0.8-1.3,0.6l-6-2.3
				c-0.5-0.2-0.8-0.8-0.6-1.3l1.1-2.8C294.3,388.5,294.9,388.3,295.4,388.5z"/>
			
				<ellipse transform="matrix(0.2591 -0.9658 0.9658 0.2591 -158.1379 577.7808)" class="st15" cx="297.5" cy="392" rx="0.8" ry="0.8"/>
		</g>
		<path class="st15" d="M248.7,472.1v-81.5c0-0.6,0.4-1,1-1h30.3c0.6,0,1,0.4,1,1v81.5c0,0.6-0.4,1-1,1h-30.3
			C249.1,473.1,248.7,472.6,248.7,472.1z"/>
		<path class="st15" d="M253,393.9c0.7-0.3,1.3,0.2,2.5,0.1c10.4-2.2,21.5,0.6,21.8,1c0.2,0.4-0.2,0.3-0.7,2.7
			c-0.2,2.5,0.5,8.1,0.1,10.1c-0.1,0.5-0.3,0.9-0.5,1.1c-1.9,1.5-22.3,0.9-22.6,0.7c-0.3-0.2-1-0.9-1.1-1.8
			C252,405.5,252.2,394.2,253,393.9z"/>
		<g>
			<g>
				<path class="st15" d="M277.7,423.7c0,0-9.7,1.3-12.9,1.3c-3.4,0-12.9-1.3-12.9-1.3c-2.4,0-4.4,4.1-4.4,1.6v-13.6
					c0-2.4,2-4.4,4.4-4.4c0,0,8.8,1.3,12.7,1.3c3.9,0,13-1.3,13-1.3c2.4,0,4.4,2,4.4,4.4v13.6C282.1,427.7,280.1,423.7,277.7,423.7z
					"/>
			</g>
			<path class="st16" d="M252.9,413.2c-0.3,1.9,1.9,6.8,5.4,7.6"/>
			<path class="st16" d="M263.6,412.6c2.6,2.6,8.9,6,13,5.7"/>
		</g>
	</g>
	<g>
		<g>
			<g class="st12">
				<path class="st6" d="M370.2,388.5h-50c-0.6,0-1,0.4-1,1v22.8c0,0.6,0.4,1,1,1h50c0.6,0,1-0.4,1-1v-22.8
					C371.2,388.9,370.7,388.5,370.2,388.5z"/>
				<path class="st8" d="M370.2,388.5h-50c-0.6,0-1,0.4-1,1v22.8c0,0.6,0.4,1,1,1h50c0.6,0,1-0.4,1-1v-22.8
					C371.2,388.9,370.7,388.5,370.2,388.5z"/>
			</g>
			<g>
				<path class="st13" d="M367.2,385.5h-50c-0.6,0-1,0.4-1,1v22.8c0,0.6,0.4,1,1,1h50c0.6,0,1-0.4,1-1v-22.8
					C368.2,385.9,367.7,385.5,367.2,385.5z"/>
				<path class="st14" d="M367.2,385.5h-50c-0.6,0-1,0.4-1,1v22.8c0,0.6,0.4,1,1,1h50c0.6,0,1-0.4,1-1v-22.8
					C368.2,385.9,367.7,385.5,367.2,385.5z"/>
			</g>
		</g>
		<line class="st15" x1="316.2" y1="407" x2="368.2" y2="407"/>
		<line class="st15" x1="342.2" y1="407" x2="342.2" y2="410.3"/>
		<polyline class="st14" points="336.5,410.3 336.5,412.2 338.5,412.2 338.5,410.3 		"/>
		<polyline class="st14" points="345.9,410.3 345.9,412.2 347.9,412.2 347.9,410.3 		"/>
	</g>
	<g>
		<path class="st3" d="M522.6,270.4h29.1c0.5,0,0.9-0.4,0.9-0.9v-71.6c0-0.5-0.4-0.9-0.9-0.9h-29.1c-0.5,0-0.9,0.4-0.9,0.9v71.6
			C521.6,270,522,270.4,522.6,270.4z"/>
		<path class="st3" d="M537.2,199.8c9.3,0,12.5,5.7,12.5,8.4v55c0,2.8-2.3,5-5.1,5h-15c-2.8,0-5.1-2.2-5.1-5v-55
			C524.5,205.5,527.9,199.8,537.2,199.8z"/>
		<path class="st3" d="M537.2,211.1c7.9,0,10.6,4.6,10.6,6.8v44.4c0,2.2-1.9,4-4.3,4h-12.7c-2.4,0-4.3-1.8-4.3-4V218
			C526.4,215.7,529.3,211.1,537.2,211.1z"/>
		<circle class="st3" cx="537.1" cy="258.2" r="1.3"/>
	</g>
	<g>
		<g>
			<g class="st17">
				<path class="st18" d="M495.7,259.2v15.7h25.4v-15.7c0-2.9-2.4-5.3-5.3-5.3H501C498.1,254,495.7,256.3,495.7,259.2z"/>
				<path class="st19" d="M495.7,259.2v15.7h25.4v-15.7c0-2.9-2.4-5.3-5.3-5.3H501C498.1,254,495.7,256.3,495.7,259.2z"/>
			</g>
			<g>
				<path class="st1" d="M492.7,256.2v15.7h25.4v-15.7c0-2.9-2.4-5.3-5.3-5.3H498C495.1,251,492.7,253.3,492.7,256.2z"/>
				<path class="st8" d="M492.7,256.2v15.7h25.4v-15.7c0-2.9-2.4-5.3-5.3-5.3H498C495.1,251,492.7,253.3,492.7,256.2z"/>
			</g>
		</g>
		<path class="st3" d="M495.1,255.6v8.5c0,1.4,1.1,2.6,2.6,2.6h15.7c1.4,0,2.6-1.1,2.6-2.6v-8.5c0-1.4-1.1-2.6-2.6-2.6h-15.7
			C496.2,253.1,495.1,254.2,495.1,255.6z"/>
		<circle class="st3" cx="505.5" cy="264" r="1.2"/>
	</g>
	<g>
		<g>
			<rect x="435.4" y="251.3" class="st3" width="25.8" height="25.7"/>
		</g>
		<g>
			<circle class="st20" cx="448.3" cy="264.2" r="6"/>
			<path class="st20" d="M447.7,260.3c2.3,0,4.2,1.9,4.2,4.2"/>
		</g>
	</g>
	<g>
		<g>
			<g class="st17">
				<path class="st18" d="M490.8,261.9c0,1.3-0.1,8.7-0.2,10c-0.1,1-0.2,2-0.4,3H476c-0.2-0.8-0.3-1.7-0.4-2.6
					c-0.2-1.4-0.2-10-0.2-11.5c0-3.3,2.7-10.1,7.7-10.1C488.3,250.8,490.8,258.1,490.8,261.9z"/>
				<path class="st19" d="M490.8,261.9c0,1.3-0.1,8.7-0.2,10c-0.1,1-0.2,2-0.4,3H476c-0.2-0.8-0.3-1.7-0.4-2.6
					c-0.2-1.4-0.2-10-0.2-11.5c0-3.3,2.7-10.1,7.7-10.1C488.3,250.8,490.8,258.1,490.8,261.9z"/>
			</g>
			<g>
				<path class="st1" d="M487.8,258.9c0,1.3-0.1,8.7-0.2,10c-0.1,1-0.2,2-0.4,3H473c-0.2-0.8-0.3-1.7-0.4-2.6
					c-0.2-1.4-0.2-10-0.2-11.5c0-3.3,2.7-10.1,7.7-10.1C485.3,247.8,487.8,255.1,487.8,258.9z"/>
				<path class="st8" d="M487.8,258.9c0,1.3-0.1,8.7-0.2,10c-0.1,1-0.2,2-0.4,3H473c-0.2-0.8-0.3-1.7-0.4-2.6
					c-0.2-1.4-0.2-10-0.2-11.5c0-3.3,2.7-10.1,7.7-10.1C485.3,247.8,487.8,255.1,487.8,258.9z"/>
			</g>
		</g>
		<g>
			<circle class="st3" cx="483.5" cy="268.5" r="0.5"/>
			<circle class="st3" cx="476.7" cy="268.5" r="0.5"/>
		</g>
		<path class="st3" d="M480.1,249.8c-3.3,0-5.9,5-5.9,8.3c0,3.3,2.7,5.9,5.9,5.9s5.9-2.7,5.9-5.9C486,254.8,483.4,249.8,480.1,249.8
			z"/>
		<path class="st3" d="M482.1,259.4v2.2c0,0.6-0.9,0.7-2,0.7s-2-0.2-2-0.7v-2.2c0-1.1,0.9-2,2-2S482.1,258.3,482.1,259.4z"/>
		<path class="st8" d="M487.6,268.5c-1.9,1.2-4.7,1.9-7.9,1.9c-2.7,0-5.2-0.6-7.1-1.4"/>
	</g>
	<g>
		<g>
			<g class="st17">
				<path class="st18" d="M279.5,281.6c-1.3,0-8.7-0.1-10-0.2c-1-0.1-2.1-0.2-3-0.4v-14.2c0.8-0.2,1.7-0.3,2.6-0.4
					c1.4-0.2,10-0.2,11.5-0.2c3.3,0,10.1,2.7,10.1,7.7C290.7,279,283.4,281.6,279.5,281.6z"/>
				<path class="st19" d="M279.5,281.6c-1.3,0-8.7-0.1-10-0.2c-1-0.1-2.1-0.2-3-0.4v-14.2c0.8-0.2,1.7-0.3,2.6-0.4
					c1.4-0.2,10-0.2,11.5-0.2c3.3,0,10.1,2.7,10.1,7.7C290.7,279,283.4,281.6,279.5,281.6z"/>
			</g>
			<g>
				<path class="st1" d="M276.5,278.6c-1.3,0-8.7-0.1-10-0.2c-1-0.1-2.1-0.2-3-0.4v-14.2c0.8-0.2,1.7-0.3,2.6-0.4
					c1.4-0.2,10-0.2,11.5-0.2c3.3,0,10.1,2.7,10.1,7.7C287.7,276,280.4,278.6,276.5,278.6z"/>
				<path class="st8" d="M276.5,278.6c-1.3,0-8.7-0.1-10-0.2c-1-0.1-2.1-0.2-3-0.4v-14.2c0.8-0.2,1.7-0.3,2.6-0.4
					c1.4-0.2,10-0.2,11.5-0.2c3.3,0,10.1,2.7,10.1,7.7C287.7,276,280.4,278.6,276.5,278.6z"/>
			</g>
		</g>
		<g>
			<circle class="st3" cx="267" cy="274.3" r="0.5"/>
			<circle class="st3" cx="267" cy="267.5" r="0.5"/>
		</g>
		<path class="st3" d="M285.7,270.9c0-3.3-5-5.9-8.3-5.9c-3.3,0-5.9,2.7-5.9,5.9c0,3.3,2.7,5.9,5.9,5.9
			C280.7,276.8,285.7,274.2,285.7,270.9z"/>
		<path class="st3" d="M276.1,272.9h-2.2c-0.6,0-0.7-0.9-0.7-2c0-1.1,0.2-2,0.7-2h2.2c1.1,0,2,0.9,2,2
			C278.1,272,277.2,272.9,276.1,272.9z"/>
		<path class="st8" d="M266.9,278.4c-1.2-1.9-1.9-4.7-1.9-7.9c0-2.8,0.6-5.2,1.4-7.1"/>
	</g>
	<g>
		<g>
			<g class="st17">
				<path class="st18" d="M319.1,259.2v-9.4h-19.9v9.4c0,1.7,1.9,3.2,4.1,3.2H315C317.3,262.3,319.1,260.9,319.1,259.2z"/>
				<path class="st19" d="M319.1,259.2v-9.4h-19.9v9.4c0,1.7,1.9,3.2,4.1,3.2H315C317.3,262.3,319.1,260.9,319.1,259.2z"/>
			</g>
			<g>
				<path class="st1" d="M316.1,256.2v-9.4h-19.9v9.4c0,1.7,1.9,3.2,4.1,3.2H312C314.3,259.3,316.1,257.9,316.1,256.2z"/>
				<path class="st8" d="M316.1,256.2v-9.4h-19.9v9.4c0,1.7,1.9,3.2,4.1,3.2H312C314.3,259.3,316.1,257.9,316.1,256.2z"/>
			</g>
		</g>
		<path class="st3" d="M315,255.4v-5.2c0-1.4-1.1-2.6-2.6-2.6h-8.8c-1.4,0-2.6,1.1-2.6,2.6v5.2c0,1.4,1.1,2.6,2.6,2.6h8.8
			C313.9,258,315,256.8,315,255.4z"/>
		<circle class="st3" cx="303.2" cy="252.5" r="0.7"/>
	</g>
	<g>
		<path class="st3" d="M334.9,247.9v41.8c0,0.4,0.3,0.7,0.7,0.7h32.6c0.4,0,0.7-0.3,0.7-0.7v-41.8c0-0.4-0.3-0.7-0.7-0.7h-32.6
			C335.2,247.2,334.9,247.5,334.9,247.9z"/>
		<path class="st3" d="M337.1,251.7v33.8c0,1.1,0.9,2,2,2h25.6c1.1,0,2-0.9,2-2v-33.8c0-1.1-0.9-2-2-2h-25.6
			C338,249.7,337.1,250.6,337.1,251.7z"/>
		<path class="st3" d="M338.9,254v29.3c0,1.1,0.9,2,2,2h22c1.1,0,2-0.9,2-2V254c0-1.1-0.9-2-2-2h-22
			C339.8,252,338.9,252.9,338.9,254z"/>
		<circle class="st3" cx="359.6" cy="257.2" r="2"/>
	</g>
	<g>
		<g>
			<g class="st12">
				<path class="st6" d="M165.1,506.7c0-0.8,0.7-1.5,1.5-1.5h0.2c0.8,0,1.5,0.7,1.5,1.5v26.9c0,3.7-3,6.7-6.7,6.7h-45.5
					c-3.7,0-6.7-3-6.7-6.7v-26.9c0-0.8,0.7-1.5,1.5-1.5h0.2c0.8,0,1.5,0.7,1.5,1.5v1c0-0.9,0.8-1.7,1.7-1.7h22.7
					c0.9,0,1.7,0.8,1.7,1.7c0-0.9,0.8-1.7,1.7-1.7h22.7c0.9,0,1.7,0.8,1.7,1.7V506.7z"/>
				<path class="st8" d="M165.1,506.7c0-0.8,0.7-1.5,1.5-1.5h0.2c0.8,0,1.5,0.7,1.5,1.5v26.9c0,3.7-3,6.7-6.7,6.7h-45.5
					c-3.7,0-6.7-3-6.7-6.7v-26.9c0-0.8,0.7-1.5,1.5-1.5h0.2c0.8,0,1.5,0.7,1.5,1.5v1c0-0.9,0.8-1.7,1.7-1.7h22.7
					c0.9,0,1.7,0.8,1.7,1.7c0-0.9,0.8-1.7,1.7-1.7h22.7c0.9,0,1.7,0.8,1.7,1.7V506.7z"/>
			</g>
			<g>
				<path class="st13" d="M162.1,503.7c0-0.8,0.7-1.5,1.5-1.5h0.2c0.8,0,1.5,0.7,1.5,1.5v26.9c0,3.7-3,6.7-6.7,6.7h-45.5
					c-3.7,0-6.7-3-6.7-6.7v-26.9c0-0.8,0.7-1.5,1.5-1.5h0.2c0.8,0,1.5,0.7,1.5,1.5v1c0-0.9,0.8-1.7,1.7-1.7h22.7
					c0.9,0,1.7,0.8,1.7,1.7c0-0.9,0.8-1.7,1.7-1.7h22.7c0.9,0,1.7,0.8,1.7,1.7V503.7z"/>
				<path class="st14" d="M162.1,503.7c0-0.8,0.7-1.5,1.5-1.5h0.2c0.8,0,1.5,0.7,1.5,1.5v26.9c0,3.7-3,6.7-6.7,6.7h-45.5
					c-3.7,0-6.7-3-6.7-6.7v-26.9c0-0.8,0.7-1.5,1.5-1.5h0.2c0.8,0,1.5,0.7,1.5,1.5v1c0-0.9,0.8-1.7,1.7-1.7h22.7
					c0.9,0,1.7,0.8,1.7,1.7c0-0.9,0.8-1.7,1.7-1.7h22.7c0.9,0,1.7,0.8,1.7,1.7V503.7z"/>
			</g>
		</g>
		<g>
			<path class="st21" d="M158.6,537.3h-45.5c-3.7,0-6.7-3-6.7-6.7v-26.9c0-0.8,0.7-1.5,1.5-1.5h0.2c0.8,0,1.5,0.7,1.5,1.5v23.1h52.3
				v-23.1c0-0.8,0.7-1.5,1.5-1.5h0.2c0.8,0,1.5,0.7,1.5,1.5v26.9C165.3,534.3,162.3,537.3,158.6,537.3z"/>
			<g>
				<g>
					<path class="st15" d="M112,524.1c7.2,0.7,14.5,0.7,21.7,0c1.6-0.2,3.1,1,3.3,2.6c0.1,1.2,0.3,2.4,0.4,3.5
						c0.2,1.6-1,3.1-2.8,3.3c-7.8,0.8-15.7,0.8-23.5,0c-1.8-0.2-3-1.7-2.8-3.3c0.1-1.2,0.3-2.4,0.4-3.5
						C108.9,525.1,110.4,524,112,524.1z"/>
					<path class="st22" d="M111.4,526.5c0.2,0.8,22.7,0.8,22.9,0"/>
				</g>
			</g>
			<g>
				<line class="st15" x1="135.9" y1="528.1" x2="135.9" y2="504.7"/>
				<g>
					<path class="st15" d="M138.1,524.1c7.2,0.7,14.5,0.7,21.7,0c1.6-0.2,3.1,1,3.3,2.6c0.1,1.2,0.3,2.4,0.4,3.5
						c0.2,1.6-1,3.1-2.8,3.3c-7.8,0.8-15.7,0.8-23.5,0c-1.8-0.2-3-1.7-2.8-3.3c0.1-1.2,0.3-2.4,0.4-3.5
						C135.1,525.1,136.5,524,138.1,524.1z"/>
					<path class="st22" d="M137.5,526.5c0.2,0.8,22.7,0.8,22.9,0"/>
				</g>
			</g>
			<g>
				<g>
					<path class="st15" d="M138.1,524.1c7.2,0.7,14.5,0.7,21.7,0c1.6-0.2,3.1,1,3.3,2.6c0.1,1.2,0.3,2.4,0.4,3.5
						c0.2,1.6-1,3.1-2.8,3.3c-7.8,0.8-15.7,0.8-23.5,0c-1.8-0.2-3-1.7-2.8-3.3c0.1-1.2,0.3-2.4,0.4-3.5
						C135.1,525.1,136.5,524,138.1,524.1z"/>
					<path class="st22" d="M137.5,526.5c0.2,0.8,22.7,0.8,22.9,0"/>
				</g>
			</g>
			<path class="st15" d="M110.8,530.3c1-0.6,4.8-4.8,5.1-5.1c2,0,5.5-1,6-1.8c-0.3-0.6-0.5-0.4-1-1.2c-0.3-1-1.5-6.2-3.8-8.9
				c-1.4,1.3-8.8,2.1-10.8,4.3c-1.1,0.5-2.1,0.8-3,1.7c0.3,0.6,3.1,3,4.2,3.3C108.3,524,109.3,529.3,110.8,530.3z"/>
			<path class="st15" d="M157.1,531.3c1-0.7,7.2-9.2,7.6-9.9c-0.5-2-4.5-4.8-5.6-5.5c-0.4-1.3-1.2-2.8-2-3.5c-0.5,0.5-1.6,1.7-2,2.4
				c-0.6,0.4-4.7,3.8-5.6,6.4c-0.6,0.7-1.3,1.3-1.3,1.7c0.9,0.7,2.1,1.1,2.7,1.2C151.7,524.8,156.1,531.1,157.1,531.3z"/>
		</g>
	</g>
	<g>
		<g>
			<g class="st12">
				<path class="st6" d="M51.8,496.7v-76.5c0-3.9,3.2-7.1,7.1-7.1h28.7c0.9,0,1.6,0.7,1.6,1.6v0.3c0,0.9-0.7,1.6-1.6,1.6h-1
					c1,0,1.8,0.8,1.8,1.8v24.3c0,1-0.8,1.8-1.8,1.8c1,0,1.8,0.8,1.8,1.8v24.3c0,1-0.8,1.8-1.8,1.8c1,0,1.8,0.8,1.8,1.8v24.3
					c0,1-0.8,1.7-1.7,1.8h0.9c0.9,0,1.6,0.7,1.6,1.6v0.3c0,0.9-0.7,1.6-1.6,1.6H58.9C55,503.8,51.8,500.6,51.8,496.7z"/>
				<path class="st8" d="M51.8,496.7v-76.5c0-3.9,3.2-7.1,7.1-7.1h28.7c0.9,0,1.6,0.7,1.6,1.6v0.3c0,0.9-0.7,1.6-1.6,1.6h-1
					c1,0,1.8,0.8,1.8,1.8v24.3c0,1-0.8,1.8-1.8,1.8c1,0,1.8,0.8,1.8,1.8v24.3c0,1-0.8,1.8-1.8,1.8c1,0,1.8,0.8,1.8,1.8v24.3
					c0,1-0.8,1.7-1.7,1.8h0.9c0.9,0,1.6,0.7,1.6,1.6v0.3c0,0.9-0.7,1.6-1.6,1.6H58.9C55,503.8,51.8,500.6,51.8,496.7z"/>
			</g>
			<g>
				<path class="st13" d="M48.8,493.7v-76.5c0-3.9,3.2-7.1,7.1-7.1h28.7c0.9,0,1.6,0.7,1.6,1.6v0.3c0,0.9-0.7,1.6-1.6,1.6h-1
					c1,0,1.8,0.8,1.8,1.8v24.3c0,1-0.8,1.8-1.8,1.8c1,0,1.8,0.8,1.8,1.8v24.3c0,1-0.8,1.8-1.8,1.8c1,0,1.8,0.8,1.8,1.8v24.3
					c0,1-0.8,1.7-1.7,1.8h0.9c0.9,0,1.6,0.7,1.6,1.6v0.3c0,0.9-0.7,1.6-1.6,1.6H55.9C52,500.8,48.8,497.6,48.8,493.7z"/>
				<path class="st14" d="M48.8,493.7v-76.5c0-3.9,3.2-7.1,7.1-7.1h28.7c0.9,0,1.6,0.7,1.6,1.6v0.3c0,0.9-0.7,1.6-1.6,1.6h-1
					c1,0,1.8,0.8,1.8,1.8v24.3c0,1-0.8,1.8-1.8,1.8c1,0,1.8,0.8,1.8,1.8v24.3c0,1-0.8,1.8-1.8,1.8c1,0,1.8,0.8,1.8,1.8v24.3
					c0,1-0.8,1.7-1.7,1.8h0.9c0.9,0,1.6,0.7,1.6,1.6v0.3c0,0.9-0.7,1.6-1.6,1.6H55.9C52,500.8,48.8,497.6,48.8,493.7z"/>
			</g>
		</g>
		<g>
			<path class="st21" d="M48.8,493.7v-76.5c0-3.9,3.2-7.1,7.1-7.1h28.7c0.9,0,1.6,0.7,1.6,1.6v0.3c0,0.9-0.7,1.6-1.6,1.6H59.9v83.9
				h24.7c0.9,0,1.6,0.7,1.6,1.6v0.3c0,0.9-0.7,1.6-1.6,1.6H55.9C52,500.8,48.8,497.6,48.8,493.7z"/>
			<g>
				<g>
					<path class="st15" d="M62.9,415.9c-0.8,7.7-0.8,15.5,0,23.2c0.2,1.7-1,3.3-2.8,3.5c-1.3,0.2-2.5,0.3-3.8,0.5
						c-1.7,0.2-3.3-1.1-3.5-3c-0.8-8.4-0.8-16.8,0-25.1c0.2-1.9,1.8-3.2,3.5-3c1.3,0.2,2.5,0.3,3.8,0.5
						C61.8,412.6,63,414.2,62.9,415.9z"/>
					<path class="st22" d="M60.3,415.2c-0.8,0.2-0.8,24.3,0,24.5"/>
				</g>
			</g>
			<g>
				<g>
					<path class="st15" d="M62.9,471.8c-0.8,7.7-0.8,15.5,0,23.2c0.2,1.7-1,3.3-2.8,3.5c-1.3,0.2-2.5,0.3-3.8,0.5
						c-1.7,0.2-3.3-1.1-3.5-3c-0.8-8.4-0.8-16.8,0-25.1c0.2-1.9,1.8-3.2,3.5-3c1.3,0.2,2.5,0.3,3.8,0.5
						C61.8,468.5,63,470.1,62.9,471.8z"/>
					<path class="st22" d="M60.3,471.2c-0.8,0.2-0.8,24.3,0,24.5"/>
				</g>
			</g>
			<g>
				<line class="st15" x1="58.6" y1="441.5" x2="83.6" y2="441.5"/>
				<line class="st15" x1="83.6" y1="469.4" x2="58.6" y2="469.4"/>
				<g>
					<path class="st15" d="M62.9,443.8c-0.8,7.7-0.8,15.5,0,23.2c0.2,1.7-1,3.3-2.8,3.5c-1.3,0.2-2.5,0.3-3.8,0.5
						c-1.7,0.2-3.3-1.1-3.5-3c-0.8-8.4-0.8-16.8,0-25.1c0.2-1.9,1.8-3.2,3.5-3c1.3,0.2,2.5,0.3,3.8,0.5
						C61.8,440.6,63,442.1,62.9,443.8z"/>
					<path class="st22" d="M60.3,443.2c-0.8,0.2-0.8,24.3,0,24.5"/>
				</g>
			</g>
			<path class="st15" d="M56.2,414.6c0.7,1.1,5.1,5.1,5.5,5.4c0,2.1,1.1,5.9,1.9,6.4c0.6-0.3,0.4-0.5,1.2-1c1.1-0.3,6.6-1.6,9.5-4.1
				c-1.4-1.5-2.2-9.4-4.6-11.5c-0.5-1.2-0.8-2.2-1.8-3.2c-0.7,0.3-3.2,3.3-3.5,4.5C63,411.9,57.3,413,56.2,414.6z"/>
			<path class="st15" d="M55.2,492.1c0.8,1.1,9.9,7.7,10.6,8.1c2.1-0.5,5.2-4.8,5.9-6c1.4-0.5,3-1.3,3.7-2.2
				c-0.6-0.6-1.8-1.7-2.5-2.1c-0.4-0.7-4-5-6.9-5.9c-0.7-0.6-1.4-1.4-1.8-1.4c-0.8,1-1.2,2.2-1.3,2.9
				C62.2,486.3,55.3,491,55.2,492.1z"/>
		</g>
	</g>
	<g>
		<g>
			<g class="st12">
				<path class="st6" d="M126.3,407.6c0,0.8-0.7,1.5-1.5,1.5h-0.2c-0.8,0-1.5-0.7-1.5-1.5v-26.3c0-3.6,2.9-6.5,6.5-6.5h18.9
					c3.6,0,6.5,2.9,6.5,6.5v26.3c0,0.8-0.7,1.5-1.5,1.5h-0.2c-0.8,0-1.5-0.7-1.5-1.5l0-0.9c0,0.9-0.7,1.7-1.7,1.7H128
					c-0.9,0-1.7-0.7-1.7-1.7L126.3,407.6z"/>
				<path class="st23" d="M126.3,407.6c0,0.8-0.7,1.5-1.5,1.5h-0.2c-0.8,0-1.5-0.7-1.5-1.5v-26.3c0-3.6,2.9-6.5,6.5-6.5h18.9
					c3.6,0,6.5,2.9,6.5,6.5v26.3c0,0.8-0.7,1.5-1.5,1.5h-0.2c-0.8,0-1.5-0.7-1.5-1.5l0-0.9c0,0.9-0.7,1.7-1.7,1.7H128
					c-0.9,0-1.7-0.7-1.7-1.7L126.3,407.6z"/>
			</g>
			<g>
				<path class="st13" d="M123.3,404.6c0,0.8-0.7,1.5-1.5,1.5h-0.2c-0.8,0-1.5-0.7-1.5-1.5v-26.3c0-3.6,2.9-6.5,6.5-6.5h18.9
					c3.6,0,6.5,2.9,6.5,6.5v26.3c0,0.8-0.7,1.5-1.5,1.5h-0.2c-0.8,0-1.5-0.7-1.5-1.5l0-0.9c0,0.9-0.7,1.7-1.7,1.7H125
					c-0.9,0-1.7-0.7-1.7-1.7L123.3,404.6z"/>
				<path class="st24" d="M123.3,404.6c0,0.8-0.7,1.5-1.5,1.5h-0.2c-0.8,0-1.5-0.7-1.5-1.5v-26.3c0-3.6,2.9-6.5,6.5-6.5h18.9
					c3.6,0,6.5,2.9,6.5,6.5v26.3c0,0.8-0.7,1.5-1.5,1.5h-0.2c-0.8,0-1.5-0.7-1.5-1.5l0-0.9c0,0.9-0.7,1.7-1.7,1.7H125
					c-0.9,0-1.7-0.7-1.7-1.7L123.3,404.6z"/>
			</g>
		</g>
		<g>
			<path class="st21" d="M126.7,371.7h18.9c3.6,0,6.5,2.9,6.5,6.5v26.3c0,0.8-0.7,1.5-1.5,1.5h-0.2c-0.8,0-1.5-0.7-1.5-1.5v-22.6
				h-25.7v22.6c0,0.8-0.7,1.5-1.5,1.5h-0.2c-0.8,0-1.5-0.7-1.5-1.5v-26.3C120.1,374.6,123.1,371.7,126.7,371.7z"/>
			<g>
				<path class="st15" d="M146.8,384.6c-7.1-0.7-14.2-0.7-21.2,0c-1.6,0.2-3-1-3.2-2.5c-0.1-1.2-0.3-2.3-0.4-3.5
					c-0.2-1.6,1-3,2.8-3.2c7.7-0.7,15.4-0.7,23,0c1.7,0.2,3,1.6,2.8,3.2c-0.1,1.2-0.3,2.3-0.4,3.5
					C149.8,383.6,148.3,384.8,146.8,384.6z"/>
				<path class="st22" d="M147.4,382.2c-0.2-0.8-22.3-0.8-22.4,0"/>
			</g>
		</g>
	</g>
	<g>
		<g>
			<g>
				<g class="st12">
					<path class="st6" d="M114.6,445.7c-1.6,8.8-1.6,21.5,0,30.3c0.2,0.9,1,1.6,1.9,1.6H144c1,0,1.8-0.7,1.9-1.6
						c1.6-8.8,1.6-21.5,0-30.3c-0.2-0.9-1-1.6-1.9-1.6h-27.4C115.6,444,114.8,444.7,114.6,445.7z"/>
					<path class="st8" d="M114.6,445.7c-1.6,8.8-1.6,21.5,0,30.3c0.2,0.9,1,1.6,1.9,1.6H144c1,0,1.8-0.7,1.9-1.6
						c1.6-8.8,1.6-21.5,0-30.3c-0.2-0.9-1-1.6-1.9-1.6h-27.4C115.6,444,114.8,444.7,114.6,445.7z"/>
				</g>
				<g>
					<path class="st13" d="M111.6,442.7c-1.6,8.8-1.6,21.5,0,30.3c0.2,0.9,1,1.6,1.9,1.6H141c1,0,1.8-0.7,1.9-1.6
						c1.6-8.8,1.6-21.5,0-30.3c-0.2-0.9-1-1.6-1.9-1.6h-27.4C112.6,441,111.8,441.7,111.6,442.7z"/>
					<path class="st14" d="M111.6,442.7c-1.6,8.8-1.6,21.5,0,30.3c0.2,0.9,1,1.6,1.9,1.6H141c1,0,1.8-0.7,1.9-1.6
						c1.6-8.8,1.6-21.5,0-30.3c-0.2-0.9-1-1.6-1.9-1.6h-27.4C112.6,441,111.8,441.7,111.6,442.7z"/>
				</g>
			</g>
		</g>
		<g>
			<g>
				<path class="st22" d="M128.3,457.6c0,0,5.4,2.3,8.7,0.3C137,457.9,135,455.2,128.3,457.6z"/>
				<path class="st22" d="M128.3,457.6c0,0,5.7-0.1,8-3.4C136.3,454.2,133.3,452.6,128.3,457.6z"/>
				<path class="st22" d="M135.3,463.4c0,0-5.7,0-7-5.9C128.3,457.6,135,459.2,135.3,463.4z"/>
				<path class="st22" d="M119.5,464.1c0,0,7.1-1.3,8.8-6.5C128.3,457.6,122.6,456.9,119.5,464.1z"/>
				<path class="st22" d="M129.7,467.1c0,0,1.2-3.9-1.4-9.6C128.3,457.6,126.3,462.9,129.7,467.1z"/>
				<path class="st22" d="M117.3,457.9c0,0,7.1,2.9,11.1-0.1C128.5,457.7,127.8,455.5,117.3,457.9z"/>
				<path class="st22" d="M134.3,450.4c0,0-2.4,6-6,7.2C128.3,457.6,130,453.5,134.3,450.4z"/>
				<path class="st22" d="M119.1,452.1c0,0,3.6,5,9.2,5.4C128.3,457.6,125.5,452.8,119.1,452.1z"/>
				<path class="st22" d="M130.4,448c0,0,1,6-1.9,9.7C128.5,457.7,126.4,453.9,130.4,448z"/>
				<path class="st22" d="M124.8,467.1c0,0,4-2.8,3.7-9.4C128.5,457.7,124.1,461.6,124.8,467.1z"/>
				<path class="st22" d="M122,449.3c0,0,2.2,7.3,6.6,8.6C128.6,457.9,128.1,452.6,122,449.3z"/>
				<path class="st22" d="M125.8,447.7c0,0-1,6.2,2.6,10.1C128.5,457.7,130.4,453.4,125.8,447.7z"/>
				<path class="st22" d="M128.6,458.1c0,0-0.2,3.5,4,7.8C132.6,466,132.3,462.2,128.6,458.1z"/>
				<path class="st22" d="M122.6,465.7c0,0,4.7-3.2,5.8-7.6C128.3,458,124.4,458.6,122.6,465.7z"/>
			</g>
			<g>
				<path class="st22" d="M127.9,457.5c0,0,3.4-0.1,4.7-2C132.6,455.5,130.8,454.5,127.9,457.5z"/>
				<path class="st22" d="M132,461c0,0-3.4,0-4.1-3.5C127.9,457.5,131.9,458.5,132,461z"/>
				<path class="st22" d="M122.6,461.4c0,0,4.2-0.8,5.3-3.9C127.9,457.5,124.5,457.1,122.6,461.4z"/>
				<path class="st22" d="M128.7,463.2c0,0,0.7-2.3-0.8-5.7C127.9,457.5,126.7,460.6,128.7,463.2z"/>
				<path class="st22" d="M122.4,454.3c0,0,2.1,3,5.5,3.2C127.9,457.5,126.2,454.7,122.4,454.3z"/>
				<path class="st22" d="M129.1,451.8c0,0,0.6,3.6-1.1,5.8C128,457.6,126.7,455.3,129.1,451.8z"/>
				<path class="st22" d="M125.7,463.2c0,0,2.3-1.7,2.2-5.6C128,457.6,125.3,459.9,125.7,463.2z"/>
				<path class="st22" d="M126.4,451.6c0,0-0.6,3.7,1.6,6C128,457.6,129.1,455,126.4,451.6z"/>
			</g>
		</g>
	</g>
	<g>
		<g>
			<g class="st12">
				<path class="st6" d="M215.3,432.1v73.2c0,0.8,0.6,1.5,1.3,1.5h16.5c0.7,0,1.3-0.7,1.3-1.5v-73.2c0-0.8-0.6-1.5-1.3-1.5h-16.5
					C215.9,430.6,215.3,431.2,215.3,432.1z"/>
				<path class="st8" d="M215.3,432.1v73.2c0,0.8,0.6,1.5,1.3,1.5h16.5c0.7,0,1.3-0.7,1.3-1.5v-73.2c0-0.8-0.6-1.5-1.3-1.5h-16.5
					C215.9,430.6,215.3,431.2,215.3,432.1z"/>
			</g>
			<g>
				<path class="st13" d="M212.3,429.1v73.2c0,0.8,0.6,1.5,1.3,1.5h16.5c0.7,0,1.3-0.7,1.3-1.5v-73.2c0-0.8-0.6-1.5-1.3-1.5h-16.5
					C212.9,427.6,212.3,428.2,212.3,429.1z"/>
				<path class="st14" d="M212.3,429.1v73.2c0,0.8,0.6,1.5,1.3,1.5h16.5c0.7,0,1.3-0.7,1.3-1.5v-73.2c0-0.8-0.6-1.5-1.3-1.5h-16.5
					C212.9,427.6,212.3,428.2,212.3,429.1z"/>
			</g>
		</g>
		<path class="st15" d="M221.4,475.6h7c0.6,0,1-0.4,1-1v-17.9c0-0.6-0.4-1-1-1h-7c-0.6,0-1,0.4-1,1v17.9
			C220.4,475.2,220.8,475.6,221.4,475.6z"/>
		<path class="st25" d="M228.6,474.1v-16.9c0-0.3-0.3-0.6-0.6-0.6h-6.3c-0.3,0-0.6,0.3-0.6,0.6v16.9c0,0.3,0.3,0.6,0.6,0.6h6.3
			C228.3,474.7,228.6,474.5,228.6,474.1z"/>
		
			<rect x="222.9" y="435.1" transform="matrix(-1 -4.382107e-11 4.382107e-11 -1 447.7809 931.3655)" class="st15" width="1.9" height="61.2"/>
	</g>
	<g>
		<g>
			<g>
				<path class="st15" d="M158.1,161.5v2.1h-18.4v-2.1c0-0.8,0.7-1.5,1.5-1.5h15.4C157.4,160,158.1,160.6,158.1,161.5z"/>
				
					<rect x="146" y="157.2" transform="matrix(-4.501573e-11 1 -1 -4.501573e-11 315.3249 17.5443)" class="st15" width="5.8" height="18.4"/>
				<line class="st15" x1="155.6" y1="163.5" x2="155.6" y2="169.3"/>
				<line class="st15" x1="142.2" y1="169.3" x2="142.2" y2="163.5"/>
			</g>
			<g>
				<path class="st15" d="M136.3,161.5v2.1h-18.4v-2.1c0-0.8,0.7-1.5,1.5-1.5h15.4C135.6,160,136.3,160.6,136.3,161.5z"/>
				
					<rect x="124.2" y="157.2" transform="matrix(-4.470132e-11 1 -1 -4.470132e-11 293.5248 39.3443)" class="st15" width="5.8" height="18.4"/>
				<line class="st15" x1="133.8" y1="163.5" x2="133.8" y2="169.3"/>
				<line class="st15" x1="120.4" y1="169.3" x2="120.4" y2="163.5"/>
			</g>
			<g>
				<path class="st15" d="M114.5,161.5v2.1H96.1v-2.1c0-0.8,0.7-1.5,1.5-1.5H113C113.8,160,114.5,160.6,114.5,161.5z"/>
				
					<rect x="102.4" y="157.2" transform="matrix(-4.470132e-11 1 -1 -4.470132e-11 271.7248 61.1443)" class="st15" width="5.8" height="18.4"/>
				<line class="st15" x1="112" y1="163.5" x2="112" y2="169.3"/>
				<line class="st15" x1="98.6" y1="169.3" x2="98.6" y2="163.5"/>
			</g>
		</g>
		<g>
			<path class="st15" d="M96.1,213.2v-2.1h18.4v2.1c0,0.8-0.7,1.5-1.5,1.5H97.6C96.7,214.7,96.1,214.1,96.1,213.2z"/>
			
				<rect x="102.4" y="199.1" transform="matrix(4.470119e-11 -1 1 4.470119e-11 -102.9877 313.5682)" class="st15" width="5.8" height="18.4"/>
			<line class="st15" x1="98.6" y1="211.2" x2="98.6" y2="205.4"/>
			<line class="st15" x1="112" y1="205.4" x2="112" y2="211.2"/>
		</g>
		<g>
			<path class="st15" d="M117.9,213.2v-2.1h18.4v2.1c0,0.8-0.7,1.5-1.5,1.5h-15.4C118.5,214.7,117.9,214.1,117.9,213.2z"/>
			
				<rect x="124.2" y="199.1" transform="matrix(4.501561e-11 -1 1 4.501561e-11 -81.1877 335.3682)" class="st15" width="5.8" height="18.4"/>
			<line class="st15" x1="120.4" y1="211.2" x2="120.4" y2="205.4"/>
			<line class="st15" x1="133.8" y1="205.4" x2="133.8" y2="211.2"/>
		</g>
		<g>
			<path class="st15" d="M145.1,218.5l-0.8-1.9l17-7.1l0.8,1.9c0.3,0.8,0,1.6-0.8,2l-14.2,6C146.3,219.6,145.5,219.3,145.1,218.5z"
				/>
			
				<rect x="141.6" y="196.3" transform="matrix(-0.3873 -0.922 0.922 -0.3873 18.1721 423.1713)" class="st15" width="16.2" height="18.4"/>
			<line class="st15" x1="146.7" y1="215.6" x2="140.4" y2="200.7"/>
			<line class="st15" x1="152.7" y1="195.5" x2="159" y2="210.4"/>
		</g>
		<g>
			<g class="st12">
				<path class="st6" d="M91.9,173.8v33.1c0,0.8,0.7,1.5,1.5,1.5h73.4c0.8,0,1.5-0.7,1.5-1.5v-33.1c0-0.8-0.7-1.5-1.5-1.5H93.4
					C92.5,172.3,91.9,173,91.9,173.8z"/>
				<path class="st8" d="M91.9,173.8v33.1c0,0.8,0.7,1.5,1.5,1.5h73.4c0.8,0,1.5-0.7,1.5-1.5v-33.1c0-0.8-0.7-1.5-1.5-1.5H93.4
					C92.5,172.3,91.9,173,91.9,173.8z"/>
			</g>
			<g>
				<path class="st13" d="M88.9,170.8v33.1c0,0.8,0.7,1.5,1.5,1.5h73.4c0.8,0,1.5-0.7,1.5-1.5v-33.1c0-0.8-0.7-1.5-1.5-1.5H90.4
					C89.5,169.3,88.9,170,88.9,170.8z"/>
				<path class="st14" d="M88.9,170.8v33.1c0,0.8,0.7,1.5,1.5,1.5h73.4c0.8,0,1.5-0.7,1.5-1.5v-33.1c0-0.8-0.7-1.5-1.5-1.5H90.4
					C89.5,169.3,88.9,170,88.9,170.8z"/>
			</g>
		</g>
		<path class="st15" d="M99.7,185.2l2.7,3.7c0.3,0.4,1,0.5,1.4,0.2l6.3-4.6c0.4-0.3,0.5-1,0.2-1.4l-2.7-3.7c-0.3-0.4-1-0.5-1.4-0.2
			l-6.3,4.6C99.5,184.2,99.4,184.8,99.7,185.2z"/>
	</g>
	<line class="st8" x1="520.2" y1="271.8" x2="520.2" y2="195.7"/>
	<line class="st8" x1="206.8" y1="264.9" x2="232.4" y2="264.9"/>
	<g>
		<g>
			<g>
				
					<rect x="121.5" y="307.2" transform="matrix(0.9535 0.3014 -0.3014 0.9535 99.9757 -22.2781)" class="st14" width="1.5" height="11.2"/>
				
					<rect x="115.8" y="305.4" transform="matrix(-0.9535 -0.3014 0.3014 -0.9535 133.7866 642.7581)" class="st14" width="1.5" height="11.2"/>
				<g>
					<g class="st12">
						<path class="st6" d="M117.3,301.3l-3.6,11.4c-0.3,0.9,0.2,1.9,1.1,2.2l13.9,4.4c0.9,0.3,1.9-0.2,2.2-1.1l3.6-11.4L117.3,301.3
							z"/>
						<path class="st8" d="M117.3,301.3l-3.6,11.4c-0.3,0.9,0.2,1.9,1.1,2.2l13.9,4.4c0.9,0.3,1.9-0.2,2.2-1.1l3.6-11.4L117.3,301.3
							z"/>
					</g>
					<g>
						<path class="st13" d="M114.3,298.3l-3.6,11.4c-0.3,0.9,0.2,1.9,1.1,2.2l13.9,4.4c0.9,0.3,1.9-0.2,2.2-1.1l3.6-11.4
							L114.3,298.3z"/>
						<path class="st14" d="M114.3,298.3l-3.6,11.4c-0.3,0.9,0.2,1.9,1.1,2.2l13.9,4.4c0.9,0.3,1.9-0.2,2.2-1.1l3.6-11.4
							L114.3,298.3z"/>
					</g>
				</g>
			</g>
			<g>
				<path class="st15" d="M122.7,317.8c-3.5,0.6-6.8-0.4-9.3-2.9c-0.2-0.2-0.6-0.1-0.8,0.3c-0.2,0.4-0.4,0.8-0.6,1.3
					c2.9,3.2,6.8,4.5,11,3.5c0.1-0.5,0.1-0.9,0.2-1.4C123.3,318.1,123.1,317.8,122.7,317.8z"/>
				<path class="st15" d="M123,319.9c-3.9,0.9-8.3-0.5-11-3.5c-0.2,0.5-0.5,1-0.7,1.5c-0.2,0.3-0.1,0.7,0.1,0.9
					c2.8,2.9,7,4.2,10.9,3.4c0.3-0.1,0.5-0.4,0.6-0.7C122.8,321,122.9,320.4,123,319.9z"/>
			</g>
		</g>
		<g>
			<g>
				<rect x="146.1" y="306.5" class="st14" width="1.5" height="11.2"/>
				
					<rect x="140.1" y="306.5" transform="matrix(-1 -3.031788e-04 3.031788e-04 -1 281.4823 624.2297)" class="st14" width="1.5" height="11.2"/>
				<g>
					<g class="st12">
						<path class="st6" d="M137.9,303.6l0,12c0,1,0.8,1.7,1.7,1.7l14.6,0c1,0,1.7-0.8,1.7-1.7l0-12L137.9,303.6z"/>
						<path class="st8" d="M137.9,303.6l0,12c0,1,0.8,1.7,1.7,1.7l14.6,0c1,0,1.7-0.8,1.7-1.7l0-12L137.9,303.6z"/>
					</g>
					<g>
						<path class="st13" d="M134.9,300.6l0,12c0,1,0.8,1.7,1.7,1.7l14.6,0c1,0,1.7-0.8,1.7-1.7l0-12L134.9,300.6z"/>
						<path class="st14" d="M134.9,300.6l0,12c0,1,0.8,1.7,1.7,1.7l14.6,0c1,0,1.7-0.8,1.7-1.7l0-12L134.9,300.6z"/>
					</g>
				</g>
			</g>
			<g>
				<path class="st15" d="M148.8,316.7c-3.1,1.6-6.6,1.6-9.7,0c-0.3-0.2-0.6,0.1-0.7,0.5c-0.1,0.5-0.1,0.9-0.2,1.4
					c3.7,2.2,7.9,2.2,11.6,0c-0.1-0.5-0.1-0.9-0.2-1.4C149.4,316.7,149.1,316.5,148.8,316.7z"/>
				<path class="st15" d="M149.7,318.6c-3.5,2.1-8.1,2.1-11.6,0c-0.1,0.5-0.2,1.1-0.2,1.6c-0.1,0.3,0.1,0.7,0.3,0.8
					c3.5,1.9,7.9,1.9,11.4,0c0.2-0.1,0.4-0.5,0.3-0.8C149.9,319.6,149.8,319.1,149.7,318.6z"/>
			</g>
		</g>
	</g>
	<g>
		<rect x="94" y="268.5" class="st1" width="75.6" height="38.2"/>
		<path class="st6" d="M169.4,268.7v37.9H94.1v-37.9H169.4 M169.7,268.4H93.8v38.5h75.9V268.4L169.7,268.4z"/>
	</g>
</g>
<g id="Ouvertures">
	<g>
		<g>
			<rect x="47.3" y="126.3" class="st1" width="153.3" height="10.3"/>
			<path class="st6" d="M200.5,126.4v10h-153v-10H200.5 M200.8,126.1H47.2v10.6h153.6V126.1L200.8,126.1z"/>
		</g>
		<g>
			<rect x="47.3" y="126.3" class="st1" width="76.5" height="5"/>
			<path class="st6" d="M123.7,126.4v4.7H47.5v-4.7H123.7 M124,126.1H47.2v5.3H124V126.1L124,126.1z"/>
		</g>
		<g>
			<rect x="124.8" y="132" class="st1" width="75.8" height="4.5"/>
			<path class="st6" d="M200.5,132.1v4.2H125v-4.2H200.5 M200.8,131.8h-76.1v4.8h76.1V131.8L200.8,131.8z"/>
		</g>
		<g>
			<g>
				<line class="st26" x1="96.3" y1="141.6" x2="77.7" y2="141.6"/>
				<g>
					<polygon class="st6" points="78.7,140.4 78.9,140.6 77.8,141.6 78.9,142.7 78.7,142.9 77.4,141.6 					"/>
				</g>
			</g>
		</g>
		<rect x="122.2" y="131.8" class="st6" width="4.8" height="4.8"/>
		<rect x="122.2" y="126.1" class="st6" width="4.8" height="5.3"/>
		<rect x="197.2" y="131.9" class="st6" width="3.6" height="4.8"/>
		<rect x="47.2" y="126.1" class="st6" width="4.5" height="5.3"/>
		<line class="st27" x1="122.6" y1="128.9" x2="47.5" y2="128.9"/>
		<line class="st27" x1="199" y1="134.3" x2="123.9" y2="134.3"/>
	</g>
	<g>
		<g>
			<rect x="467.4" y="40.1" class="st1" width="57.2" height="1.3"/>
			<path class="st6" d="M524.4,40.3v1h-56.9v-1H524.4 M524.7,40h-57.5v1.6h57.5V40L524.7,40z"/>
		</g>
		<path class="st28" d="M501.2,42c0,0,0.8,12-10.3,24.5l-25.6-25"/>
		<rect x="499.6" y="40" class="st6" width="3.2" height="1.6"/>
		<g>
			<path class="st28" d="M501.2,41.5c0,11.2,10.1,25,24.3,25"/>
			<line class="st8" x1="525.5" y1="41.5" x2="525.5" y2="66.5"/>
		</g>
	</g>
	<g>
		<g>
			<rect x="272.1" y="40.1" class="st1" width="57.2" height="1.3"/>
			<path class="st6" d="M329.1,40.3v1h-56.9v-1H329.1 M329.4,40h-57.5v1.6h57.5V40L329.4,40z"/>
		</g>
		<path class="st28" d="M305.9,42c0,0,0.8,12-10.3,24.5l-25.6-25"/>
		<rect x="304.3" y="40" class="st6" width="3.2" height="1.6"/>
		<g>
			<path class="st28" d="M305.9,41.5c0,11.2,10.1,25,24.3,25"/>
			<line class="st8" x1="330.2" y1="41.5" x2="330.2" y2="66.5"/>
		</g>
	</g>
	<g>
		<g>
			<rect x="42.1" y="367.2" class="st1" width="1.3" height="57.2"/>
			<path class="st6" d="M43.2,367.4v56.9h-1v-56.9H43.2 M43.5,367.1H42v57.5h1.6V367.1L43.5,367.1z"/>
		</g>
		<path class="st28" d="M44,401.1c0,0,12,0.8,24.5-10.3l-25-25.6"/>
		<rect x="42" y="399.5" class="st6" width="1.6" height="3.2"/>
		<g>
			<path class="st28" d="M43.5,401.1c11.2,0,25,10.1,25,24.3"/>
			<line class="st8" x1="43.5" y1="425.4" x2="68.6" y2="425.4"/>
		</g>
	</g>
	<g>
		<g>
			<rect x="273" y="560.7" class="st1" width="57.2" height="1.3"/>
			<path class="st6" d="M330,560.8v1h-56.9v-1H330 M330.3,560.5h-57.5v1.6h57.5V560.5L330.3,560.5z"/>
		</g>
		<path class="st28" d="M296.3,560c0,0-0.8-12,10.3-24.5l25.6,25"/>
		<rect x="294.7" y="560.5" class="st6" width="3.2" height="1.6"/>
		<g>
			<path class="st28" d="M296.3,560.5c0-11.2-10.1-25-24.3-25"/>
			<line class="st8" x1="272" y1="560.5" x2="272" y2="535.5"/>
		</g>
	</g>
	<g>
		<path class="st28" d="M243.7,515.1c19.4,0,35.1,16.7,35.1,37.3"/>
		<line class="st8" x1="243.7" y1="552.4" x2="278.7" y2="552.4"/>
	</g>
	<g>
		<path class="st28" d="M419.3,188.9c0-19.4-16.2-35.1-36.2-35.1"/>
		<line class="st8" x1="383.1" y1="188.9" x2="383.1" y2="153.8"/>
	</g>
	<g>
		<path class="st28" d="M372.2,201.5c-19.4,0-35.1,16.2-35.1,36.2"/>
		<line class="st8" x1="372.2" y1="237.7" x2="337.1" y2="237.7"/>
	</g>
	<g>
		<path class="st28" d="M436,237.2c19.4,0,35.1-16.2,35.1-36.2"/>
		<line class="st8" x1="436" y1="200.9" x2="471.1" y2="200.9"/>
	</g>
	<g>
		<path class="st28" d="M384.8,350.4c0-22.6,18.9-40.9,42.3-40.9"/>
		<line class="st8" x1="427.1" y1="350.4" x2="427.1" y2="309.5"/>
	</g>
	<g>
		<path class="st28" d="M329.5,295.5c0,16.4-14.1,29.6-31.4,29.6"/>
		<line class="st8" x1="298.1" y1="295.5" x2="298.1" y2="325.1"/>
	</g>
	<g>
		<g>
			<rect x="72.3" y="557" class="st1" width="158.1" height="10.1"/>
			<path class="st6" d="M230.3,557.2v9.8H72.5v-9.8H230.3 M230.6,556.9H72.2v10.4h158.4V556.9L230.6,556.9z"/>
		</g>
		<g>
			<rect x="151.5" y="562.2" class="st1" width="78.9" height="4.9"/>
			<path class="st6" d="M230.3,562.4v4.6h-78.6v-4.6H230.3 M230.6,562.1h-79.2v5.2h79.2V562.1L230.6,562.1z"/>
		</g>
		<g>
			<rect x="72.3" y="557" class="st1" width="78.2" height="4.5"/>
			<path class="st6" d="M150.4,557.2v4.2H72.5v-4.2H150.4 M150.7,556.9H72.2v4.8h78.5V556.9L150.7,556.9z"/>
		</g>
		<g>
			<g>
				<line class="st26" x1="179.9" y1="552" x2="199.1" y2="552"/>
				<g>
					<polygon class="st6" points="198.1,553.2 197.9,553 199,552 197.9,551 198.1,550.8 199.5,552 					"/>
				</g>
			</g>
		</g>
		<rect x="148.2" y="556.9" class="st6" width="5" height="4.8"/>
		<rect x="148.2" y="562.1" class="st6" width="5" height="5.2"/>
		
			<rect x="72.2" y="556.9" transform="matrix(-1 -4.466084e-11 4.466084e-11 -1 148.0846 1118.4371)" class="st6" width="3.7" height="4.7"/>
		
			<rect x="226" y="562.1" transform="matrix(-1 -4.471369e-11 4.471369e-11 -1 456.561 1129.3323)" class="st6" width="4.6" height="5.2"/>
		<line class="st27" x1="152.8" y1="564.6" x2="230.2" y2="564.6"/>
		<line class="st27" x1="74" y1="559.3" x2="151.5" y2="559.3"/>
	</g>
</g>
<g id="Étiquettes" class="st29">
	<text transform="matrix(1 0 0 1 173.3206 541.2788)" class="st30 st31 st32">Espace Jour</text>
	<text transform="matrix(1 0 0 1 183.4875 549.6787)" class="st30 st33 st32">44.40 m</text>
	<text transform="matrix(0.583 0 0 0.583 208.512 547.3477)" class="st30 st33 st32">2</text>
	<text transform="matrix(1 0 0 1 323.3115 541.2788)" class="st30 st31 st32">Chambre 3</text>
	<text transform="matrix(1 0 0 1 330.7363 549.6787)" class="st30 st33 st32">12.60 m</text>
	<text transform="matrix(0.583 0 0 0.583 355.4355 547.3477)" class="st30 st33 st32">2</text>
	<text transform="matrix(1 0 0 1 178.3851 106.064)" class="st30 st31 st32">Loggia </text>
	<text transform="matrix(1 0 0 1 178.515 114.4639)" class="st30 st33 st32">10.90 m</text>
	<text transform="matrix(0.583 0 0 0.583 203.5394 112.1328)" class="st30 st33 st32">2</text>
	<text transform="matrix(1 0 0 1 324.9545 219.6089)" class="st30 st31 st32">Chambre 2</text>
	<text transform="matrix(1 0 0 1 332.3793 228.0088)" class="st30 st33 st32">14.60 m</text>
	<text transform="matrix(0.583 0 0 0.583 357.0785 225.6777)" class="st30 st33 st32">2</text>
	<text transform="matrix(1 0 0 1 500.3278 169.3237)" class="st30 st31 st32">Chambre 1</text>
	<text transform="matrix(1 0 0 1 507.5905 177.7236)" class="st30 st33 st32">14.40 m</text>
	<text transform="matrix(0.583 0 0 0.583 532.6149 175.3926)" class="st30 st33 st32">2</text>
	<text transform="matrix(1 0 0 1 483.7903 225.4321)" class="st30 st31 st32">Salle  </text>
	<text transform="matrix(1 0 0 1 478.554 233.832)" class="st30 st31 st32">de bains</text>
	<text transform="matrix(1 0 0 1 483.4114 242.2319)" class="st30 st33 st32">5.30 m</text>
	<text transform="matrix(0.583 0 0 0.583 504.3762 239.9009)" class="st30 st33 st32">2</text>
	<text transform="matrix(1 0 0 1 305.3887 269.1226)" class="st30 st31 st32">WC/ </text>
	<text transform="matrix(1 0 0 1 297.6611 277.5225)" class="st30 st31 st32">Douche</text>
	<text transform="matrix(1 0 0 1 301.5439 285.9224)" class="st30 st33 st32">2.60 m</text>
	<text transform="matrix(0.583 0 0 0.583 322.1826 283.5913)" class="st30 st33 st32">2</text>
	<text transform="matrix(1 0 0 1 332.2335 336.564)" class="st30 st31 st32">Dégagement </text>
	<text transform="matrix(1 0 0 1 343.6046 344.9639)" class="st30 st33 st32">12.40 m</text>
	<text transform="matrix(0.583 0 0 0.583 368.629 342.6328)" class="st30 st33 st32">2</text>
</g>
<g id="Murs">
	<g>
		<rect x="330.1" y="560.6" class="st6" width="41" height="14.3"/>
		<polygon class="st6" points="43.6,427.9 47.2,427.9 47.2,567.3 76.3,567.3 76.3,574.9 29.2,574.9 29.2,571.7 29.2,560.6 
			29.2,374.1 29.2,427.9 29.2,423.4 43.6,423.4 		"/>
		<polygon class="st6" points="29.2,126.1 29.2,200.7 29.2,367.1 43.6,367.1 43.6,363.3 47.2,363.3 47.2,200.7 47.2,126.1 		"/>
		<polygon class="st6" points="564.9,128.1 564.9,271.8 564.9,275.9 564.9,283.3 564.9,285.7 564.9,294.3 478.6,294.3 478.6,355.1 
			460.8,355.1 460.8,294.3 428.8,294.3 428.8,285.7 428.8,283.3 428.8,235.7 433.7,235.7 433.7,283.3 460.8,283.3 463.1,283.3 
			463.1,271.8 553.7,271.8 553.7,195.7 433.7,195.7 433.7,202.1 428.8,202.1 428.8,195.7 418.5,195.7 418.5,191.4 428.8,191.4 
			433.7,191.4 553.7,191.4 553.7,45.1 528.1,45.1 528.1,41.6 524.7,41.6 524.7,27.4 528.1,27.4 553.7,27.4 557.1,27.4 562.6,27.4 
			564.9,27.4 573.7,27.4 573.7,128.1 		"/>
		<polygon class="st6" points="463.1,45.1 378.8,45.1 378.8,191.4 384.7,191.4 384.7,195.7 378.8,195.7 378.8,203.1 373.9,203.1 
			373.9,45.1 332.9,45.1 332.9,41.6 329.1,41.6 329.1,27.4 332.9,27.4 463.1,27.4 467.3,27.4 467.3,41.6 463.1,41.6 		"/>
		<polygon class="st6" points="268.2,45.1 242.1,45.1 242.1,243.3 373.9,243.3 373.9,236.8 378.8,236.8 378.8,243.3 378.8,244.7 
			378.8,247.1 378.8,282.8 378.8,290.3 378.8,290.7 378.8,294.1 328.6,294.1 328.6,290.3 368.9,290.3 368.9,247.1 263.6,247.1 
			263.6,290.3 299.1,290.3 299.1,294.1 206.8,294.1 206.8,290.3 232.4,290.3 232.4,287.2 232.4,246.3 232.4,136.7 231.9,136.7 
			224.1,136.7 200.7,136.7 200.7,126.1 224.1,126.1 224.1,45.1 224.1,31.6 224.1,27.4 265.2,27.4 268.2,27.4 272.4,27.4 272.4,41.6 
			268.2,41.6 		"/>
		<rect x="29.2" y="27.4" class="st6" width="25.4" height="9.7"/>
		<rect x="57.2" y="31.3" class="st34" width="163.6" height="1.9"/>
		<rect x="37.2" y="39.3" class="st34" width="2" height="85"/>
	</g>
	<rect x="76.3" y="569.8" class="st34" width="149.7" height="2.1"/>
	<rect x="272.8" y="569.7" class="st34" width="57.3" height="2"/>
	<rect x="467.2" y="31.3" class="st34" width="57.5" height="2"/>
	<rect x="272.4" y="31.3" class="st34" width="56.7" height="2"/>
	
		<rect x="5.6" y="394.3" transform="matrix(4.564710e-11 -1 1 4.564710e-11 -361.4702 429.0225)" class="st34" width="56.4" height="1.9"/>
	<rect x="368.9" y="351.2" class="st6" width="11.4" height="214.6"/>
	<rect x="375.1" y="351.2" class="st6" width="11.4" height="11.6"/>
	<rect x="425.4" y="351.2" class="st6" width="53.1" height="11.6"/>
	<rect x="335.1" y="556.9" class="st6" width="45.2" height="17.9"/>
	<rect x="41.6" y="556.9" class="st6" width="30.6" height="10.9"/>
	<g>
		<polygon class="st6" points="268.7,556.9 242.6,556.9 242.6,551.9 232.4,551.9 232.4,556.9 230.6,556.9 230.6,562.1 225.9,562.1 
			225.9,574.9 229.9,574.9 235,574.9 263.7,574.9 268.7,574.9 272.8,574.9 272.8,560.6 268.7,560.6 		"/>
		<polygon class="st6" points="242.6,378.4 242.6,351.3 232.4,351.3 232.4,515.6 242.6,515.6 242.6,383.4 371.6,383.4 371.6,378.4 
					"/>
	</g>
</g>
<g id="Calque_1">
</g>
<g id="Entree">
	<polygon class="st35" points="411.4,358.4 405.9,353.7 400.4,358.4 	"/>
</g>
<g id="Nord">
	<circle class="st36" cx="546.2" cy="561.3" r="11.9"/>
	<line class="st37" x1="553.9" y1="558.8" x2="561.2" y2="556.5"/>
	<text transform="matrix(1 0 0 1 539.9777 567.0804)" class="st6 st31 st38">N</text>
</g>
</svg>
