<?xml version="1.0" encoding="utf-8"?>
<!-- Generator: Adobe Illustrator 22.0.1, SVG Export Plug-In . SVG Version: 6.00 Build 0)  -->
<svg version="1.1" xmlns="http://www.w3.org/2000/svg" xmlns:xlink="http://www.w3.org/1999/xlink" x="0px" y="0px"
	 viewBox="0 0 595.3 595.3" style="enable-background:new 0 0 595.3 595.3;" xml:space="preserve">
<style type="text/css">
	.st0{fill:none;}
	.st1{fill:#FFFFFF;}
	.st2{fill:#E3E3E3;}
	.st3{fill:#EAF6FE;}
	.st4{opacity:0.8;fill:#FFFFFF;}
	.st5{fill:url(#SVGID_1_);}
	.st6{fill:url(#SVGID_2_);}
	.st7{opacity:0.2;}
	.st8{fill:#738793;}
	.st9{fill:none;stroke:#738793;stroke-width:0.3;stroke-miterlimit:10;}
	.st10{fill:none;stroke:#717E86;stroke-width:0.3;stroke-miterlimit:10;}
	.st11{fill:#FFFFFF;stroke:#717E86;stroke-width:0.3;stroke-miterlimit:10;}
	.st12{fill:#717E86;}
	.st13{opacity:5.000000e-02;}
	.st14{fill:none;stroke:#CCD3D8;stroke-width:0.3;stroke-miterlimit:10;}
	.st15{fill:#EAF6FE;stroke:#CCD3D8;stroke-width:0.3;stroke-miterlimit:10;}
	.st16{fill:#EAF6FE;stroke:#CCD3D8;stroke-width:0.3;stroke-linecap:round;stroke-miterlimit:10;}
	.st17{fill:#EAF6FE;stroke:#CCD3D8;stroke-width:0.3033;stroke-miterlimit:10;}
	.st18{fill:#EAF6FE;stroke:#CCD3D8;stroke-width:0.3;stroke-linecap:round;stroke-linejoin:round;stroke-miterlimit:10;}
	.st19{fill:#EAF6FE;stroke:#CCD3D8;stroke-width:0.2953;stroke-miterlimit:10;}
	.st20{fill:none;stroke:#000000;stroke-width:0.12;stroke-linecap:square;stroke-linejoin:bevel;stroke-miterlimit:10;}
	.st21{fill:none;stroke:#717E86;stroke-width:0.6204;stroke-miterlimit:10;}
	.st22{fill:none;stroke:#717E86;stroke-width:0.5;stroke-miterlimit:10;}
	.st23{fill:#EAF6FE;stroke:#717E86;stroke-width:0.3;stroke-miterlimit:10;}
	.st24{fill:none;stroke:#A5B9C4;stroke-miterlimit:10;}
	.st25{fill:none;stroke:#717E86;stroke-width:0.3;stroke-miterlimit:10;stroke-dasharray:2,2;}
	.st26{fill:none;stroke:#717E86;stroke-width:0.3;stroke-miterlimit:1;}
	.st27{fill:none;stroke:#717E86;stroke-width:0.1;stroke-miterlimit:1;}
	.st28{display:none;}
	.st29{display:inline;fill:#3C3C3B;}
	.st30{font-family:'Lato-Black';}
	.st31{font-size:7px;}
	.st32{font-family:'Lato-Italic';}
	.st33{fill:#3C3C3B;}
	.st34{fill:none;stroke:#717E86;stroke-miterlimit:10;}
	.st35{fill:none;stroke:#717E86;stroke-width:2;stroke-miterlimit:10;}
	.st36{font-size:16.4252px;}
</style>
<pattern  width="3.8" height="3.4" patternUnits="userSpaceOnUse" id="Nouvelle_nuance_de_motif_7" viewBox="0 -3.4 3.8 3.4" style="overflow:visible;">
	<g>
		<rect y="-3.4" class="st0" width="3.8" height="3.4"/>
		<rect x="0.1" y="-3.4" class="st1" width="3.7" height="3.4"/>
		<rect x="3.7" y="-3.4" class="st2" width="0.1" height="3.4"/>
		<rect x="0" y="-3.4" class="st2" width="0.1" height="3.4"/>
	</g>
</pattern>
<g id="Fond">
	<polygon class="st3" points="308.3,578.1 308.3,410.4 442.6,410.4 442.6,581.2 386.4,578.1 	"/>
	<polygon class="st3" points="289.4,34.4 289.4,224.5 458.4,224.5 458.4,42.4 	"/>
	<polygon class="st3" points="375.5,514 375.5,159 181.9,159 183.9,230.3 170,514 	"/>
</g>
<g id="Sols">
	
		<rect x="385.1" y="414.2" transform="matrix(1.346879e-10 -1 1 1.346879e-10 -25.2672 855.5697)" class="st4" width="60" height="52.5"/>
	
		<rect x="325" y="208.7" transform="matrix(1.346461e-10 -1 1 1.346461e-10 118.3766 578.6849)" class="st4" width="47.1" height="42.9"/>
	
		<rect x="388" y="162.9" transform="matrix(1.346497e-10 -1 1 1.346497e-10 232.6885 606.5777)" class="st4" width="63.2" height="48.1"/>
	<pattern  id="SVGID_1_" xlink:href="#Nouvelle_nuance_de_motif_7" patternTransform="matrix(-1 0 0 -1 -15785.4932 -14605.1328)">
	</pattern>
	<polygon class="st5" points="156.1,589.4 159.4,513.9 296,513.9 296,589.4 	"/>
	<pattern  id="SVGID_2_" xlink:href="#Nouvelle_nuance_de_motif_7" patternTransform="matrix(-1 0 0 -1 -15785.4932 -14605.1328)">
	</pattern>
	<polygon class="st6" points="162.2,16 170.9,159 282.7,159 282.7,22 	"/>
</g>
<g id="Installations">
	<g>
		<g>
			<g class="st7">
				<path class="st8" d="M408.6,420.9c0-0.8,0-5.4-0.1-6.2c-0.1-0.6-0.1-1.3-0.3-1.9h-8.8c-0.1,0.5-0.2,1-0.2,1.6
					c-0.1,0.9-0.1,6.2-0.1,7.1c0,2,1.6,6.2,4.7,6.2C407,427.8,408.6,423.3,408.6,420.9z"/>
				<path class="st9" d="M408.6,420.9c0-0.8,0-5.4-0.1-6.2c-0.1-0.6-0.1-1.3-0.3-1.9h-8.8c-0.1,0.5-0.2,1-0.2,1.6
					c-0.1,0.9-0.1,6.2-0.1,7.1c0,2,1.6,6.2,4.7,6.2C407,427.8,408.6,423.3,408.6,420.9z"/>
			</g>
			<g>
				<path class="st1" d="M405.6,417.9c0-0.8,0-5.4-0.1-6.2c-0.1-0.6-0.1-1.3-0.3-1.9h-8.8c-0.1,0.5-0.2,1-0.2,1.6
					c-0.1,0.9-0.1,6.2-0.1,7.1c0,2,1.6,6.2,4.7,6.2C404,424.8,405.6,420.3,405.6,417.9z"/>
				<path class="st10" d="M405.6,417.9c0-0.8,0-5.4-0.1-6.2c-0.1-0.6-0.1-1.3-0.3-1.9h-8.8c-0.1,0.5-0.2,1-0.2,1.6
					c-0.1,0.9-0.1,6.2-0.1,7.1c0,2,1.6,6.2,4.7,6.2C404,424.8,405.6,420.3,405.6,417.9z"/>
			</g>
		</g>
		<g>
			<circle class="st11" cx="402.9" cy="412" r="0.3"/>
			<circle class="st11" cx="398.7" cy="412" r="0.3"/>
		</g>
		<path class="st11" d="M400.8,423.6c-2,0-3.7-3.1-3.7-5.1c0-2,1.6-3.7,3.7-3.7c2,0,3.7,1.6,3.7,3.7
			C404.4,420.5,402.8,423.6,400.8,423.6z"/>
		<path class="st11" d="M402,417.6v-1.4c0-0.4-0.6-0.4-1.2-0.4s-1.2,0.1-1.2,0.4v1.4c0,0.7,0.6,1.2,1.2,1.2S402,418.3,402,417.6z"/>
		<path class="st10" d="M405.4,412c-1.2-0.7-2.9-1.2-4.9-1.2c-1.7,0-3.2,0.3-4.4,0.9"/>
	</g>
	<g>
		<g>
			<g class="st7">
				<path class="st8" d="M337.8,248.7c0,0.8,0,5.4,0.1,6.2c0.1,0.6,0.1,1.3,0.3,1.9h8.8c0.1-0.5,0.2-1,0.2-1.6
					c0.1-0.9,0.1-6.2,0.1-7.1c0-2-1.6-6.2-4.7-6.2C339.4,241.8,337.8,246.3,337.8,248.7z"/>
				<path class="st9" d="M337.8,248.7c0,0.8,0,5.4,0.1,6.2c0.1,0.6,0.1,1.3,0.3,1.9h8.8c0.1-0.5,0.2-1,0.2-1.6
					c0.1-0.9,0.1-6.2,0.1-7.1c0-2-1.6-6.2-4.7-6.2C339.4,241.8,337.8,246.3,337.8,248.7z"/>
			</g>
			<g>
				<path class="st1" d="M334.8,245.7c0,0.8,0,5.4,0.1,6.2c0.1,0.6,0.1,1.3,0.3,1.9h8.8c0.1-0.5,0.2-1,0.2-1.6
					c0.1-0.9,0.1-6.2,0.1-7.1c0-2-1.6-6.2-4.7-6.2C336.4,238.8,334.8,243.3,334.8,245.7z"/>
				<path class="st10" d="M334.8,245.7c0,0.8,0,5.4,0.1,6.2c0.1,0.6,0.1,1.3,0.3,1.9h8.8c0.1-0.5,0.2-1,0.2-1.6
					c0.1-0.9,0.1-6.2,0.1-7.1c0-2-1.6-6.2-4.7-6.2C336.4,238.8,334.8,243.3,334.8,245.7z"/>
			</g>
		</g>
		<g>
			<circle class="st11" cx="337.5" cy="251.6" r="0.3"/>
			<circle class="st11" cx="341.7" cy="251.6" r="0.3"/>
		</g>
		<path class="st11" d="M339.6,240c2,0,3.7,3.1,3.7,5.1s-1.6,3.7-3.7,3.7s-3.7-1.6-3.7-3.7S337.6,240,339.6,240z"/>
		<path class="st11" d="M338.3,246v1.4c0,0.4,0.6,0.4,1.2,0.4s1.2-0.1,1.2-0.4V246c0-0.7-0.6-1.2-1.2-1.2S338.3,245.3,338.3,246z"/>
		<path class="st10" d="M334.9,251.6c1.2,0.7,2.9,1.2,4.9,1.2c1.7,0,3.2-0.3,4.4-0.9"/>
	</g>
	<g>
		<rect x="175.8" y="414.8" class="st1" width="125.3" height="15.9"/>
		<path class="st12" d="M301,414.9v15.6H176v-15.6H301 M301.3,414.6H175.7v16.2h125.6V414.6L301.3,414.6z"/>
	</g>
	<g>
		<rect x="175.8" y="414.8" class="st1" width="16.7" height="15.9"/>
		<path class="st12" d="M192.4,414.9v15.6H176v-15.6H192.4 M192.7,414.6h-17v16.2h17V414.6L192.7,414.6z"/>
	</g>
	<g>
		<g>
			<g>
				<g class="st13">
					<path class="st12" d="M434.8,501.8v-7.4c0-0.6,0.4-1,1-1h6.6c0.6,0,1,0.4,1,1v7.4c0,0.6-0.4,1-1,1h-6.6
						C435.3,502.8,434.8,502.4,434.8,501.8z"/>
					<path class="st10" d="M434.8,501.8v-7.4c0-0.6,0.4-1,1-1h6.6c0.6,0,1,0.4,1,1v7.4c0,0.6-0.4,1-1,1h-6.6
						C435.3,502.8,434.8,502.4,434.8,501.8z"/>
				</g>
				<g>
					<path class="st3" d="M431.8,498.8v-7.4c0-0.6,0.4-1,1-1h6.6c0.6,0,1,0.4,1,1v7.4c0,0.6-0.4,1-1,1h-6.6
						C432.3,499.8,431.8,499.4,431.8,498.8z"/>
					<path class="st14" d="M431.8,498.8v-7.4c0-0.6,0.4-1,1-1h6.6c0.6,0,1,0.4,1,1v7.4c0,0.6-0.4,1-1,1h-6.6
						C432.3,499.8,431.8,499.4,431.8,498.8z"/>
				</g>
			</g>
			<path class="st15" d="M435.6,493.1v-0.3c0-0.1,0.1-0.2,0.2-0.2h4.6v0.8h-4.6C435.7,493.3,435.6,493.2,435.6,493.1z"/>
			<path class="st15" d="M436.3,494.6v-0.3c0-0.1,0.1-0.2,0.2-0.2h3.9v0.8h-3.9C436.4,494.8,436.3,494.7,436.3,494.6z"/>
			<path class="st15" d="M435.1,493.8v-0.3c0-0.1,0.1-0.2,0.2-0.2h5.1v0.8h-5.1C435.2,494,435.1,493.9,435.1,493.8z"/>
		</g>
		<g>
			<g class="st13">
				<path class="st12" d="M388,504.8h54.4c0.6,0,1,0.4,1,1v43c0,0.6-0.4,1-1,1H388c-0.6,0-1-0.4-1-1v-43
					C387,505.3,387.4,504.8,388,504.8z"/>
				<path class="st10" d="M388,504.8h54.4c0.6,0,1,0.4,1,1v43c0,0.6-0.4,1-1,1H388c-0.6,0-1-0.4-1-1v-43
					C387,505.3,387.4,504.8,388,504.8z"/>
			</g>
			<g>
				<path class="st3" d="M385,501.8h54.4c0.6,0,1,0.4,1,1v43c0,0.6-0.4,1-1,1H385c-0.6,0-1-0.4-1-1v-43
					C384,502.3,384.4,501.8,385,501.8z"/>
				<path class="st14" d="M385,501.8h54.4c0.6,0,1,0.4,1,1v43c0,0.6-0.4,1-1,1H385c-0.6,0-1-0.4-1-1v-43
					C384,502.3,384.4,501.8,385,501.8z"/>
			</g>
		</g>
		<path class="st15" d="M388,504.8h48.4c0.6,0,1,0.4,1,1v37c0,0.6-0.4,1-1,1H388c-0.6,0-1-0.4-1-1v-37
			C387,505.3,387.4,504.8,388,504.8z"/>
		<path class="st15" d="M434.6,507.4c1,1.7,1.2,13.4,0.1,15.2c-0.1,0.1-5.6,0.8-8.6,0.3c-0.5-0.1-1.2-0.6-1.5-1.4
			c-1.1-3-0.6-9.9,0.3-13.2c0.4-1.2,1.5-1.1,2-1.2C429.2,506.7,434.3,506.9,434.6,507.4z"/>
		<path class="st15" d="M434.7,525.9c1.3,3.3,0.9,14.6,0.2,15.2c-0.2,0.2-5.6,0.9-8.1,0.3c-0.4-0.1-0.7-0.2-0.9-0.4
			c-1-1.4-1.7-14.5-1.6-14.7c0.1-0.2,1.2-0.1,1.8-0.4C427.5,525.3,434.5,525.4,434.7,525.9z"/>
		<g>
			<path class="st15" d="M416.8,541.8c0,0-1.5-15.5-1.5-17.4c0-2,1.5-17.4,1.5-17.4c0-1.5-2.5-2.7-1-2.7h8.2c1.5,0,2.7,1.2,2.7,2.7
				c0,0-0.8,15-0.8,17.3s0.8,17.5,0.8,17.5c0,1.5-1.2,2.7-2.7,2.7h-8.2C414.4,544.5,416.8,543.3,416.8,541.8z"/>
			<path class="st16" d="M424.5,510.1c-0.2-1.8-2.7-5.6-3.5-5.7"/>
			<path class="st16" d="M423.7,529c-0.1-0.3-4-8.4-5.9-7.5c-0.7,0.4-0.3,1.6,0.1,2.2"/>
			<path class="st16" d="M425.5,542.1c-1.1-1.1-4.3-5.9-6.7-12.4"/>
		</g>
		<g>
			<g>
				<g class="st13">
					<path class="st12" d="M443.4,552.8v7.4c0,0.6-0.4,1-1,1h-6.6c-0.6,0-1-0.4-1-1v-7.4c0-0.6,0.4-1,1-1h6.6
						C442.9,551.8,443.4,552.2,443.4,552.8z"/>
					<path class="st10" d="M443.4,552.8v7.4c0,0.6-0.4,1-1,1h-6.6c-0.6,0-1-0.4-1-1v-7.4c0-0.6,0.4-1,1-1h6.6
						C442.9,551.8,443.4,552.2,443.4,552.8z"/>
				</g>
				<g>
					<path class="st3" d="M440.4,549.8v7.4c0,0.6-0.4,1-1,1h-6.6c-0.6,0-1-0.4-1-1v-7.4c0-0.6,0.4-1,1-1h6.6
						C439.9,548.8,440.4,549.2,440.4,549.8z"/>
					<path class="st14" d="M440.4,549.8v7.4c0,0.6-0.4,1-1,1h-6.6c-0.6,0-1-0.4-1-1v-7.4c0-0.6,0.4-1,1-1h6.6
						C439.9,548.8,440.4,549.2,440.4,549.8z"/>
				</g>
			</g>
			<path class="st15" d="M434.1,554.3l1.1-2.9c0.2-0.5,0.8-0.8,1.3-0.6l0.9,0.4c0.5,0.2,0.8,0.8,0.6,1.3l-1.1,2.9
				c-0.2,0.5-0.8,0.8-1.3,0.6l-0.9-0.4C434.2,555.4,433.9,554.8,434.1,554.3z"/>
			<circle class="st15" cx="436.1" cy="553.4" r="0.5"/>
		</g>
	</g>
	<g>
		<g>
			<g>
				<g class="st13">
					<path class="st12" d="M444.7,64v-7.4c0-0.6,0.4-1,1-1h6.6c0.6,0,1,0.4,1,1V64c0,0.6-0.4,1-1,1h-6.6
						C445.2,65,444.7,64.6,444.7,64z"/>
					<path class="st10" d="M444.7,64v-7.4c0-0.6,0.4-1,1-1h6.6c0.6,0,1,0.4,1,1V64c0,0.6-0.4,1-1,1h-6.6
						C445.2,65,444.7,64.6,444.7,64z"/>
				</g>
				<g>
					<path class="st3" d="M441.7,61v-7.4c0-0.6,0.4-1,1-1h6.6c0.6,0,1,0.4,1,1V61c0,0.6-0.4,1-1,1h-6.6
						C442.2,62,441.7,61.6,441.7,61z"/>
					<path class="st14" d="M441.7,61v-7.4c0-0.6,0.4-1,1-1h6.6c0.6,0,1,0.4,1,1V61c0,0.6-0.4,1-1,1h-6.6
						C442.2,62,441.7,61.6,441.7,61z"/>
				</g>
			</g>
			<path class="st15" d="M445.5,55.3v-0.3c0-0.1,0.1-0.2,0.2-0.2h4.6v0.8h-4.6C445.6,55.5,445.5,55.4,445.5,55.3z"/>
			<path class="st15" d="M446.2,56.8v-0.3c0-0.1,0.1-0.2,0.2-0.2h3.9V57h-3.9C446.3,57,446.2,56.9,446.2,56.8z"/>
			<path class="st15" d="M445,56v-0.3c0-0.1,0.1-0.2,0.2-0.2h5.1v0.8h-5.1C445.1,56.2,445,56.1,445,56z"/>
		</g>
		<g>
			<g class="st13">
				<path class="st12" d="M397.9,67h54.4c0.6,0,1,0.4,1,1v43c0,0.6-0.4,1-1,1h-54.4c-0.6,0-1-0.4-1-1V68
					C396.9,67.5,397.4,67,397.9,67z"/>
				<path class="st10" d="M397.9,67h54.4c0.6,0,1,0.4,1,1v43c0,0.6-0.4,1-1,1h-54.4c-0.6,0-1-0.4-1-1V68
					C396.9,67.5,397.4,67,397.9,67z"/>
			</g>
			<g>
				<path class="st3" d="M394.9,64h54.4c0.6,0,1,0.4,1,1v43c0,0.6-0.4,1-1,1h-54.4c-0.6,0-1-0.4-1-1V65
					C393.9,64.5,394.4,64,394.9,64z"/>
				<path class="st14" d="M394.9,64h54.4c0.6,0,1,0.4,1,1v43c0,0.6-0.4,1-1,1h-54.4c-0.6,0-1-0.4-1-1V65
					C393.9,64.5,394.4,64,394.9,64z"/>
			</g>
		</g>
		<path class="st15" d="M397.9,67h48.4c0.6,0,1,0.4,1,1v37c0,0.6-0.4,1-1,1h-48.4c-0.6,0-1-0.4-1-1V68C396.9,67.5,397.4,67,397.9,67
			z"/>
		<path class="st15" d="M444.5,69.6c1,1.7,1.2,13.4,0.1,15.2c-0.1,0.1-5.6,0.8-8.6,0.3c-0.5-0.1-1.2-0.6-1.5-1.4
			c-1.1-3-0.6-9.9,0.3-13.2c0.4-1.2,1.5-1.1,2-1.2C439.1,68.9,444.2,69.1,444.5,69.6z"/>
		<path class="st15" d="M444.6,88.1c1.3,3.3,0.9,14.6,0.2,15.2c-0.2,0.2-5.6,0.9-8.1,0.3c-0.4-0.1-0.7-0.2-0.9-0.4
			c-1-1.4-1.7-14.5-1.6-14.7c0.1-0.2,1.2-0.1,1.8-0.4C437.4,87.5,444.4,87.6,444.6,88.1z"/>
		<g>
			<path class="st15" d="M426.7,104c0,0-1.5-15.5-1.5-17.4c0-2,1.5-17.4,1.5-17.4c0-1.5-2.5-2.7-1-2.7h8.2c1.5,0,2.7,1.2,2.7,2.7
				c0,0-0.8,15-0.8,17.3s0.8,17.5,0.8,17.5c0,1.5-1.2,2.7-2.7,2.7h-8.2C424.3,106.7,426.7,105.5,426.7,104z"/>
			<path class="st16" d="M434.5,72.3c-0.2-1.8-2.7-5.6-3.5-5.7"/>
			<path class="st16" d="M433.7,91.2c-0.1-0.3-4-8.4-5.9-7.5c-0.7,0.4-0.3,1.6,0.1,2.2"/>
			<path class="st16" d="M435.4,104.3c-1.1-1.1-4.3-5.9-6.7-12.4"/>
		</g>
		<g>
			<g>
				<g class="st13">
					<path class="st12" d="M453.3,115v7.4c0,0.6-0.4,1-1,1h-6.6c-0.6,0-1-0.4-1-1V115c0-0.6,0.4-1,1-1h6.6
						C452.9,114,453.3,114.4,453.3,115z"/>
					<path class="st10" d="M453.3,115v7.4c0,0.6-0.4,1-1,1h-6.6c-0.6,0-1-0.4-1-1V115c0-0.6,0.4-1,1-1h6.6
						C452.9,114,453.3,114.4,453.3,115z"/>
				</g>
				<g>
					<path class="st3" d="M450.3,112v7.4c0,0.6-0.4,1-1,1h-6.6c-0.6,0-1-0.4-1-1V112c0-0.6,0.4-1,1-1h6.6
						C449.9,111,450.3,111.4,450.3,112z"/>
					<path class="st14" d="M450.3,112v7.4c0,0.6-0.4,1-1,1h-6.6c-0.6,0-1-0.4-1-1V112c0-0.6,0.4-1,1-1h6.6
						C449.9,111,450.3,111.4,450.3,112z"/>
				</g>
			</g>
			<path class="st15" d="M444,116.5l1.1-2.9c0.2-0.5,0.8-0.8,1.3-0.6l0.9,0.4c0.5,0.2,0.8,0.8,0.6,1.3l-1.1,2.9
				c-0.2,0.5-0.8,0.8-1.3,0.6l-0.9-0.4C444.1,117.6,443.8,117,444,116.5z"/>
			<circle class="st15" cx="446" cy="115.6" r="0.5"/>
		</g>
	</g>
	<g>
		<g>
			<g class="st13">
				<path class="st12" d="M297.3,153.2v-30.8c0-0.6,0.4-1,1-1h12.6c0.6,0,1,0.4,1,1v30.8c0,0.6-0.4,1-1,1h-12.6
					C297.8,154.2,297.3,153.7,297.3,153.2z"/>
				<path class="st10" d="M297.3,153.2v-30.8c0-0.6,0.4-1,1-1h12.6c0.6,0,1,0.4,1,1v30.8c0,0.6-0.4,1-1,1h-12.6
					C297.8,154.2,297.3,153.7,297.3,153.2z"/>
			</g>
			<g>
				<path class="st3" d="M294.3,150.2v-30.8c0-0.6,0.4-1,1-1h12.6c0.6,0,1,0.4,1,1v30.8c0,0.6-0.4,1-1,1h-12.6
					C294.8,151.2,294.3,150.7,294.3,150.2z"/>
				<path class="st14" d="M294.3,150.2v-30.8c0-0.6,0.4-1,1-1h12.6c0.6,0,1,0.4,1,1v30.8c0,0.6-0.4,1-1,1h-12.6
					C294.8,151.2,294.3,150.7,294.3,150.2z"/>
			</g>
		</g>
		<line class="st15" x1="307" y1="118.3" x2="307" y2="151.2"/>
		<line class="st15" x1="307" y1="134.8" x2="308.9" y2="134.8"/>
		<polyline class="st14" points="308.9,131.2 310,131.2 310,132.4 308.9,132.4 		"/>
		<polyline class="st14" points="308.9,137.1 310,137.1 310,138.3 308.9,138.3 		"/>
	</g>
	<g>
		<g>
			<g class="st13">
				<path class="st12" d="M303.1,474.6v30.8c0,0.6-0.4,1-1,1h-12.6c-0.6,0-1-0.4-1-1v-30.8c0-0.6,0.4-1,1-1h12.6
					C302.7,473.6,303.1,474.1,303.1,474.6z"/>
				<path class="st10" d="M303.1,474.6v30.8c0,0.6-0.4,1-1,1h-12.6c-0.6,0-1-0.4-1-1v-30.8c0-0.6,0.4-1,1-1h12.6
					C302.7,473.6,303.1,474.1,303.1,474.6z"/>
			</g>
			<g>
				<path class="st3" d="M300.1,471.6v30.8c0,0.6-0.4,1-1,1h-12.6c-0.6,0-1-0.4-1-1v-30.8c0-0.6,0.4-1,1-1h12.6
					C299.7,470.6,300.1,471.1,300.1,471.6z"/>
				<path class="st14" d="M300.1,471.6v30.8c0,0.6-0.4,1-1,1h-12.6c-0.6,0-1-0.4-1-1v-30.8c0-0.6,0.4-1,1-1h12.6
					C299.7,470.6,300.1,471.1,300.1,471.6z"/>
			</g>
		</g>
		<line class="st15" x1="287.4" y1="503.5" x2="287.4" y2="470.6"/>
		<line class="st15" x1="287.4" y1="487" x2="285.5" y2="487"/>
		<polyline class="st14" points="285.5,490.6 284.4,490.6 284.4,489.4 285.5,489.4 		"/>
		<polyline class="st14" points="285.5,484.7 284.4,484.7 284.4,483.5 285.5,483.5 		"/>
	</g>
	<g>
		<g>
			<g class="st13">
				<path class="st12" d="M312.2,572v-46.2c0-0.6,0.4-1,1-1h12.6c0.6,0,1,0.4,1,1V572c0,0.6-0.4,1-1,1h-12.6
					C312.6,573,312.2,572.5,312.2,572z"/>
				<path class="st10" d="M312.2,572v-46.2c0-0.6,0.4-1,1-1h12.6c0.6,0,1,0.4,1,1V572c0,0.6-0.4,1-1,1h-12.6
					C312.6,573,312.2,572.5,312.2,572z"/>
			</g>
			<g>
				<path class="st3" d="M309.2,569v-46.2c0-0.6,0.4-1,1-1h12.6c0.6,0,1,0.4,1,1V569c0,0.6-0.4,1-1,1h-12.6
					C309.6,570,309.2,569.5,309.2,569z"/>
				<path class="st14" d="M309.2,569v-46.2c0-0.6,0.4-1,1-1h12.6c0.6,0,1,0.4,1,1V569c0,0.6-0.4,1-1,1h-12.6
					C309.6,570,309.2,569.5,309.2,569z"/>
			</g>
		</g>
		<line class="st15" x1="321.8" y1="521.8" x2="321.8" y2="570"/>
		<line class="st15" x1="321.8" y1="545.9" x2="323.8" y2="545.9"/>
		<polyline class="st14" points="323.8,540.6 324.9,540.6 324.9,542.4 323.8,542.4 		"/>
		<polyline class="st14" points="323.8,549.3 324.9,549.3 324.9,551.1 323.8,551.1 		"/>
	</g>
	<g>
		<g>
			<g class="st13">
				<path class="st12" d="M366.7,113.2V67c0-0.6,0.4-1,1-1h12.6c0.6,0,1,0.4,1,1v46.2c0,0.6-0.4,1-1,1h-12.6
					C367.1,114.2,366.7,113.7,366.7,113.2z"/>
				<path class="st10" d="M366.7,113.2V67c0-0.6,0.4-1,1-1h12.6c0.6,0,1,0.4,1,1v46.2c0,0.6-0.4,1-1,1h-12.6
					C367.1,114.2,366.7,113.7,366.7,113.2z"/>
			</g>
			<g>
				<path class="st3" d="M363.7,110.2V64c0-0.6,0.4-1,1-1h12.6c0.6,0,1,0.4,1,1v46.2c0,0.6-0.4,1-1,1h-12.6
					C364.1,111.2,363.7,110.7,363.7,110.2z"/>
				<path class="st14" d="M363.7,110.2V64c0-0.6,0.4-1,1-1h12.6c0.6,0,1,0.4,1,1v46.2c0,0.6-0.4,1-1,1h-12.6
					C364.1,111.2,363.7,110.7,363.7,110.2z"/>
			</g>
		</g>
		<line class="st15" x1="376.3" y1="63" x2="376.3" y2="111.2"/>
		<line class="st15" x1="376.3" y1="87.1" x2="378.3" y2="87.1"/>
		<polyline class="st14" points="378.3,81.8 379.4,81.8 379.4,83.6 378.3,83.6 		"/>
		<polyline class="st14" points="378.3,90.5 379.4,90.5 379.4,92.3 378.3,92.3 		"/>
	</g>
	<g>
		<g>
			<g class="st13">
				<path class="st12" d="M451.4,154h-46.2c-0.6,0-1-0.4-1-1v-12.6c0-0.6,0.4-1,1-1h46.2c0.6,0,1,0.4,1,1V153
					C452.4,153.6,451.9,154,451.4,154z"/>
				<path class="st10" d="M451.4,154h-46.2c-0.6,0-1-0.4-1-1v-12.6c0-0.6,0.4-1,1-1h46.2c0.6,0,1,0.4,1,1V153
					C452.4,153.6,451.9,154,451.4,154z"/>
			</g>
			<g>
				<path class="st3" d="M448.4,151h-46.2c-0.6,0-1-0.4-1-1v-12.6c0-0.6,0.4-1,1-1h46.2c0.6,0,1,0.4,1,1V150
					C449.4,150.6,448.9,151,448.4,151z"/>
				<path class="st14" d="M448.4,151h-46.2c-0.6,0-1-0.4-1-1v-12.6c0-0.6,0.4-1,1-1h46.2c0.6,0,1,0.4,1,1V150
					C449.4,150.6,448.9,151,448.4,151z"/>
			</g>
		</g>
		<line class="st15" x1="401.2" y1="138.4" x2="449.4" y2="138.4"/>
		<line class="st15" x1="425.3" y1="138.4" x2="425.3" y2="136.4"/>
		<polyline class="st14" points="420,136.4 420,135.3 421.8,135.3 421.8,136.4 		"/>
		<polyline class="st14" points="428.7,136.4 428.7,135.3 430.5,135.3 430.5,136.4 		"/>
	</g>
	<g>
		<g>
			<g>
				<path class="st15" d="M212.3,310.9v1.4h12.3v-1.4c0-0.6-0.4-1-1-1h-10.3C212.8,309.9,212.3,310.4,212.3,310.9z"/>
				
					<rect x="216.6" y="308.1" transform="matrix(-1.346187e-10 1 -1 -1.346187e-10 532.7501 95.7381)" class="st15" width="3.9" height="12.3"/>
				<line class="st15" x1="214" y1="312.3" x2="214" y2="316.2"/>
				<line class="st15" x1="223" y1="316.2" x2="223" y2="312.3"/>
			</g>
			<g>
				<path class="st15" d="M226.9,310.9v1.4h12.3v-1.4c0-0.6-0.4-1-1-1h-10.3C227.4,309.9,226.9,310.4,226.9,310.9z"/>
				
					<rect x="231.2" y="308.1" transform="matrix(-1.346187e-10 1 -1 -1.346187e-10 547.3297 81.1584)" class="st15" width="3.9" height="12.3"/>
				<line class="st15" x1="228.6" y1="312.3" x2="228.6" y2="316.2"/>
				<line class="st15" x1="237.6" y1="316.2" x2="237.6" y2="312.3"/>
			</g>
			<g>
				<path class="st15" d="M241.5,310.9v1.4h12.3v-1.4c0-0.6-0.4-1-1-1h-10.3C242,309.9,241.5,310.4,241.5,310.9z"/>
				
					<rect x="245.7" y="308.1" transform="matrix(-1.346187e-10 1 -1 -1.346187e-10 561.9094 66.5787)" class="st15" width="3.9" height="12.3"/>
				<line class="st15" x1="243.2" y1="312.3" x2="243.2" y2="316.2"/>
				<line class="st15" x1="252.1" y1="316.2" x2="252.1" y2="312.3"/>
			</g>
		</g>
		<g>
			<path class="st15" d="M253.8,345.6v-1.4h-12.3v1.4c0,0.6,0.4,1,1,1h10.3C253.4,346.6,253.8,346.1,253.8,345.6z"/>
			
				<rect x="245.7" y="336.1" transform="matrix(1.350893e-10 -1 1 1.350893e-10 -94.5632 589.8939)" class="st15" width="3.9" height="12.3"/>
			<line class="st15" x1="252.1" y1="344.2" x2="252.1" y2="340.3"/>
			<line class="st15" x1="243.2" y1="340.3" x2="243.2" y2="344.2"/>
		</g>
		<g>
			<path class="st15" d="M239.2,345.6v-1.4h-12.3v1.4c0,0.6,0.4,1,1,1h10.3C238.8,346.6,239.2,346.1,239.2,345.6z"/>
			
				<rect x="231.2" y="336.1" transform="matrix(1.350893e-10 -1 1 1.350893e-10 -109.1429 575.3142)" class="st15" width="3.9" height="12.3"/>
			<line class="st15" x1="237.6" y1="344.2" x2="237.6" y2="340.3"/>
			<line class="st15" x1="228.6" y1="340.3" x2="228.6" y2="344.2"/>
		</g>
		<g>
			<path class="st15" d="M221,349.1l0.5-1.3l-11.4-4.8l-0.5,1.3c-0.2,0.5,0,1.1,0.5,1.3l9.5,4C220.2,349.8,220.8,349.6,221,349.1z"
				/>
			
				<rect x="212.5" y="334.2" transform="matrix(0.3873 -0.922 0.922 0.3873 -180.2876 409.5276)" class="st15" width="10.8" height="12.3"/>
			<line class="st15" x1="220" y1="347.1" x2="224.2" y2="337.1"/>
			<line class="st15" x1="215.9" y1="333.7" x2="211.7" y2="343.7"/>
		</g>
		<g>
			<g class="st13">
				<path class="st12" d="M261.6,320.2v22.1c0,0.6-0.4,1-1,1h-49.1c-0.6,0-1-0.4-1-1v-22.1c0-0.6,0.4-1,1-1h49.1
					C261.2,319.2,261.6,319.6,261.6,320.2z"/>
				<path class="st10" d="M261.6,320.2v22.1c0,0.6-0.4,1-1,1h-49.1c-0.6,0-1-0.4-1-1v-22.1c0-0.6,0.4-1,1-1h49.1
					C261.2,319.2,261.6,319.6,261.6,320.2z"/>
			</g>
			<g>
				<path class="st3" d="M258.6,317.2v22.1c0,0.6-0.4,1-1,1h-49.1c-0.6,0-1-0.4-1-1v-22.1c0-0.6,0.4-1,1-1h49.1
					C258.2,316.2,258.6,316.6,258.6,317.2z"/>
				<path class="st14" d="M258.6,317.2v22.1c0,0.6-0.4,1-1,1h-49.1c-0.6,0-1-0.4-1-1v-22.1c0-0.6,0.4-1,1-1h49.1
					C258.2,316.2,258.6,316.6,258.6,317.2z"/>
			</g>
		</g>
		<path class="st15" d="M251.2,327.1l-1.4,1.9c-0.3,0.4-1,0.5-1.4,0.2l-3.6-2.7c-0.4-0.3-0.5-1-0.2-1.4l1.4-1.9
			c0.3-0.4,1-0.5,1.4-0.2l3.6,2.7C251.5,326,251.5,326.6,251.2,327.1z"/>
	</g>
	<g>
		<g>
			<g class="st13">
				<path class="st12" d="M279.2,278.4v-50c0-2.6-2.1-4.7-4.7-4.7h-18.8c-0.6,0-1.1,0.5-1.1,1.1v0.2c0,0.6,0.5,1.1,1.1,1.1h0.7
					c-0.7,0-1.2,0.5-1.2,1.2v15.9c0,0.7,0.5,1.2,1.2,1.2c-0.7,0-1.2,0.5-1.2,1.2v15.9c0,0.7,0.5,1.2,1.2,1.2c-0.7,0-1.2,0.5-1.2,1.2
					v15.9c0,0.6,0.5,1.1,1.1,1.2h-0.6c-0.6,0-1.1,0.5-1.1,1.1v0.2c0,0.6,0.5,1.1,1.1,1.1h18.8C277.1,283.1,279.2,281,279.2,278.4z"
					/>
				<path class="st10" d="M279.2,278.4v-50c0-2.6-2.1-4.7-4.7-4.7h-18.8c-0.6,0-1.1,0.5-1.1,1.1v0.2c0,0.6,0.5,1.1,1.1,1.1h0.7
					c-0.7,0-1.2,0.5-1.2,1.2v15.9c0,0.7,0.5,1.2,1.2,1.2c-0.7,0-1.2,0.5-1.2,1.2v15.9c0,0.7,0.5,1.2,1.2,1.2c-0.7,0-1.2,0.5-1.2,1.2
					v15.9c0,0.6,0.5,1.1,1.1,1.2h-0.6c-0.6,0-1.1,0.5-1.1,1.1v0.2c0,0.6,0.5,1.1,1.1,1.1h18.8C277.1,283.1,279.2,281,279.2,278.4z"
					/>
			</g>
			<g>
				<path class="st3" d="M276.2,275.4v-50c0-2.6-2.1-4.7-4.7-4.7h-18.8c-0.6,0-1.1,0.5-1.1,1.1v0.2c0,0.6,0.5,1.1,1.1,1.1h0.7
					c-0.7,0-1.2,0.5-1.2,1.2v15.9c0,0.7,0.5,1.2,1.2,1.2c-0.7,0-1.2,0.5-1.2,1.2v15.9c0,0.7,0.5,1.2,1.2,1.2c-0.7,0-1.2,0.5-1.2,1.2
					v15.9c0,0.6,0.5,1.1,1.1,1.2h-0.6c-0.6,0-1.1,0.5-1.1,1.1v0.2c0,0.6,0.5,1.1,1.1,1.1h18.8C274.1,280.1,276.2,278,276.2,275.4z"
					/>
				<path class="st14" d="M276.2,275.4v-50c0-2.6-2.1-4.7-4.7-4.7h-18.8c-0.6,0-1.1,0.5-1.1,1.1v0.2c0,0.6,0.5,1.1,1.1,1.1h0.7
					c-0.7,0-1.2,0.5-1.2,1.2v15.9c0,0.7,0.5,1.2,1.2,1.2c-0.7,0-1.2,0.5-1.2,1.2v15.9c0,0.7,0.5,1.2,1.2,1.2c-0.7,0-1.2,0.5-1.2,1.2
					v15.9c0,0.6,0.5,1.1,1.1,1.2h-0.6c-0.6,0-1.1,0.5-1.1,1.1v0.2c0,0.6,0.5,1.1,1.1,1.1h18.8C274.1,280.1,276.2,278,276.2,275.4z"
					/>
			</g>
		</g>
		<g>
			<path class="st17" d="M276.2,275.4v-50c0-2.6-2.1-4.7-4.7-4.7h-18.8c-0.6,0-1.1,0.5-1.1,1.1v0.2c0,0.6,0.5,1.1,1.1,1.1h16.1v54.8
				h-16.1c-0.6,0-1.1,0.5-1.1,1.1v0.2c0,0.6,0.5,1.1,1.1,1.1h18.8C274.1,280.1,276.2,278,276.2,275.4z"/>
			<g>
				<path class="st15" d="M252.2,224.2v15.9c0,0.7,0.5,1.2,1.2,1.2h16.4c0.7,0,1.2-0.5,1.2-1.2v-15.9c0-0.7-0.5-1.2-1.2-1.2h-16.4
					C252.7,223,252.2,223.6,252.2,224.2z"/>
				<g>
					<path class="st15" d="M267,224.6c0.5,5,0.5,10.1,0,15.1c-0.1,1.1,0.7,2.1,1.8,2.3c0.8,0.1,1.7,0.2,2.5,0.3
						c1.1,0.1,2.2-0.7,2.3-2c0.5-5.5,0.5-11,0-16.4c-0.1-1.2-1.2-2.1-2.3-2c-0.8,0.1-1.7,0.2-2.5,0.3
						C267.6,222.5,266.8,223.5,267,224.6z"/>
					<path class="st18" d="M268.7,224.2c0.5,0.1,0.5,15.9,0,16"/>
				</g>
			</g>
			<g>
				<path class="st15" d="M252.2,260.8v15.9c0,0.7,0.5,1.2,1.2,1.2h16.4c0.7,0,1.2-0.5,1.2-1.2v-15.9c0-0.7-0.5-1.2-1.2-1.2h-16.4
					C252.7,259.6,252.2,260.1,252.2,260.8z"/>
				<g>
					<path class="st15" d="M267,261.1c0.5,5,0.5,10.1,0,15.1c-0.1,1.1,0.7,2.1,1.8,2.3c0.8,0.1,1.7,0.2,2.5,0.3
						c1.1,0.1,2.2-0.7,2.3-2c0.5-5.5,0.5-11,0-16.4c-0.1-1.2-1.2-2.1-2.3-2c-0.8,0.1-1.7,0.2-2.5,0.3C267.6,259,266.8,260,267,261.1
						z"/>
					<path class="st18" d="M268.7,260.7c0.5,0.1,0.5,15.9,0,16"/>
				</g>
			</g>
			<g>
				<path class="st15" d="M252.2,242.5v15.9c0,0.7,0.5,1.2,1.2,1.2h16.4c0.7,0,1.2-0.5,1.2-1.2v-15.9c0-0.7-0.5-1.2-1.2-1.2h-16.4
					C252.7,241.3,252.2,241.8,252.2,242.5z"/>
				<g>
					<path class="st15" d="M267,242.9c0.5,5,0.5,10.1,0,15.1c-0.1,1.1,0.7,2.1,1.8,2.3c0.8,0.1,1.7,0.2,2.5,0.3
						c1.1,0.1,2.2-0.7,2.3-2c0.5-5.5,0.5-11,0-16.4c-0.1-1.2-1.2-2.1-2.3-2c-0.8,0.1-1.7,0.2-2.5,0.3
						C267.6,240.7,266.8,241.7,267,242.9z"/>
					<path class="st18" d="M268.7,242.4c0.5,0.1,0.5,15.9,0,16"/>
				</g>
			</g>
			<path class="st15" d="M271.3,223.8c-0.4,0.7-3.3,3.4-3.6,3.5c0,1.4-0.7,3.8-1.2,4.2c-0.4-0.2-0.3-0.3-0.8-0.7
				c-0.7-0.2-4.3-1.1-6.2-2.7c0.9-1,1.5-6.1,3-7.5c0.4-0.8,0.5-1.5,1.2-2.1c0.5,0.2,2.1,2.2,2.3,3
				C266.9,222,270.6,222.7,271.3,223.8z"/>
			<path class="st15" d="M272,274.4c-0.5,0.7-6.5,5-6.9,5.3c-1.4-0.3-3.4-3.1-3.8-3.9c-0.9-0.3-2-0.9-2.4-1.4
				c0.4-0.4,1.2-1.1,1.7-1.4c0.3-0.4,2.6-3.3,4.5-3.9c0.5-0.4,0.9-0.9,1.2-0.9c0.5,0.6,0.8,1.4,0.8,1.9
				C267.4,270.6,271.9,273.7,272,274.4z"/>
		</g>
	</g>
	<g>
		<g>
			<g>
				<g class="st13">
					<path class="st12" d="M234.4,235.3c2,10.8,2,21.5,0,32.3c-0.1,0.4-0.5,0.8-0.9,0.8h-12.7c-0.4,0-0.8-0.3-0.9-0.8
						c-2-10.8-2-21.5,0-32.3c0.1-0.4,0.5-0.8,0.9-0.8h12.7C234,234.5,234.4,234.8,234.4,235.3z"/>
					<path class="st10" d="M234.4,235.3c2,10.8,2,21.5,0,32.3c-0.1,0.4-0.5,0.8-0.9,0.8h-12.7c-0.4,0-0.8-0.3-0.9-0.8
						c-2-10.8-2-21.5,0-32.3c0.1-0.4,0.5-0.8,0.9-0.8h12.7C234,234.5,234.4,234.8,234.4,235.3z"/>
				</g>
				<g>
					<path class="st3" d="M231.4,232.3c2,10.8,2,21.5,0,32.3c-0.1,0.4-0.5,0.8-0.9,0.8h-12.7c-0.4,0-0.8-0.3-0.9-0.8
						c-2-10.8-2-21.5,0-32.3c0.1-0.4,0.5-0.8,0.9-0.8h12.7C231,231.5,231.4,231.8,231.4,232.3z"/>
					<path class="st14" d="M231.4,232.3c2,10.8,2,21.5,0,32.3c-0.1,0.4-0.5,0.8-0.9,0.8h-12.7c-0.4,0-0.8-0.3-0.9-0.8
						c-2-10.8-2-21.5,0-32.3c0.1-0.4,0.5-0.8,0.9-0.8h12.7C231,231.5,231.4,231.8,231.4,232.3z"/>
				</g>
			</g>
			<path class="st15" d="M224.4,246.6l1.6,1.2c0.4,0.3,0.5,1,0.2,1.4l-2.4,3.1c-0.3,0.4-1,0.5-1.4,0.2l-1.6-1.2
				c-0.4-0.3-0.5-1-0.2-1.4l2.4-3.1C223.4,246.4,224,246.3,224.4,246.6z"/>
			<path class="st15" d="M226.4,244.8l0.9,1.8c0.3,0.5,0.1,1.1-0.4,1.3l-3.5,1.8c-0.5,0.3-1.1,0.1-1.3-0.4l-0.9-1.8
				c-0.3-0.5-0.1-1.1,0.4-1.3l3.5-1.8C225.6,244.2,226.2,244.4,226.4,244.8z"/>
			<circle class="st15" cx="227.3" cy="238.3" r="3.9"/>
			<path class="st18" d="M224.9,239.3c-3.1-2.1,0.3-5.7,3.2-4C227.2,234.7,223.7,238,224.9,239.3z"/>
			<circle class="st15" cx="224.6" cy="242.3" r="0.5"/>
			<circle class="st15" cx="225.8" cy="242.4" r="0.5"/>
			<circle class="st15" cx="225.9" cy="241.5" r="0.5"/>
			<circle class="st15" cx="224.9" cy="241.5" r="0.5"/>
			<circle class="st15" cx="223.7" cy="241.6" r="0.5"/>
			<circle class="st15" cx="223.4" cy="240.8" r="0.5"/>
			<circle class="st15" cx="223.6" cy="239.7" r="0.5"/>
			<circle class="st15" cx="224.3" cy="240.8" r="0.5"/>
			<circle class="st15" cx="225.3" cy="240.6" r="0.5"/>
			<circle class="st15" cx="224.5" cy="239.8" r="0.5"/>
			<circle class="st15" cx="228.3" cy="240.1" r="1.4"/>
			<circle class="st15" cx="226.1" cy="239.5" r="1"/>
			
				<ellipse transform="matrix(0.9642 -0.2653 0.2653 0.9642 -55.0691 68.9435)" class="st15" cx="227.7" cy="238.3" rx="1.3" ry="0.8"/>
			<path class="st18" d="M224.9,239.5c-1.9-3.2,2.9-4.9,4.6-2.1C229.1,236.4,224.4,237.7,224.9,239.5z"/>
		</g>
		<g>
			<g>
				<path class="st18" d="M225.2,258.9c0,0-2.5,1.1-4,0.1C221.2,259,222.1,257.8,225.2,258.9z"/>
				<path class="st18" d="M225.2,258.9c0,0-2.6-0.1-3.7-1.6C221.5,257.3,222.9,256.6,225.2,258.9z"/>
				<path class="st18" d="M222,261.6c0,0,2.6,0,3.2-2.7C225.2,258.9,222.1,259.6,222,261.6z"/>
				<path class="st18" d="M229.3,261.9c0,0-3.3-0.6-4.1-3C225.2,258.9,227.9,258.6,229.3,261.9z"/>
				<path class="st18" d="M224.6,263.3c0,0-0.6-1.8,0.6-4.4C225.2,258.9,226.2,261.3,224.6,263.3z"/>
				<path class="st18" d="M230.3,259c0,0-3.3,1.3-5.2-0.1C225.2,259,225.5,257.9,230.3,259z"/>
				<path class="st18" d="M222.5,255.5c0,0,1.1,2.8,2.8,3.3C225.2,258.9,224.5,257,222.5,255.5z"/>
				<path class="st18" d="M229.5,256.4c0,0-1.7,2.3-4.3,2.5C225.2,258.9,226.6,256.7,229.5,256.4z"/>
				<path class="st18" d="M224.3,254.4c0,0-0.5,2.8,0.9,4.5C225.2,259,226.1,257.2,224.3,254.4z"/>
				<path class="st18" d="M226.9,263.3c0,0-1.8-1.3-1.7-4.4C225.2,259,227.2,260.7,226.9,263.3z"/>
				<path class="st18" d="M228.2,255.1c0,0-1,3.4-3.1,4C225.1,259,225.3,256.6,228.2,255.1z"/>
				<path class="st18" d="M226.4,254.3c0,0,0.5,2.9-1.2,4.7C225.2,259,224.3,257,226.4,254.3z"/>
				<path class="st18" d="M225.1,259.2c0,0,0.1,1.6-1.9,3.6C223.3,262.8,223.4,261,225.1,259.2z"/>
				<path class="st18" d="M227.9,262.7c0,0-2.2-1.5-2.7-3.5C225.2,259.1,227,259.4,227.9,262.7z"/>
			</g>
			<g>
				<path class="st18" d="M225.4,258.9c0,0-1.6,0-2.2-0.9C223.2,257.9,224.1,257.5,225.4,258.9z"/>
				<path class="st18" d="M223.5,260.5c0,0,1.6,0,1.9-1.6C225.4,258.9,223.6,259.3,223.5,260.5z"/>
				<path class="st18" d="M227.9,260.6c0,0-1.9-0.4-2.4-1.8C225.4,258.9,227,258.7,227.9,260.6z"/>
				<path class="st18" d="M225.1,261.5c0,0-0.3-1.1,0.4-2.6C225.4,258.9,226,260.3,225.1,261.5z"/>
				<path class="st18" d="M228,257.4c0,0-1,1.4-2.5,1.5C225.4,258.9,226.2,257.6,228,257.4z"/>
				<path class="st18" d="M224.9,256.2c0,0-0.3,1.7,0.5,2.7C225.4,258.9,226,257.8,224.9,256.2z"/>
				<path class="st18" d="M226.4,261.5c0,0-1.1-0.8-1-2.6C225.4,258.9,226.6,260,226.4,261.5z"/>
				<path class="st18" d="M226.1,256.1c0,0,0.3,1.7-0.7,2.8C225.4,258.9,224.9,257.7,226.1,256.1z"/>
			</g>
		</g>
	</g>
	<g>
		<g>
			<g class="st13">
				<path class="st12" d="M202.3,235.9l-2.4,42.4c0,0.5-0.4,0.8-0.9,0.8l-10.7-0.6c-0.5,0-0.8-0.4-0.8-0.9l2.4-42.4
					c0-0.5,0.4-0.8,0.9-0.8l10.7,0.6C202,235,202.4,235.4,202.3,235.9z"/>
				<path class="st10" d="M202.3,235.9l-2.4,42.4c0,0.5-0.4,0.8-0.9,0.8l-10.7-0.6c-0.5,0-0.8-0.4-0.8-0.9l2.4-42.4
					c0-0.5,0.4-0.8,0.9-0.8l10.7,0.6C202,235,202.4,235.4,202.3,235.9z"/>
			</g>
			<g>
				<path class="st3" d="M199.3,232.9l-2.4,42.4c0,0.5-0.4,0.8-0.9,0.8l-10.7-0.6c-0.5,0-0.8-0.4-0.8-0.9l2.4-42.4
					c0-0.5,0.4-0.8,0.9-0.8l10.7,0.6C199,232,199.4,232.4,199.3,232.9z"/>
				<path class="st14" d="M199.3,232.9l-2.4,42.4c0,0.5-0.4,0.8-0.9,0.8l-10.7-0.6c-0.5,0-0.8-0.4-0.8-0.9l2.4-42.4
					c0-0.5,0.4-0.8,0.9-0.8l10.7,0.6C199,232,199.4,232.4,199.3,232.9z"/>
			</g>
		</g>
		<path class="st15" d="M191.6,259.4l-3.8-0.2c-0.6,0-1-0.5-0.9-1.1l0.5-9.5c0-0.6,0.5-1,1.1-0.9l3.8,0.2c0.6,0,1,0.5,0.9,1.1
			l-0.5,9.5C192.6,259,192.1,259.5,191.6,259.4z"/>
		<path class="st19" d="M187.3,258.1l0.5-9.3c0-0.3,0.3-0.6,0.6-0.6l3.7,0.2c0.3,0,0.6,0.3,0.6,0.6l-0.5,9.3c0,0.3-0.3,0.6-0.6,0.6
			l-3.7-0.2C187.5,258.7,187.3,258.4,187.3,258.1z"/>
		
			<rect x="190" y="235.9" transform="matrix(0.9984 5.713896e-02 -5.713896e-02 0.9984 14.8026 -10.4765)" class="st15" width="1.2" height="35.4"/>
	</g>
	<g>
		<path class="st11" d="M443.8,217.6v-17.9c0-0.5-0.4-0.9-0.9-0.9h-46.4c-0.5,0-0.9,0.4-0.9,0.9v17.9c0,0.5,0.4,0.9,0.9,0.9h46.4
			C443.4,218.6,443.8,218.1,443.8,217.6z"/>
		<path class="st11" d="M397.5,208.6c0-5.9,3.7-8,5.5-8h36.1c1.8,0,3.3,1.4,3.3,3.2v9.6c0,1.8-1.5,3.2-3.3,3.2H403
			C401.2,216.7,397.5,214.6,397.5,208.6z"/>
		<path class="st11" d="M404.9,208.6c0-5,3-6.8,4.5-6.8h29.1c1.5,0,2.6,1.2,2.6,2.7v8.1c0,1.5-1.2,2.7-2.6,2.7h-29.1
			C407.9,215.5,404.9,213.7,404.9,208.6z"/>
		<ellipse class="st11" cx="435.8" cy="208.7" rx="0.9" ry="0.8"/>
	</g>
	<g>
		<path class="st11" d="M440.1,439.5h-22.2c-0.4,0-0.7-0.3-0.7-0.7v-27.2c0-0.4,0.3-0.7,0.7-0.7h22.2c0.4,0,0.7,0.3,0.7,0.7v27.2
			C440.7,439.2,440.4,439.5,440.1,439.5z"/>
		<path class="st11" d="M437.4,438h-16.6c-1.1,0-2-0.9-2-2v-21.5c0-1.1,0.9-2,2-2h16.6c1.1,0,2,0.9,2,2V436
			C439.4,437.1,438.5,438,437.4,438z"/>
		<path class="st11" d="M436.1,436.7H422c-1.1,0-2-0.9-2-2v-19c0-1.1,0.9-2,2-2h14.1c1.1,0,2,0.9,2,2v19
			C438.1,435.8,437.2,436.7,436.1,436.7z"/>
		<circle class="st11" cx="434.2" cy="417.3" r="1.4"/>
	</g>
	<g>
		<g>
			<g class="st7">
				<path class="st8" d="M434.9,453.6h9.7v15.7h-9.7c-1.8,0-3.3-1.5-3.3-3.3v-9.2C431.6,455.1,433.1,453.6,434.9,453.6z"/>
				<path class="st9" d="M434.9,453.6h9.7v15.7h-9.7c-1.8,0-3.3-1.5-3.3-3.3v-9.2C431.6,455.1,433.1,453.6,434.9,453.6z"/>
			</g>
			<g>
				<path class="st1" d="M431.9,450.6h9.7v15.7h-9.7c-1.8,0-3.3-1.5-3.3-3.3v-9.2C428.6,452.1,430.1,450.6,431.9,450.6z"/>
				<path class="st10" d="M431.9,450.6h9.7v15.7h-9.7c-1.8,0-3.3-1.5-3.3-3.3v-9.2C428.6,452.1,430.1,450.6,431.9,450.6z"/>
			</g>
		</g>
		<path class="st11" d="M432.5,452.1h3.3c1.4,0,2.6,1.1,2.6,2.6v7.8c0,1.4-1.1,2.6-2.6,2.6h-3.3c-1.4,0-2.6-1.1-2.6-2.6v-7.8
			C429.9,453.3,431.1,452.1,432.5,452.1z"/>
		<circle class="st11" cx="436.7" cy="458.6" r="0.7"/>
	</g>
	<g>
		<g>
			<g class="st7">
				<path class="st8" d="M370.8,247v9.7h-15.7V247c0-1.8,1.5-3.3,3.3-3.3h9.2C369.4,243.7,370.8,245.2,370.8,247z"/>
				<path class="st9" d="M370.8,247v9.7h-15.7V247c0-1.8,1.5-3.3,3.3-3.3h9.2C369.4,243.7,370.8,245.2,370.8,247z"/>
			</g>
			<g>
				<path class="st1" d="M367.8,244v9.7h-15.7V244c0-1.8,1.5-3.3,3.3-3.3h9.2C366.4,240.7,367.8,242.2,367.8,244z"/>
				<path class="st10" d="M367.8,244v9.7h-15.7V244c0-1.8,1.5-3.3,3.3-3.3h9.2C366.4,240.7,367.8,242.2,367.8,244z"/>
			</g>
		</g>
		<path class="st11" d="M366.4,244.6v3.3c0,1.4-1.1,2.6-2.6,2.6H356c-1.4,0-2.6-1.1-2.6-2.6v-3.3c0-1.4,1.1-2.6,2.6-2.6h7.8
			C365.2,242,366.4,243.2,366.4,244.6z"/>
		<circle class="st11" cx="359.9" cy="248.8" r="0.7"/>
	</g>
	<g>
		<g>
			<g class="st7">
				<path class="st8" d="M438.8,166.1c0.8,0,5.4,0,6.2,0.1c0.6,0.1,1.3,0.1,1.9,0.3v8.8c-0.5,0.1-1,0.2-1.6,0.2
					c-0.9,0.1-6.2,0.1-7.1,0.1c-2,0-6.2-1.6-6.2-4.7C431.9,167.6,436.5,166.1,438.8,166.1z"/>
				<path class="st9" d="M438.8,166.1c0.8,0,5.4,0,6.2,0.1c0.6,0.1,1.3,0.1,1.9,0.3v8.8c-0.5,0.1-1,0.2-1.6,0.2
					c-0.9,0.1-6.2,0.1-7.1,0.1c-2,0-6.2-1.6-6.2-4.7C431.9,167.6,436.5,166.1,438.8,166.1z"/>
			</g>
			<g>
				<path class="st1" d="M435.8,163.1c0.8,0,5.4,0,6.2,0.1c0.6,0.1,1.3,0.1,1.9,0.3v8.8c-0.5,0.1-1,0.2-1.6,0.2
					c-0.9,0.1-6.2,0.1-7.1,0.1c-2,0-6.2-1.6-6.2-4.7C428.9,164.6,433.5,163.1,435.8,163.1z"/>
				<path class="st10" d="M435.8,163.1c0.8,0,5.4,0,6.2,0.1c0.6,0.1,1.3,0.1,1.9,0.3v8.8c-0.5,0.1-1,0.2-1.6,0.2
					c-0.9,0.1-6.2,0.1-7.1,0.1c-2,0-6.2-1.6-6.2-4.7C428.9,164.6,433.5,163.1,435.8,163.1z"/>
			</g>
		</g>
		<g>
			<circle class="st11" cx="441.7" cy="165.7" r="0.3"/>
			<circle class="st11" cx="441.7" cy="170" r="0.3"/>
		</g>
		<path class="st11" d="M430.2,167.8c0,2,3.1,3.7,5.1,3.7s3.7-1.6,3.7-3.7s-1.6-3.7-3.7-3.7S430.2,165.8,430.2,167.8z"/>
		<path class="st11" d="M436.1,166.6h1.4c0.4,0,0.4,0.6,0.4,1.2c0,0.7-0.1,1.2-0.4,1.2h-1.4c-0.7,0-1.2-0.6-1.2-1.2
			C434.9,167.2,435.4,166.6,436.1,166.6z"/>
		<path class="st10" d="M441.8,163.2c0.7,1.2,1.2,2.9,1.2,4.9c0,1.7-0.3,3.2-0.9,4.4"/>
	</g>
	<g>
		<g>
			<g class="st7">
				<path class="st8" d="M437.1,195.9h9.7v-15.7h-9.7c-1.8,0-3.3,1.5-3.3,3.3v9.2C433.9,194.5,435.3,195.9,437.1,195.9z"/>
				<path class="st9" d="M437.1,195.9h9.7v-15.7h-9.7c-1.8,0-3.3,1.5-3.3,3.3v9.2C433.9,194.5,435.3,195.9,437.1,195.9z"/>
			</g>
			<g>
				<path class="st1" d="M434.1,192.9h9.7v-15.7h-9.7c-1.8,0-3.3,1.5-3.3,3.3v9.2C430.9,191.5,432.3,192.9,434.1,192.9z"/>
				<path class="st10" d="M434.1,192.9h9.7v-15.7h-9.7c-1.8,0-3.3,1.5-3.3,3.3v9.2C430.9,191.5,432.3,192.9,434.1,192.9z"/>
			</g>
		</g>
		<path class="st11" d="M434.7,191.5h3.3c1.4,0,2.6-1.1,2.6-2.6v-7.8c0-1.4-1.1-2.6-2.6-2.6h-3.3c-1.4,0-2.6,1.1-2.6,2.6v7.8
			C432.2,190.3,433.3,191.5,434.7,191.5z"/>
		<circle class="st11" cx="438.9" cy="185" r="0.7"/>
	</g>
	<g>
		<polyline class="st20" points="181.3,424.5 182.3,424.5 182.3,425.4 		"/>
		<polyline class="st20" points="186.2,419.6 186.2,420.4 187.1,420.4 		"/>
		<line class="st20" x1="186.8" y1="419.8" x2="181.7" y2="425.1"/>
		<polyline class="st20" points="186.2,425.4 186.2,424.5 187.1,424.5 		"/>
		<polyline class="st20" points="181.3,420.4 182.3,420.4 182.3,419.6 		"/>
		<line class="st20" x1="181.7" y1="419.8" x2="186.8" y2="425.1"/>
		<polyline class="st20" points="183.6,426 184.2,425.4 184.8,426 		"/>
		<polyline class="st20" points="183.6,419 184.2,419.6 184.8,419 		"/>
		<polyline class="st20" points="187.7,423.1 187.1,422.5 187.7,421.9 		"/>
		<polyline class="st20" points="180.8,423.1 181.4,422.5 180.8,421.9 		"/>
		<line class="st20" x1="184.2" y1="418.8" x2="184.2" y2="426.2"/>
		<line class="st20" x1="180.6" y1="422.5" x2="187.9" y2="422.5"/>
		<polyline class="st10" points="181.3,424.5 182.3,424.5 182.3,425.4 		"/>
		<polyline class="st10" points="186.2,419.6 186.2,420.4 187.1,420.4 		"/>
		<line class="st10" x1="186.8" y1="419.8" x2="181.7" y2="425.1"/>
		<polyline class="st10" points="186.2,425.4 186.2,424.5 187.1,424.5 		"/>
		<polyline class="st10" points="181.3,420.4 182.3,420.4 182.3,419.6 		"/>
		<line class="st10" x1="181.7" y1="419.8" x2="186.8" y2="425.1"/>
		<polyline class="st10" points="183.6,426 184.2,425.4 184.8,426 		"/>
		<polyline class="st10" points="183.6,419 184.2,419.6 184.8,419 		"/>
		<polyline class="st10" points="187.7,423.1 187.1,422.5 187.7,421.9 		"/>
		<polyline class="st10" points="180.8,423.1 181.4,422.5 180.8,421.9 		"/>
		<line class="st10" x1="184.2" y1="418.8" x2="184.2" y2="426.2"/>
		<line class="st10" x1="180.6" y1="422.5" x2="187.9" y2="422.5"/>
	</g>
	<g>
		
			<rect x="204.8" y="408.2" transform="matrix(1.345520e-10 -1 1 1.345520e-10 -210.6613 634.471)" class="st10" width="14.3" height="28.8"/>
		<g>
			<path class="st11" d="M212.2,419v7.1c0,1.3-1.1,2.4-2.4,2.4h-8.5c-1.3,0-2.4-1.1-2.4-2.4V419c0-1.3,1.1-2.4,2.4-2.4h8.5
				C211.1,416.6,212.2,417.7,212.2,419z"/>
			<circle class="st11" cx="205.3" cy="425.9" r="0.9"/>
		</g>
		<g>
			
				<rect x="218.9" y="421.8" transform="matrix(1.361845e-10 -1 1 1.361845e-10 -207.405 645.733)" class="st12" width="0.5" height="9.4"/>
			
				<rect x="218.9" y="419.8" transform="matrix(1.379306e-10 -1 1 1.379306e-10 -205.406 643.7339)" class="st12" width="0.5" height="9.4"/>
			
				<rect x="218.9" y="417.8" transform="matrix(1.361845e-10 -1 1 1.361845e-10 -203.4069 641.7349)" class="st12" width="0.5" height="9.4"/>
			
				<rect x="218.9" y="415.8" transform="matrix(1.361845e-10 -1 1 1.361845e-10 -201.4079 639.7359)" class="st12" width="0.5" height="9.4"/>
			
				<rect x="218.9" y="413.8" transform="matrix(1.361845e-10 -1 1 1.361845e-10 -199.4089 637.7369)" class="st12" width="0.5" height="9.4"/>
		</g>
	</g>
	<g>
		
			<rect x="245.2" y="415.6" transform="matrix(1.347154e-10 -1 1 1.347154e-10 -170.4243 674.7079)" class="st10" width="13.9" height="13.9"/>
		<path class="st11" d="M255,422.2c1.4,0,2.5-1.1,2.5-2.5c0-1.4-1.1-2.5-2.5-2.5c-1.4,0-2.5,1.1-2.5,2.5
			C252.5,421.1,253.6,422.2,255,422.2"/>
		<path class="st11" d="M249.1,427.9c1.4,0,2.5-1.1,2.5-2.5c0-1.4-1.1-2.5-2.5-2.5c-1.4,0-2.5,1.1-2.5,2.5
			C246.6,426.7,247.7,427.9,249.1,427.9"/>
		<path class="st11" d="M248.7,421.5c1.1,0,2.1-0.9,2.1-2.1c0-1.1-0.9-2.1-2.1-2.1s-2.1,0.9-2.1,2.1
			C246.6,420.6,247.5,421.5,248.7,421.5"/>
		<path class="st11" d="M255.4,427.9c1.1,0,2.1-0.9,2.1-2.1c0-1.1-0.9-2.1-2.1-2.1c-1.1,0-2.1,0.9-2.1,2.1
			C253.3,426.9,254.2,427.9,255.4,427.9"/>
	</g>
	<g>
		<g>
			<g>
				<g class="st13">
					<path class="st12" d="M362.8,74v-6.6c0-0.6-0.4-1-1-1H356c-0.6,0-1,0.4-1,1V74c0,0.6,0.4,1,1,1h5.8
						C362.3,75,362.8,74.6,362.8,74z"/>
					<path class="st10" d="M362.8,74v-6.6c0-0.6-0.4-1-1-1H356c-0.6,0-1,0.4-1,1V74c0,0.6,0.4,1,1,1h5.8
						C362.3,75,362.8,74.6,362.8,74z"/>
				</g>
				<g>
					<path class="st3" d="M359.8,71v-6.6c0-0.6-0.4-1-1-1H353c-0.6,0-1,0.4-1,1V71c0,0.6,0.4,1,1,1h5.8
						C359.3,72,359.8,71.6,359.8,71z"/>
					<path class="st14" d="M359.8,71v-6.6c0-0.6-0.4-1-1-1H353c-0.6,0-1,0.4-1,1V71c0,0.6,0.4,1,1,1h5.8
						C359.3,72,359.8,71.6,359.8,71z"/>
				</g>
			</g>
			<path class="st15" d="M354.1,67.1l0.9,2.5c0.2,0.5,0.8,0.8,1.3,0.6l0.7-0.3c0.5-0.2,0.8-0.8,0.6-1.3l-0.9-2.5
				c-0.2-0.5-0.8-0.8-1.3-0.6l-0.7,0.3C354.2,66,353.9,66.6,354.1,67.1z"/>
			<circle class="st15" cx="355.9" cy="67.8" r="0.4"/>
		</g>
		<g>
			<g class="st13">
				<path class="st12" d="M312.3,64.4h49.5c0.6,0,1-0.4,1-1V42.2c0-0.6-0.4-1-1-1h-49.5c-0.6,0-1,0.4-1,1v21.3
					C311.3,64,311.8,64.4,312.3,64.4z"/>
				<path class="st10" d="M312.3,64.4h49.5c0.6,0,1-0.4,1-1V42.2c0-0.6-0.4-1-1-1h-49.5c-0.6,0-1,0.4-1,1v21.3
					C311.3,64,311.8,64.4,312.3,64.4z"/>
			</g>
			<g>
				<path class="st3" d="M309.3,61.4h49.5c0.6,0,1-0.4,1-1V39.2c0-0.6-0.4-1-1-1h-49.5c-0.6,0-1,0.4-1,1v21.3
					C308.3,61,308.8,61.4,309.3,61.4z"/>
				<path class="st14" d="M309.3,61.4h49.5c0.6,0,1-0.4,1-1V39.2c0-0.6-0.4-1-1-1h-49.5c-0.6,0-1,0.4-1,1v21.3
					C308.3,61,308.8,61.4,309.3,61.4z"/>
			</g>
		</g>
		<path class="st15" d="M312.1,58.7h44c0.6,0,1-0.4,1-1V41.9c0-0.6-0.4-1-1-1h-44c-0.6,0-1,0.4-1,1v15.8
			C311.1,58.2,311.5,58.7,312.1,58.7z"/>
		<path class="st15" d="M354.7,56.3c0.2-0.4-0.1-0.7,0-1.4c1.2-5.7-0.3-11.9-0.5-12c-0.2-0.1-0.2,0.1-1.5,0.4
			c-1.4,0.1-4.5-0.3-5.6,0c-0.3,0.1-0.5,0.1-0.6,0.3c-0.8,1.1-0.5,12.3-0.4,12.4c0.1,0.2,0.5,0.5,1,0.6
			C348.3,56.8,354.5,56.7,354.7,56.3z"/>
		<g>
			<g>
				<path class="st15" d="M338.3,42.7c0,0-0.7,5.3-0.7,7.1c0,1.9,0.7,7.1,0.7,7.1c0,1.3-2.2,2.4-0.9,2.4h7.5c1.3,0,2.4-1.1,2.4-2.4
					c0,0-0.7-4.9-0.7-7s0.7-7.2,0.7-7.2c0-1.3-1.1-2.4-2.4-2.4h-7.5C336.1,40.3,338.3,41.4,338.3,42.7z"/>
			</g>
			<path class="st16" d="M344.1,56.4c-1,0.2-3.7-1-4.2-3"/>
			<path class="st16" d="M344.4,50.5c-1.4-1.5-3.3-4.9-3.1-7.1"/>
		</g>
	</g>
	<g>
		<g>
			<g>
				<g class="st13">
					<path class="st12" d="M229.1,437.7h6.6c0.6,0,1,0.4,1,1v5.8c0,0.6-0.4,1-1,1h-6.6c-0.6,0-1-0.4-1-1v-5.8
						C228.1,438.2,228.5,437.7,229.1,437.7z"/>
					<path class="st10" d="M229.1,437.7h6.6c0.6,0,1,0.4,1,1v5.8c0,0.6-0.4,1-1,1h-6.6c-0.6,0-1-0.4-1-1v-5.8
						C228.1,438.2,228.5,437.7,229.1,437.7z"/>
				</g>
				<g>
					<path class="st3" d="M226.1,434.7h6.6c0.6,0,1,0.4,1,1v5.8c0,0.6-0.4,1-1,1h-6.6c-0.6,0-1-0.4-1-1v-5.8
						C225.1,435.2,225.5,434.7,226.1,434.7z"/>
					<path class="st14" d="M226.1,434.7h6.6c0.6,0,1,0.4,1,1v5.8c0,0.6-0.4,1-1,1h-6.6c-0.6,0-1-0.4-1-1v-5.8
						C225.1,435.2,225.5,434.7,226.1,434.7z"/>
				</g>
			</g>
			<path class="st15" d="M230,440.4l-2.5-0.9c-0.5-0.2-0.8-0.8-0.6-1.3l0.3-0.7c0.2-0.5,0.8-0.8,1.3-0.6l2.5,0.9
				c0.5,0.2,0.8,0.8,0.6,1.3l-0.3,0.7C231.1,440.3,230.5,440.6,230,440.4z"/>
			<circle class="st15" cx="229.3" cy="438.6" r="0.4"/>
		</g>
		<g>
			<g class="st13">
				<path class="st12" d="M238.7,488.2v-49.5c0-0.6,0.4-1,1-1h21.3c0.6,0,1,0.4,1,1v49.5c0,0.6-0.4,1-1,1h-21.3
					C239.1,489.2,238.7,488.7,238.7,488.2z"/>
				<path class="st10" d="M238.7,488.2v-49.5c0-0.6,0.4-1,1-1h21.3c0.6,0,1,0.4,1,1v49.5c0,0.6-0.4,1-1,1h-21.3
					C239.1,489.2,238.7,488.7,238.7,488.2z"/>
			</g>
			<g>
				<path class="st3" d="M235.7,485.2v-49.5c0-0.6,0.4-1,1-1h21.3c0.6,0,1,0.4,1,1v49.5c0,0.6-0.4,1-1,1h-21.3
					C236.1,486.2,235.7,485.7,235.7,485.2z"/>
				<path class="st14" d="M235.7,485.2v-49.5c0-0.6,0.4-1,1-1h21.3c0.6,0,1,0.4,1,1v49.5c0,0.6-0.4,1-1,1h-21.3
					C236.1,486.2,235.7,485.7,235.7,485.2z"/>
			</g>
		</g>
		<path class="st15" d="M238.4,482.4v-44c0-0.6,0.4-1,1-1h15.8c0.6,0,1,0.4,1,1v44c0,0.6-0.4,1-1,1h-15.8
			C238.9,483.4,238.4,483,238.4,482.4z"/>
		<path class="st15" d="M240.8,439.8c0.4-0.2,0.7,0.1,1.4,0c5.7-1.2,11.9,0.3,12,0.5c0.1,0.2-0.1,0.2-0.4,1.5
			c-0.1,1.4,0.3,4.5,0,5.6c-0.1,0.3-0.1,0.5-0.3,0.6c-1.1,0.8-12.3,0.5-12.4,0.4s-0.5-0.5-0.6-1C240.3,446.2,240.4,440,240.8,439.8z
			"/>
		<g>
			<g>
				<path class="st15" d="M254.4,456.2c0,0-5.3,0.7-7.1,0.7c-1.9,0-7.1-0.7-7.1-0.7c-1.3,0-2.4,2.2-2.4,0.9v-7.5
					c0-1.3,1.1-2.4,2.4-2.4c0,0,4.9,0.7,7,0.7c2.1,0,7.2-0.7,7.2-0.7c1.3,0,2.4,1.1,2.4,2.4v7.5
					C256.8,458.4,255.7,456.2,254.4,456.2z"/>
			</g>
			<path class="st16" d="M240.7,450.5c-0.2,1,1,3.7,3,4.2"/>
			<path class="st16" d="M246.6,450.1c1.5,1.4,4.9,3.3,7.1,3.1"/>
		</g>
	</g>
	<g>
		<g>
			<g class="st13">
				<path class="st12" d="M361.3,122.5h-17.2c-0.4,0-0.8-0.3-0.8-0.8V84.6c0-0.4,0.3-0.8,0.8-0.8h17.2c0.4,0,0.8,0.3,0.8,0.8v37.2
					C362.1,122.2,361.7,122.5,361.3,122.5z"/>
				<path class="st10" d="M361.3,122.5h-17.2c-0.4,0-0.8-0.3-0.8-0.8V84.6c0-0.4,0.3-0.8,0.8-0.8h17.2c0.4,0,0.8,0.3,0.8,0.8v37.2
					C362.1,122.2,361.7,122.5,361.3,122.5z"/>
			</g>
			<g>
				<path class="st3" d="M358.3,119.5h-17.2c-0.4,0-0.8-0.3-0.8-0.8V81.6c0-0.4,0.3-0.8,0.8-0.8h17.2c0.4,0,0.8,0.3,0.8,0.8v37.2
					C359.1,119.2,358.7,119.5,358.3,119.5z"/>
				<path class="st14" d="M358.3,119.5h-17.2c-0.4,0-0.8-0.3-0.8-0.8V81.6c0-0.4,0.3-0.8,0.8-0.8h17.2c0.4,0,0.8,0.3,0.8,0.8v37.2
					C359.1,119.2,358.7,119.5,358.3,119.5z"/>
			</g>
		</g>
		<g>
			<g>
				<path class="st15" d="M332.6,106.8h1.5V93.5h-1.5c-0.6,0-1.1,0.5-1.1,1.1v11.1C331.5,106.3,332,106.8,332.6,106.8z"/>
				<rect x="334.1" y="93.5" class="st15" width="6.3" height="13.2"/>
				<line class="st15" x1="334.1" y1="105" x2="340.4" y2="105"/>
				<line class="st15" x1="340.4" y1="95.4" x2="334.1" y2="95.4"/>
			</g>
		</g>
	</g>
	<g>
		<g>
			<g class="st13">
				<path class="st12" d="M217.6,438.6v17.2c0,0.4-0.3,0.8-0.8,0.8h-37.2c-0.4,0-0.8-0.3-0.8-0.8v-17.2c0-0.4,0.3-0.8,0.8-0.8h37.2
					C217.3,437.8,217.6,438.1,217.6,438.6z"/>
				<path class="st10" d="M217.6,438.6v17.2c0,0.4-0.3,0.8-0.8,0.8h-37.2c-0.4,0-0.8-0.3-0.8-0.8v-17.2c0-0.4,0.3-0.8,0.8-0.8h37.2
					C217.3,437.8,217.6,438.1,217.6,438.6z"/>
			</g>
			<g>
				<path class="st3" d="M214.6,435.6v17.2c0,0.4-0.3,0.8-0.8,0.8h-37.2c-0.4,0-0.8-0.3-0.8-0.8v-17.2c0-0.4,0.3-0.8,0.8-0.8h37.2
					C214.3,434.8,214.6,435.1,214.6,435.6z"/>
				<path class="st14" d="M214.6,435.6v17.2c0,0.4-0.3,0.8-0.8,0.8h-37.2c-0.4,0-0.8-0.3-0.8-0.8v-17.2c0-0.4,0.3-0.8,0.8-0.8h37.2
					C214.3,434.8,214.6,435.1,214.6,435.6z"/>
			</g>
		</g>
		<g>
			<g>
				<path class="st15" d="M201.9,461.3v-1.5h-13.2v1.5c0,0.6,0.5,1.1,1.1,1.1h11.1C201.4,462.4,201.9,461.9,201.9,461.3z"/>
				
					<rect x="192.1" y="450" transform="matrix(1.347936e-10 -1 1 1.347936e-10 -261.3855 651.9067)" class="st15" width="6.3" height="13.2"/>
				<line class="st15" x1="200.1" y1="459.8" x2="200.1" y2="453.5"/>
				<line class="st15" x1="190.5" y1="453.5" x2="190.5" y2="459.8"/>
			</g>
		</g>
	</g>
	<g>
		<g>
			
				<rect x="329.9" y="267.2" transform="matrix(-1.347244e-10 1 -1 -1.347244e-10 612.7863 -62.72)" class="st11" width="15.7" height="15.7"/>
		</g>
		<g>
			<circle class="st21" cx="337.2" cy="276.5" r="3.9"/>
			<path class="st21" d="M334.7,276.1c0,1.5,1.2,2.7,2.7,2.7"/>
		</g>
	</g>
	<g>
		<rect x="209.7" y="362.2" class="st1" width="47.5" height="24.1"/>
		<path class="st12" d="M257.1,362.3v23.8h-47.2v-23.8H257.1 M257.4,362h-47.8v24.4h47.8V362L257.4,362z"/>
	</g>
	<g>
		<g>
			<g class="st13">
				<path class="st12" d="M240.4,185.4h-30.9c-2.6,0-4.6,2.1-4.6,4.6v18.6c0,0.6,0.5,1,1,1h0.2c0.6,0,1-0.5,1-1v-0.7
					c0,0.7,0.5,1.2,1.2,1.2h15.2c0.7,0,1.2-0.5,1.2-1.2c0,0.7,0.5,1.2,1.2,1.2h15.7c0.6,0,1.1-0.5,1.2-1.1v0.6c0,0.6,0.5,1,1,1h0.2
					c0.6,0,1-0.5,1-1V190C245,187.4,242.9,185.4,240.4,185.4z"/>
				<path class="st10" d="M240.4,185.4h-30.9c-2.6,0-4.6,2.1-4.6,4.6v18.6c0,0.6,0.5,1,1,1h0.2c0.6,0,1-0.5,1-1v-0.7
					c0,0.7,0.5,1.2,1.2,1.2h15.2c0.7,0,1.2-0.5,1.2-1.2c0,0.7,0.5,1.2,1.2,1.2h15.7c0.6,0,1.1-0.5,1.2-1.1v0.6c0,0.6,0.5,1,1,1h0.2
					c0.6,0,1-0.5,1-1V190C245,187.4,242.9,185.4,240.4,185.4z"/>
			</g>
			<g>
				<path class="st3" d="M237.4,182.4h-30.9c-2.6,0-4.6,2.1-4.6,4.6v18.6c0,0.6,0.5,1,1,1h0.2c0.6,0,1-0.5,1-1v-0.7
					c0,0.7,0.5,1.2,1.2,1.2h15.2c0.7,0,1.2-0.5,1.2-1.2c0,0.7,0.5,1.2,1.2,1.2h15.7c0.6,0,1.1-0.5,1.2-1.1v0.6c0,0.6,0.5,1,1,1h0.2
					c0.6,0,1-0.5,1-1V187C242,184.4,239.9,182.4,237.4,182.4z"/>
				<path class="st14" d="M237.4,182.4h-30.9c-2.6,0-4.6,2.1-4.6,4.6v18.6c0,0.6,0.5,1,1,1h0.2c0.6,0,1-0.5,1-1v-0.7
					c0,0.7,0.5,1.2,1.2,1.2h15.2c0.7,0,1.2-0.5,1.2-1.2c0,0.7,0.5,1.2,1.2,1.2h15.7c0.6,0,1.1-0.5,1.2-1.1v0.6c0,0.6,0.5,1,1,1h0.2
					c0.6,0,1-0.5,1-1V187C242,184.4,239.9,182.4,237.4,182.4z"/>
			</g>
		</g>
		<g>
			<path class="st17" d="M237.4,182.4h-30.9c-2.6,0-4.6,2.1-4.6,4.6v18.6c0,0.6,0.5,1,1,1h0.2c0.6,0,1-0.5,1-1v-16h35.6v16
				c0,0.6,0.5,1,1,1h0.2c0.6,0,1-0.5,1-1V187C242,184.4,239.9,182.4,237.4,182.4z"/>
			<g>
				<g>
					<path class="st15" d="M205.7,191.5c5-0.5,10-0.5,15,0c1.1,0.1,2.1-0.7,2.3-1.8c0.1-0.8,0.2-1.6,0.3-2.5
						c0.1-1.1-0.7-2.1-1.9-2.2c-5.4-0.5-10.8-0.5-16.2,0c-1.2,0.1-2.1,1.1-1.9,2.2c0.1,0.8,0.2,1.6,0.3,2.5
						C203.6,190.8,204.6,191.6,205.7,191.5z"/>
					<path class="st18" d="M205.3,189.8c0.1-0.5,15.7-0.5,15.8,0"/>
				</g>
			</g>
			<g>
				<g>
					<path class="st15" d="M223.2,191.5c5-0.5,10-0.5,15,0c1.1,0.1,2.1-0.7,2.3-1.8c0.1-0.8,0.2-1.6,0.3-2.5
						c0.1-1.1-0.7-2.1-1.9-2.2c-5.4-0.5-10.8-0.5-16.2,0c-1.2,0.1-2.1,1.1-1.9,2.2c0.1,0.8,0.2,1.6,0.3,2.5
						C221.1,190.8,222.1,191.6,223.2,191.5z"/>
					<path class="st18" d="M222.8,189.8c0.1-0.5,15.7-0.5,15.8,0"/>
				</g>
			</g>
			<path class="st15" d="M204.9,187.2c0.7,0.4,3.3,3.3,3.5,3.5c1.4,0,3.8,0.7,4.2,1.2c-0.2,0.4-0.3,0.3-0.7,0.8
				c-0.2,0.7-1.1,4.3-2.6,6.1c-1-0.9-6.1-1.4-7.5-2.9c-0.8-0.4-1.5-0.5-2.1-1.2c0.2-0.4,2.1-2.1,2.9-2.3
				C203.1,191.6,203.8,187.9,204.9,187.2z"/>
			<path class="st15" d="M236.4,186.5c0.7,0.5,5,6.4,5.2,6.8c-0.3,1.4-3.1,3.3-3.9,3.8c-0.3,0.9-0.8,2-1.4,2.4
				c-0.4-0.4-1.1-1.2-1.4-1.6c-0.4-0.3-3.2-2.6-3.8-4.4c-0.4-0.5-0.9-0.9-0.9-1.2c0.6-0.5,1.4-0.8,1.9-0.8
				C232.6,191,235.6,186.6,236.4,186.5z"/>
		</g>
	</g>
	<g>
		<g>
			<rect x="339.4" y="410.6" class="st1" width="15.5" height="36.9"/>
			<path class="st12" d="M354.7,410.7v36.6h-15.2v-36.6H354.7 M355,410.4h-15.8v37.2H355V410.4L355,410.4z"/>
		</g>
		<line class="st22" x1="342" y1="415.5" x2="352.3" y2="416.2"/>
		<line class="st22" x1="342" y1="418.2" x2="352.3" y2="417.3"/>
		<line class="st22" x1="342" y1="419.2" x2="352.3" y2="419.9"/>
		<line class="st22" x1="342" y1="421.9" x2="352.3" y2="421"/>
		<line class="st22" x1="342" y1="436.1" x2="352.3" y2="436.8"/>
		<line class="st22" x1="342" y1="438.8" x2="352.3" y2="437.9"/>
		<line class="st22" x1="342" y1="439.8" x2="352.3" y2="440.5"/>
		<line class="st22" x1="342" y1="442.5" x2="352.3" y2="441.7"/>
		<line class="st23" x1="353.9" y1="410.4" x2="353.9" y2="447.4"/>
		<polyline class="st10" points="354.9,431.5 355.5,431.5 355.5,432.9 354.9,432.9 		"/>
		<line class="st10" x1="347.1" y1="410.4" x2="347.1" y2="447.4"/>
	</g>
	<g>
		<g>
			<rect x="339.4" y="431.2" class="st1" width="15.5" height="39"/>
			<path class="st12" d="M354.7,431.3V470h-15.2v-38.7H354.7 M355,431h-15.8v39.3H355V431L355,431z"/>
		</g>
		<line class="st22" x1="342" y1="436.3" x2="352.3" y2="437.1"/>
		<line class="st22" x1="342" y1="439.2" x2="352.3" y2="438.3"/>
		<line class="st22" x1="342" y1="440.3" x2="352.3" y2="441"/>
		<line class="st22" x1="342" y1="443.1" x2="352.3" y2="442.2"/>
		<line class="st22" x1="342" y1="458.1" x2="352.3" y2="458.9"/>
		<line class="st22" x1="342" y1="461" x2="352.3" y2="460.1"/>
		<line class="st22" x1="342" y1="462.1" x2="352.3" y2="462.8"/>
		<line class="st22" x1="342" y1="464.9" x2="352.3" y2="464"/>
		<line class="st23" x1="353.9" y1="431" x2="353.9" y2="470.1"/>
		<line class="st23" x1="353.9" y1="450.5" x2="354.9" y2="450.5"/>
		<polyline class="st10" points="354.9,446.3 355.5,446.3 355.5,447.7 354.9,447.7 		"/>
		<polyline class="st10" points="354.9,453.3 355.5,453.3 355.5,454.8 354.9,454.8 		"/>
		<line class="st10" x1="347.1" y1="431" x2="347.1" y2="470.1"/>
	</g>
	<g>
		<g>
			<rect x="327" y="326.1" class="st1" width="42.8" height="15.3"/>
			<path class="st12" d="M369.7,326.3v15h-42.5v-15H369.7 M370,326h-43.1v15.6H370V326L370,326z"/>
		</g>
		<line class="st22" x1="364.1" y1="328.7" x2="363.3" y2="338.9"/>
		<line class="st22" x1="361" y1="328.7" x2="362" y2="338.9"/>
		<line class="st22" x1="359.8" y1="328.7" x2="359" y2="338.9"/>
		<line class="st22" x1="356.7" y1="328.7" x2="357.7" y2="338.9"/>
		<line class="st22" x1="340.2" y1="328.7" x2="339.3" y2="338.9"/>
		<line class="st22" x1="337" y1="328.7" x2="338.1" y2="338.9"/>
		<line class="st22" x1="335.9" y1="328.7" x2="335" y2="338.9"/>
		<line class="st22" x1="332.7" y1="328.7" x2="333.7" y2="338.9"/>
		<line class="st23" x1="370" y1="340.5" x2="327.1" y2="340.5"/>
		<line class="st23" x1="348.5" y1="340.5" x2="348.5" y2="341.5"/>
		<polyline class="st10" points="353.2,341.5 353.2,342.1 351.6,342.1 351.6,341.5 		"/>
		<polyline class="st10" points="345.5,341.5 345.5,342.1 343.8,342.1 343.8,341.5 		"/>
		<line class="st10" x1="370" y1="333.8" x2="327.1" y2="333.8"/>
	</g>
	<g>
		<g>
			<rect x="327" y="187.5" class="st1" width="42.8" height="15.8"/>
			<path class="st12" d="M369.7,187.7v15.5h-42.5v-15.5H369.7 M370,187.4h-43.1v16.1H370V187.4L370,187.4z"/>
		</g>
		<line class="st22" x1="332.7" y1="200.7" x2="333.5" y2="190.2"/>
		<line class="st22" x1="335.8" y1="200.7" x2="334.8" y2="190.2"/>
		<line class="st22" x1="337" y1="200.7" x2="337.8" y2="190.2"/>
		<line class="st22" x1="340.1" y1="200.7" x2="339.1" y2="190.2"/>
		<line class="st22" x1="356.6" y1="200.7" x2="357.5" y2="190.2"/>
		<line class="st22" x1="359.8" y1="200.7" x2="358.8" y2="190.2"/>
		<line class="st22" x1="361" y1="200.7" x2="361.8" y2="190.2"/>
		<line class="st22" x1="364.1" y1="200.7" x2="363.1" y2="190.2"/>
		<line class="st23" x1="326.8" y1="188.5" x2="369.8" y2="188.5"/>
		<line class="st23" x1="348.3" y1="188.5" x2="348.3" y2="187.5"/>
		<polyline class="st10" points="343.6,187.5 343.6,186.9 345.2,186.9 345.2,187.5 		"/>
		<polyline class="st10" points="351.4,187.5 351.4,186.9 353,186.9 353,187.5 		"/>
		<line class="st10" x1="326.8" y1="195.4" x2="369.8" y2="195.4"/>
	</g>
	<g>
		<g>
			<rect x="354" y="410.6" class="st1" width="32.2" height="15.6"/>
			<path class="st12" d="M386.1,410.7V426h-31.9v-15.3H386.1 M386.4,410.4h-32.5v15.9h32.5V410.4L386.4,410.4z"/>
		</g>
		<line class="st22" x1="382" y1="413.2" x2="381.4" y2="423.5"/>
		<line class="st22" x1="379.6" y1="413.2" x2="380.4" y2="423.5"/>
		<line class="st22" x1="378.7" y1="413.2" x2="378.1" y2="423.5"/>
		<line class="st22" x1="376.4" y1="413.2" x2="377.1" y2="423.5"/>
		<line class="st22" x1="364" y1="413.2" x2="363.3" y2="423.5"/>
		<line class="st22" x1="361.6" y1="413.2" x2="362.4" y2="423.5"/>
		<line class="st22" x1="360.7" y1="413.2" x2="360.1" y2="423.5"/>
		<line class="st22" x1="358.3" y1="413.2" x2="359.1" y2="423.5"/>
		<line class="st23" x1="386.4" y1="425.2" x2="354.1" y2="425.2"/>
		<line class="st23" x1="370.2" y1="425.2" x2="370.2" y2="426.2"/>
		<polyline class="st10" points="373.8,426.2 373.8,426.8 372.5,426.8 372.5,426.2 		"/>
		<polyline class="st10" points="367.9,426.2 367.9,426.8 366.7,426.8 366.7,426.2 		"/>
		<line class="st10" x1="386.4" y1="418.4" x2="354.1" y2="418.4"/>
	</g>
	<g>
		<g>
			<rect x="372.8" y="187.6" class="st1" width="19.8" height="30.9"/>
			<path class="st12" d="M392.5,187.8v30.6H373v-30.6H392.5 M392.8,187.5h-20.1v31.2h20.1V187.5L392.8,187.5z"/>
		</g>
		<line class="st22" x1="378.4" y1="200.9" x2="379.2" y2="190.3"/>
		<line class="st22" x1="381.4" y1="200.9" x2="380.4" y2="190.3"/>
		<line class="st22" x1="382.6" y1="200.9" x2="383.4" y2="190.3"/>
		<line class="st22" x1="385.7" y1="200.9" x2="384.7" y2="190.3"/>
		<line class="st23" x1="372.6" y1="188.7" x2="392.6" y2="188.7"/>
		<polyline class="st10" points="389.1,187.6 389.1,187 390.6,187 390.6,187.6 		"/>
		<line class="st10" x1="372.6" y1="195.6" x2="392.6" y2="195.6"/>
	</g>
	<polyline class="st24" points="294.2,586.8 158.7,586.8 161.7,528 	"/>
	<polyline class="st24" points="172.3,145 165.1,19.2 278.1,25 	"/>
	<g>
		<g>
			<g class="st7">
				<path class="st8" d="M359.9,272v-4.3h10.7v4.3c0,0.8-1,1.5-2.2,1.5h-6.3C360.9,273.4,359.9,272.8,359.9,272z"/>
				<path class="st9" d="M359.9,272v-4.3h10.7v4.3c0,0.8-1,1.5-2.2,1.5h-6.3C360.9,273.4,359.9,272.8,359.9,272z"/>
			</g>
			<g>
				<path class="st1" d="M356.9,269v-4.3h10.7v4.3c0,0.8-1,1.5-2.2,1.5h-6.3C357.9,270.4,356.9,269.8,356.9,269z"/>
				<path class="st10" d="M356.9,269v-4.3h10.7v4.3c0,0.8-1,1.5-2.2,1.5h-6.3C357.9,270.4,356.9,269.8,356.9,269z"/>
			</g>
		</g>
		<path class="st11" d="M357.5,267.4L357.5,267.4c0-1.3,1.1-2.4,2.4-2.4h2.7c1.3,0,2.4,1.1,2.4,2.4l0,0c0,1.3-1.1,2.4-2.4,2.4h-2.7
			C358.5,269.8,357.5,268.7,357.5,267.4z"/>
		<circle class="st11" cx="363.4" cy="267.3" r="0.4"/>
	</g>
</g>
<g id="Ouvertures">
	<g>
		<path class="st25" d="M329.5,474.5c0,12.1-10,22-22.4,22"/>
		<line class="st10" x1="307.1" y1="474.5" x2="307.1" y2="496.5"/>
	</g>
	<g>
		<path class="st25" d="M326.8,296.8c11.5,0,20.8,9.5,20.8,21.2"/>
		<line class="st10" x1="326.8" y1="317.9" x2="347.5" y2="317.9"/>
	</g>
	<g>
		<path class="st25" d="M326.8,232.5c11.5,0,20.8-9.5,20.8-21.2"/>
		<line class="st10" x1="326.8" y1="211.3" x2="347.5" y2="211.3"/>
	</g>
	<g>
		<path class="st25" d="M395.7,180.9c11.5,0,20.8-9.5,20.8-21.2"/>
		<line class="st10" x1="395.7" y1="159.8" x2="416.5" y2="159.8"/>
	</g>
	<g>
		<path class="st25" d="M387.9,152.6c0-11.5-9.5-20.8-21.2-20.8"/>
		<line class="st10" x1="366.7" y1="152.6" x2="366.7" y2="131.8"/>
	</g>
	<g>
		<path class="st25" d="M334.9,152.6c0-11.5,9.5-20.8,21.2-20.8"/>
		<line class="st10" x1="356" y1="152.6" x2="356" y2="131.8"/>
	</g>
	<g>
		<path class="st25" d="M300.1,459.8c-12.1,0-22-10-22-22.4"/>
		<line class="st10" x1="300.1" y1="437.4" x2="278.1" y2="437.4"/>
	</g>
	<g>
		<path class="st25" d="M368.7,366.6c-14.1,0-25.5,11.6-25.5,26"/>
		<line class="st10" x1="368.7" y1="392.7" x2="343.2" y2="392.7"/>
	</g>
	<g>
		<polygon class="st12" points="384.4,580.3 384.4,578.1 387.3,578.1 387.4,580.3 		"/>
		<polygon class="st12" points="328.3,580.5 328.3,578.3 329.9,578.2 329.9,580.5 		"/>
		<g>
			<polygon class="st1" points="330,578.4 384.6,578.3 384.6,580.2 330,580.3 			"/>
			<path class="st12" d="M384.5,578.4l0,1.6l-54.3,0.1l0-1.6L384.5,578.4 M384.8,578.1l-54.9,0.1l0,2.2l54.9-0.1L384.8,578.1
				L384.8,578.1z"/>
		</g>
		<polyline class="st25" points="348.6,578.2 349.8,568.7 384.3,578.1 		"/>
		<polygon class="st12" points="348.2,580.4 348.2,578.2 350.7,578.2 350.7,580.4 		"/>
		<g>
			<path class="st25" d="M349.1,578.2c-0.1-10.5-8.6-19-19-19"/>
			<line class="st10" x1="330.2" y1="578.2" x2="330.1" y2="559.2"/>
		</g>
	</g>
	<g>
		<polygon class="st12" points="290.2,91.1 292.4,91.1 292.5,94 290.2,94 		"/>
		<polygon class="st12" points="290.1,35 292.3,34.9 292.3,36.6 290.1,36.6 		"/>
		<g>
			<polygon class="st1" points="290.3,36.7 292.2,36.7 292.3,91.3 290.4,91.3 			"/>
			<path class="st12" d="M292,36.9l0.1,54.3l-1.6,0l-0.1-54.3L292,36.9 M292.3,36.6l-2.2,0l0.1,54.9l2.2,0L292.3,36.6L292.3,36.6z"
				/>
		</g>
		<polyline class="st25" points="290.9,64.2 300.4,65.5 292.5,91 		"/>
		<polygon class="st12" points="290.2,62.3 292.4,62.3 292.4,64.8 290.2,64.8 		"/>
		<g>
			<path class="st25" d="M292.4,63.6c13.5-0.1,24.3-13.4,24.3-26.8"/>
			<line class="st10" x1="292.3" y1="36.9" x2="316.7" y2="36.8"/>
		</g>
	</g>
	<g>
		<polygon class="st12" points="374.6,36 374.5,38.2 371.5,38.1 371.6,35.9 		"/>
		<polygon class="st12" points="430.6,38.8 430.5,41 428.9,41 429,38.8 		"/>
		<g>
			<polygon class="st1" points="374.3,38.1 374.3,36.2 428.9,38.9 428.8,40.8 			"/>
			<path class="st12" d="M374.5,36.3l54.2,2.7l-0.1,1.6l-54.2-2.7L374.5,36.3 M374.2,36l-0.1,2.2l54.8,2.7l0.1-2.2L374.2,36
				L374.2,36z"/>
		</g>
		<polyline class="st25" points="410.3,40 408.5,49.5 374.6,38.3 		"/>
		<polygon class="st12" points="410.8,37.8 410.7,40 408.1,39.9 408.2,37.7 		"/>
		<g>
			<path class="st25" d="M409.7,40c-0.5,10.5,7.6,19.5,18,20"/>
			<line class="st10" x1="428.6" y1="40.9" x2="427.7" y2="60"/>
		</g>
	</g>
	<g>
		<polygon class="st12" points="174.8,392 177,392.1 176.9,395.1 174.7,395 		"/>
		<polygon class="st12" points="177.6,336 179.8,336.1 179.8,337.7 177.6,337.6 		"/>
		<g>
			<polygon class="st1" points="175,392.3 177.7,337.8 179.6,337.9 176.9,392.4 			"/>
			<path class="st12" d="M177.8,337.9l1.6,0.1l-2.7,54.2l-1.6-0.1L177.8,337.9 M177.6,337.6l-2.7,54.8l2.2,0.1l2.7-54.8L177.6,337.6
				L177.6,337.6z"/>
		</g>
		<polyline class="st25" points="178.8,356.4 188.3,358.1 177.1,392 		"/>
		<polygon class="st12" points="176.6,355.9 178.8,356 178.7,358.5 176.5,358.4 		"/>
		<g>
			<path class="st25" d="M178.8,356.9c10.5,0.5,19.5-7.6,20-18"/>
			<line class="st10" x1="179.7" y1="338" x2="198.8" y2="338.9"/>
		</g>
	</g>
	<g>
		<polygon class="st12" points="171.9,450.7 174.1,450.9 174.3,447.9 172.1,447.8 		"/>
		<polygon class="st12" points="168.9,506.8 171.1,506.9 171.2,505.3 168.9,505.1 		"/>
		<g>
			<polygon class="st1" points="169.1,505 172.1,450.5 174,450.6 171,505.1 			"/>
			<path class="st12" d="M172.2,450.7l1.6,0.1l-3,54.2l-1.6-0.1L172.2,450.7 M172,450.4l-3,54.8l2.2,0.1l3-54.8L172,450.4L172,450.4
				z"/>
		</g>
		<polyline class="st25" points="172.2,486.6 181.8,485.9 174.1,451 		"/>
		<polygon class="st12" points="169.9,486.9 172.2,487 172.3,484.5 170.1,484.4 		"/>
		<g>
			<path class="st25" d="M172.2,486.1c10.5,0.6,18.6,9.5,18,20"/>
			<line class="st10" x1="171.2" y1="505" x2="190.2" y2="506.1"/>
		</g>
	</g>
	<g>
		<g>
			<rect x="184.1" y="153.1" class="st1" width="86.7" height="5.9"/>
			<path class="st12" d="M270.6,153.3v5.6h-86.4v-5.6H270.6 M270.9,153h-87v6.2h87V153L270.9,153z"/>
		</g>
		<g>
			<rect x="184.1" y="153.1" class="st1" width="43.2" height="2.8"/>
			<path class="st12" d="M227.1,153.3v2.5h-42.9v-2.5H227.1 M227.4,153h-43.5v3.1h43.5V153L227.4,153z"/>
		</g>
		<g>
			<rect x="228" y="156.5" class="st1" width="42.8" height="2.6"/>
			<path class="st12" d="M270.6,156.6v2.3h-42.5v-2.3H270.6 M270.9,156.3h-43.1v2.9h43.1V156.3L270.9,156.3z"/>
		</g>
		<g>
			<g>
				<line class="st26" x1="211.7" y1="162.1" x2="201.3" y2="162.1"/>
				<g>
					<polygon class="st12" points="202.3,160.9 202.5,161.1 201.5,162.1 202.5,163.1 202.3,163.3 201,162.1 					"/>
				</g>
			</g>
		</g>
		<rect x="226.4" y="156.3" class="st12" width="2.7" height="2.9"/>
		<rect x="268" y="156.3" class="st12" width="2.7" height="2.9"/>
		<rect x="226.4" y="153" class="st12" width="2.7" height="3.1"/>
		<rect x="183.9" y="153" class="st12" width="2.5" height="3.1"/>
		<line class="st27" x1="226.7" y1="154.6" x2="184.1" y2="154.6"/>
		<line class="st27" x1="269.9" y1="157.8" x2="227.4" y2="157.8"/>
	</g>
	<g>
		<g>
			<rect x="172.8" y="514.1" class="st1" width="123.1" height="5.9"/>
			<path class="st12" d="M295.7,514.3v5.6H173v-5.6H295.7 M296,514H172.7v6.2H296V514L296,514z"/>
		</g>
		<g>
			<rect x="234.5" y="517.3" class="st1" width="61.4" height="2.8"/>
			<path class="st12" d="M295.7,517.4v2.5h-61.1v-2.5H295.7 M296,517.1h-61.7v3.1H296V517.1L296,517.1z"/>
		</g>
		<g>
			<rect x="172.8" y="514.1" class="st1" width="60.8" height="2.6"/>
			<path class="st12" d="M233.5,514.3v2.3H173v-2.3H233.5 M233.8,514h-61.1v2.9h61.1V514L233.8,514z"/>
		</g>
		<g>
			<g>
				<line class="st26" x1="256.6" y1="511.1" x2="271.5" y2="511.1"/>
				<g>
					<polygon class="st12" points="270.5,512.3 270.3,512.1 271.4,511.1 270.3,510.1 270.5,509.9 271.8,511.1 					"/>
				</g>
			</g>
		</g>
		<rect x="231.8" y="514" class="st12" width="3.9" height="2.9"/>
		<rect x="172.9" y="514" class="st12" width="3.9" height="2.9"/>
		<rect x="231.8" y="517.1" class="st12" width="3.9" height="3.1"/>
		
			<rect x="292.4" y="517.1" transform="matrix(-1 -1.344544e-10 1.344544e-10 -1 588.4712 1037.3262)" class="st12" width="3.6" height="3.1"/>
		<line class="st27" x1="235.4" y1="518.6" x2="295.7" y2="518.6"/>
		<line class="st27" x1="174.1" y1="515.4" x2="234.4" y2="515.4"/>
	</g>
	<g>
		<g>
			<g>
				<line class="st26" x1="393.4" y1="437.7" x2="393.4" y2="449.3"/>
				<g>
					<polygon class="st12" points="392.2,448.3 392.4,448.1 393.4,449.2 394.4,448.1 394.7,448.3 393.4,449.6 					"/>
				</g>
			</g>
		</g>
	</g>
</g>
<g id="Étiquettes" class="st28">
	<text transform="matrix(1 0 0 1 253.8206 571.0083)" class="st29 st30 st31">Terrasse </text>
	<text transform="matrix(1 0 0 1 257.9397 579.4082)" class="st29 st32 st31">13.30 m</text>
	<text transform="matrix(0.583 0 0 0.583 282.9641 577.0771)" class="st29 st32 st31">2</text>
	<text transform="matrix(1 0 0 1 232.4906 136.1753)" class="st29 st30 st31">Terrasse </text>
	<text transform="matrix(1 0 0 1 236.6097 144.5752)" class="st29 st32 st31">21.70 m</text>
	<text transform="matrix(0.583 0 0 0.583 261.6342 142.2441)" class="st29 st32 st31">2</text>
	<text transform="matrix(1 0 0 1 233.6594 399.7573)" class="st29 st30 st31">espace Jour </text>
	<text transform="matrix(1 0 0 1 243.8264 408.1572)" class="st29 st32 st31">41.80 m</text>
	<text transform="matrix(0.583 0 0 0.583 268.8508 405.8262)" class="st29 st32 st31">2</text>
	<text transform="matrix(1 0 0 1 303.405 366.7446)" class="st29 st30 st31">Dégagement </text>
	<text transform="matrix(1 0 0 1 314.7761 375.1445)" class="st29 st32 st31">24.20 m</text>
	<text transform="matrix(0.583 0 0 0.583 339.8005 372.8135)" class="st29 st32 st31">2</text>
	<text transform="matrix(1 0 0 1 253.5636 499.0708)" class="st29 st30 st31">Chambre 2 </text>
	<text transform="matrix(1 0 0 1 260.8263 507.4707)" class="st29 st32 st31">14.40 m</text>
	<text transform="matrix(0.583 0 0 0.583 285.8507 505.1396)" class="st29 st32 st31">2</text>
	<text transform="matrix(1 0 0 1 307.0446 138.0601)" class="st29 st30 st31">Chambre 3 </text>
	<text transform="matrix(1 0 0 1 314.3073 146.46)" class="st29 st32 st31">11.30 m</text>
	<text transform="matrix(0.583 0 0 0.583 339.3317 144.1289)" class="st29 st32 st31">2</text>
	<text transform="matrix(1 0 0 1 401.2933 171.0522)" class="st29 st30 st31">Salle </text>
	<text transform="matrix(1 0 0 1 395.2767 179.4521)" class="st29 st30 st31">de Bains </text>
	<text transform="matrix(1 0 0 1 400.1342 187.8521)" class="st29 st32 st31">4.20 m</text>
	<text transform="matrix(0.583 0 0 0.583 421.099 185.521)" class="st29 st32 st31">2</text>
	<text transform="matrix(1 0 0 1 406.4618 136.7271)" class="st29 st30 st31">Chambre 4 </text>
	<text transform="matrix(1 0 0 1 413.7245 145.127)" class="st29 st32 st31">14.00 m</text>
	<text transform="matrix(0.583 0 0 0.583 438.7489 142.7959)" class="st29 st32 st31">2</text>
	<text transform="matrix(1 0 0 1 386.0084 556.1929)" class="st29 st30 st31">Chambre 1 </text>
	<text transform="matrix(1 0 0 1 385.8619 564.5928)" class="st29 st30 st31">&amp; dressing </text>
	<text transform="matrix(1 0 0 1 393.4332 572.9927)" class="st29 st32 st31">23.60 m</text>
	<text transform="matrix(0.583 0 0 0.583 418.1324 570.6616)" class="st29 st32 st31">2</text>
	<text transform="matrix(1 0 0 1 401.2365 445.5698)" class="st29 st30 st31">WC/ </text>
	<text transform="matrix(1 0 0 1 393.5089 453.9697)" class="st29 st30 st31">Douche </text>
	<text transform="matrix(1 0 0 1 397.2286 462.3696)" class="st29 st32 st31">4.20 m</text>
	<text transform="matrix(0.583 0 0 0.583 418.1935 460.0386)" class="st29 st32 st31">2</text>
	<text transform="matrix(1 0 0 1 326.6008 303.4819)" class="st29 st30 st31">Buanderie </text>
	<text transform="matrix(1 0 0 1 335.8362 311.8818)" class="st29 st32 st31">3.50 m</text>
	<text transform="matrix(0.583 0 0 0.583 356.801 309.5508)" class="st29 st32 st31">2</text>
	<text transform="matrix(1 0 0 1 345.1207 221.6587)" class="st29 st30 st31">WC </text>
	<text transform="matrix(1 0 0 1 339.608 230.0586)" class="st29 st32 st31">2.80 m</text>
	<text transform="matrix(0.583 0 0 0.583 360.5729 227.7275)" class="st29 st32 st31">2</text>
</g>
<g id="Murs">
	<line class="st24" x1="390.7" y1="454" x2="390.7" y2="433.9"/>
	
		<rect x="264.4" y="545.5" transform="matrix(-1.347262e-10 1 -1 -1.347262e-10 853.7917 249.4583)" class="st12" width="75.5" height="12.2"/>
	
		<rect x="308.9" y="570" transform="matrix(-1.346889e-10 1 -1 -1.346889e-10 898.2954 269.3264)" class="st12" width="11.1" height="27.6"/>
	<polygon class="st12" points="448.5,580.6 448.5,591.8 400.2,589.3 400.8,578.1 	"/>
	<polygon class="st12" points="441.5,580.4 441.5,400.4 448.5,400.4 448.5,581.2 	"/>
	
		<rect x="385.9" y="470.4" transform="matrix(-1 -1.346871e-10 1.346871e-10 -1 829.89 943.8542)" class="st12" width="58.1" height="3"/>
	
		<rect x="329.5" y="470.3" transform="matrix(-1 -1.347101e-10 1.347101e-10 -1 684.4557 943.6396)" class="st12" width="25.5" height="3"/>
	
		<rect x="302.2" y="470.3" transform="matrix(-1 -1.348283e-10 1.348283e-10 -1 610.4583 943.6396)" class="st12" width="6.1" height="3"/>
	
		<rect x="170.9" y="430.9" transform="matrix(-1 -1.346857e-10 1.346857e-10 -1 475.1938 864.7702)" class="st12" width="133.3" height="3"/>
	
		<rect x="336.3" y="396.9" transform="matrix(-1 -1.346822e-10 1.346822e-10 -1 784.7531 807.3112)" class="st12" width="112.2" height="13.5"/>
	
		<rect x="365.7" y="420.7" transform="matrix(-1.346844e-10 1 -1 -1.346844e-10 809.6237 34.8066)" class="st12" width="43.5" height="3"/>
	
		<rect x="301.6" y="435.1" transform="matrix(-1.621789e-10 1 -1 -1.621789e-10 774.3644 98.8582)" class="st12" width="72.3" height="3"/>
	
		<rect x="272.2" y="488.2" transform="matrix(-1.347209e-10 1 -1 -1.347209e-10 792.4295 186.9233)" class="st12" width="61.1" height="3"/>
	
		<rect x="299.4" y="432.8" transform="matrix(-1.348505e-10 1 -1 -1.348505e-10 737.0104 131.5042)" class="st12" width="6.7" height="3"/>
	
		<rect x="285" y="413.1" transform="matrix(-1.346569e-10 1 -1 -1.346569e-10 717.3882 111.882)" class="st12" width="35.5" height="3"/>
	
		<rect x="313.6" y="328.3" transform="matrix(-1.346676e-10 1 -1 -1.346676e-10 655.3015 4.2952)" class="st12" width="23.7" height="3"/>
	
		<rect x="298.7" y="289.6" transform="matrix(-1.346942e-10 1 -1 -1.346942e-10 665.3271 -80.1242)" class="st12" width="148.1" height="5.9"/>
	
		<rect x="413" y="179.1" transform="matrix(-1.343212e-10 1 -1 -1.343212e-10 637.4611 -194.4449)" class="st12" width="5.9" height="84.8"/>
	
		<rect x="361.7" y="127.8" transform="matrix(-1.346933e-10 1 -1 -1.346933e-10 586.2014 -323.4562)" class="st12" width="186.2" height="7.1"/>
	
		<rect x="413.2" y="183.2" transform="matrix(-1.346836e-10 1 -1 -1.346836e-10 637.6572 -260.5866)" class="st12" width="71.8" height="10.7"/>
	
		<rect x="347.6" y="300.9" transform="matrix(-1.343256e-10 1 -1 -1.343256e-10 673.6395 -24.8895)" class="st12" width="3.2" height="46.9"/>
	
		<rect x="367.2" y="395.2" transform="matrix(-1.348363e-10 1 -1 -1.348363e-10 770.8772 25.4259)" class="st12" width="11" height="5.9"/>
	
		<rect x="293.4" y="263.1" transform="matrix(-1.347066e-10 1 -1 -1.347066e-10 590.1332 -60.873)" class="st12" width="64.2" height="3"/>
	
		<rect x="415.1" y="125.8" transform="matrix(-1.349394e-10 1 -1 -1.349394e-10 570.4302 -262.4865)" class="st12" width="2.7" height="56.4"/>
	
		<rect x="360.1" y="148.6" transform="matrix(-1.349394e-10 1 -1 -1.349394e-10 515.4565 -207.5129)" class="st12" width="2.7" height="10.7"/>
	
		<rect x="310.8" y="131.2" transform="matrix(-1.349394e-10 1 -1 -1.349394e-10 466.0956 -158.1519)" class="st12" width="2.7" height="45.5"/>
	
		<rect x="374.3" y="199.6" transform="matrix(-1.346569e-10 1 -1 -1.346569e-10 595.2292 -193.0417)" class="st12" width="39.7" height="2.9"/>
	
		<rect x="301.7" y="92.7" transform="matrix(-1.347155e-10 1 -1 -1.347155e-10 455.6935 -267.3274)" class="st12" width="119.6" height="2.9"/>
	
		<rect x="354.5" y="202.7" transform="matrix(-1.346232e-10 1 -1 -1.346232e-10 575.4533 -167.0605)" class="st12" width="33.5" height="2.9"/>
	
		<rect x="313.8" y="197.8" transform="matrix(-1.346738e-10 1 -1 -1.346738e-10 524.9326 -126.3313)" class="st12" width="23.7" height="2.9"/>
	<rect x="325.2" y="203.3" class="st12" width="46.6" height="2.9"/>
	
		<rect x="390.7" y="155.1" transform="matrix(-1.345734e-10 1 -1 -1.345734e-10 550.7156 -237.5552)" class="st12" width="6.8" height="2.9"/>
	
		<rect x="343" y="236.9" transform="matrix(-1.349793e-10 1 -1 -1.349793e-10 607.6692 -89.3516)" class="st12" width="10.9" height="44.6"/>
	
		<rect x="253.7" y="120.4" transform="matrix(-1.346658e-10 1 -1 -1.346658e-10 412.6667 -159.8333)" class="st12" width="65.2" height="12"/>
	<polygon class="st12" points="280.2,21.7 280.2,35.7 292.5,35.7 292.5,22.5 	"/>
	<polygon class="st12" points="282.2,33.1 372.4,38 372.9,26.7 280.4,21.9 	"/>
	<polygon class="st12" points="430.2,40.9 458.4,42.4 458.4,31.2 430.9,29.8 	"/>
	
		<rect x="274" y="144.1" transform="matrix(-1.346924e-10 1 -1 -1.346924e-10 433.0487 -126.2847)" class="st12" width="11.2" height="18.5"/>
	
		<rect x="173.7" y="148.8" transform="matrix(-1.346924e-10 1 -1 -1.346924e-10 332.6737 -25.9097)" class="st12" width="11.2" height="9.2"/>
	<polygon class="st12" points="170.1,148 174.4,230.3 185.6,229.8 181.3,147.8 	"/>
	
		<rect x="123.7" y="277.1" transform="matrix(-5.233596e-02 0.9986 -0.9986 -5.233596e-02 468.7504 120.4261)" class="st12" width="107" height="11"/>
	
		<rect x="142.9" y="415.8" transform="matrix(-5.233596e-02 0.9986 -0.9986 -5.233596e-02 599.5782 273.6058)" class="st12" width="54.1" height="11"/>
	
		<rect x="156.8" y="509" transform="matrix(-5.233596e-02 0.9986 -0.9986 -5.233596e-02 687.5589 376.6179)" class="st12" width="16.6" height="11"/>
	<polygon class="st12" points="159.6,514 158.7,525.9 172.9,525.9 172.9,514 	"/>
	
		<rect x="388" y="576.5" transform="matrix(-1.347013e-10 1 -1 -1.347013e-10 977.3249 190.1064)" class="st12" width="11.2" height="14.4"/>
	<polygon class="st22" points="448.5,396.9 448.5,591.8 400.8,589.3 156.1,589.3 158.7,525.9 160,506 174.4,230.3 162.2,16 
		280.4,21.9 458.4,31.2 458.4,224.5 375.7,224.5 375.7,396.9 	"/>
	
		<rect x="167" y="422.1" transform="matrix(-1.346436e-10 1 -1 -1.346436e-10 597.9015 247.9003)" class="st12" width="16" height="1.7"/>
</g>
<g id="Entree">
	<polygon class="st33" points="374.2,386.1 369.5,380.6 374.2,375.1 	"/>
</g>
<g id="Nord">
	<circle class="st34" cx="126.7" cy="569" r="11.9"/>
	<line class="st35" x1="134.3" y1="566.5" x2="141.7" y2="564.2"/>
	<text transform="matrix(1 0 0 1 120.4576 574.7809)" class="st12 st30 st36">N</text>
</g>
</svg>
